[
    [
        "Chapter Sound",
        false,
        false
    ],
    [
        "Distant Roads",
        false,
        false
    ],
    [
        "Quiet Burn",
        false,
        true
    ],
    [
        "Shadow of the Enemy",
        false,
        false
    ],
    [
        "Main Theme",
        false,
        false
    ],
    [
        "Grasp at Victory",
        false,
        false
    ],
    [
        "Attack",
        false,
        false
    ],
    [
        "Defense",
        false,
        false
    ],
    [
        "The Battle Must Be Won",
        false,
        false
    ],
    [
        "Healing",
        false,
        false
    ],
    [
        "Combat Preparation",
        false,
        false
    ],
    [
        "Shops",
        false,
        false
    ],
    [
        "Armory",
        false,
        false
    ],
    [
        "Game Over",
        false,
        false
    ],
    [
        "In Sorrows Shroud",
        false,
        false
    ],
    [
        "To A Higher Place",
        false,
        false
    ],
    [
        "FB_Prep",
        true,
        false
    ],
    [
        "FB_Prep_Intro",
        false,
        false
    ],
    [
        "FB_Fight_Intro",
        false,
        false
    ],
    [
        "FB_Fight",
        true,
        false
    ],
    [
        "Higan_Canyon",
        true,
        false
    ],
    [
        "Astrum_Helix_Research_Facility",
        true,
        false
    ],
    [
        "Phantasmagoria",
        true,
        false
    ],
    [
        "Heavens_Egg",
        true,
        false
    ],
    [
        "Soldier",
        true,
        false
    ],
    [
        "Allies_of_Fate",
        true,
        false
    ],
    [
        "Dark_Princess",
        true,
        false
    ],
    [
        "FateExtra_Battle1",
        true,
        false
    ],
    [
        "FateExtra_Battle3",
        true,
        false
    ],
    [
        "Cityscape_Where_the_Light_Shines",
        false,
        false
    ],
    [
        "Lounge_with_Talks_of_Tomorrow",
        true,
        false
    ],
    [
        "No_Sound",
        false,
        false
    ],
    [
        "Lost_In_The_Fog",
        true,
        false
    ]
]