[
    {
        "nid": "None",
        "name": "None",
        "desc": "This unit has no particular affinity.",
        "bonus": [],
        "icon_nid": "Null_Affinity",
        "icon_index": [
            0,
            0
        ]
    },
    {
        "nid": "Fire",
        "name": "Fire",
        "desc": "This unit's inner flame burns bright.",
        "bonus": [
            {
                "support_rank": "C",
                "damage": 0.5,
                "resist": 0,
                "accuracy": 2.5,
                "avoid": 2.5,
                "crit": 2.5,
                "dodge": 0,
                "attack_speed": 0,
                "defense_speed": 0
            },
            {
                "support_rank": "B",
                "damage": 1.0,
                "resist": 0.0,
                "accuracy": 5.0,
                "avoid": 5.0,
                "crit": 5.0,
                "dodge": 0.0,
                "attack_speed": 0.0,
                "defense_speed": 0.0
            },
            {
                "support_rank": "A",
                "damage": 1.5,
                "resist": 0.0,
                "accuracy": 7.5,
                "avoid": 7.5,
                "crit": 7.5,
                "dodge": 0.0,
                "attack_speed": 0.0,
                "defense_speed": 0.0
            }
        ],
        "icon_nid": "Affinity",
        "icon_index": [
            0,
            4
        ]
    },
    {
        "nid": "Thunder",
        "name": "Thunder",
        "desc": "This unit embodies the force of thunder.",
        "bonus": [
            {
                "support_rank": "C",
                "damage": 0.0,
                "resist": 0.5,
                "accuracy": 0.0,
                "avoid": 2.5,
                "crit": 2.5,
                "dodge": 2.5,
                "attack_speed": 0,
                "defense_speed": 0
            },
            {
                "support_rank": "B",
                "damage": 0.0,
                "resist": 1.0,
                "accuracy": 0.0,
                "avoid": 5.0,
                "crit": 5.0,
                "dodge": 5.0,
                "attack_speed": 0.0,
                "defense_speed": 0.0
            },
            {
                "support_rank": "A",
                "damage": 0.0,
                "resist": 1.5,
                "accuracy": 0.0,
                "avoid": 7.5,
                "crit": 7.5,
                "dodge": 7.5,
                "attack_speed": 0.0,
                "defense_speed": 0.0
            }
        ],
        "icon_nid": "Affinity",
        "icon_index": [
            0,
            0
        ]
    },
    {
        "nid": "Wind",
        "name": "Wind",
        "desc": "This unit moves as the wind.",
        "bonus": [
            {
                "support_rank": "C",
                "damage": 0.5,
                "resist": 0,
                "accuracy": 2.5,
                "avoid": 0.0,
                "crit": 2.5,
                "dodge": 2.5,
                "attack_speed": 0,
                "defense_speed": 0
            },
            {
                "support_rank": "B",
                "damage": 1.0,
                "resist": 0.0,
                "accuracy": 5.0,
                "avoid": 0.0,
                "crit": 5.0,
                "dodge": 5.0,
                "attack_speed": 0.0,
                "defense_speed": 0.0
            },
            {
                "support_rank": "A",
                "damage": 1.5,
                "resist": 0.0,
                "accuracy": 7.5,
                "avoid": 0.0,
                "crit": 7.5,
                "dodge": 7.5,
                "attack_speed": 0.0,
                "defense_speed": 0.0
            }
        ],
        "icon_nid": "Affinity",
        "icon_index": [
            0,
            7
        ]
    },
    {
        "nid": "Ice",
        "name": "Ice",
        "desc": "This unit has an icy disposition.",
        "bonus": [
            {
                "support_rank": "C",
                "damage": 0.0,
                "resist": 0.5,
                "accuracy": 2.5,
                "avoid": 2.5,
                "crit": 0.0,
                "dodge": 2.5,
                "attack_speed": 0.0,
                "defense_speed": 0.0
            },
            {
                "support_rank": "B",
                "damage": 0.0,
                "resist": 1.0,
                "accuracy": 5.0,
                "avoid": 5.0,
                "crit": 0.0,
                "dodge": 5.0,
                "attack_speed": 0.0,
                "defense_speed": 0.0
            },
            {
                "support_rank": "A",
                "damage": 0.0,
                "resist": 1.5,
                "accuracy": 7.5,
                "avoid": 7.5,
                "crit": 0.0,
                "dodge": 7.5,
                "attack_speed": 0.0,
                "defense_speed": 0.0
            }
        ],
        "icon_nid": "Affinity",
        "icon_index": [
            0,
            5
        ]
    },
    {
        "nid": "Dark",
        "name": "Dark",
        "desc": "This unit fades with the darkness.",
        "bonus": [
            {
                "support_rank": "C",
                "damage": 0.0,
                "resist": 0.0,
                "accuracy": 2.5,
                "avoid": 2.5,
                "crit": 2.5,
                "dodge": 2.5,
                "attack_speed": 0.0,
                "defense_speed": 0.0
            },
            {
                "support_rank": "B",
                "damage": 0.0,
                "resist": 0.0,
                "accuracy": 5.0,
                "avoid": 5.0,
                "crit": 5.0,
                "dodge": 5.0,
                "attack_speed": 0.0,
                "defense_speed": 0.0
            },
            {
                "support_rank": "A",
                "damage": 0.0,
                "resist": 0.0,
                "accuracy": 7.5,
                "avoid": 7.5,
                "crit": 7.5,
                "dodge": 7.5,
                "attack_speed": 0.0,
                "defense_speed": 0.0
            }
        ],
        "icon_nid": "Affinity",
        "icon_index": [
            0,
            1
        ]
    },
    {
        "nid": "Light",
        "name": "Light",
        "desc": "This unit shines brilliantly.",
        "bonus": [
            {
                "support_rank": "C",
                "damage": 0.5,
                "resist": 0.5,
                "accuracy": 2.5,
                "avoid": 0.0,
                "crit": 2.5,
                "dodge": 0.0,
                "attack_speed": 0.0,
                "defense_speed": 0.0
            },
            {
                "support_rank": "B",
                "damage": 1.0,
                "resist": 1.0,
                "accuracy": 5.0,
                "avoid": 0.0,
                "crit": 5.0,
                "dodge": 0.0,
                "attack_speed": 0.0,
                "defense_speed": 0.0
            },
            {
                "support_rank": "A",
                "damage": 1.5,
                "resist": 1.5,
                "accuracy": 7.5,
                "avoid": 0.0,
                "crit": 7.5,
                "dodge": 0.0,
                "attack_speed": 0.0,
                "defense_speed": 0.0
            }
        ],
        "icon_nid": "Affinity",
        "icon_index": [
            0,
            6
        ]
    },
    {
        "nid": "Anima",
        "name": "Anima",
        "desc": "This unit is resourceful and adaptable.",
        "bonus": [
            {
                "support_rank": "C",
                "damage": 0.5,
                "resist": 0.5,
                "accuracy": 0.0,
                "avoid": 2.5,
                "crit": 0.0,
                "dodge": 2.5,
                "attack_speed": 0.0,
                "defense_speed": 0.0
            },
            {
                "support_rank": "B",
                "damage": 1.0,
                "resist": 1.0,
                "accuracy": 0.0,
                "avoid": 5.0,
                "crit": 0.0,
                "dodge": 5.0,
                "attack_speed": 0.0,
                "defense_speed": 0.0
            },
            {
                "support_rank": "A",
                "damage": 1.5,
                "resist": 1.5,
                "accuracy": 0.0,
                "avoid": 7.5,
                "crit": 0.0,
                "dodge": 7.5,
                "attack_speed": 0.0,
                "defense_speed": 0.0
            }
        ],
        "icon_nid": "Affinity",
        "icon_index": [
            0,
            8
        ]
    },
    {
        "nid": "Earth",
        "name": "Earth",
        "desc": "This unit is as the unmoving earth.",
        "bonus": [],
        "icon_nid": "Affinity",
        "icon_index": [
            0,
            3
        ]
    },
    {
        "nid": "Water",
        "name": "Water",
        "desc": "This unit ebbs and flows as the tides.",
        "bonus": [],
        "icon_nid": "Affinity",
        "icon_index": [
            0,
            2
        ]
    }
]