[
    {
        "nid": "None",
        "behaviours": [
            {
                "action": "None",
                "target": "None",
                "target_spec": [
                    "Team",
                    "other"
                ],
                "view_range": -5,
                "invert_targeting": true,
                "roam_speed": 100,
                "desired_proximity": 0,
                "condition": ""
            },
            {
                "action": "None",
                "target": "None",
                "target_spec": null,
                "view_range": -5,
                "invert_targeting": false,
                "roam_speed": 100,
                "desired_proximity": 0,
                "condition": ""
            },
            {
                "action": "None",
                "target": "None",
                "target_spec": null,
                "view_range": -5,
                "invert_targeting": false,
                "roam_speed": 100,
                "desired_proximity": 0,
                "condition": ""
            }
        ],
        "priority": 20,
        "offense_bias": 2.0,
        "roam_ai": false
    },
    {
        "nid": "Attack",
        "behaviours": [
            {
                "action": "Attack",
                "target": "Enemy",
                "target_spec": null,
                "view_range": -3,
                "invert_targeting": false,
                "roam_speed": 100,
                "desired_proximity": 0,
                "condition": ""
            },
            {
                "action": "None",
                "target": "None",
                "target_spec": null,
                "view_range": 0,
                "invert_targeting": false,
                "roam_speed": 100,
                "desired_proximity": 0,
                "condition": ""
            },
            {
                "action": "None",
                "target": "None",
                "target_spec": null,
                "view_range": 0,
                "invert_targeting": false,
                "roam_speed": 100,
                "desired_proximity": 0,
                "condition": ""
            }
        ],
        "priority": 20,
        "offense_bias": 2.0,
        "roam_ai": false
    },
    {
        "nid": "Pursue",
        "behaviours": [
            {
                "action": "Attack",
                "target": "Enemy",
                "target_spec": null,
                "view_range": -4,
                "invert_targeting": false,
                "roam_speed": 100,
                "desired_proximity": 0,
                "condition": ""
            },
            {
                "action": "None",
                "target": "None",
                "target_spec": null,
                "view_range": 0,
                "invert_targeting": false,
                "roam_speed": 100,
                "desired_proximity": 0,
                "condition": ""
            },
            {
                "action": "None",
                "target": "None",
                "target_spec": null,
                "view_range": 0,
                "invert_targeting": false,
                "roam_speed": 100,
                "desired_proximity": 0,
                "condition": ""
            }
        ],
        "priority": 20,
        "offense_bias": 2.0,
        "roam_ai": false
    },
    {
        "nid": "Pursue_Ulrika",
        "behaviours": [
            {
                "action": "Attack",
                "target": "Enemy",
                "target_spec": [
                    "Team",
                    "enemy"
                ],
                "view_range": -2,
                "invert_targeting": false,
                "roam_speed": 100,
                "desired_proximity": 0,
                "condition": ""
            },
            {
                "action": "Attack",
                "target": "Enemy",
                "target_spec": null,
                "view_range": -4,
                "invert_targeting": false,
                "roam_speed": 100,
                "desired_proximity": 0,
                "condition": ""
            },
            {
                "action": "None",
                "target": "None",
                "target_spec": null,
                "view_range": 0,
                "invert_targeting": false,
                "roam_speed": 100,
                "desired_proximity": 0,
                "condition": ""
            }
        ],
        "priority": 20,
        "offense_bias": 2.0,
        "roam_ai": false
    },
    {
        "nid": "Defend",
        "behaviours": [
            {
                "action": "Attack",
                "target": "Enemy",
                "target_spec": null,
                "view_range": -2,
                "invert_targeting": false,
                "roam_speed": 100,
                "desired_proximity": 0,
                "condition": ""
            },
            {
                "action": "Move_to",
                "target": "Position",
                "target_spec": "Starting",
                "view_range": -4,
                "invert_targeting": false,
                "roam_speed": 100,
                "desired_proximity": 0,
                "condition": ""
            },
            {
                "action": "None",
                "target": "None",
                "target_spec": null,
                "view_range": 0,
                "invert_targeting": false,
                "roam_speed": 100,
                "desired_proximity": 0,
                "condition": ""
            }
        ],
        "priority": 20,
        "offense_bias": 2.0,
        "roam_ai": false
    },
    {
        "nid": "Guard",
        "behaviours": [
            {
                "action": "Attack",
                "target": "Enemy",
                "target_spec": null,
                "view_range": -1,
                "invert_targeting": false,
                "roam_speed": 100,
                "desired_proximity": 0,
                "condition": ""
            },
            {
                "action": "None",
                "target": "None",
                "target_spec": null,
                "view_range": 0,
                "invert_targeting": false,
                "roam_speed": 100,
                "desired_proximity": 0,
                "condition": ""
            },
            {
                "action": "None",
                "target": "None",
                "target_spec": null,
                "view_range": 0,
                "invert_targeting": false,
                "roam_speed": 100,
                "desired_proximity": 0,
                "condition": ""
            }
        ],
        "priority": 20,
        "offense_bias": 2.0,
        "roam_ai": false
    },
    {
        "nid": "AttackTile",
        "behaviours": [
            {
                "action": "Attack",
                "target": "Enemy",
                "target_spec": null,
                "view_range": -2,
                "invert_targeting": false,
                "roam_speed": 100,
                "desired_proximity": 0,
                "condition": ""
            },
            {
                "action": "Attack",
                "target": "Enemy",
                "target_spec": [
                    "Tag",
                    "Tile"
                ],
                "view_range": -4,
                "invert_targeting": false,
                "roam_speed": 100,
                "desired_proximity": 0,
                "condition": ""
            },
            {
                "action": "None",
                "target": "None",
                "target_spec": null,
                "view_range": 0,
                "invert_targeting": false,
                "roam_speed": 100,
                "desired_proximity": 0,
                "condition": ""
            }
        ],
        "priority": 20,
        "offense_bias": 2.0,
        "roam_ai": false
    },
    {
        "nid": "PursueVillage",
        "behaviours": [
            {
                "action": "Attack",
                "target": "Enemy",
                "target_spec": null,
                "view_range": -2,
                "invert_targeting": false,
                "roam_speed": 100,
                "desired_proximity": 0,
                "condition": ""
            },
            {
                "action": "Interact",
                "target": "Event",
                "target_spec": "Destructible",
                "view_range": -4,
                "invert_targeting": false,
                "roam_speed": 100,
                "desired_proximity": 0,
                "condition": ""
            },
            {
                "action": "None",
                "target": "None",
                "target_spec": null,
                "view_range": 0,
                "invert_targeting": false,
                "roam_speed": 100,
                "desired_proximity": 0,
                "condition": ""
            }
        ],
        "priority": 20,
        "offense_bias": 2.0,
        "roam_ai": false
    },
    {
        "nid": "FollowBoss",
        "behaviours": [
            {
                "action": "Attack",
                "target": "Enemy",
                "target_spec": null,
                "view_range": -2,
                "invert_targeting": false,
                "roam_speed": 100,
                "desired_proximity": 0,
                "condition": ""
            },
            {
                "action": "Move_to",
                "target": "Ally",
                "target_spec": [
                    "Tag",
                    "Boss"
                ],
                "view_range": -4,
                "invert_targeting": false,
                "roam_speed": 100,
                "desired_proximity": 0,
                "condition": ""
            },
            {
                "action": "None",
                "target": "None",
                "target_spec": null,
                "view_range": 0,
                "invert_targeting": false,
                "roam_speed": 100,
                "desired_proximity": 0,
                "condition": ""
            }
        ],
        "priority": 15,
        "offense_bias": 2.0,
        "roam_ai": false
    },
    {
        "nid": "FollowWagon",
        "behaviours": [
            {
                "action": "Attack",
                "target": "Enemy",
                "target_spec": null,
                "view_range": -2,
                "invert_targeting": false,
                "roam_speed": 100,
                "desired_proximity": 0,
                "condition": ""
            },
            {
                "action": "Move_to",
                "target": "Ally",
                "target_spec": [
                    "Class",
                    "Wagon"
                ],
                "view_range": -4,
                "invert_targeting": false,
                "roam_speed": 100,
                "desired_proximity": 0,
                "condition": ""
            },
            {
                "action": "None",
                "target": "None",
                "target_spec": null,
                "view_range": 0,
                "invert_targeting": false,
                "roam_speed": 100,
                "desired_proximity": 0,
                "condition": ""
            }
        ],
        "priority": 15,
        "offense_bias": 2.0,
        "roam_ai": false
    },
    {
        "nid": "Berserk",
        "behaviours": [
            {
                "action": "Attack",
                "target": "Enemy",
                "target_spec": null,
                "view_range": -4,
                "invert_targeting": false,
                "roam_speed": 100,
                "desired_proximity": 0,
                "condition": ""
            },
            {
                "action": "None",
                "target": "None",
                "target_spec": null,
                "view_range": 0,
                "invert_targeting": false,
                "roam_speed": 100,
                "desired_proximity": 0,
                "condition": ""
            },
            {
                "action": "None",
                "target": "None",
                "target_spec": null,
                "view_range": 0,
                "invert_targeting": false,
                "roam_speed": 100,
                "desired_proximity": 0,
                "condition": ""
            }
        ],
        "priority": 10,
        "offense_bias": 2.0,
        "roam_ai": false
    },
    {
        "nid": "Heal",
        "behaviours": [
            {
                "action": "Support",
                "target": "Ally",
                "target_spec": null,
                "view_range": -2,
                "invert_targeting": false,
                "roam_speed": 100,
                "desired_proximity": 0,
                "condition": ""
            },
            {
                "action": "Move_to",
                "target": "Position",
                "target_spec": "Starting",
                "view_range": -4,
                "invert_targeting": false,
                "roam_speed": 100,
                "desired_proximity": 0,
                "condition": ""
            },
            {
                "action": "None",
                "target": "None",
                "target_spec": null,
                "view_range": 0,
                "invert_targeting": false,
                "roam_speed": 100,
                "desired_proximity": 0,
                "condition": ""
            }
        ],
        "priority": 15,
        "offense_bias": 1.0,
        "roam_ai": false
    },
    {
        "nid": "Heal_Guard",
        "behaviours": [
            {
                "action": "Support",
                "target": "Ally",
                "target_spec": null,
                "view_range": -1,
                "invert_targeting": false,
                "roam_speed": 100,
                "desired_proximity": 0,
                "condition": ""
            },
            {
                "action": "None",
                "target": "None",
                "target_spec": "Starting",
                "view_range": 0,
                "invert_targeting": false,
                "roam_speed": 100,
                "desired_proximity": 0,
                "condition": ""
            },
            {
                "action": "None",
                "target": "None",
                "target_spec": null,
                "view_range": 0,
                "invert_targeting": false,
                "roam_speed": 100,
                "desired_proximity": 0,
                "condition": ""
            }
        ],
        "priority": 15,
        "offense_bias": 1.0,
        "roam_ai": false
    },
    {
        "nid": "MixedStaff",
        "behaviours": [
            {
                "action": "Support",
                "target": "Ally",
                "target_spec": null,
                "view_range": -2,
                "invert_targeting": false,
                "roam_speed": 100,
                "desired_proximity": 0,
                "condition": ""
            },
            {
                "action": "Attack",
                "target": "Enemy",
                "target_spec": null,
                "view_range": -2,
                "invert_targeting": false,
                "roam_speed": 100,
                "desired_proximity": 0,
                "condition": ""
            },
            {
                "action": "Move_to",
                "target": "Position",
                "target_spec": "Starting",
                "view_range": -4,
                "invert_targeting": false,
                "roam_speed": 100,
                "desired_proximity": 0,
                "condition": ""
            }
        ],
        "priority": 15,
        "offense_bias": 1.0,
        "roam_ai": false
    },
    {
        "nid": "Thief",
        "behaviours": [
            {
                "action": "Steal",
                "target": "Enemy",
                "target_spec": null,
                "view_range": -2,
                "invert_targeting": false,
                "roam_speed": 100,
                "desired_proximity": 0,
                "condition": ""
            },
            {
                "action": "Interact",
                "target": "Event",
                "target_spec": "Door",
                "view_range": -4,
                "invert_targeting": false,
                "roam_speed": 100,
                "desired_proximity": 0,
                "condition": ""
            },
            {
                "action": "Interact",
                "target": "Event",
                "target_spec": "Chest",
                "view_range": -4,
                "invert_targeting": false,
                "roam_speed": 100,
                "desired_proximity": 0,
                "condition": ""
            }
        ],
        "priority": 12,
        "offense_bias": 2.0,
        "roam_ai": false
    },
    {
        "nid": "SimpleThief",
        "behaviours": [
            {
                "action": "Steal",
                "target": "Enemy",
                "target_spec": null,
                "view_range": -2,
                "invert_targeting": false,
                "roam_speed": 100,
                "desired_proximity": 0,
                "condition": ""
            },
            {
                "action": "Attack",
                "target": "Enemy",
                "target_spec": null,
                "view_range": -2,
                "invert_targeting": false,
                "roam_speed": 100,
                "desired_proximity": 0,
                "condition": ""
            },
            {
                "action": "None",
                "target": "None",
                "target_spec": "Chest",
                "view_range": -4,
                "invert_targeting": false,
                "roam_speed": 100,
                "desired_proximity": 0,
                "condition": ""
            }
        ],
        "priority": 12,
        "offense_bias": 2.0,
        "roam_ai": false
    },
    {
        "nid": "Seize",
        "behaviours": [
            {
                "action": "Interact",
                "target": "Event",
                "target_spec": "Enemy_Seize",
                "view_range": -2,
                "invert_targeting": false,
                "roam_speed": 100,
                "desired_proximity": 0,
                "condition": ""
            },
            {
                "action": "Attack",
                "target": "Enemy",
                "target_spec": null,
                "view_range": -2,
                "invert_targeting": false,
                "roam_speed": 100,
                "desired_proximity": 0,
                "condition": ""
            },
            {
                "action": "Move_to",
                "target": "Event",
                "target_spec": "Enemy_Seize",
                "view_range": -4,
                "invert_targeting": false,
                "roam_speed": 100,
                "desired_proximity": 0,
                "condition": ""
            },
            {
                "action": "Attack",
                "target": "Enemy",
                "target_spec": null,
                "view_range": -4,
                "invert_targeting": false,
                "roam_speed": 100,
                "desired_proximity": 0,
                "condition": ""
            }
        ],
        "priority": 20,
        "offense_bias": 2.0,
        "roam_ai": false
    },
    {
        "nid": "Seize_Focus",
        "behaviours": [
            {
                "action": "Interact",
                "target": "Event",
                "target_spec": "Enemy_Seize",
                "view_range": -4,
                "invert_targeting": false,
                "roam_speed": 100,
                "desired_proximity": 0,
                "condition": ""
            },
            {
                "action": "Attack",
                "target": "Enemy",
                "target_spec": null,
                "view_range": -1,
                "invert_targeting": false,
                "roam_speed": 100,
                "desired_proximity": 0,
                "condition": ""
            },
            {
                "action": "Attack",
                "target": "Enemy",
                "target_spec": null,
                "view_range": -4,
                "invert_targeting": false,
                "roam_speed": 100,
                "desired_proximity": 0,
                "condition": ""
            }
        ],
        "priority": 30,
        "offense_bias": 1.0,
        "roam_ai": false
    },
    {
        "nid": "Flee",
        "behaviours": [
            {
                "action": "Interact",
                "target": "Event",
                "target_spec": "Escape",
                "view_range": -4,
                "invert_targeting": false,
                "roam_speed": 100,
                "desired_proximity": 0,
                "condition": ""
            },
            {
                "action": "Move_to",
                "target": "Event",
                "target_spec": "Escape",
                "view_range": -4,
                "invert_targeting": false,
                "roam_speed": 100,
                "desired_proximity": 0,
                "condition": ""
            },
            {
                "action": "Move_to",
                "target": "Ally",
                "target_spec": [
                    "Name",
                    "Loreia"
                ],
                "view_range": -4,
                "invert_targeting": false,
                "roam_speed": 100,
                "desired_proximity": 0,
                "condition": ""
            }
        ],
        "priority": 30,
        "offense_bias": 1.0,
        "roam_ai": false
    },
    {
        "nid": "Flee_Generic",
        "behaviours": [
            {
                "action": "Interact",
                "target": "Event",
                "target_spec": "Escape",
                "view_range": -4,
                "invert_targeting": false,
                "roam_speed": 100,
                "desired_proximity": 0,
                "condition": ""
            },
            {
                "action": "Move_to",
                "target": "Event",
                "target_spec": "Escape",
                "view_range": -4,
                "invert_targeting": false,
                "roam_speed": 100,
                "desired_proximity": 0,
                "condition": ""
            },
            {
                "action": "Move_to",
                "target": "Ally",
                "target_spec": [
                    "Team",
                    "player"
                ],
                "view_range": -4,
                "invert_targeting": false,
                "roam_speed": 100,
                "desired_proximity": 0,
                "condition": ""
            }
        ],
        "priority": 30,
        "offense_bias": 1.0,
        "roam_ai": false
    },
    {
        "nid": "Flee_Thieves",
        "behaviours": [
            {
                "action": "Interact",
                "target": "Event",
                "target_spec": "Escape",
                "view_range": -4,
                "invert_targeting": false,
                "roam_speed": 100,
                "desired_proximity": 0,
                "condition": ""
            },
            {
                "action": "Move_to",
                "target": "Event",
                "target_spec": "Escape",
                "view_range": -4,
                "invert_targeting": false,
                "roam_speed": 100,
                "desired_proximity": 0,
                "condition": ""
            }
        ],
        "priority": 30,
        "offense_bias": 1.0,
        "roam_ai": false
    },
    {
        "nid": "FearStatus",
        "behaviours": [
            {
                "action": "Move_away_from",
                "target": "Enemy",
                "target_spec": null,
                "view_range": 0,
                "invert_targeting": false,
                "roam_speed": 100,
                "desired_proximity": 0,
                "condition": ""
            },
            {
                "action": "None",
                "target": "None",
                "target_spec": null,
                "view_range": 0,
                "invert_targeting": false,
                "roam_speed": 100,
                "desired_proximity": 0,
                "condition": ""
            },
            {
                "action": "None",
                "target": "None",
                "target_spec": null,
                "view_range": 0,
                "invert_targeting": false,
                "roam_speed": 100,
                "desired_proximity": 0,
                "condition": ""
            }
        ],
        "priority": 20,
        "offense_bias": 2.0,
        "roam_ai": false
    },
    {
        "nid": "Guard_HighPriority",
        "behaviours": [
            {
                "action": "Attack",
                "target": "Enemy",
                "target_spec": null,
                "view_range": -1,
                "invert_targeting": false,
                "roam_speed": 100,
                "desired_proximity": 0,
                "condition": ""
            },
            {
                "action": "None",
                "target": "None",
                "target_spec": null,
                "view_range": 0,
                "invert_targeting": false,
                "roam_speed": 100,
                "desired_proximity": 0,
                "condition": ""
            },
            {
                "action": "None",
                "target": "None",
                "target_spec": null,
                "view_range": 0,
                "invert_targeting": false,
                "roam_speed": 100,
                "desired_proximity": 0,
                "condition": ""
            }
        ],
        "priority": 30,
        "offense_bias": 2.0,
        "roam_ai": false
    },
    {
        "nid": "Defend_HighPriority",
        "behaviours": [
            {
                "action": "Attack",
                "target": "Enemy",
                "target_spec": null,
                "view_range": -2,
                "invert_targeting": false,
                "roam_speed": 100,
                "desired_proximity": 0,
                "condition": ""
            },
            {
                "action": "Move_to",
                "target": "Position",
                "target_spec": "Starting",
                "view_range": -4,
                "invert_targeting": false,
                "roam_speed": 100,
                "desired_proximity": 0,
                "condition": ""
            },
            {
                "action": "None",
                "target": "None",
                "target_spec": null,
                "view_range": 0,
                "invert_targeting": false,
                "roam_speed": 100,
                "desired_proximity": 0,
                "condition": ""
            }
        ],
        "priority": 30,
        "offense_bias": 2.0,
        "roam_ai": false
    },
    {
        "nid": "SupportGuard_High",
        "behaviours": [
            {
                "action": "Attack",
                "target": "Enemy",
                "target_spec": null,
                "view_range": -1,
                "invert_targeting": false,
                "roam_speed": 100,
                "desired_proximity": 0,
                "condition": ""
            },
            {
                "action": "Support",
                "target": "Ally",
                "target_spec": null,
                "view_range": -1,
                "invert_targeting": false,
                "roam_speed": 100,
                "desired_proximity": 0,
                "condition": ""
            },
            {
                "action": "None",
                "target": "None",
                "target_spec": null,
                "view_range": 0,
                "invert_targeting": false,
                "roam_speed": 100,
                "desired_proximity": 0,
                "condition": ""
            }
        ],
        "priority": 30,
        "offense_bias": 2.0,
        "roam_ai": false
    },
    {
        "nid": "Reinforce_1",
        "behaviours": [
            {
                "action": "Interact",
                "target": "Event",
                "target_spec": "Reinforce_1",
                "view_range": -4,
                "invert_targeting": false,
                "roam_speed": 100,
                "desired_proximity": 0,
                "condition": ""
            },
            {
                "action": "Attack",
                "target": "Enemy",
                "target_spec": null,
                "view_range": -1,
                "invert_targeting": false,
                "roam_speed": 100,
                "desired_proximity": 0,
                "condition": ""
            },
            {
                "action": "None",
                "target": "None",
                "target_spec": null,
                "view_range": 0,
                "invert_targeting": false,
                "roam_speed": 100,
                "desired_proximity": 0,
                "condition": ""
            }
        ],
        "priority": 25,
        "offense_bias": 1.0,
        "roam_ai": false
    },
    {
        "nid": "Reinforce_2",
        "behaviours": [
            {
                "action": "Interact",
                "target": "Event",
                "target_spec": "Reinforce_2",
                "view_range": -4,
                "invert_targeting": false,
                "roam_speed": 100,
                "desired_proximity": 0,
                "condition": ""
            },
            {
                "action": "Attack",
                "target": "Enemy",
                "target_spec": null,
                "view_range": -1,
                "invert_targeting": false,
                "roam_speed": 100,
                "desired_proximity": 0,
                "condition": ""
            },
            {
                "action": "None",
                "target": "None",
                "target_spec": null,
                "view_range": 0,
                "invert_targeting": false,
                "roam_speed": 100,
                "desired_proximity": 0,
                "condition": ""
            }
        ],
        "priority": 25,
        "offense_bias": 1.0,
        "roam_ai": false
    },
    {
        "nid": "Pursue_Exit",
        "behaviours": [
            {
                "action": "Attack",
                "target": "Enemy",
                "target_spec": null,
                "view_range": -4,
                "invert_targeting": false,
                "roam_speed": 100,
                "desired_proximity": 0,
                "condition": ""
            },
            {
                "action": "Interact",
                "target": "Event",
                "target_spec": "Exit",
                "view_range": -3,
                "invert_targeting": false,
                "roam_speed": 100,
                "desired_proximity": 0,
                "condition": ""
            },
            {
                "action": "None",
                "target": "None",
                "target_spec": null,
                "view_range": 0,
                "invert_targeting": false,
                "roam_speed": 100,
                "desired_proximity": 0,
                "condition": ""
            }
        ],
        "priority": 20,
        "offense_bias": 2.0,
        "roam_ai": false
    },
    {
        "nid": "Pursue_House_1",
        "behaviours": [
            {
                "action": "Attack",
                "target": "Enemy",
                "target_spec": null,
                "view_range": -4,
                "invert_targeting": false,
                "roam_speed": 100,
                "desired_proximity": 0,
                "condition": ""
            },
            {
                "action": "Interact",
                "target": "Event",
                "target_spec": "Enter",
                "view_range": 3,
                "invert_targeting": false,
                "roam_speed": 100,
                "desired_proximity": 0,
                "condition": "any([has_skill(u, 'house_1') for u in game.get_player_units()])"
            },
            {
                "action": "Move_to",
                "target": "Position",
                "target_spec": [
                    11,
                    14
                ],
                "view_range": -4,
                "invert_targeting": false,
                "roam_speed": 100,
                "desired_proximity": 0,
                "condition": "any([has_skill(u, 'house_1') for u in game.get_player_units()])"
            }
        ],
        "priority": 20,
        "offense_bias": 2,
        "roam_ai": false
    },
    {
        "nid": "Pursue_House_2",
        "behaviours": [
            {
                "action": "Attack",
                "target": "Enemy",
                "target_spec": null,
                "view_range": -4,
                "invert_targeting": false,
                "roam_speed": 100,
                "desired_proximity": 0,
                "condition": ""
            },
            {
                "action": "Interact",
                "target": "Event",
                "target_spec": "Enter",
                "view_range": -2,
                "invert_targeting": false,
                "roam_speed": 100,
                "desired_proximity": 0,
                "condition": "any([has_skill(u, 'house_2') for u in game.get_player_units()])"
            },
            {
                "action": "Move_to",
                "target": "Position",
                "target_spec": [
                    20,
                    25
                ],
                "view_range": -4,
                "invert_targeting": false,
                "roam_speed": 100,
                "desired_proximity": 0,
                "condition": "any([has_skill(u, 'house_2') for u in game.get_player_units()])"
            }
        ],
        "priority": 20,
        "offense_bias": 2,
        "roam_ai": false
    },
    {
        "nid": "Pursue_House_3",
        "behaviours": [
            {
                "action": "Attack",
                "target": "Enemy",
                "target_spec": null,
                "view_range": -4,
                "invert_targeting": false,
                "roam_speed": 100,
                "desired_proximity": 0,
                "condition": ""
            },
            {
                "action": "Interact",
                "target": "Event",
                "target_spec": "Enter",
                "view_range": -2,
                "invert_targeting": false,
                "roam_speed": 100,
                "desired_proximity": 0,
                "condition": "any([has_skill(u, 'house_3') for u in game.get_player_units()])"
            },
            {
                "action": "Move_to",
                "target": "Position",
                "target_spec": [
                    28,
                    23
                ],
                "view_range": -4,
                "invert_targeting": false,
                "roam_speed": 100,
                "desired_proximity": 0,
                "condition": "any([has_skill(u, 'house_3') for u in game.get_player_units()])"
            }
        ],
        "priority": 20,
        "offense_bias": 2,
        "roam_ai": false
    },
    {
        "nid": "Defend_Ignore_Enemy2",
        "behaviours": [
            {
                "action": "Attack",
                "target": "Enemy",
                "target_spec": [
                    "Team",
                    "enemy2"
                ],
                "view_range": -2,
                "invert_targeting": true,
                "roam_speed": 100,
                "desired_proximity": 0,
                "condition": ""
            },
            {
                "action": "Move_to",
                "target": "Position",
                "target_spec": "Starting",
                "view_range": -4,
                "invert_targeting": false,
                "roam_speed": 100,
                "desired_proximity": 0,
                "condition": ""
            },
            {
                "action": "None",
                "target": "None",
                "target_spec": null,
                "view_range": 0,
                "invert_targeting": false,
                "roam_speed": 100,
                "desired_proximity": 0,
                "condition": ""
            }
        ],
        "priority": 20,
        "offense_bias": 2.0,
        "roam_ai": false
    },
    {
        "nid": "Pursue_Ignore_Green",
        "behaviours": [
            {
                "action": "Attack",
                "target": "Enemy",
                "target_spec": [
                    "Team",
                    "other"
                ],
                "view_range": -4,
                "invert_targeting": true,
                "roam_speed": 100,
                "desired_proximity": 0,
                "condition": ""
            },
            {
                "action": "None",
                "target": "None",
                "target_spec": null,
                "view_range": 0,
                "invert_targeting": false,
                "roam_speed": 100,
                "desired_proximity": 0,
                "condition": ""
            },
            {
                "action": "None",
                "target": "None",
                "target_spec": null,
                "view_range": 0,
                "invert_targeting": false,
                "roam_speed": 100,
                "desired_proximity": 0,
                "condition": ""
            }
        ],
        "priority": 20,
        "offense_bias": 2,
        "roam_ai": false
    },
    {
        "nid": "Attack_Ignore_Green",
        "behaviours": [
            {
                "action": "Attack",
                "target": "Enemy",
                "target_spec": [
                    "Team",
                    "other"
                ],
                "view_range": -3,
                "invert_targeting": true,
                "roam_speed": 100,
                "desired_proximity": 0,
                "condition": ""
            },
            {
                "action": "None",
                "target": "None",
                "target_spec": null,
                "view_range": 0,
                "invert_targeting": false,
                "roam_speed": 100,
                "desired_proximity": 0,
                "condition": ""
            },
            {
                "action": "None",
                "target": "None",
                "target_spec": null,
                "view_range": 0,
                "invert_targeting": false,
                "roam_speed": 100,
                "desired_proximity": 0,
                "condition": ""
            }
        ],
        "priority": 20,
        "offense_bias": 2.0,
        "roam_ai": false
    },
    {
        "nid": "Defend_Ignore_Green",
        "behaviours": [
            {
                "action": "Attack",
                "target": "Enemy",
                "target_spec": [
                    "Team",
                    "other"
                ],
                "view_range": -2,
                "invert_targeting": true,
                "roam_speed": 100,
                "desired_proximity": 0,
                "condition": ""
            },
            {
                "action": "Move_to",
                "target": "Position",
                "target_spec": "Starting",
                "view_range": -4,
                "invert_targeting": false,
                "roam_speed": 100,
                "desired_proximity": 0,
                "condition": ""
            },
            {
                "action": "None",
                "target": "None",
                "target_spec": null,
                "view_range": 0,
                "invert_targeting": false,
                "roam_speed": 100,
                "desired_proximity": 0,
                "condition": ""
            }
        ],
        "priority": 20,
        "offense_bias": 2.0,
        "roam_ai": false
    },
    {
        "nid": "Capture_Green",
        "behaviours": [
            {
                "action": "Move_to",
                "target": "Enemy",
                "target_spec": [
                    "Team",
                    "other"
                ],
                "view_range": -4,
                "invert_targeting": false,
                "roam_speed": 100,
                "desired_proximity": 0,
                "condition": "not unit.traveler"
            },
            {
                "action": "Interact",
                "target": "Event",
                "target_spec": "Enemy_Capture_Zone",
                "view_range": -4,
                "invert_targeting": false,
                "roam_speed": 100,
                "desired_proximity": 0,
                "condition": "unit.traveler"
            },
            {
                "action": "Attack",
                "target": "Enemy",
                "target_spec": [
                    "Team",
                    "player"
                ],
                "view_range": -3,
                "invert_targeting": false,
                "roam_speed": 100,
                "desired_proximity": 0,
                "condition": ""
            }
        ],
        "priority": 20,
        "offense_bias": 2,
        "roam_ai": false
    },
    {
        "nid": "Seduced",
        "behaviours": [
            {
                "action": "Attack",
                "target": "Enemy",
                "target_spec": [
                    "Tag",
                    "Charm"
                ],
                "view_range": -2,
                "invert_targeting": true,
                "roam_speed": 100,
                "desired_proximity": 0,
                "condition": ""
            },
            {
                "action": "Move_to",
                "target": "Enemy",
                "target_spec": [
                    "Tag",
                    "Charm"
                ],
                "view_range": -4,
                "invert_targeting": false,
                "roam_speed": 100,
                "desired_proximity": 0,
                "condition": ""
            },
            {
                "action": "None",
                "target": "None",
                "target_spec": null,
                "view_range": 0,
                "invert_targeting": false,
                "roam_speed": 100,
                "desired_proximity": 0,
                "condition": ""
            }
        ],
        "priority": 40,
        "offense_bias": 2,
        "roam_ai": false
    }
]