[
    {
        "nid": "Axe_Knight",
        "name": "Axe Knight",
        "desc": "Mounted knights with superior movement.",
        "tier": 1,
        "movement_group": "Heavy Cav",
        "promotes_from": null,
        "turns_into": [
            "Paladin",
            "Great_Knight"
        ],
        "tags": [
            "Horse",
            "Mounted"
        ],
        "max_level": 40,
        "bases": {
            "HP": 20,
            "STR": 5,
            "MAG": 2,
            "SKL": 3,
            "SPD": 5,
            "LCK": 0,
            "DEF": 6,
            "CON": 9,
            "MOV": 5,
            "RES": 0
        },
        "growths": {
            "HP": 75,
            "STR": 35,
            "MAG": 17,
            "SKL": 40,
            "SPD": 28,
            "LCK": 30,
            "DEF": 15,
            "CON": 0,
            "MOV": 0,
            "RES": 15
        },
        "growth_bonus": {
            "HP": 0,
            "STR": 0,
            "MAG": 0,
            "SKL": 0,
            "SPD": 0,
            "LCK": 0,
            "DEF": 0,
            "CON": 0,
            "MOV": 0,
            "RES": 0
        },
        "promotion": {
            "HP": 0,
            "STR": 0,
            "MAG": 0,
            "SKL": 0,
            "SPD": 0,
            "LCK": 0,
            "DEF": 0,
            "CON": 0,
            "MOV": 0,
            "RES": 0
        },
        "max_stats": {
            "HP": 60,
            "STR": 20,
            "MAG": 20,
            "SKL": 20,
            "SPD": 20,
            "LCK": 30,
            "DEF": 20,
            "CON": 25,
            "MOV": 15,
            "RES": 20
        },
        "learned_skills": [],
        "wexp_gain": {
            "Sword": [
                false,
                0,
                251
            ],
            "Lance": [
                false,
                0,
                251
            ],
            "Axe": [
                true,
                1,
                251
            ],
            "Bow": [
                false,
                0,
                251
            ],
            "Knife": [
                false,
                0,
                251
            ],
            "Anima": [
                false,
                0,
                251
            ],
            "Light": [
                false,
                0,
                251
            ],
            "Dark": [
                false,
                0,
                251
            ],
            "Staff": [
                false,
                0,
                251
            ],
            "Stone": [
                false,
                0,
                251
            ],
            "Default": [
                false,
                0,
                251
            ],
            "Dragonstone": [
                false,
                0,
                251
            ]
        },
        "icon_nid": "Generic_Portrait_Cavalier",
        "icon_index": [
            0,
            0
        ],
        "map_sprite_nid": "Axe_Knight",
        "combat_anim_nid": "Cavalier",
        "fields": []
    }
]