[
    {
        "nid": "Champion",
        "name": "Champion",
        "desc": "An expert of melee weapons.",
        "tier": 2,
        "movement_group": "Light Foot",
        "promotes_from": "Mercenary",
        "turns_into": [],
        "tags": [
            "Infantry"
        ],
        "max_level": 40,
        "bases": {
            "HP": 24,
            "STR": 9,
            "MAG": 1,
            "SKL": 10,
            "SPD": 7,
            "LCK": 0,
            "DEF": 6,
            "RES": 2,
            "CON": 12,
            "MOV": 5
        },
        "growths": {
            "HP": 75,
            "STR": 30,
            "MAG": 5,
            "SKL": 30,
            "SPD": 20,
            "LCK": 25,
            "DEF": 20,
            "RES": 20,
            "CON": 0,
            "MOV": 0
        },
        "growth_bonus": {
            "HP": 0,
            "STR": 0,
            "MAG": 0,
            "SKL": 0,
            "SPD": 0,
            "LCK": 0,
            "DEF": 0,
            "RES": 0,
            "CON": 0,
            "MOV": 0
        },
        "promotion": {
            "HP": 4,
            "STR": 2,
            "MAG": 0,
            "SKL": 2,
            "SPD": 2,
            "LCK": 0,
            "DEF": 2,
            "RES": 2,
            "CON": 2,
            "MOV": -99
        },
        "max_stats": {
            "HP": 60,
            "STR": 30,
            "MAG": 30,
            "SKL": 30,
            "SPD": 30,
            "LCK": 30,
            "DEF": 30,
            "RES": 30,
            "CON": 25,
            "MOV": 15
        },
        "learned_skills": [],
        "wexp_gain": {
            "Sword": [
                2,
                0,
                251
            ],
            "Lance": [
                true,
                0,
                251
            ],
            "Axe": [
                2,
                0,
                251
            ],
            "Bow": [
                false,
                0,
                251
            ],
            "Knife": [
                false,
                0,
                251
            ],
            "Anima": [
                false,
                0,
                251
            ],
            "Light": [
                false,
                0,
                251
            ],
            "Dark": [
                false,
                0,
                251
            ],
            "Staff": [
                false,
                0,
                251
            ],
            "Stone": [
                false,
                0,
                251
            ],
            "Default": [
                false,
                0,
                251
            ],
            "Dragonstone": [
                false,
                0,
                251
            ]
        },
        "icon_nid": "Generic_Portrait_Vanguard",
        "icon_index": [
            0,
            0
        ],
        "map_sprite_nid": "Champion",
        "combat_anim_nid": null,
        "fields": []
    }
]