[
    {
        "nid": "Fighter",
        "name": "Fighter",
        "desc": "Ruffians with great strength but\npoor defense.",
        "tier": 1,
        "movement_group": "Regular",
        "promotes_from": null,
        "turns_into": [
            "Hero",
            "Warrior"
        ],
        "tags": [
            "Infantry"
        ],
        "max_level": 40,
        "bases": {
            "HP": 20,
            "STR": 5,
            "MAG": 0,
            "SKL": 2,
            "SPD": 4,
            "LCK": 0,
            "DEF": 2,
            "CON": 11,
            "MOV": 4,
            "RES": 0
        },
        "growths": {
            "HP": 85,
            "STR": 55,
            "MAG": 0,
            "SKL": 35,
            "SPD": 30,
            "LCK": 15,
            "DEF": 15,
            "CON": 0,
            "MOV": 0,
            "RES": 15
        },
        "growth_bonus": {
            "HP": 0,
            "STR": 0,
            "MAG": 0,
            "SKL": 0,
            "SPD": 0,
            "LCK": 0,
            "DEF": 0,
            "CON": 0,
            "MOV": 0,
            "RES": 0
        },
        "promotion": {
            "HP": 2,
            "STR": 2,
            "MAG": 0,
            "SKL": 1,
            "SPD": 0,
            "LCK": 0,
            "DEF": 0,
            "CON": 3,
            "MOV": -99,
            "RES": 1
        },
        "max_stats": {
            "HP": 60,
            "STR": 20,
            "MAG": 20,
            "SKL": 20,
            "SPD": 20,
            "LCK": 30,
            "DEF": 20,
            "CON": 20,
            "MOV": 15,
            "RES": 20
        },
        "learned_skills": [],
        "wexp_gain": {
            "Sword": [
                false,
                0,
                251
            ],
            "Lance": [
                false,
                0,
                251
            ],
            "Axe": [
                true,
                31,
                251
            ],
            "Bow": [
                false,
                0,
                251
            ],
            "Knife": [
                false,
                0,
                251
            ],
            "Anima": [
                false,
                0,
                251
            ],
            "Light": [
                false,
                0,
                251
            ],
            "Dark": [
                false,
                0,
                251
            ],
            "Staff": [
                false,
                0,
                251
            ],
            "Stone": [
                false,
                0,
                251
            ],
            "Default": [
                false,
                0,
                251
            ],
            "Dragonstone": [
                false,
                0,
                251
            ]
        },
        "icon_nid": "Generic_Portrait_Fighter",
        "icon_index": [
            0,
            0
        ],
        "map_sprite_nid": "Fighter",
        "combat_anim_nid": "Fighter",
        "fields": []
    }
]