[
    {
        "nid": "Gargoyle",
        "name": "Gargoyle",
        "desc": "Malignant fiends who hunt with lances. They swoop in swiftly on their fell wings.",
        "tier": 1,
        "movement_group": "Fliers",
        "promotes_from": null,
        "turns_into": [
            "Deathgoyle"
        ],
        "tags": [
            "Flying",
            "Monster"
        ],
        "max_level": 40,
        "bases": {
            "HP": 19,
            "STR": 6,
            "MAG": 1,
            "SKL": 3,
            "SPD": 6,
            "LCK": 0,
            "DEF": 6,
            "RES": 0,
            "CON": 8,
            "MOV": 5
        },
        "growths": {
            "HP": 80,
            "STR": 45,
            "MAG": 5,
            "SKL": 35,
            "SPD": 35,
            "LCK": 10,
            "DEF": 25,
            "RES": 15,
            "CON": 0,
            "MOV": 0
        },
        "growth_bonus": {
            "HP": 0,
            "STR": 0,
            "MAG": 0,
            "SKL": 0,
            "SPD": 0,
            "LCK": 0,
            "DEF": 0,
            "RES": 0,
            "CON": 0,
            "MOV": 0
        },
        "promotion": {
            "HP": 0,
            "STR": 0,
            "MAG": 0,
            "SKL": 0,
            "SPD": 0,
            "LCK": 0,
            "DEF": 0,
            "RES": 0,
            "CON": 0,
            "MOV": 0
        },
        "max_stats": {
            "HP": 60,
            "STR": 20,
            "MAG": 20,
            "SKL": 20,
            "SPD": 20,
            "LCK": 30,
            "DEF": 20,
            "RES": 20,
            "CON": 25,
            "MOV": 15
        },
        "learned_skills": [
            [
                1,
                "Flying"
            ]
        ],
        "wexp_gain": {
            "Sword": [
                false,
                0,
                251
            ],
            "Lance": [
                true,
                1,
                251
            ],
            "Axe": [
                false,
                0,
                251
            ],
            "Bow": [
                false,
                0,
                251
            ],
            "Knife": [
                false,
                0,
                251
            ],
            "Anima": [
                false,
                0,
                251
            ],
            "Light": [
                false,
                0,
                251
            ],
            "Dark": [
                false,
                0,
                251
            ],
            "Staff": [
                false,
                0,
                251
            ],
            "Stone": [
                false,
                0,
                251
            ],
            "Default": [
                false,
                0,
                251
            ],
            "Dragonstone": [
                false,
                0,
                251
            ]
        },
        "icon_nid": "Gargoyle Lance {IS}",
        "icon_index": [
            0,
            0
        ],
        "map_sprite_nid": "Gargoyle",
        "combat_anim_nid": "Gargoyle",
        "fields": []
    }
]