[
    {
        "nid": "Great_Demon",
        "name": "Great Demon",
        "desc": "The Great Demon, bringer of calamity.",
        "tier": 2,
        "movement_group": "Light Foot",
        "promotes_from": "Manakete",
        "turns_into": [],
        "tags": [
            "Monster"
        ],
        "max_level": 40,
        "bases": {
            "HP": 60,
            "STR": 20,
            "MAG": 20,
            "SKL": 20,
            "SPD": 20,
            "LCK": 0,
            "DEF": 20,
            "RES": 20,
            "CON": 20,
            "MOV": 3
        },
        "growths": {
            "HP": 0,
            "STR": 0,
            "MAG": 0,
            "SKL": 0,
            "SPD": 0,
            "LCK": 0,
            "DEF": 0,
            "RES": 0,
            "CON": 0,
            "MOV": 0
        },
        "growth_bonus": {
            "HP": 0,
            "STR": 0,
            "MAG": 0,
            "SKL": 0,
            "SPD": 0,
            "LCK": 0,
            "DEF": 0,
            "RES": 0,
            "CON": 0,
            "MOV": 0
        },
        "promotion": {
            "HP": 0,
            "STR": 0,
            "MAG": 0,
            "SKL": 0,
            "SPD": 0,
            "LCK": 0,
            "DEF": 0,
            "RES": 0,
            "CON": 0,
            "MOV": 0
        },
        "max_stats": {
            "HP": 120,
            "STR": 40,
            "MAG": 40,
            "SKL": 40,
            "SPD": 40,
            "LCK": 40,
            "DEF": 40,
            "RES": 40,
            "CON": 30,
            "MOV": 15
        },
        "learned_skills": [],
        "wexp_gain": {
            "Sword": [
                false,
                0,
                51
            ],
            "Lance": [
                false,
                0,
                51
            ],
            "Axe": [
                false,
                0,
                51
            ],
            "Bow": [
                false,
                0,
                51
            ],
            "Knife": [
                false,
                0,
                51
            ],
            "Anima": [
                false,
                0,
                51
            ],
            "Light": [
                false,
                0,
                51
            ],
            "Dark": [
                false,
                0,
                51
            ],
            "Staff": [
                false,
                0,
                51
            ],
            "Stone": [
                false,
                0,
                51
            ],
            "Default": [
                false,
                0,
                51
            ]
        },
        "icon_nid": "Generic_Portrait_Citizen",
        "icon_index": [
            0,
            0
        ],
        "map_sprite_nid": "Demon King (U) Stationary {IS}-stand",
        "combat_anim_nid": null,
        "fields": []
    }
]