[
    {
        "nid": "Griffon_Rider",
        "name": "Griffon Rider",
        "desc": "Equipped to shoot down their peers, these\neagle-riders are undisputed lords of the skies.",
        "tier": 1,
        "movement_group": "Fliers",
        "promotes_from": null,
        "turns_into": [],
        "tags": [
            "Mounted",
            "Flying"
        ],
        "max_level": 40,
        "bases": {
            "HP": 20,
            "STR": 7,
            "MAG": 4,
            "SKL": 8,
            "SPD": 9,
            "LCK": 0,
            "DEF": 7,
            "RES": 2,
            "CON": 9,
            "MOV": 5
        },
        "growths": {
            "HP": 65,
            "STR": 35,
            "MAG": 20,
            "SKL": 30,
            "SPD": 30,
            "LCK": 25,
            "DEF": 15,
            "RES": 20,
            "CON": 0,
            "MOV": 0
        },
        "growth_bonus": {
            "HP": 0,
            "STR": 0,
            "MAG": 0,
            "SKL": 0,
            "SPD": 0,
            "LCK": 0,
            "DEF": 0,
            "RES": 0,
            "CON": 0,
            "MOV": 0
        },
        "promotion": {
            "HP": 0,
            "STR": 0,
            "MAG": 0,
            "SKL": 0,
            "SPD": 0,
            "LCK": 0,
            "DEF": 0,
            "RES": 0,
            "CON": 0,
            "MOV": -99
        },
        "max_stats": {
            "HP": 60,
            "STR": 20,
            "MAG": 20,
            "SKL": 20,
            "SPD": 20,
            "LCK": 30,
            "DEF": 20,
            "RES": 20,
            "CON": 25,
            "MOV": 15
        },
        "learned_skills": [
            [
                1,
                "Flying"
            ]
        ],
        "wexp_gain": {
            "Sword": [
                false,
                0,
                251
            ],
            "Lance": [
                false,
                0,
                251
            ],
            "Axe": [
                false,
                0,
                251
            ],
            "Bow": [
                true,
                1,
                251
            ],
            "Knife": [
                false,
                0,
                251
            ],
            "Anima": [
                false,
                0,
                251
            ],
            "Light": [
                false,
                0,
                251
            ],
            "Dark": [
                false,
                0,
                251
            ],
            "Staff": [
                false,
                0,
                251
            ],
            "Stone": [
                false,
                0,
                251
            ],
            "Default": [
                false,
                0,
                251
            ],
            "Dragonstone": [
                false,
                0,
                251
            ]
        },
        "icon_nid": "Generic_Portrait_Wyvern_Rider",
        "icon_index": [
            0,
            0
        ],
        "map_sprite_nid": "Griffon Rider (U) Bow {N426}-stand",
        "combat_anim_nid": null,
        "fields": []
    }
]