[
    {
        "nid": "Mage_Knight_Lance",
        "name": "Mage Knight",
        "desc": "Mounted mage-knights who wield anima magic. Can also use lances.",
        "tier": 2,
        "movement_group": "Light Cav",
        "promotes_from": "Mage",
        "turns_into": [],
        "tags": [
            "Horse",
            "Mounted",
            "Magical"
        ],
        "max_level": 40,
        "bases": {
            "HP": 20,
            "STR": 0,
            "MAG": 4,
            "SKL": 5,
            "SPD": 6,
            "LCK": 0,
            "DEF": 5,
            "RES": 6,
            "CON": 8,
            "MOV": 6
        },
        "growths": {
            "HP": 45,
            "STR": 5,
            "MAG": 45,
            "SKL": 30,
            "SPD": 25,
            "LCK": 15,
            "DEF": 10,
            "RES": 40,
            "CON": 0,
            "MOV": 0
        },
        "growth_bonus": {
            "HP": 0,
            "STR": 0,
            "MAG": 0,
            "SKL": 0,
            "SPD": 0,
            "LCK": 0,
            "DEF": 0,
            "RES": 0,
            "CON": 0,
            "MOV": 0
        },
        "promotion": {
            "HP": 3,
            "STR": 2,
            "MAG": 2,
            "SKL": 1,
            "SPD": 1,
            "LCK": 0,
            "DEF": 1,
            "RES": 1,
            "CON": 3,
            "MOV": -99
        },
        "max_stats": {
            "HP": 60,
            "STR": 30,
            "MAG": 30,
            "SKL": 30,
            "SPD": 30,
            "LCK": 30,
            "DEF": 30,
            "RES": 30,
            "CON": 25,
            "MOV": 15
        },
        "learned_skills": [],
        "wexp_gain": {
            "Sword": [
                false,
                0,
                251
            ],
            "Lance": [
                true,
                0,
                251
            ],
            "Axe": [
                false,
                0,
                251
            ],
            "Bow": [
                0,
                0,
                251
            ],
            "Knife": [
                false,
                0,
                251
            ],
            "Anima": [
                2,
                0,
                251
            ],
            "Light": [
                false,
                0,
                251
            ],
            "Dark": [
                false,
                0,
                251
            ],
            "Staff": [
                false,
                0,
                251
            ],
            "Stone": [
                false,
                0,
                251
            ],
            "Default": [
                false,
                0,
                251
            ],
            "Dragonstone": [
                false,
                0,
                251
            ]
        },
        "icon_nid": "Generic_Portrait_Mage_Knight",
        "icon_index": [
            0,
            0
        ],
        "map_sprite_nid": "MageKnight",
        "combat_anim_nid": "Mage_Knight",
        "fields": []
    }
]