[
    {
        "nid": "Mage_General",
        "name": "Mage General",
        "desc": "",
        "tier": 2,
        "movement_group": "Armors",
        "promotes_from": "Armor",
        "turns_into": [],
        "tags": [
            "Armor",
            "Magical"
        ],
        "max_level": 40,
        "bases": {
            "HP": 20,
            "STR": 2,
            "MAG": 8,
            "SKL": 4,
            "SPD": 4,
            "LCK": 0,
            "DEF": 11,
            "RES": 8,
            "CON": 10,
            "MOV": 5
        },
        "growths": {
            "HP": 75,
            "STR": 15,
            "MAG": 30,
            "SKL": 25,
            "SPD": 10,
            "LCK": 20,
            "DEF": 23,
            "RES": 25,
            "CON": 0,
            "MOV": 0
        },
        "growth_bonus": {
            "HP": 0,
            "STR": 0,
            "MAG": 0,
            "SKL": 0,
            "SPD": 0,
            "LCK": 0,
            "DEF": 0,
            "RES": 0,
            "CON": 0,
            "MOV": 0
        },
        "promotion": {
            "HP": 4,
            "STR": 0,
            "MAG": 2,
            "SKL": 2,
            "SPD": 1,
            "LCK": 0,
            "DEF": 3,
            "RES": 3,
            "CON": 2,
            "MOV": -99
        },
        "max_stats": {
            "HP": 60,
            "STR": 30,
            "MAG": 30,
            "SKL": 30,
            "SPD": 30,
            "LCK": 30,
            "DEF": 30,
            "RES": 30,
            "CON": 25,
            "MOV": 15
        },
        "learned_skills": [],
        "wexp_gain": {
            "Sword": [
                false,
                0,
                251
            ],
            "Lance": [
                false,
                0,
                251
            ],
            "Axe": [
                false,
                0,
                251
            ],
            "Bow": [
                true,
                0,
                251
            ],
            "Knife": [
                false,
                0,
                251
            ],
            "Anima": [
                true,
                0,
                251
            ],
            "Light": [
                true,
                0,
                251
            ],
            "Dark": [
                true,
                0,
                251
            ],
            "Staff": [
                true,
                0,
                251
            ],
            "Stone": [
                false,
                0,
                251
            ],
            "Default": [
                false,
                0,
                251
            ],
            "Dragonstone": [
                false,
                0,
                251
            ]
        },
        "icon_nid": "General Shield (U) Magic {Pushwall, SamirPlayz}",
        "icon_index": [
            0,
            0
        ],
        "map_sprite_nid": "Baron (U) Magic {WarPath}-stand",
        "combat_anim_nid": null,
        "fields": []
    }
]