[
    {
        "nid": "Mage_Armor",
        "name": "Mage Armor",
        "desc": "Heavily armored knights with poor movement.",
        "tier": 1,
        "movement_group": "Armors",
        "promotes_from": null,
        "turns_into": [],
        "tags": [
            "Armor",
            "Magical"
        ],
        "max_level": 40,
        "bases": {
            "HP": 17,
            "STR": 2,
            "MAG": 5,
            "SKL": 3,
            "SPD": 1,
            "LCK": 0,
            "DEF": 9,
            "CON": 13,
            "MOV": 4,
            "RES": 1
        },
        "growths": {
            "HP": 80,
            "STR": 20,
            "MAG": 40,
            "SKL": 30,
            "SPD": 15,
            "LCK": 25,
            "DEF": 28,
            "CON": 0,
            "MOV": 0,
            "RES": 20
        },
        "growth_bonus": {
            "HP": 0,
            "STR": 0,
            "MAG": 0,
            "SKL": 0,
            "SPD": 0,
            "LCK": 0,
            "DEF": 0,
            "CON": 0,
            "MOV": 0,
            "RES": 0
        },
        "promotion": {
            "HP": 0,
            "STR": 0,
            "MAG": 0,
            "SKL": 0,
            "SPD": 0,
            "LCK": 0,
            "DEF": 0,
            "CON": 0,
            "MOV": 0,
            "RES": 0
        },
        "max_stats": {
            "HP": 60,
            "STR": 20,
            "MAG": 20,
            "SKL": 20,
            "SPD": 20,
            "LCK": 30,
            "DEF": 20,
            "CON": 20,
            "MOV": 15,
            "RES": 20
        },
        "learned_skills": [],
        "wexp_gain": {
            "Sword": [
                false,
                0,
                251
            ],
            "Lance": [
                false,
                0,
                251
            ],
            "Axe": [
                false,
                0,
                251
            ],
            "Bow": [
                false,
                0,
                251
            ],
            "Knife": [
                false,
                0,
                251
            ],
            "Anima": [
                false,
                0,
                251
            ],
            "Light": [
                false,
                0,
                251
            ],
            "Dark": [
                true,
                1,
                251
            ],
            "Staff": [
                false,
                0,
                251
            ],
            "Stone": [
                false,
                0,
                251
            ],
            "Default": [
                false,
                0,
                251
            ],
            "Dragonstone": [
                false,
                0,
                251
            ]
        },
        "icon_nid": "Knight (U) Magic {Der, Epicer}",
        "icon_index": [
            0,
            0
        ],
        "map_sprite_nid": "Mage_Armor",
        "combat_anim_nid": null,
        "fields": []
    }
]