[
    {
        "nid": "Tarvos",
        "name": "Tarvos",
        "desc": "Belligerent man-beasts. Like hurricanes they roam, wreaking havoc with their giant axes.",
        "tier": 1,
        "movement_group": "Heavy Cav",
        "promotes_from": null,
        "turns_into": [
            "Maelduin"
        ],
        "tags": [
            "Horse",
            "Mounted",
            "Monster"
        ],
        "max_level": 40,
        "bases": {
            "HP": 21,
            "STR": 6,
            "MAG": 4,
            "SKL": 2,
            "SPD": 5,
            "LCK": 0,
            "DEF": 7,
            "CON": 10,
            "MOV": 5,
            "RES": 0
        },
        "growths": {
            "HP": 70,
            "STR": 40,
            "MAG": 20,
            "SKL": 25,
            "SPD": 30,
            "LCK": 25,
            "DEF": 20,
            "CON": 0,
            "MOV": 0,
            "RES": 15
        },
        "growth_bonus": {
            "HP": 0,
            "STR": 0,
            "MAG": 0,
            "SKL": 0,
            "SPD": 0,
            "LCK": 0,
            "DEF": 0,
            "CON": 0,
            "MOV": 0,
            "RES": 0
        },
        "promotion": {
            "HP": 0,
            "STR": 0,
            "MAG": 0,
            "SKL": 0,
            "SPD": 0,
            "LCK": 0,
            "DEF": 0,
            "CON": 0,
            "MOV": 0,
            "RES": 0
        },
        "max_stats": {
            "HP": 60,
            "STR": 20,
            "MAG": 20,
            "SKL": 20,
            "SPD": 20,
            "LCK": 30,
            "DEF": 20,
            "CON": 25,
            "MOV": 15,
            "RES": 20
        },
        "learned_skills": [],
        "wexp_gain": {
            "Sword": [
                false,
                0,
                251
            ],
            "Lance": [
                false,
                0,
                251
            ],
            "Axe": [
                true,
                1,
                251
            ],
            "Bow": [
                false,
                0,
                251
            ],
            "Knife": [
                false,
                0,
                251
            ],
            "Anima": [
                false,
                0,
                251
            ],
            "Light": [
                false,
                0,
                251
            ],
            "Dark": [
                false,
                0,
                251
            ],
            "Staff": [
                false,
                0,
                251
            ],
            "Stone": [
                false,
                0,
                251
            ],
            "Default": [
                false,
                0,
                251
            ],
            "Dragonstone": [
                false,
                0,
                251
            ]
        },
        "icon_nid": "Tarvos (M) Axe {IS}",
        "icon_index": [
            0,
            0
        ],
        "map_sprite_nid": "Tarvos",
        "combat_anim_nid": null,
        "fields": []
    }
]