[
    {
        "nid": "Warrior",
        "name": "Warrior",
        "desc": "Determined fighters who relish battle.",
        "tier": 2,
        "movement_group": "Regular",
        "promotes_from": "Fighter",
        "turns_into": [],
        "tags": [
            "Infantry"
        ],
        "max_level": 40,
        "bases": {
            "HP": 28,
            "STR": 8,
            "MAG": 0,
            "SKL": 5,
            "SPD": 6,
            "LCK": 0,
            "DEF": 5,
            "RES": 0,
            "CON": 13,
            "MOV": 5
        },
        "growths": {
            "HP": 80,
            "STR": 45,
            "MAG": 0,
            "SKL": 25,
            "SPD": 20,
            "LCK": 15,
            "DEF": 16,
            "RES": 17,
            "CON": 0,
            "MOV": 0
        },
        "growth_bonus": {
            "HP": 0,
            "STR": 0,
            "MAG": 0,
            "SKL": 0,
            "SPD": 0,
            "LCK": 0,
            "DEF": 0,
            "RES": 0,
            "CON": 0,
            "MOV": 0
        },
        "promotion": {
            "HP": 3,
            "STR": 1,
            "MAG": 0,
            "SKL": 2,
            "SPD": 0,
            "LCK": 0,
            "DEF": 3,
            "RES": 3,
            "CON": 2,
            "MOV": -99
        },
        "max_stats": {
            "HP": 60,
            "STR": 30,
            "MAG": 30,
            "SKL": 30,
            "SPD": 30,
            "LCK": 30,
            "DEF": 30,
            "RES": 30,
            "CON": 25,
            "MOV": 15
        },
        "learned_skills": [],
        "wexp_gain": {
            "Sword": [
                false,
                0,
                251
            ],
            "Lance": [
                false,
                0,
                251
            ],
            "Axe": [
                true,
                0,
                251
            ],
            "Bow": [
                true,
                0,
                251
            ],
            "Knife": [
                false,
                0,
                251
            ],
            "Anima": [
                false,
                0,
                251
            ],
            "Light": [
                false,
                0,
                251
            ],
            "Dark": [
                false,
                0,
                251
            ],
            "Staff": [
                false,
                0,
                251
            ],
            "Stone": [
                false,
                0,
                251
            ],
            "Default": [
                false,
                0,
                251
            ],
            "Dragonstone": [
                false,
                0,
                251
            ]
        },
        "icon_nid": "Generic_Portrait_Warrior",
        "icon_index": [
            0,
            0
        ],
        "map_sprite_nid": "Warrior",
        "combat_anim_nid": "Warrior",
        "fields": []
    }
]