[
    {
        "nid": "Wyvern_Lord",
        "name": "Wyvern Lord",
        "desc": "Knights united with their wyvern mounts. They have better movement and combat skill.",
        "tier": 2,
        "movement_group": "Fliers",
        "promotes_from": "Wyvern_Rider",
        "turns_into": [],
        "tags": [
            "Mounted",
            "Dragon",
            "Flying"
        ],
        "max_level": 40,
        "bases": {
            "HP": 20,
            "STR": 9,
            "MAG": 0,
            "SKL": 7,
            "SPD": 7,
            "LCK": 0,
            "DEF": 10,
            "RES": 2,
            "CON": 11,
            "MOV": 6
        },
        "growths": {
            "HP": 75,
            "STR": 40,
            "MAG": 10,
            "SKL": 30,
            "SPD": 20,
            "LCK": 20,
            "DEF": 20,
            "RES": 17,
            "CON": 0,
            "MOV": 0
        },
        "growth_bonus": {
            "HP": 0,
            "STR": 0,
            "MAG": 0,
            "SKL": 0,
            "SPD": 0,
            "LCK": 0,
            "DEF": 0,
            "RES": 0,
            "CON": 0,
            "MOV": 0
        },
        "promotion": {
            "HP": 4,
            "STR": 2,
            "MAG": 0,
            "SKL": 2,
            "SPD": 0,
            "LCK": 0,
            "DEF": 2,
            "RES": 0,
            "CON": 1,
            "MOV": -99
        },
        "max_stats": {
            "HP": 60,
            "STR": 30,
            "MAG": 30,
            "SKL": 30,
            "SPD": 30,
            "LCK": 30,
            "DEF": 30,
            "RES": 30,
            "CON": 25,
            "MOV": 15
        },
        "learned_skills": [
            [
                1,
                "Flying"
            ]
        ],
        "wexp_gain": {
            "Sword": [
                false,
                0,
                251
            ],
            "Lance": [
                2,
                0,
                251
            ],
            "Axe": [
                true,
                0,
                251
            ],
            "Bow": [
                false,
                0,
                251
            ],
            "Knife": [
                false,
                0,
                251
            ],
            "Anima": [
                false,
                0,
                251
            ],
            "Light": [
                false,
                0,
                251
            ],
            "Dark": [
                false,
                0,
                251
            ],
            "Staff": [
                false,
                0,
                251
            ],
            "Stone": [
                false,
                0,
                251
            ],
            "Default": [
                false,
                0,
                251
            ],
            "Dragonstone": [
                false,
                0,
                251
            ]
        },
        "icon_nid": "Generic_Portrait_Wyvern_Lord",
        "icon_index": [
            0,
            0
        ],
        "map_sprite_nid": "WyvernLord",
        "combat_anim_nid": "Wyvern Lord",
        "fields": []
    }
]