[
    {
        "nid": "Aim",
        "name": "Aim",
        "desc": "Focus on your target, gaining +1 maximum range and +5% hit with bows this turn, stacking.",
        "icon_nid": "LTSkillIconSheet",
        "icon_index": [
            0,
            28
        ],
        "components": [
            [
                "class_skill",
                null
            ],
            [
                "drain_charge",
                3
            ],
            [
                "ability",
                "Aim"
            ],
            [
                "copysafe",
                []
            ]
        ]
    }
]