[
    {
        "nid": "Alert",
        "name": "Alert",
        "desc": "If foe initiates combat, Hit +20.",
        "icon_nid": "LTSkillIconSheet",
        "icon_index": [
            1,
            1
        ],
        "components": [
            [
                "hit",
                20
            ],
            [
                "condition",
                "game.phase.get_current() != unit.team"
            ]
        ]
    }
]