[
    {
        "nid": "Analyze",
        "name": "Analyze",
        "desc": "After every combat, gain a stack of <blue>Analysis,</> which grants +3 damage per stack for <blue>Coup de Grace</>.",
        "icon_nid": "LTSkillIconSheet",
        "icon_index": [
            7,
            38
        ],
        "components": [
            [
                "gain_skill_after_combat",
                "Analysis"
            ],
            [
                "class_skill",
                null
            ],
            [
                "combat_condition",
                "item.nid != 'Resonance'"
            ],
            [
                "copysafe",
                [
                    "Coup_de_Grace"
                ]
            ]
        ]
    }
]