[
    {
        "nid": "Armor_March_Effect",
        "name": "Armor March",
        "desc": "MOV +1.",
        "icon_nid": "LTSkillIconSheet",
        "icon_index": [
            0,
            21
        ],
        "components": [
            [
                "stat_change",
                [
                    [
                        "MOV",
                        1
                    ]
                ]
            ],
            [
                "lost_on_endstep",
                null
            ],
            [
                "lost_on_end_chapter",
                null
            ]
        ]
    }
]