[
    {
        "nid": "Armor_CD",
        "name": "Armor CD",
        "desc": "No more shenanigans.",
        "icon_nid": "LTSkillIconSheet",
        "icon_index": [
            6,
            9
        ],
        "components": [
            [
                "hidden",
                null
            ],
            [
                "time",
                1
            ],
            [
                "lost_on_end_chapter",
                null
            ]
        ]
    }
]