[
    {
        "nid": "Armored_Up_1",
        "name": "Armored Up",
        "desc": "Inverts STR/MAG, SKL/LCK, and DEF/RES while armored.\nCan Summon Armor to within range 3-5,\nbut suffer -3 MOV while unarmored.",
        "icon_nid": "LTSkillIconSheet",
        "icon_index": [
            6,
            9
        ],
        "components": [
            [
                "class_skill",
                null
            ],
            [
                "copysafe",
                [
                    "Recall",
                    "Suit_Up"
                ]
            ],
            [
                "ability",
                "Summon_Armor"
            ],
            [
                "stat_change_expression",
                [
                    [
                        "STR",
                        "abs(unit.stats['STR'] - unit.stats['MAG'])"
                    ],
                    [
                        "DEF",
                        "abs(unit.stats['DEF'] - unit.stats['RES'])"
                    ],
                    [
                        "LCK",
                        "abs(unit.stats['SKL'] - unit.stats['LCK'])"
                    ],
                    [
                        "MAG",
                        "-abs(unit.stats['STR'] - unit.stats['MAG'])"
                    ],
                    [
                        "RES",
                        "-abs(unit.stats['DEF'] - unit.stats['RES'])"
                    ],
                    [
                        "SKL",
                        "-abs(unit.stats['SKL'] - unit.stats['LCK'])"
                    ]
                ]
            ],
            [
                "has_tags",
                [
                    "Mech",
                    "Armor"
                ]
            ],
            [
                "change_variant",
                "Armored"
            ],
            [
                "grey_if_inactive",
                null
            ],
            [
                "condition",
                "not has_skill(unit, 'No_Armor')"
            ]
        ]
    }
]