[
    {
        "nid": "Ascension",
        "name": "Ascension",
        "desc": "Whenever Beau devours a unit, gain 1 stack of Ascension.\nAt 8 stacks, heal 6 HP at the start of each battle.\nAt 12, start each battle with 1 Darkness stack.\nAt 16, all stats +5, and Move +1.\nAt 20...",
        "icon_nid": "Skills",
        "icon_index": [
            6,
            10
        ],
        "components": [
            [
                "class_skill",
                null
            ]
        ]
    }
]