[
    {
        "nid": "Ascension_Cooldown",
        "name": "Ascension",
        "desc": "",
        "icon_nid": "Skills",
        "icon_index": [
            6,
            10
        ],
        "components": [
            [
                "hidden",
                null
            ],
            [
                "lost_on_end_chapter",
                null
            ]
        ]
    }
]