[
    {
        "nid": "At_First_Sight",
        "name": "At First Sight",
        "desc": "Marks an ally as unit's lover.\nEach unit may only have one lover.",
        "icon_nid": "LTSkillIconSheet",
        "icon_index": [
            0,
            11
        ],
        "components": [
            [
                "ability",
                "True_Love"
            ],
            [
                "hidden",
                null
            ]
        ]
    }
]