[
    {
        "nid": "Avenger",
        "name": "Avenger",
        "desc": "For each dead ally,\n+10% all growths.",
        "icon_nid": "LTSkillIconSheet",
        "icon_index": [
            2,
            41
        ],
        "components": [
            [
                "class_skill",
                null
            ],
            [
                "copysafe",
                []
            ],
            [
                "growth_change_expression",
                [
                    [
                        "HP",
                        "len([u for u in game.get_all_units_in_party() if is_dead(u.nid) and 'Banished' not in u.tags]) * 10"
                    ],
                    [
                        "STR",
                        "len([u for u in game.get_all_units_in_party() if is_dead(u.nid) and 'Banished' not in u.tags]) * 10"
                    ],
                    [
                        "MAG",
                        "len([u for u in game.get_all_units_in_party() if is_dead(u.nid) and 'Banished' not in u.tags]) * 10"
                    ],
                    [
                        "SKL",
                        "len([u for u in game.get_all_units_in_party() if is_dead(u.nid) and 'Banished' not in u.tags]) * 10"
                    ],
                    [
                        "SPD",
                        "len([u for u in game.get_all_units_in_party() if is_dead(u.nid) and 'Banished' not in u.tags]) * 10"
                    ],
                    [
                        "LCK",
                        "len([u for u in game.get_all_units_in_party() if is_dead(u.nid) and 'Banished' not in u.tags]) * 10"
                    ],
                    [
                        "DEF",
                        "len([u for u in game.get_all_units_in_party() if is_dead(u.nid) and 'Banished' not in u.tags]) * 10"
                    ],
                    [
                        "RES",
                        "len([u for u in game.get_all_units_in_party() if is_dead(u.nid) and 'Banished' not in u.tags]) * 10"
                    ]
                ]
            ]
        ]
    }
]