[
    {
        "nid": "BadVibes_Child",
        "name": "Bad Vibes",
        "desc": "-20 Hit/Avo and -2 Def/Res. These effects can stack.",
        "icon_nid": "LTSkillIconSheet",
        "icon_index": [
            4,
            41
        ],
        "components": [
            [
                "stack",
                999
            ],
            [
                "eval_hit",
                "0 if has_skill(unit,'Oblivious') else -20"
            ],
            [
                "eval_avoid",
                "0 if has_skill(unit,'Oblivious') else -20"
            ],
            [
                "stat_change_expression",
                [
                    [
                        "DEF",
                        "0 if has_skill(unit,'Oblivious') else -2"
                    ],
                    [
                        "RES",
                        "0 if has_skill(unit,'Oblivious') else -2"
                    ]
                ]
            ]
        ]
    }
]