[
    {
        "nid": "Battle_Armor",
        "name": "Battle Armor",
        "desc": "Fuels some of unit's other skills.\nWhen defeating a foe, gain +1 charge.\nWhile 3 or more charges remain, negates effective damage.\nUnit is treated as an <violet>Armor</>.",
        "icon_nid": "LTSkillIconSheet",
        "icon_index": [
            4,
            37
        ],
        "components": [
            [
                "class_skill",
                null
            ],
            [
                "drain_charge",
                6
            ],
            [
                "kill_charge_increase",
                1
            ],
            [
                "has_tags",
                [
                    "Armor"
                ]
            ]
        ]
    }
]