[
    {
        "nid": "Beacon_Move_1",
        "name": "Beacon Move 1",
        "desc": "",
        "icon_nid": null,
        "icon_index": [
            0,
            0
        ],
        "components": [
            [
                "stat_change",
                [
                    [
                        "MOV",
                        1
                    ]
                ]
            ],
            [
                "hidden",
                null
            ],
            [
                "condition",
                "has_skill(unit, 'Pathlight')"
            ],
            [
                "self_nihil",
                [
                    "Beacon_Move_2",
                    "Beacon_Move_3"
                ]
            ]
        ]
    }
]