[
    {
        "nid": "Black_Mana",
        "name": "Black Mana",
        "desc": "The unit's accumulation\nof black mana.",
        "icon_nid": "LTSkillIconSheet",
        "icon_index": [
            1,
            43
        ],
        "components": [
            [
                "stack",
                5
            ]
        ]
    }
]