[
    {
        "nid": "Blade_Session",
        "name": "Blade Session",
        "desc": "+2 damage dealt for each ally who has already acted this turn.",
        "icon_nid": "LTSkillIconSheet",
        "icon_index": [
            3,
            3
        ],
        "components": [
            [
                "class_skill",
                null
            ],
            [
                "dynamic_damage",
                "2 * len([u for u in game.get_player_units() if u._finished]) if not 'TrueDamage' in item.tags else 0"
            ],
            [
                "copysafe",
                []
            ],
            [
                "tether_parameters",
                {
                    "cost": 35,
                    "level": 2
                }
            ]
        ]
    }
]