[
    {
        "nid": "Blessings_Buff",
        "name": "Blessings",
        "desc": "Blessed by Qiylon.\nDef/Res +3.",
        "icon_nid": "Skills",
        "icon_index": [
            1,
            2
        ],
        "components": [
            [
                "time",
                1
            ],
            [
                "stat_change",
                [
                    [
                        "DEF",
                        3
                    ],
                    [
                        "RES",
                        3
                    ]
                ]
            ]
        ]
    }
]