[
    {
        "nid": "Blood_Rush",
        "name": "Blood Rush",
        "desc": "When initiating combat, if attack is lethal, refreshes <blue>Desperate Parry</>.",
        "icon_nid": "LTSkillIconSheet",
        "icon_index": [
            0,
            6
        ],
        "components": [
            [
                "class_skill",
                null
            ]
        ]
    }
]