[
    {
        "nid": "Bob_And_Weave_Child",
        "name": "Bobbing And Weaving",
        "desc": "Unit gets +20% Avoid, and enemies damaging this unit takes damage equal to half the damage they deal.",
        "icon_nid": "LTSkillIconSheet",
        "icon_index": [
            3,
            42
        ],
        "components": [
            [
                "avoid",
                20
            ],
            [
                "lost_on_upkeep",
                null
            ]
        ]
    }
]