[
    {
        "nid": "Bolas",
        "name": "Bolas",
        "desc": "Throwing items that target enemies gain +1 Range and +1 AoE.",
        "icon_nid": "LTSkillIconSheet",
        "icon_index": [
            0,
            34
        ],
        "components": [
            [
                "eval_range",
                "1 if 'Throwing' in item.tags else 0"
            ]
        ]
    }
]