[
    {
        "nid": "Bombmaker",
        "name": "Bombmaker",
        "desc": "Choose 1 item out of 3 Throwable items.",
        "icon_nid": "LTSkillIconSheet",
        "icon_index": [
            5,
            33
        ],
        "components": [
            [
                "ability",
                "Bombmaker"
            ],
            [
                "class_skill",
                null
            ],
            [
                "drain_charge",
                1
            ],
            [
                "copysafe",
                []
            ],
            [
                "tether_parameters",
                {
                    "cost": 45,
                    "level": 3
                }
            ]
        ]
    }
]