[
    {
        "nid": "Bounty_Reaper",
        "name": "Bounty Reaper",
        "desc": "Unit moves again after\nkilling a promoted enemy\nthe first time per map.",
        "icon_nid": "Skills",
        "icon_index": [
            0,
            0
        ],
        "components": [
            [
                "hidden",
                null
            ],
            [
                "drain_charge",
                1
            ],
            [
                "galeforce",
                null
            ],
            [
                "combat_condition",
                "DB.classes.get(unit2.klass).tier > 1"
            ]
        ]
    }
]