[
    {
        "nid": "BowrangePlus1",
        "name": "Bowrange +1",
        "desc": "Passive. +1 maximum range with bows.",
        "icon_nid": "LTSkillIconSheet",
        "icon_index": [
            0,
            28
        ],
        "components": [
            [
                "condition",
                "item_system.weapon_type(unit, item) == 'Bow'"
            ],
            [
                "class_skill",
                null
            ],
            [
                "modify_maximum_range",
                1
            ],
            [
                "copysafe",
                []
            ],
            [
                "tether_parameters",
                {
                    "cost": 50,
                    "level": 4
                }
            ]
        ]
    }
]