[
    {
        "nid": "Brave_Child",
        "name": "Brave",
        "desc": "+1 multiattack this turn.",
        "icon_nid": "LTSkillIconSheet",
        "icon_index": [
            0,
            3
        ],
        "components": [
            [
                "time",
                1
            ],
            [
                "lost_on_end_chapter",
                null
            ],
            [
                "dynamic_multiattacks",
                "1"
            ],
            [
                "stack",
                3
            ],
            [
                "combat_condition",
                "item_system.weapon_type(unit, item) != 'Staff' and not item_system.is_spell(unit, item) and not item.usable and not item.usable_in_base"
            ]
        ]
    }
]