[
    {
        "nid": "Burning",
        "name": "Burning",
        "desc": "Unit takes 4 damage after combat with a foe.\nDamage taken in this manner cannot be lethal.",
        "icon_nid": "Skills",
        "icon_index": [
            8,
            10
        ],
        "components": [
            [
                "negative",
                null
            ],
            [
                "recoil",
                4
            ],
            [
                "lost_on_end_chapter",
                null
            ],
            [
                "end_time",
                2
            ],
            [
                "unit_flickering_tint",
                [
                    204,
                    115,
                    52
                ]
            ]
        ]
    }
]