[
    {
        "nid": "Byflugnabu",
        "name": "B\u00fdflugnab\u00fa",
        "desc": "For each ally (including self) adjacent to foe, +2 damage dealt.",
        "icon_nid": "LTSkillIconSheet",
        "icon_index": [
            7,
            42
        ],
        "components": [
            [
                "combat_condition",
                "mode == 'defense' or 'TrueDamage' not in item.tags"
            ],
            [
                "dynamic_damage",
                "2 * len(get_allies_within_distance(target.position, 1))"
            ]
        ]
    }
]