[
    {
        "nid": "Canto_Plus",
        "name": "Canto+",
        "desc": "Can move again after attacking.",
        "icon_nid": "Skills",
        "icon_index": [
            1,
            4
        ],
        "components": [
            [
                "class_skill",
                null
            ],
            [
                "canto_plus",
                null
            ],
            [
                "copysafe",
                []
            ]
        ]
    }
]