[
    {
        "nid": "Card",
        "name": "Card",
        "desc": "Increases damage dealt and taken by +1. (Max 5)",
        "icon_nid": "{LordGlenn} Item 7",
        "icon_index": [
            0,
            0
        ],
        "components": [
            [
                "stack",
                5
            ],
            [
                "damage",
                1
            ],
            [
                "resist",
                -1
            ]
        ]
    }
]