[
    {
        "nid": "Chains_of_Thanatos",
        "name": "Chains of Thanatos",
        "desc": "Adjacent allies have 0 MOV.",
        "icon_nid": "LTSkillIconSheet",
        "icon_index": [
            6,
            29
        ],
        "components": [
            [
                "class_skill",
                null
            ],
            [
                "aura",
                "Chains_of_Thanatos_A"
            ],
            [
                "aura_range",
                1
            ],
            [
                "aura_target",
                "ally"
            ],
            [
                "copysafe",
                []
            ]
        ]
    }
]