[
    {
        "nid": "Charged",
        "name": "Charged",
        "desc": "+5 damage dealt in next combat.\nIf unit has a Thunder affinity, +10 damage instead.",
        "icon_nid": "LTSkillIconSheet",
        "icon_index": [
            2,
            35
        ],
        "components": [
            [
                "dynamic_damage",
                "10 if unit.affinity == 'Thunder' and not 'TrueDamage' in item.tags else 5 if not 'TrueDamage' in item.tags else 0"
            ],
            [
                "lost_on_end_combat2",
                {
                    "lost_on_self": false,
                    "lost_on_ally": false,
                    "lost_on_enemy": true,
                    "lost_on_splash": true
                }
            ],
            [
                "unit_anim",
                "OverchargeAura"
            ]
        ]
    }
]