[
    {
        "nid": "Chessmaster_Proc",
        "name": "Chessmaster",
        "desc": "+2 STR/MAG/DEF/RES for 1 turn.",
        "icon_nid": "LTSkillIconSheet",
        "icon_index": [
            6,
            50
        ],
        "components": [
            [
                "stat_change",
                [
                    [
                        "STR",
                        2
                    ],
                    [
                        "MAG",
                        2
                    ],
                    [
                        "DEF",
                        2
                    ],
                    [
                        "RES",
                        2
                    ]
                ]
            ],
            [
                "time",
                1
            ],
            [
                "unit_anim",
                "OverchargeAura"
            ]
        ]
    }
]