[
    {
        "nid": "Combat_Order",
        "name": "Combat Order",
        "desc": "Unit and allies within 2 spaces gain\n+2 STR/MAG/SKL and <blue>Desperation</> for 1 turn.",
        "icon_nid": "LTSkillIconSheet",
        "icon_index": [
            0,
            2
        ],
        "components": [
            [
                "class_skill",
                null
            ],
            [
                "ability",
                "Combat_Order"
            ],
            [
                "condition",
                "(has_skill(unit, 'Battle_Armor') and get_skill(unit, 'Battle_Armor').data['charge'] >= 2) or (has_skill(unit, 'Sixth_Armor') and get_skill(unit, 'Sixth_Armor').data['charge'] >= 2)"
            ]
        ]
    }
]