[
    {
        "nid": "Command_Loyalty",
        "name": "Command Loyalty",
        "desc": "If any unit is revived, that unit gains a stack of Loyal (max 2).\nLoyal grants +1 to all stats when this unit is deployed.",
        "icon_nid": "LTSkillIconSheet",
        "icon_index": [
            6,
            42
        ],
        "components": [
            [
                "class_skill",
                null
            ],
            [
                "aura",
                "Command_Loyalty_H"
            ],
            [
                "aura_range",
                99
            ],
            [
                "aura_target",
                "ally"
            ],
            [
                "hide_aura",
                null
            ]
        ]
    }
]