[
    {
        "nid": "Consume_Life",
        "name": "Consume Life",
        "desc": "Kill an ally to restore full HP.\nCooldown 1.",
        "icon_nid": "LTSkillIconSheet",
        "icon_index": [
            3,
            40
        ],
        "components": [
            [
                "class_skill",
                null
            ],
            [
                "ability",
                "Consume_Life"
            ],
            [
                "copysafe",
                []
            ]
        ]
    }
]