[
    {
        "nid": "Covetous_Love",
        "name": "Covetous Love",
        "desc": "If within 3 tiles of their beloved, this unit will gain +6 Damage and AS.",
        "icon_nid": "LTSkillIconSheet",
        "icon_index": [
            6,
            11
        ],
        "components": [
            [
                "combat_condition",
                "any([u for u in get_allies_within_distance(unit.position, 3) if unit.get_field('coveted') == u.nid])"
            ],
            [
                "damage",
                6
            ],
            [
                "attack_speed",
                6
            ]
        ]
    }
]