[
    {
        "nid": "Crackling_Bolt",
        "name": "Crackling Bolt",
        "desc": "Next turn, target foe within 10 spaces will be <blue>Dazzled</>.\nIf more than 1 Thunder affinity ally is present, the target will take 7 damage on cast.\nThe damage will not be lethal. Can act after use.",
        "icon_nid": "LTSkillIconSheet",
        "icon_index": [
            2,
            6
        ],
        "components": [
            [
                "class_skill",
                null
            ],
            [
                "drain_charge",
                2
            ],
            [
                "ability",
                "Crackling_Bolt"
            ],
            [
                "copysafe",
                []
            ],
            [
                "tether_parameters",
                {
                    "cost": 25,
                    "level": 3
                }
            ]
        ]
    }
]