[
    {
        "nid": "Crimson",
        "name": "Crimson",
        "desc": "Lost at the end of the turn.",
        "icon_nid": "LTSkillIconSheet",
        "icon_index": [
            0,
            8
        ],
        "components": [
            [
                "lost_on_endstep",
                null
            ],
            [
                "lost_on_end_chapter",
                null
            ],
            [
                "stack",
                999
            ]
        ]
    }
]