[
    {
        "nid": "Daring_Fighter",
        "name": "Daring Fighter",
        "desc": "When within 2 tiles of a female ally, gain +4 Speed.",
        "icon_nid": "LTSkillIconSheet",
        "icon_index": [
            4,
            32
        ],
        "components": [
            [
                "class_skill",
                null
            ],
            [
                "condition",
                "len(get_units_within_distance(unit.position, dist=2, team='player', tag='Female')) > 0"
            ],
            [
                "stat_change",
                [
                    [
                        "SPD",
                        4
                    ]
                ]
            ],
            [
                "copysafe",
                []
            ],
            [
                "tether_parameters",
                {
                    "cost": 35,
                    "level": 1
                }
            ]
        ]
    }
]