[
    {
        "nid": "Dazzling_Presence",
        "name": "Dazzling Presence",
        "desc": "If another Thunder affinity ally is on the field, gain an aura that inflicts <blue>Dazzled</> on non-boss foes within 2 spaces.\nThis aura lasts 1 turn, but can be regained each turn.\nThis Dazzle affects each foe once per turn and will be cleared when the foe is struck.",
        "icon_nid": "LTSkillIconSheet",
        "icon_index": [
            2,
            4
        ],
        "components": [
            [
                "class_skill",
                null
            ],
            [
                "condition",
                "any([u for u in game.get_player_units() if u.affinity == 'Thunder' and u.nid != unit.nid])"
            ],
            [
                "upkeep_skill_gain",
                "Dazzling_Presence_Aura"
            ],
            [
                "copysafe",
                []
            ]
        ]
    }
]