[
    {
        "nid": "Deaths_Door",
        "name": "Death's Door",
        "desc": "Unit is currently possessed\nand will die next start of turn.",
        "icon_nid": "LTSkillIconSheet",
        "icon_index": [
            0,
            41
        ],
        "components": [
            [
                "upkeep_event",
                "Global Ability_DeathThroes_Expire"
            ],
            [
                "lost_on_end_chapter",
                null
            ]
        ]
    }
]