[
    {
        "nid": "Defensetaker_Stack",
        "name": "Defensetaker",
        "desc": "DEF +2 per stack.",
        "icon_nid": "LTSkillIconSheet",
        "icon_index": [
            2,
            8
        ],
        "components": [
            [
                "stack",
                5
            ],
            [
                "stat_change",
                [
                    [
                        "DEF",
                        2
                    ]
                ]
            ],
            [
                "lost_on_end_chapter",
                null
            ]
        ]
    }
]