[
    {
        "nid": "Delayed_Attack",
        "name": "Delayed Attack",
        "desc": "When initiating combat, foe strikes first.",
        "icon_nid": "LTSkillIconSheet",
        "icon_index": [
            0,
            32
        ],
        "components": [
            [
                "combat_condition",
                "mode == 'attack'"
            ]
        ]
    }
]