[
    {
        "nid": "Discipline",
        "name": "Discipline",
        "desc": "Increases WEXP gained by 50%.",
        "icon_nid": "LTSkillIconSheet",
        "icon_index": [
            0,
            45
        ],
        "components": [
            [
                "class_skill",
                null
            ],
            [
                "copysafe",
                []
            ]
        ]
    }
]