[
    {
        "nid": "DishOut",
        "name": "Dish Out",
        "desc": "Whenever unit kills an enemy, unit has a LCK% chance to gain a random consumable.",
        "icon_nid": "LTSkillIconSheet",
        "icon_index": [
            5,
            33
        ],
        "components": [
            [
                "class_skill",
                null
            ],
            [
                "event_after_kill",
                "Global Ability_DishOut"
            ],
            [
                "copysafe",
                []
            ]
        ]
    }
]