[
    {
        "nid": "DismountDivebomb",
        "name": "Dismount Divebomb",
        "desc": "Refreshes unit's turn on use. Unit suffers -2 MOV, cannot fly, ignores mounted / flying effectiveness, and gains +2 to all stats until next turn. Next turn, unit can Mount Up to return to normal.",
        "icon_nid": "LTSkillIconSheet",
        "icon_index": [
            6,
            48
        ],
        "components": [
            [
                "class_skill",
                null
            ],
            [
                "ability",
                "DismountDivebomb"
            ],
            [
                "copysafe",
                []
            ],
            [
                "eval_galeforce",
                "item.nid == 'DismountDivebomb'"
            ],
            [
                "tether_parameters",
                {
                    "cost": 45,
                    "level": 4
                }
            ]
        ]
    }
]