[
    {
        "nid": "Divine_Retribution",
        "name": "Divine Retribution",
        "desc": "If foe initiates combat and this unit cannot counterattack, foe suffers half of the damage inflicted.",
        "icon_nid": "LTSkillIconSheet",
        "icon_index": [
            2,
            7
        ],
        "components": [
            [
                "class_skill",
                null
            ],
            [
                "copysafe",
                []
            ],
            [
                "tether_parameters",
                {
                    "cost": 20,
                    "level": 1
                }
            ]
        ]
    }
]