[
    {
        "nid": "DivineRod_DontHurtAllies",
        "name": "DivineRod DontHurtAllies",
        "desc": "",
        "icon_nid": null,
        "icon_index": [
            0,
            0
        ],
        "components": [
            [
                "hidden",
                null
            ],
            [
                "dynamic_accuracy",
                "-500 if (unit2.team=='player' or unit2.team=='other') else 0"
            ]
        ]
    }
]