[
    {
        "nid": "Dragonskin_Scorn",
        "name": "Dragonskin",
        "desc": "Unit takes 50% damage.",
        "icon_nid": "LTSkillIconSheet",
        "icon_index": [
            1,
            50
        ],
        "components": [
            [
                "global",
                null
            ],
            [
                "resist_multiplier",
                0.5
            ],
            [
                "hidden_if_inactive",
                null
            ],
            [
                "condition",
                "'Boss' not in unit.tags and RECORDS.get('Scorn_level') == 1"
            ]
        ]
    }
]