[
    {
        "nid": "EarthenWall",
        "name": "Earthen Wall",
        "desc": "Create a barrier of rock and stone in an adjacent tile, blocking enemy passage.",
        "icon_nid": "LTSkillIconSheet",
        "icon_index": [
            3,
            35
        ],
        "components": [
            [
                "ability",
                "EarthenWall"
            ],
            [
                "drain_charge",
                2
            ],
            [
                "class_skill",
                null
            ],
            [
                "copysafe",
                []
            ],
            [
                "tether_parameters",
                {
                    "cost": 20,
                    "level": 4
                }
            ]
        ]
    }
]