[
    {
        "nid": "Enchanted_Blade",
        "name": "Enchanted Blade",
        "desc": "Sword Combat Art. Range 1.\nAdd MAG to damage dealt, brave.\nCosts 3 Black Mana, 3 White Mana.",
        "icon_nid": "LTSkillIconSheet",
        "icon_index": [
            0,
            3
        ],
        "components": [
            [
                "class_skill",
                null
            ],
            [
                "combat_art",
                "Enchanted_Blade_P"
            ],
            [
                "copysafe",
                [
                    "Mana_Balance"
                ]
            ],
            [
                "condition",
                "len([s for s in unit.skills if s.nid == 'White_Mana']) >= 3 and len([s for s in unit.skills if s.nid == 'Black_Mana']) >= 3"
            ],
            [
                "allowed_weapons",
                "item_system.weapon_type(unit, item) == 'Sword'"
            ]
        ]
    }
]