[
    {
        "nid": "Encourage",
        "name": "Encourage",
        "desc": "Grant ally +2 MAG/RES\nfor 1 turn, and restore\na use of a skill.",
        "icon_nid": "LTSkillIconSheet",
        "icon_index": [
            3,
            41
        ],
        "components": [
            [
                "class_skill",
                null
            ],
            [
                "copysafe",
                []
            ],
            [
                "ability",
                "Encourage"
            ],
            [
                "drain_charge",
                1
            ]
        ]
    }
]