[
    {
        "nid": "Encouraged",
        "name": "Encouraged",
        "desc": "+2 MAG/RES",
        "icon_nid": "LTSkillIconSheet",
        "icon_index": [
            3,
            41
        ],
        "components": [
            [
                "stat_change",
                [
                    [
                        "MAG",
                        2
                    ],
                    [
                        "RES",
                        2
                    ]
                ]
            ],
            [
                "time",
                1
            ]
        ]
    }
]