[
    {
        "nid": "Enfeebled",
        "name": "Enfeebled",
        "desc": "All stats -4.",
        "icon_nid": "LTSkillIconSheet",
        "icon_index": [
            6,
            20
        ],
        "components": [
            [
                "stat_change",
                [
                    [
                        "STR",
                        -4
                    ],
                    [
                        "MAG",
                        -4
                    ],
                    [
                        "SKL",
                        -4
                    ],
                    [
                        "SPD",
                        -4
                    ],
                    [
                        "LCK",
                        -4
                    ],
                    [
                        "DEF",
                        -4
                    ],
                    [
                        "RES",
                        -4
                    ]
                ]
            ],
            [
                "negative",
                null
            ],
            [
                "lost_on_end_chapter",
                null
            ],
            [
                "upkeep_stat_change",
                [
                    [
                        "STR",
                        1
                    ],
                    [
                        "MAG",
                        1
                    ],
                    [
                        "SKL",
                        1
                    ],
                    [
                        "SPD",
                        1
                    ],
                    [
                        "LCK",
                        1
                    ],
                    [
                        "DEF",
                        1
                    ],
                    [
                        "RES",
                        1
                    ]
                ]
            ],
            [
                "time",
                4
            ]
        ]
    }
]