[
    {
        "nid": "Ethereal",
        "name": "Ethereal",
        "desc": "Unit cannot attack or be attacked,\nhas -2 MOV, walks through walls.",
        "icon_nid": "LTSkillIconSheet",
        "icon_index": [
            4,
            33
        ],
        "components": [
            [
                "cannot_use_items_enemy",
                null
            ],
            [
                "modify_ai_priority",
                0.0
            ],
            [
                "stat_change",
                [
                    [
                        "MOV",
                        -2
                    ]
                ]
            ],
            [
                "movement_type",
                "Ethereal"
            ],
            [
                "end_time",
                2
            ],
            [
                "lost_on_end_chapter",
                null
            ]
        ]
    }
]