[
    {
        "nid": "Extra_Credit",
        "name": "Extra Credit",
        "desc": "When dealing lethal damage, one of the effects of \nFlame Striker, Essence Render, or Fragment Maker will trigger.",
        "icon_nid": "LTSkillIconSheet",
        "icon_index": [
            4,
            4
        ],
        "components": [
            [
                "class_skill",
                null
            ],
            [
                "event_after_kill",
                "Global Ability_Extra_Credit"
            ],
            [
                "copysafe",
                []
            ],
            [
                "tether_parameters",
                {
                    "cost": 20,
                    "level": 2
                }
            ]
        ]
    }
]