[
    {
        "nid": "FaithTempo",
        "name": "Faith's Tempo",
        "desc": "Grants +2 AS with Light Tomes.",
        "icon_nid": "LTSkillIconSheet",
        "icon_index": [
            2,
            11
        ],
        "components": [
            [
                "combat_condition",
                "item_system.weapon_type(unit, item) == 'Light'"
            ],
            [
                "attack_speed",
                2
            ],
            [
                "defense_speed",
                2
            ],
            [
                "stack",
                3
            ],
            [
                "unit_flickering_tint",
                [
                    254,
                    255,
                    166
                ]
            ]
        ]
    }
]