[
    {
        "nid": "FamilyHistoryBuff",
        "name": "FamilyHistoryBuff",
        "desc": "",
        "icon_nid": "Skills",
        "icon_index": [
            0,
            0
        ],
        "components": [
            [
                "combat_condition",
                "unit.level > unit2.level"
            ],
            [
                "dynamic_damage",
                "(unit.level - unit2.level)"
            ],
            [
                "hidden",
                null
            ]
        ]
    }
]