[
    {
        "nid": "Fervor",
        "name": "Fervor",
        "desc": "+2 STR/MAG for each missing 5 HP.",
        "icon_nid": "Skills",
        "icon_index": [
            8,
            10
        ],
        "components": [
            [
                "class_skill",
                null
            ],
            [
                "copysafe",
                []
            ],
            [
                "stat_change_expression",
                [
                    [
                        "STR",
                        "2 * (unit.stats['HP'] - unit.get_hp()) // 5"
                    ],
                    [
                        "MAG",
                        "2 * (unit.stats['HP'] - unit.get_hp()) // 5"
                    ]
                ]
            ]
        ]
    }
]