[
    {
        "nid": "Fianchetto",
        "name": "Fianchetto",
        "desc": "When initiating combat, if unit\nmoved at least one tile this turn\nand only moved directly diagonally,\nadd the amount of tiles moved to\nattack, resist, and healing power.",
        "icon_nid": "Skills",
        "icon_index": [
            4,
            5
        ],
        "components": [
            [
                "condition",
                "(unit.position[0] - unit.previous_position[0]) == (unit.position[1] - unit.previous_position[1]) or (unit.position[0] - unit.previous_position[0]) == -1 * (unit.position[1] - unit.previous_position[1])"
            ],
            [
                "empower_heal",
                "max(0, utils.calculate_distance(unit.position, unit.previous_position))"
            ],
            [
                "dynamic_resist",
                "max(0, utils.calculate_distance(unit.position, unit.previous_position))"
            ],
            [
                "dynamic_damage",
                "max(0, utils.calculate_distance(unit.position, unit.previous_position)) if not 'TrueDamage' in item.tags else 0"
            ],
            [
                "class_skill",
                null
            ],
            [
                "copysafe",
                []
            ]
        ]
    }
]