[
    {
        "nid": "First_Strike",
        "name": "First Strike",
        "desc": "The first attack each room has +100 Crit.",
        "icon_nid": "LTSkillIconSheet",
        "icon_index": [
            5,
            38
        ],
        "components": [
            [
                "attack_proc",
                "First_Strike_child"
            ],
            [
                "drain_charge",
                1
            ],
            [
                "crit",
                100
            ]
        ]
    }
]