[
    {
        "nid": "Focus",
        "name": "Focus",
        "desc": "Grants STR/MAG/SKL/SPD +2 while only one other item in inventory.",
        "icon_nid": "LTSkillIconSheet",
        "icon_index": [
            0,
            43
        ],
        "components": [
            [
                "stat_change",
                [
                    [
                        "STR",
                        2
                    ],
                    [
                        "SKL",
                        2
                    ],
                    [
                        "SPD",
                        2
                    ],
                    [
                        "MAG",
                        2
                    ]
                ]
            ],
            [
                "condition",
                "len(unit.items) <= 2"
            ]
        ]
    }
]