[
    {
        "nid": "Fogs_Reach",
        "name": "Fog's Reach",
        "desc": "When foe initiates combat, unit can counterattack from range 2.",
        "icon_nid": "LTSkillIconSheet",
        "icon_index": [
            6,
            36
        ],
        "components": [
            [
                "combat_condition",
                "game.phase.get_current() != unit.team and utils.calculate_distance(unit.position, target.position) == 2"
            ],
            [
                "distant_counter",
                null
            ]
        ]
    }
]