[
    {
        "nid": "FragmentMaker",
        "name": "FragmentMaker",
        "desc": "",
        "icon_nid": null,
        "icon_index": [
            0,
            0
        ],
        "components": [
            [
                "event_after_kill",
                "Global Item_FragmentMaker"
            ],
            [
                "hidden",
                null
            ]
        ]
    }
]