[
    {
        "nid": "From_Heaven",
        "name": "From Heaven",
        "desc": "If unit is on a tile impassable to foe, +20 Avoid.",
        "icon_nid": "LTSkillIconSheet",
        "icon_index": [
            6,
            38
        ],
        "components": [
            [
                "class_skill",
                null
            ],
            [
                "combat_condition",
                "not movement_funcs.check_traversable(target, unit.position)"
            ],
            [
                "avoid",
                20
            ],
            [
                "copysafe",
                []
            ],
            [
                "tether_parameters",
                {
                    "cost": 15,
                    "level": 1
                }
            ]
        ]
    }
]