[
    {
        "nid": "FrostsWings",
        "name": "Frost's Wings",
        "desc": "Allies with Ice affinity within 3 tiles gain +1 Move, and have all debuffs removed at the start of their turn.",
        "icon_nid": "Skills",
        "icon_index": [
            3,
            10
        ],
        "components": [
            [
                "class_skill",
                null
            ],
            [
                "aura",
                "FrostsWings_Child"
            ],
            [
                "aura_range",
                3
            ],
            [
                "aura_target",
                "ally"
            ],
            [
                "copysafe",
                []
            ]
        ]
    }
]