[
    {
        "nid": "FungalPuppet",
        "name": "Fungal Puppet",
        "desc": "This unit is an animated puppet controlled by fungi.",
        "icon_nid": "LTSkillIconSheet",
        "icon_index": [
            0,
            48
        ],
        "components": [
            [
                "class_skill",
                null
            ]
        ]
    }
]