[
    {
        "nid": "Fusillade",
        "name": "Fusillade",
        "desc": "Combat Art. Make a bow attack that gains AoE 1.",
        "icon_nid": "Skills",
        "icon_index": [
            4,
            1
        ],
        "components": [
            [
                "class_skill",
                null
            ],
            [
                "drain_charge",
                1
            ],
            [
                "combat_art",
                "Fusillade_Proc"
            ],
            [
                "allowed_weapons",
                "item_system.is_weapon(unit, item) and item_system.weapon_type(unit, item) == 'Bow'"
            ],
            [
                "copysafe",
                []
            ],
            [
                "tether_parameters",
                {
                    "cost": 25,
                    "level": 2
                }
            ]
        ]
    }
]