[
    {
        "nid": "GhastlyFeast_Proc",
        "name": "Ghastly Feast",
        "desc": "Can only be used against foes inflicted with toxin. Attack 5 times successively with 50% attack. Toxin adds double its usual benefit. ",
        "icon_nid": "LTSkillIconSheet",
        "icon_index": [
            2,
            38
        ],
        "components": [
            [
                "dynamic_multiattacks",
                "4"
            ],
            [
                "cannot_double",
                null
            ],
            [
                "damage_multiplier",
                0.5
            ],
            [
                "lost_on_endstep",
                null
            ],
            [
                "item_override",
                "GhastlyFeastOverride"
            ],
            [
                "combat_art_proc",
                null
            ]
        ]
    }
]