[
    {
        "nid": "Gliding_Steps",
        "name": "Gliding Steps",
        "desc": "Unit can move as if it were Flying.\nUnit can pass through enemy units.",
        "icon_nid": "LTSkillIconSheet",
        "icon_index": [
            3,
            43
        ],
        "components": [
            [
                "class_skill",
                null
            ],
            [
                "pass",
                null
            ],
            [
                "movement_type",
                "Fliers"
            ]
        ]
    }
]