[
    {
        "nid": "GlintEdge",
        "name": "Glint Edge",
        "desc": "Make a special attack (4 Mt, 90 Hit) at 2 range, inflicting Blinded on hit.\nPhysical damage.",
        "icon_nid": "LTSkillIconSheet",
        "icon_index": [
            2,
            35
        ],
        "components": [
            [
                "drain_charge",
                2
            ],
            [
                "copysafe",
                []
            ],
            [
                "class_skill",
                null
            ],
            [
                "ability",
                "Glint_Edge"
            ]
        ]
    }
]