[
    {
        "nid": "Global_Parameters",
        "name": "Global Parameters",
        "desc": "",
        "icon_nid": "Skills",
        "icon_index": [
            0,
            0
        ],
        "components": [
            [
                "hidden",
                null
            ],
            [
                "global",
                null
            ],
            [
                "wexp_multiplier",
                0
            ],
            [
                "exp_multiplier",
                0
            ],
            [
                "item_override",
                "No_Anim_Override"
            ]
        ]
    }
]