[
    {
        "nid": "GUARD_spotted",
        "name": "GUARD spotted",
        "desc": "",
        "icon_nid": "LTSkillIconSheet",
        "icon_index": [
            0,
            49
        ],
        "components": [
            [
                "hidden",
                null
            ]
        ]
    }
]