[
    {
        "nid": "Guerilla_Tactics",
        "name": "Guerilla Tactics",
        "desc": "Improved terrain movement,\n+3 damage/+30 hit vs terrain for infantry.",
        "icon_nid": "Skills",
        "icon_index": [
            0,
            0
        ],
        "components": [
            [
                "hidden",
                null
            ],
            [
                "condition",
                "'Infantry' in unit.tags"
            ],
            [
                "movement_type",
                "Guerilla"
            ],
            [
                "dynamic_accuracy",
                "30 if any([s.is_terrain for s in target.skills]) else 0"
            ],
            [
                "dynamic_damage",
                "3 if any([s.is_terrain for s in target.skills]) and not 'TrueDamage' in item.tags else 0"
            ]
        ]
    }
]