[
    {
        "nid": "Hellspark",
        "name": "Hellspark",
        "desc": "Unit can cast the <blue>Hellspark</> spell.\n<blue>Hellspark</>: 3 mt, inflicts <blue>Laceration</> and <blue>Burning</>.",
        "icon_nid": "Ryan914_Collection",
        "icon_index": [
            15,
            0
        ],
        "components": [
            [
                "class_skill",
                null
            ],
            [
                "drain_charge",
                3
            ],
            [
                "ability",
                "Hellspark"
            ],
            [
                "copysafe",
                []
            ]
        ]
    }
]