[
    {
        "nid": "Heroics",
        "name": "Heroics",
        "desc": "At 25 stacks, something good will happen.",
        "icon_nid": "LTSkillIconSheet",
        "icon_index": [
            6,
            45
        ],
        "components": [
            [
                "stack",
                25
            ]
        ]
    }
]