[
    {
        "nid": "Hidden_No_Axe",
        "name": "Hidden No Axe",
        "desc": "",
        "icon_nid": "LTSkillIconSheet",
        "icon_index": [
            2,
            30
        ],
        "components": [
            [
                "hidden",
                null
            ],
            [
                "wexp_unusable_skill",
                "Axe"
            ]
        ]
    }
]