[
    {
        "nid": "HippocraticOath",
        "name": "Hippocratic Oath",
        "desc": "Unit cannot deal damage.",
        "icon_nid": "LTSkillIconSheet",
        "icon_index": [
            4,
            32
        ],
        "components": [
            [
                "class_skill",
                null
            ],
            [
                "damage_multiplier",
                0.0
            ]
        ]
    }
]