[
    {
        "nid": "Holey_Grail",
        "name": "Holey Grail",
        "desc": "Regen 2 HP at the start of\neach turn for three turns.",
        "icon_nid": "tactics_ogre",
        "icon_index": [
            11,
            14
        ],
        "components": [
            [
                "eval_regeneration",
                "2"
            ],
            [
                "condition",
                "game.turncount <= 3 and v('in_combat') == 1"
            ]
        ]
    }
]