[
    {
        "nid": "Hunt",
        "name": "Hunt",
        "desc": "When Initiating, if attack is lethal, gain either a Beef or a Perfect Beef.",
        "icon_nid": "LTSkillIconSheet",
        "icon_index": [
            2,
            34
        ],
        "components": [
            [
                "class_skill",
                null
            ],
            [
                "drain_charge",
                1
            ]
        ]
    }
]