[
    {
        "nid": "Immolation_Buff",
        "name": "Immolation Buff",
        "desc": "",
        "icon_nid": null,
        "icon_index": [
            0,
            0
        ],
        "components": [
            [
                "upkeep_event",
                "Global Item Immolation"
            ],
            [
                "dynamic_accuracy",
                "-500 if unit2.team == 'player' else 0"
            ],
            [
                "hidden",
                null
            ]
        ]
    }
]