[
    {
        "nid": "Indecisive",
        "name": "Indecisive",
        "desc": "Unit can't deal damage every other turn.",
        "icon_nid": "LTSkillIconSheet",
        "icon_index": [
            3,
            30
        ],
        "components": [
            [
                "class_skill",
                null
            ],
            [
                "condition",
                "game.turncount % 2 == 0"
            ],
            [
                "damage_multiplier",
                0.0
            ]
        ]
    }
]