[
    {
        "nid": "Inquisitive",
        "name": "Inquisitive",
        "desc": "Inflicts -15 Hit/Avoid to adjacent allies.",
        "icon_nid": "LTSkillIconSheet",
        "icon_index": [
            1,
            24
        ],
        "components": [
            [
                "aura",
                "Inquisitive_Child"
            ],
            [
                "aura_range",
                1
            ],
            [
                "aura_target",
                "ally"
            ],
            [
                "class_skill",
                null
            ]
        ]
    }
]