[
    {
        "nid": "Inspired_Heal_Child",
        "name": "Inspired Heal",
        "desc": "Unit will recover 10% HP during upkeep.\nCan only trigger twice per chapter.",
        "icon_nid": "LTSkillIconSheet",
        "icon_index": [
            1,
            42
        ],
        "components": [
            [
                "regeneration",
                0.1
            ],
            [
                "upkeep_skill_gain",
                "Relief"
            ],
            [
                "hidden",
                null
            ],
            [
                "condition",
                "len([s for s in unit.skills if s.nid == 'Relief']) < 2 and unit.get_hp() < unit.get_max_hp()"
            ]
        ]
    }
]