[
    {
        "nid": "KickMeSign_Child",
        "name": "\"Kick-Me\" Sign",
        "desc": "Kick the unfortunate wearer of the \"Kick-Me\" Sign 1 tile away.",
        "icon_nid": "beansy paper",
        "icon_index": [
            0,
            0
        ],
        "components": [
            [
                "ability",
                "KickMeSign_Shove"
            ]
        ]
    }
]