[
    {
        "nid": "Kinsho_Restrict",
        "name": "Kinsho_Restrict",
        "desc": "Used to prevent Rook from counterattacking diagonally.",
        "icon_nid": "Skills",
        "icon_index": [
            0,
            0
        ],
        "components": [
            [
                "combat_condition",
                "not((unit.position[0] - target.position[0] == 1) and (unit.position[1] - target.position[1] == 0) or (unit.position[0] - target.position[0] == -1) and (unit.position[1] - target.position[1] == 0) or (unit.position[0] - target.position[0] == 0) and (unit.position[1] - target.position[1] == 1) or (unit.position[0] - target.position[0] == 0) and (unit.position[1] - target.position[1] == -1) or (unit.position[0] - target.position[0] == -1) and (unit.position[1] - target.position[1] == -1) or (unit.position[0] - target.position[0] == 1) and (unit.position[1] - target.position[1] == -1))"
            ],
            [
                "item_override",
                "Cannot_Counter_Override"
            ],
            [
                "hidden",
                null
            ]
        ]
    }
]