[
    {
        "nid": "Knife_Thrower",
        "name": "Knife Thrower",
        "desc": "Unit can toss a Shiv from range 1 or 2.\n0 MT, 105 HIT. Can act after use.\nLost on end chapter.",
        "icon_nid": "LTSkillIconSheet",
        "icon_index": [
            6,
            30
        ],
        "components": [
            [
                "class_skill",
                null
            ],
            [
                "ability",
                "Shiv"
            ],
            [
                "drain_charge",
                5
            ],
            [
                "lost_on_end_chapter",
                null
            ]
        ]
    }
]