[
    {
        "nid": "Lancefaire",
        "name": "Lancefaire",
        "desc": "+4 damage dealth with lances.",
        "icon_nid": "LTSkillIconSheet",
        "icon_index": [
            1,
            31
        ],
        "components": [
            [
                "class_skill",
                null
            ],
            [
                "damage",
                4
            ],
            [
                "combat_condition",
                "unit.get_weapon() and item_system.weapon_type(unit, unit.get_weapon()) == 'Lance' and not 'TrueDamage' in item.tags"
            ],
            [
                "copysafe",
                []
            ]
        ]
    }
]