[
    {
        "nid": "Lck_2",
        "name": "Luck +2",
        "desc": "Grants +2 Luck",
        "icon_nid": "LTSkillIconSheet",
        "icon_index": [
            0,
            17
        ],
        "components": [
            [
                "stack",
                999
            ],
            [
                "stat_change",
                [
                    [
                        "LCK",
                        2
                    ]
                ]
            ]
        ]
    }
]