[
    {
        "nid": "Leading_Charge",
        "name": "Leading Charge",
        "desc": "When an ally within 3 spaces initiates an attack, this unit will perform a <green>Preceding Combat</>.\nThe attack launched by this effect cannot be fatal, countered, nor move the target.\nThe attack launched by this effect will use the weapon <red>Flag of Hope</>.",
        "icon_nid": "Skills",
        "icon_index": [
            10,
            4
        ],
        "components": [
            [
                "class_skill",
                null
            ],
            [
                "aura",
                "Leading_Charge_Child"
            ],
            [
                "aura_range",
                3
            ],
            [
                "aura_target",
                "ally"
            ],
            [
                "copysafe",
                []
            ]
        ]
    }
]