[
    {
        "nid": "Liber_Damage",
        "name": "Liber Damage",
        "desc": "",
        "icon_nid": null,
        "icon_index": [
            0,
            0
        ],
        "components": [
            [
                "eval_damage",
                "len([u for u in game.get_all_units_in_party() if is_dead(u.nid)]) if not 'TrueDamage' in item.tags else 0"
            ],
            [
                "eval_hit",
                "5 * len([u for u in game.get_all_units_in_party() if is_dead(u.nid)])"
            ],
            [
                "hidden",
                null
            ]
        ]
    }
]