[
    {
        "nid": "Mag_Minus_5",
        "name": "Mag -5",
        "desc": "-5 MAG.",
        "icon_nid": "LTSkillIconSheet",
        "icon_index": [
            7,
            14
        ],
        "components": [
            [
                "stat_change",
                [
                    [
                        "MAG",
                        -5
                    ]
                ]
            ]
        ]
    }
]