[
    {
        "nid": "Magictaker_Stack",
        "name": "Magictaker",
        "desc": "MAG +2 per stack.",
        "icon_nid": "LTSkillIconSheet",
        "icon_index": [
            5,
            8
        ],
        "components": [
            [
                "stack",
                5
            ],
            [
                "stat_change",
                [
                    [
                        "MAG",
                        2
                    ]
                ]
            ],
            [
                "lost_on_end_chapter",
                null
            ]
        ]
    }
]