[
    {
        "nid": "Magictaker",
        "name": "Magictaker",
        "desc": "Grants a stacking MAG +2 each time unit initiates combat and defeats a foe.\nBonus lasts for the rest of the battle.\n(Max 5 stacks)",
        "icon_nid": "LTSkillIconSheet",
        "icon_index": [
            5,
            8
        ],
        "components": [
            [
                "gain_skill_after_active_kill",
                "Magictaker_Stack"
            ]
        ]
    }
]