[
    {
        "nid": "Make5Attacks",
        "name": "Make5Attacks",
        "desc": "myriad arrows",
        "icon_nid": null,
        "icon_index": [
            0,
            0
        ],
        "components": [
            [
                "dynamic_multiattacks",
                "4"
            ],
            [
                "hidden",
                null
            ],
            [
                "condition",
                "item.nid == 'MyriadArrows'"
            ],
            [
                "combat_condition",
                "mode == 'attack'"
            ]
        ]
    }
]