[
    {
        "nid": "MaliceBlitz_Proc",
        "name": "Malice Blitz",
        "desc": "Combat art. Attack 5 times, losing 5 HP on each landed hit.",
        "icon_nid": "Skills",
        "icon_index": [
            4,
            1
        ],
        "components": [
            [
                "dynamic_multiattacks",
                "4"
            ],
            [
                "item_override",
                "Malice_Blitz_Override"
            ],
            [
                "cannot_double",
                null
            ],
            [
                "combat_art_proc",
                null
            ]
        ]
    }
]