[
    {
        "nid": "Mastered_Style_Helper",
        "name": "Mastered Style",
        "desc": "At Range 1, +50% damage dealt.\nOtherwise, -100% damage dealt.",
        "icon_nid": "LTSkillIconSheet",
        "icon_index": [
            0,
            31
        ],
        "components": [
            [
                "damage_multiplier",
                0.0
            ],
            [
                "combat_condition",
                "utils.calculate_distance(unit.position, target.position) > 1 and not 'TrueDamage' in item.tags"
            ],
            [
                "hidden",
                null
            ]
        ]
    }
]