[
    {
        "nid": "Mighty_Gale_Give",
        "name": "Mighty Gale",
        "desc": "Allies within 3 spaces gain +4 SPD and +2 MOV.",
        "icon_nid": "LTSkillIconSheet",
        "icon_index": [
            3,
            2
        ],
        "components": [
            [
                "hidden",
                null
            ],
            [
                "gain_skill_after_attack",
                "Mighty_Gale"
            ]
        ]
    }
]