[
    {
        "nid": "Mov_Lock_Tri",
        "name": "Mov Lock Tri",
        "desc": "",
        "icon_nid": "Skills",
        "icon_index": [
            0,
            0
        ],
        "components": [
            [
                "hidden",
                null
            ],
            [
                "lost_on_end_chapter",
                null
            ],
            [
                "lost_on_endstep",
                null
            ],
            [
                "stat_change",
                [
                    [
                        "MOV",
                        -5
                    ]
                ]
            ]
        ]
    }
]