[
    {
        "nid": "MOV_Minus_2_Temp",
        "name": "MOV -2",
        "desc": "MOV -2",
        "icon_nid": "LTSkillIconSheet",
        "icon_index": [
            1,
            22
        ],
        "components": [
            [
                "negative",
                null
            ],
            [
                "stat_change",
                [
                    [
                        "MOV",
                        -2
                    ]
                ]
            ],
            [
                "lost_on_end_chapter",
                null
            ],
            [
                "combined_time",
                1
            ]
        ]
    }
]