[
    {
        "nid": "Ninth_Life_Rio",
        "name": "Ninth Life",
        "desc": "Once per map, survives any attack with 1 HP.\nCannot proc while at 1 HP.",
        "icon_nid": "Skills",
        "icon_index": [
            1,
            3
        ],
        "components": [
            [
                "TrueMiracle",
                null
            ],
            [
                "drain_charge",
                1
            ],
            [
                "condition",
                "unit.get_hp() > 1"
            ],
            [
                "class_skill",
                null
            ],
            [
                "copysafe",
                []
            ]
        ]
    }
]