[
    {
        "nid": "Orion_Belt",
        "name": "Orion's Belt",
        "desc": "Orion's Belt lets you use only bows.",
        "icon_nid": "LTSkillIconSheet",
        "icon_index": [
            3,
            31
        ],
        "components": [
            [
                "wexp_usable_skill",
                "Bow"
            ],
            [
                "class_skill",
                null
            ],
            [
                "eval_damage",
                "unit.get_stat('SKL') // 2 if not 'TrueDamage' in item.tags else 0"
            ]
        ]
    }
]