[
    {
        "nid": "Our_Last_Stand",
        "name": "Our Last Stand",
        "desc": "Each unit will survive a fatal attack with 1 HP, once per chapter.",
        "icon_nid": "Skills",
        "icon_index": [
            0,
            0
        ],
        "components": [
            [
                "hidden",
                null
            ],
            [
                "TrueMiracle",
                null
            ],
            [
                "drain_charge",
                1
            ]
        ]
    }
]