[
    {
        "nid": "Painful_Existence",
        "name": "Painful Existence",
        "desc": "Unit takes 5 non-lethal damage after initiating combat with an enemy.",
        "icon_nid": "LTSkillIconSheet",
        "icon_index": [
            4,
            41
        ],
        "components": [
            [
                "recoil",
                5
            ],
            [
                "combat_condition",
                "mode == 'attack'"
            ],
            [
                "class_skill",
                null
            ]
        ]
    }
]