[
    {
        "nid": "Patchwork",
        "name": "Patchwork",
        "desc": "Heals 4 HP for self or an adjacent unit.",
        "icon_nid": "Skills",
        "icon_index": [
            1,
            2
        ],
        "components": [
            [
                "class_skill",
                null
            ],
            [
                "drain_charge",
                2
            ],
            [
                "ability",
                "Patchwork"
            ],
            [
                "copysafe",
                []
            ]
        ]
    }
]