[
    {
        "nid": "Pavise",
        "name": "Pavise",
        "desc": "SKL% chance to halve damage from adjacent attackers.",
        "icon_nid": "LTSkillIconSheet",
        "icon_index": [
            0,
            9
        ],
        "components": [
            [
                "class_skill",
                null
            ],
            [
                "combat_condition",
                "utils.calculate_distance(unit.position, target.position) == 1"
            ],
            [
                "defense_proc",
                "Pavise_Proc"
            ],
            [
                "proc_rate",
                "SKILL"
            ],
            [
                "copysafe",
                []
            ]
        ]
    }
]