[
    {
        "nid": "Pigskin_Stomach",
        "name": "Pigskin Stomach",
        "desc": "If unit has any Negative statuses, +2 to all stats.",
        "icon_nid": "LTSkillIconSheet",
        "icon_index": [
            0,
            20
        ],
        "components": [
            [
                "condition",
                "any([s.negative for s in unit.skills])"
            ],
            [
                "stat_change",
                [
                    [
                        "STR",
                        2
                    ],
                    [
                        "MAG",
                        2
                    ],
                    [
                        "SKL",
                        2
                    ],
                    [
                        "SPD",
                        2
                    ],
                    [
                        "LCK",
                        2
                    ],
                    [
                        "DEF",
                        2
                    ],
                    [
                        "RES",
                        2
                    ]
                ]
            ]
        ]
    }
]