[
    {
        "nid": "Pivot",
        "name": "Pivot",
        "desc": "Move to the opposite side of the target.",
        "icon_nid": "LTSkillIconSheet",
        "icon_index": [
            3,
            36
        ],
        "components": [
            [
                "class_skill",
                null
            ],
            [
                "ability",
                "Pivot"
            ],
            [
                "copysafe",
                []
            ],
            [
                "tether_parameters",
                {
                    "cost": 20,
                    "level": 0
                }
            ]
        ]
    }
]