[
    {
        "nid": "Poisoned",
        "name": "Poisoned",
        "desc": "Unit takes 2 damage on upkeep.",
        "icon_nid": "Skills",
        "icon_index": [
            3,
            4
        ],
        "components": [
            [
                "negative",
                null
            ],
            [
                "combined_time",
                2
            ],
            [
                "unit_anim",
                "MapPoison"
            ],
            [
                "upkeep_event",
                "Global Ability_Poison"
            ],
            [
                "lost_on_end_chapter",
                null
            ],
            [
                "fatal_damage",
                null
            ]
        ]
    }
]