[
    {
        "nid": "Priestess_Protection_Child",
        "name": "Priestess Protection",
        "desc": "Heal <orange># of living Priestesses * 2</> HP after combat.",
        "icon_nid": "Skills",
        "icon_index": [
            1,
            2
        ],
        "components": [
            [
                "event_after_combat",
                "Global Ability_Preistess_Protection"
            ]
        ]
    }
]