[
    {
        "nid": "Prioritization",
        "name": "Prioritization",
        "desc": "If unit initiates combat against an enemy that is equipped with a weapon that is effective against unit, unit does +5 damage.",
        "icon_nid": "LTSkillIconSheet",
        "icon_index": [
            7,
            48
        ],
        "components": [
            [
                "combat_condition",
                "mode == 'attack' and target.get_weapon() and target.get_weapon().effective_damage and any([tag in target.get_weapon().effective_damage.tags for tag in unit.tags])"
            ],
            [
                "dynamic_damage",
                "5 if unit.get_weapon() and not 'TrueDamage' in unit.get_weapon().tags else 0"
            ],
            [
                "class_skill",
                null
            ],
            [
                "copysafe",
                []
            ],
            [
                "tether_parameters",
                {
                    "cost": 20,
                    "level": 1
                }
            ]
        ]
    }
]