[
    {
        "nid": "Prism_Stone_DS",
        "name": "Prism Stone",
        "desc": "",
        "icon_nid": "Batima_Stones",
        "icon_index": [
            8,
            0
        ],
        "components": [
            [
                "hidden",
                null
            ],
            [
                "combat_condition",
                "mode == 'attack' and 'Beast' in unit.tags"
            ],
            [
                "desperation",
                null
            ]
        ]
    }
]