[
    {
        "nid": "Promethean_Chains_A",
        "name": "Promethean Chains",
        "desc": "Unit has 0 MOV.",
        "icon_nid": "LTSkillIconSheet",
        "icon_index": [
            6,
            29
        ],
        "components": [
            [
                "stat_change",
                [
                    [
                        "MOV",
                        -99
                    ]
                ]
            ]
        ]
    }
]