[
    {
        "nid": "Protocol_PURSUE",
        "name": "Protocol: PURSUE",
        "desc": "If there are no enemies within 7 spaces,\ngain +5 MOV and Canto.",
        "icon_nid": "LTSkillIconSheet",
        "icon_index": [
            4,
            21
        ],
        "components": [
            [
                "condition",
                "len(get_units_within_distance(unit, 7, team='enemy')) == 0"
            ],
            [
                "stat_change",
                [
                    [
                        "MOV",
                        5
                    ]
                ]
            ],
            [
                "canto",
                null
            ],
            [
                "class_skill",
                null
            ],
            [
                "copysafe",
                []
            ],
            [
                "tether_parameters",
                {
                    "cost": 20,
                    "level": 4
                }
            ]
        ]
    }
]