[
    {
        "nid": "Protocol_PROTECT",
        "name": "Protocol: PROTECT",
        "desc": "Move to a tile next to an ally and gain <blue>Provoke</>.\nFree action.",
        "icon_nid": "LTSkillIconSheet",
        "icon_index": [
            3,
            46
        ],
        "components": [
            [
                "ability",
                "Protocol_Protect"
            ],
            [
                "drain_charge",
                3
            ],
            [
                "copysafe",
                []
            ]
        ]
    }
]