[
    {
        "nid": "Pulsar",
        "name": "Pulsar",
        "desc": "SKL% chance to add half of foe's current HP to damage dealt.",
        "icon_nid": "LTSkillIconSheet",
        "icon_index": [
            5,
            39
        ],
        "components": [
            [
                "class_skill",
                null
            ],
            [
                "attack_proc",
                "Pulsar_Proc"
            ],
            [
                "proc_rate",
                "SKILL"
            ],
            [
                "copysafe",
                []
            ],
            [
                "tether_parameters",
                {
                    "cost": 20,
                    "level": 2
                }
            ]
        ]
    }
]