[
    {
        "nid": "Quickdraw",
        "name": "Quickdraw",
        "desc": "Unit can fire guns as a free action.",
        "icon_nid": "Skills",
        "icon_index": [
            6,
            2
        ],
        "components": [
            [
                "class_skill",
                null
            ],
            [
                "item_override",
                "DualCastOverride"
            ],
            [
                "combat_condition",
                "'Gun' in item.tags"
            ],
            [
                "copysafe",
                []
            ]
        ]
    }
]