[
    {
        "nid": "Raging",
        "name": "Raging",
        "desc": "+10 Str and <blue>Berserked</> .",
        "icon_nid": "LTSkillIconSheet",
        "icon_index": [
            2,
            30
        ],
        "components": [
            [
                "stat_change",
                [
                    [
                        "STR",
                        10
                    ]
                ]
            ],
            [
                "ignore_alliances",
                null
            ],
            [
                "change_ai",
                "Pursue_Ulrika"
            ],
            [
                "time",
                1
            ],
            [
                "unselectable",
                null
            ],
            [
                "lost_on_upkeep",
                null
            ],
            [
                "unit_anim",
                "MapBerserk"
            ],
            [
                "modify_ai_priority",
                0.5
            ]
        ]
    }
]