[
    {
        "nid": "Rain_of_Hail_Plus",
        "name": "Rain of Hail+",
        "desc": "Every 3rd turn, strikes all foes who are standing outdoors for 8 true damage and inflicts <blue>Chill</>.",
        "icon_nid": "Skills",
        "icon_index": [
            5,
            3
        ],
        "components": [
            [
                "class_skill",
                null
            ]
        ]
    }
]