[
    {
        "nid": "Reborn",
        "name": "Reborn",
        "desc": "Resurrect a dead party member, at 1 HP, by banishing 3 other dead party members.",
        "icon_nid": "Skills",
        "icon_index": [
            6,
            10
        ],
        "components": [
            [
                "ability",
                "Reborn"
            ],
            [
                "class_skill",
                null
            ],
            [
                "condition",
                "len([u for u in game.get_all_units_in_party() if is_dead(u.nid) and 'Banished' not in u.tags]) >= 4"
            ],
            [
                "copysafe",
                []
            ]
        ]
    }
]