[
    {
        "nid": "Recharge",
        "name": "Recharge",
        "desc": "Every 4th turn, unit's movement drops to 0.",
        "icon_nid": "LTSkillIconSheet",
        "icon_index": [
            1,
            50
        ],
        "components": [
            [
                "class_skill",
                null
            ],
            [
                "stat_change",
                [
                    [
                        "MOV",
                        -99
                    ]
                ]
            ],
            [
                "condition",
                "game.turncount % 4 == 0 and not has_skill(unit, 'Powered_Core')"
            ]
        ]
    }
]