[
    {
        "nid": "Repel",
        "name": "Repel",
        "desc": "When foe initiates an attack and a hit is landed on unit, inflicts <blue>Dazzled</> and <blue>Exposed</> on foe after combat.",
        "icon_nid": "LTSkillIconSheet",
        "icon_index": [
            3,
            9
        ],
        "components": [
            [
                "class_skill",
                null
            ],
            [
                "give_statuses_on_take_hit",
                [
                    "Dazzled",
                    "Exposed"
                ]
            ],
            [
                "combat_condition",
                "mode == 'defense' and skill_system.check_enemy(unit, target)"
            ],
            [
                "copysafe",
                []
            ]
        ]
    }
]