[
    {
        "nid": "RescueMe",
        "name": "Rescue Me!",
        "desc": "Unit is easy to Rescue.",
        "icon_nid": "LTSkillIconSheet",
        "icon_index": [
            3,
            41
        ],
        "components": [
            [
                "stat_change_expression",
                [
                    [
                        "CON",
                        "-1 * unit.stats['CON']"
                    ]
                ]
            ]
        ]
    }
]