[
    {
        "nid": "Revolution",
        "name": "Revolution",
        "desc": "Spend 1 stack of Revelation to turn an action into a free action.",
        "icon_nid": "LTSkillIconSheet",
        "icon_index": [
            2,
            1
        ],
        "components": [
            [
                "combat_art",
                "Revolution_Proc"
            ],
            [
                "drain_charge",
                7
            ],
            [
                "class_skill",
                null
            ],
            [
                "copysafe",
                []
            ],
            [
                "condition",
                "has_skill(unit,'Revelation_Child')"
            ]
        ]
    }
]