[
    {
        "nid": "RightHook",
        "name": "Right Hook",
        "desc": "Low Damage, but inflicts <blue>Dazzled</>.",
        "icon_nid": "LTSkillIconSheet",
        "icon_index": [
            5,
            42
        ],
        "components": [
            [
                "class_skill",
                null
            ],
            [
                "drain_charge",
                2
            ],
            [
                "ability_attack_charge",
                "RightHook"
            ]
        ]
    }
]