[
    {
        "nid": "SerialKiller",
        "name": "Serial Killer",
        "desc": "At the start of each node selection floor, Ichiro has a 8% chance to kill a random party member.",
        "icon_nid": "LTSkillIconSheet",
        "icon_index": [
            0,
            3
        ],
        "components": [
            [
                "class_skill",
                null
            ],
            [
                "hidden_if_inactive",
                null
            ],
            [
                "condition",
                "RECORDS.get('Ichiro_Revealed')"
            ]
        ]
    }
]