[
    {
        "nid": "SevensSword",
        "name": "SevensSword",
        "desc": "",
        "icon_nid": null,
        "icon_index": [
            0,
            0
        ],
        "components": [
            [
                "hidden",
                null
            ],
            [
                "eval_hit",
                "unit.get_stat('LCK')"
            ],
            [
                "eval_crit",
                "unit.get_stat('LCK')"
            ],
            [
                "eval_avoid",
                "unit.get_stat('LCK')"
            ],
            [
                "combat_condition",
                "mode == 'attack'"
            ],
            [
                "condition",
                "item.nid == 'Sevens'"
            ]
        ]
    }
]