[
    {
        "nid": "ShackleGluttony",
        "name": "Shackle of Gluttony",
        "desc": "One of the Seven Shackles.\nWhen unit uses Gates of Hell, the summoned allies enter a berserk rage.",
        "icon_nid": "LTSkillIconSheet",
        "icon_index": [
            4,
            7
        ],
        "components": [
            [
                "class_skill",
                null
            ]
        ]
    }
]