[
    {
        "nid": "Shadowstep",
        "name": "Shadowstep",
        "desc": "Teleport adjacent to an ally. \nFree action. Recharges on any kill.\n",
        "icon_nid": "LTSkillIconSheet",
        "icon_index": [
            6,
            8
        ],
        "components": [
            [
                "class_skill",
                null
            ],
            [
                "copysafe",
                []
            ],
            [
                "drain_charge",
                1
            ],
            [
                "ability",
                "Shadowstep"
            ]
        ]
    }
]