[
    {
        "nid": "Shadowblade_Proc",
        "name": "Shadowblade",
        "desc": "Deals +3 damage per Dark Energy stack\nTargets lower Def/Res when used with 3 Dark Energy stacks.",
        "icon_nid": "LTSkillIconSheet",
        "icon_index": [
            6,
            0
        ],
        "components": [
            [
                "hidden",
                null
            ],
            [
                "display_skill_icon_in_combat",
                null
            ],
            [
                "dynamic_damage",
                "max(0,target.get_stat('DEF') - target.get_stat('RES')) if len([s for s in unit.skills if s.nid == 'Dark_Energy']) >= 3 else 0"
            ],
            [
                "eval_damage",
                "3 * len([s for s in unit.skills if s.nid == 'Dark_Energy'])"
            ],
            [
                "combat_art_proc",
                null
            ]
        ]
    }
]