[
    {
        "nid": "ShadowTempo",
        "name": "Shadow's Tempo",
        "desc": "Grants +10 Hit with Dark tomes.",
        "icon_nid": "LTSkillIconSheet",
        "icon_index": [
            5,
            11
        ],
        "components": [
            [
                "combat_condition",
                "item_system.weapon_type(unit, item) == 'Dark'"
            ],
            [
                "hit",
                10
            ],
            [
                "stack",
                3
            ],
            [
                "unit_flickering_tint",
                [
                    142,
                    157,
                    255
                ]
            ]
        ]
    }
]