[
    {
        "nid": "ShieldToss_Proc",
        "name": "Shield Toss",
        "desc": "Attack at 1-3 range, using Defense instead of Strength. After combat, suffer -6 Def, recovering 2/turn; cannot be used again while recovering.",
        "icon_nid": "LTSkillIconSheet",
        "icon_index": [
            0,
            9
        ],
        "components": [
            [
                "item_override",
                "OneToThreeRangeOverride"
            ],
            [
                "alternate_damage_formula",
                "DEFENSE"
            ],
            [
                "gain_skill_after_combat",
                "ShieldToss_Recovering"
            ],
            [
                "combat_art_proc",
                null
            ]
        ]
    }
]