[
    {
        "nid": "Shove",
        "name": "Shove",
        "desc": "Push an adjacent unit 1 tile away.",
        "icon_nid": "LTSkillIconSheet",
        "icon_index": [
            0,
            36
        ],
        "components": [
            [
                "class_skill",
                null
            ],
            [
                "ability",
                "Shove"
            ],
            [
                "copysafe",
                []
            ],
            [
                "tether_parameters",
                {
                    "cost": 20,
                    "level": 0
                }
            ]
        ]
    }
]