[
    {
        "nid": "Silence_Aura",
        "name": "Silence",
        "desc": "Unit cannot use magic.",
        "icon_nid": "Skills",
        "icon_index": [
            9,
            3
        ],
        "components": [
            [
                "negative",
                null
            ],
            [
                "cannot_use_magic_items",
                null
            ],
            [
                "self_nihil",
                [
                    "Legend",
                    "Hope_for_Humanity",
                    "Master_of_the_Fog",
                    "Legend_Plus"
                ]
            ],
            [
                "lost_on_end_chapter",
                null
            ]
        ]
    }
]