[
    {
        "nid": "SinEater",
        "name": "Sin Eater",
        "desc": "Whenever a non-generic player unit dies, unit gets +2 to all stats for the rest of the chapter.",
        "icon_nid": "LTSkillIconSheet",
        "icon_index": [
            3,
            40
        ],
        "components": [
            [
                "class_skill",
                null
            ],
            [
                "copysafe",
                []
            ]
        ]
    }
]