[
    {
        "nid": "Skeleton_Buddy",
        "name": "Skeleton Buddy",
        "desc": "On map start, summons a friendly skeleton to aid in combat.",
        "icon_nid": "Skills",
        "icon_index": [
            6,
            6
        ],
        "components": [
            [
                "class_skill",
                null
            ],
            [
                "copysafe",
                []
            ]
        ]
    }
]