[
    {
        "nid": "Sleep",
        "name": "Sleep",
        "desc": "Unit is asleep.",
        "icon_nid": "Skills",
        "icon_index": [
            4,
            8
        ],
        "components": [
            [
                "time",
                1
            ],
            [
                "unselectable",
                null
            ],
            [
                "stat_change",
                [
                    [
                        "MOV",
                        -99
                    ]
                ]
            ],
            [
                "negative",
                null
            ],
            [
                "cannot_use_items",
                null
            ],
            [
                "self_nihil",
                [
                    "Legend",
                    "Hope_for_Humanity",
                    "Master_of_the_Fog",
                    "Legend_Plus"
                ]
            ]
        ]
    }
]