[
    {
        "nid": "Sleep_Autumn",
        "name": "Sweet Dreams",
        "desc": "Heals an adjacent ally for 5 HP, and puts them to <blue>Sleep</> for 1 turn.\nConsumes a random Aura skill to cast.",
        "icon_nid": "LTSkillIconSheet",
        "icon_index": [
            4,
            47
        ],
        "components": [
            [
                "class_skill",
                null
            ],
            [
                "ability",
                "Sleep_Autumn"
            ]
        ]
    }
]