[
    {
        "nid": "SorcererSkull",
        "name": "Sorcerer's Skull",
        "desc": "When using a magic tome, gain +1 maximum range, but cannot crit or double, and suffer -20% Hit and Avoid.",
        "icon_nid": "tactics_ogre",
        "icon_index": [
            10,
            0
        ],
        "components": [
            [
                "modify_maximum_range",
                1
            ],
            [
                "crit",
                -999
            ],
            [
                "cannot_double",
                null
            ],
            [
                "hit",
                -20
            ],
            [
                "avoid",
                -20
            ],
            [
                "condition",
                "item_system.is_weapon(unit, item) and (item_system.weapon_type(unit, item) == 'Anima' or item_system.weapon_type(unit, item) == 'Light' or item_system.weapon_type(unit, item) == 'Dark')"
            ]
        ]
    }
]