[
    {
        "nid": "SPD_minus_4",
        "name": "SPD -4",
        "desc": "Losing 4 SPD.",
        "icon_nid": "LTSkillIconSheet",
        "icon_index": [
            6,
            16
        ],
        "components": [
            [
                "stat_change",
                [
                    [
                        "SPD",
                        -4
                    ]
                ]
            ],
            [
                "time",
                2
            ],
            [
                "lost_on_end_chapter",
                null
            ]
        ]
    }
]