[
    {
        "nid": "Spectral_Beacon_4P",
        "name": "Spectral Beacon",
        "desc": "Unit emits a beacon upon nearby allies and foes.\nThe range of the beacon is equal to the amount of stacks.\n+2 MOV per stack. -1 stack/turn.",
        "icon_nid": "LTSkillIconSheet",
        "icon_index": [
            6,
            5
        ],
        "components": [
            [
                "hidden",
                null
            ],
            [
                "aura",
                "Beacon_Move_4"
            ],
            [
                "aura_range",
                4
            ],
            [
                "aura_target",
                "ally"
            ]
        ]
    }
]