[
    {
        "nid": "Spectral_Exhaustion",
        "name": "Spectral Exhaustion",
        "desc": "DEF/RES -3 per stack.",
        "icon_nid": "LTSkillIconSheet",
        "icon_index": [
            5,
            47
        ],
        "components": [
            [
                "stack",
                10
            ],
            [
                "negative",
                null
            ],
            [
                "stat_change",
                [
                    [
                        "DEF",
                        -3
                    ],
                    [
                        "RES",
                        -3
                    ]
                ]
            ],
            [
                "combined_time",
                1
            ]
        ]
    }
]