[
    {
        "nid": "Spectral_Beacon",
        "name": "Spectral Beacon",
        "desc": "Unit emits a beacon upon nearby allies and foes.\nThe range of the beacon is equal to the amount of stacks.\n+2 MOV per stack. -1 stack/turn.\nUnit dies at 0 stacks.",
        "icon_nid": "LTSkillIconSheet",
        "icon_index": [
            6,
            5
        ],
        "components": [
            [
                "class_skill",
                null
            ],
            [
                "stack",
                10
            ],
            [
                "stat_change",
                [
                    [
                        "MOV",
                        2
                    ]
                ]
            ]
        ]
    }
]