[
    {
        "nid": "Spirit_Charge",
        "name": "Spirit Charge",
        "desc": "Accumulated spirit used for <red>Spirit Blast</>.\nThe <red>Spirit Blast</> deals (2 to the power of # stacks) damage to one foe, and consumes all stacks.\nThe blast gains +1 AoE for every stack.",
        "icon_nid": "LTSkillIconSheet",
        "icon_index": [
            5,
            49
        ],
        "components": [
            [
                "ability",
                "Spirit_Blast"
            ],
            [
                "stack",
                999
            ],
            [
                "lost_on_end_chapter",
                null
            ]
        ]
    }
]