[
    {
        "nid": "SpotRoll",
        "name": "Spot Roll",
        "desc": "Moves unit 1 space and grants +20 avoid. Free action.",
        "icon_nid": "LTSkillIconSheet",
        "icon_index": [
            0,
            33
        ],
        "components": [
            [
                "class_skill",
                null
            ],
            [
                "ability",
                "SpotRoll"
            ],
            [
                "drain_charge",
                3
            ],
            [
                "copysafe",
                []
            ],
            [
                "tether_parameters",
                {
                    "cost": 40,
                    "level": 1
                }
            ]
        ]
    }
]