[
    {
        "nid": "Spotted",
        "name": "SPOTTED",
        "desc": "-25 Hit/Avoid.",
        "icon_nid": "Skills",
        "icon_index": [
            9,
            3
        ],
        "components": [
            [
                "hit",
                -25
            ],
            [
                "avoid",
                -25
            ],
            [
                "stack",
                5
            ]
        ]
    }
]