[
    {
        "nid": "Spur_Summon_True",
        "name": "Spur Summon",
        "desc": "",
        "icon_nid": "LTSkillIconSheet",
        "icon_index": [
            4,
            44
        ],
        "components": [
            [
                "hidden",
                null
            ],
            [
                "aura",
                "Summon_Stand"
            ],
            [
                "aura_range",
                1
            ],
            [
                "aura_target",
                "unit"
            ]
        ]
    }
]