[
    {
        "nid": "Spur_Summon",
        "name": "Spur Summon",
        "desc": "Adjacent units gain Summon Stand,\nwhich summons a phantom with\ntheir weapon ranks.\nUsage of Summon Stand disables\nusage of this skill.",
        "icon_nid": "LTSkillIconSheet",
        "icon_index": [
            4,
            44
        ],
        "components": [
            [
                "class_skill",
                null
            ],
            [
                "copysafe",
                []
            ],
            [
                "drain_charge",
                1
            ]
        ]
    }
]