[
    {
        "nid": "Stalwart",
        "name": "Stalwart",
        "desc": "This unit is immune to Critical Hits.",
        "icon_nid": "LTSkillIconSheet",
        "icon_index": [
            4,
            9
        ],
        "components": [
            [
                "class_skill",
                null
            ],
            [
                "crit_avoid",
                999
            ],
            [
                "copysafe",
                []
            ],
            [
                "tether_parameters",
                {
                    "cost": 30,
                    "level": 3
                }
            ]
        ]
    }
]