[
    {
        "nid": "Steal",
        "name": "Steal",
        "desc": "Can steal items from enemies with lower speed.",
        "icon_nid": "Skills",
        "icon_index": [
            7,
            10
        ],
        "components": [
            [
                "class_skill",
                null
            ],
            [
                "ability",
                "Steal"
            ],
            [
                "copysafe",
                []
            ]
        ]
    }
]