[
    {
        "nid": "Strengthtaker",
        "name": "Strengthtaker",
        "desc": "Grants a stacking STR +2 each time unit initiates combat and defeats a foe.\nBonus lasts for the rest of the battle.\n(Max 5 stacks)",
        "icon_nid": "LTSkillIconSheet",
        "icon_index": [
            0,
            8
        ],
        "components": [
            [
                "class_skill",
                null
            ],
            [
                "gain_skill_after_active_kill",
                "Strengthtaker_Stack"
            ],
            [
                "copysafe",
                []
            ]
        ]
    }
]