[
    {
        "nid": "Sucker_Punch",
        "name": "Sucker Punch",
        "desc": "A quick and accurate punch.",
        "icon_nid": "LTSkillIconSheet",
        "icon_index": [
            5,
            42
        ],
        "components": [
            [
                "class_skill",
                null
            ],
            [
                "drain_charge",
                5
            ],
            [
                "ability_attack_charge",
                "Sucker_Punch"
            ],
            [
                "copysafe",
                []
            ]
        ]
    }
]