[
    {
        "nid": "Summon_Guardian",
        "name": "Summon: Guardian",
        "desc": "Unit can summon a Guardian to the field.",
        "icon_nid": "LTSkillIconSheet",
        "icon_index": [
            6,
            37
        ],
        "components": [
            [
                "class_skill",
                null
            ],
            [
                "ability",
                "Summon_Guardian"
            ],
            [
                "drain_charge",
                1
            ],
            [
                "copysafe",
                []
            ],
            [
                "tether_parameters",
                {
                    "cost": 20,
                    "level": 4
                }
            ]
        ]
    }
]