[
    {
        "nid": "Summon_Stand",
        "name": "Summon Stand",
        "desc": "Summons a phantom with\nthis unit's weapon ranks.",
        "icon_nid": "LTSkillIconSheet",
        "icon_index": [
            4,
            44
        ],
        "components": [
            [
                "ability",
                "Summon_Stand"
            ]
        ]
    }
]