[
    {
        "nid": "Superiority",
        "name": "Superiority",
        "desc": "+4 to STR/MAG when unit's\nlevel exceeds foe's by 5 or more.",
        "icon_nid": "Skills",
        "icon_index": [
            0,
            0
        ],
        "components": [
            [
                "hidden",
                null
            ],
            [
                "combat_condition",
                "unit.level - unit2.level >= 5"
            ],
            [
                "stat_change",
                [
                    [
                        "STR",
                        4
                    ],
                    [
                        "MAG",
                        4
                    ]
                ]
            ]
        ]
    }
]