[
    {
        "nid": "SureShot_Proc",
        "name": "Sure Shot",
        "desc": "",
        "icon_nid": "Skills",
        "icon_index": [
            7,
            0
        ],
        "components": [
            [
                "display_skill_icon_in_combat",
                null
            ],
            [
                "hit",
                200
            ],
            [
                "dynamic_damage",
                "(unit.stats['SKL'] // 2) if not 'TrueDamage' in item.tags else 0"
            ],
            [
                "combat_art_proc",
                null
            ]
        ]
    }
]