[
    {
        "nid": "SureStrike",
        "name": "Sure Strike",
        "desc": "+1 Range, Foe cannot counter, inflicts Inflexible. Cannot Double or Crit.",
        "icon_nid": "LTSkillIconSheet",
        "icon_index": [
            6,
            38
        ],
        "components": [
            [
                "combat_art",
                "SureStrike_Proc"
            ],
            [
                "class_skill",
                null
            ],
            [
                "drain_charge",
                2
            ],
            [
                "copysafe",
                []
            ],
            [
                "allowed_weapons",
                "item_system.is_weapon(unit, item)"
            ]
        ]
    }
]