[
    {
        "nid": "Swapping_Force",
        "name": "Swapping Force",
        "desc": "This unit's attacks will Swap with the target.",
        "icon_nid": "LTSkillIconSheet",
        "icon_index": [
            3,
            32
        ],
        "components": [
            [
                "item_override",
                "Lunge_Override"
            ]
        ]
    }
]