[
    {
        "nid": "Swift_Learner_S",
        "name": "Swift Learner",
        "desc": "",
        "icon_nid": "LTSkillIconSheet",
        "icon_index": [
            2,
            25
        ],
        "components": [
            [
                "hidden",
                null
            ],
            [
                "growth_change",
                [
                    [
                        "SPD",
                        20
                    ]
                ]
            ],
            [
                "stack",
                999
            ]
        ]
    }
]