[
    {
        "nid": "Sword_Magician",
        "name": "Sword Magician",
        "desc": "This unit can use any Magic Sword, regardless of weapon rank.",
        "icon_nid": "LTSkillIconSheet",
        "icon_index": [
            0,
            31
        ],
        "components": [
            [
                "class_skill",
                null
            ],
            [
                "has_tags",
                [
                    "Magician"
                ]
            ],
            [
                "copysafe",
                []
            ]
        ]
    }
]