[
    {
        "nid": "Tactical_Mind",
        "name": "Tactical Mind",
        "desc": "While foe has a terrain effect, unit gains +3 damage dealt and +30 Hit.",
        "icon_nid": "LTSkillIconSheet",
        "icon_index": [
            2,
            42
        ],
        "components": [
            [
                "class_skill",
                null
            ],
            [
                "combat_condition",
                "any([s.is_terrain for s in target.skills])"
            ],
            [
                "hit",
                30
            ],
            [
                "damage",
                3
            ],
            [
                "copysafe",
                []
            ]
        ]
    }
]