[
    {
        "nid": "TakenPrisoner",
        "name": "Taken Prisoner",
        "desc": "When unit dies, it immediately returns to the battlefield as an enemy and recharges Take Prisoner.",
        "icon_nid": "LTSkillIconSheet",
        "icon_index": [
            4,
            45
        ],
        "components": [
            [
                "class_skill",
                null
            ]
        ]
    }
]