[
    {
        "nid": "Temp_Flying",
        "name": "Flying",
        "desc": "Movement +2. Ignore Terrain.\nUser has Flying weakness.",
        "icon_nid": "Skills",
        "icon_index": [
            3,
            10
        ],
        "components": [
            [
                "has_tags",
                [
                    "Flying"
                ]
            ],
            [
                "stat_change",
                [
                    [
                        "MOV",
                        2
                    ]
                ]
            ],
            [
                "lost_on_end_chapter",
                null
            ],
            [
                "time",
                1
            ],
            [
                "ignore_terrain",
                null
            ],
            [
                "lost_on_end_next_combat",
                [
                    [
                        "NumberOfCombats (X)",
                        "2",
                        "Number of combats before expiration"
                    ],
                    [
                        "LostOnSelf (T/F)",
                        "T",
                        "Lost after self combat (e.g. vulnerary)"
                    ],
                    [
                        "LostOnAlly (T/F)",
                        "T",
                        "Lost after combat with an ally"
                    ],
                    [
                        "LostOnEnemy (T/F)",
                        "T",
                        "Lost after combat with an enemy"
                    ],
                    [
                        "LostOnSplash (T/F)",
                        "T",
                        "Lost after combat if using an AOE item"
                    ]
                ]
            ],
            [
                "movement_type",
                "Fliers"
            ]
        ]
    }
]