[
    {
        "nid": "Terrified",
        "name": "Terrified",
        "desc": "Unit is uncontrollable, and will attempt to run away from enemies.",
        "icon_nid": "LTSkillIconSheet",
        "icon_index": [
            0,
            40
        ],
        "components": [
            [
                "negative",
                null
            ],
            [
                "combined_time",
                1
            ],
            [
                "self_nihil",
                [
                    "Legend",
                    "Hope_for_Humanity",
                    "Master_of_the_Fog",
                    "Legend_Plus"
                ]
            ],
            [
                "unselectable",
                null
            ],
            [
                "change_ai",
                "FearStatus"
            ]
        ]
    }
]