[
    {
        "nid": "Throne",
        "name": "Throne",
        "desc": "",
        "icon_nid": "Skills",
        "icon_index": [
            1,
            2
        ],
        "components": [
            [
                "avoid",
                30
            ],
            [
                "hidden",
                null
            ],
            [
                "stat_change",
                [
                    [
                        "DEF",
                        3
                    ]
                ]
            ],
            [
                "is_terrain",
                null
            ]
        ]
    }
]