[
    {
        "nid": "TriangleDevout_Helper",
        "name": "Triangle Devout",
        "desc": "+20% Hit/Avoid when at weapon triangle advantage.\n-20% Hit/Avoid when at weapon triangle disadvantage.",
        "icon_nid": "LTSkillIconSheet",
        "icon_index": [
            1,
            49
        ],
        "components": [
            [
                "combat_condition",
                "(combat_calcs.compute_advantage(unit, target, item, target.get_weapon(), False) and combat_calcs.compute_advantage(unit, target, item, target.get_weapon(), False).accuracy < 0) or (combat_calcs.compute_advantage(unit, target, item, target.get_weapon()) and combat_calcs.compute_advantage(unit, target, item, target.get_weapon()).accuracy < 0)"
            ],
            [
                "hit",
                -20
            ],
            [
                "avoid",
                -20
            ],
            [
                "hidden",
                null
            ]
        ]
    }
]