[
    {
        "nid": "True_Love",
        "name": "True Love",
        "desc": "If within 3 tiles of their lover, gain +25 Critical Chance.",
        "icon_nid": "LTSkillIconSheet",
        "icon_index": [
            0,
            11
        ],
        "components": [
            [
                "combat_condition",
                "any([u.nid for u in get_allies_within_distance(unit.position, 3) if u.get_field('lover') and u.get_field('lover') == unit.nid])"
            ],
            [
                "crit",
                25
            ]
        ]
    }
]