[
    {
        "nid": "Under_Pressure",
        "name": "Under Pressure",
        "desc": "If weapon weight exceeds unit's CON, +20 HIT and +3 damage dealt.",
        "icon_nid": "LTSkillIconSheet",
        "icon_index": [
            3,
            42
        ],
        "components": [
            [
                "class_skill",
                null
            ],
            [
                "dynamic_damage",
                "3 if unit.get_weapon() and not 'TrueDamage' in unit.get_weapon().tags else 0"
            ],
            [
                "hit",
                20
            ],
            [
                "combat_condition",
                "unit.get_weapon().weight and unit.get_weapon().weight.value > unit.get_stat('CON')"
            ],
            [
                "copysafe",
                []
            ]
        ]
    }
]