[
    {
        "nid": "Unworldly_Might",
        "name": "Unworldly_Might",
        "desc": "Effects that prevent unit's counterattacks are nullfied.\nDuring combat, each strike received reduces all damage received by 7 until combat end.\nCritical Evasion +50.\nAll negative statuses are purged during endstep.",
        "icon_nid": "LTSkillIconSheet",
        "icon_index": [
            2,
            43
        ],
        "components": [
            [
                "class_skill",
                null
            ],
            [
                "gain_skill_after_take_damage",
                "Unworldly_Might_Child"
            ],
            [
                "crit_avoid",
                50
            ],
            [
                "resist_status",
                null
            ],
            [
                "null_sweep",
                null
            ]
        ]
    }
]