[
    {
        "nid": "Valkyrie",
        "name": "Valkyrie",
        "desc": "Upon interacting with an ally, grant the status \"Beckoned\" on them. If a \"Beckoned\" unit dies, Qiylon gains access to the weapon type of the unit and their wexp. Does not work for Stones.",
        "icon_nid": "LTSkillIconSheet",
        "icon_index": [
            4,
            33
        ],
        "components": [
            [
                "give_ally_status_after_combat",
                "Beckoned"
            ],
            [
                "class_skill",
                null
            ]
        ]
    }
]