[
    {
        "nid": "Vantage_Temp",
        "name": "Vantage",
        "desc": "Unit always strikes first in combat.",
        "icon_nid": "LTSkillIconSheet",
        "icon_index": [
            0,
            32
        ],
        "components": [
            [
                "vantage",
                null
            ],
            [
                "lost_on_end_combat2",
                {
                    "lost_on_self": true,
                    "lost_on_ally": true,
                    "lost_on_enemy": true,
                    "lost_on_splash": true
                }
            ]
        ]
    }
]