[
    {
        "nid": "Verraise",
        "name": "Verraise",
        "desc": "Revive a deceased unit.\nUsable only once per run.",
        "icon_nid": "LTSkillIconSheet",
        "icon_index": [
            0,
            11
        ],
        "components": [
            [
                "class_skill",
                null
            ],
            [
                "ability",
                "Verraise"
            ],
            [
                "copysafe",
                []
            ],
            [
                "condition",
                "any([u for u in game.get_all_units_in_party() if is_dead(u.nid) and 'Banished' not in u.tags])"
            ]
        ]
    }
]