[
    {
        "nid": "Visceral_Tastes",
        "name": "Visceral Tastes",
        "desc": "Unit cannot use magical weapons.",
        "icon_nid": "LTSkillIconSheet",
        "icon_index": [
            2,
            45
        ],
        "components": [
            [
                "class_skill",
                null
            ],
            [
                "cannot_use_magic_items",
                null
            ]
        ]
    }
]