[
    {
        "nid": "Windwreathing_Buff_Plus",
        "name": "Windwreathed",
        "desc": "Unit has Canter 3 and can fly this turn.",
        "icon_nid": "LTSkillIconSheet",
        "icon_index": [
            1,
            35
        ],
        "components": [
            [
                "canter",
                3
            ],
            [
                "end_time",
                1
            ],
            [
                "unit_anim",
                "OverchargeAura"
            ],
            [
                "has_tags",
                [
                    "Flying"
                ]
            ],
            [
                "movement_type",
                "Fliers"
            ]
        ]
    }
]