[
    {
        "nid": "ZoneOfControl_Child",
        "name": "Zone of Control",
        "desc": "-2 MOV.",
        "icon_nid": "Skills",
        "icon_index": [
            4,
            7
        ],
        "components": [
            [
                "stat_change",
                [
                    [
                        "MOV",
                        -2
                    ]
                ]
            ]
        ]
    }
]