[
    {
        "nid": "Affinity",
        "subicon_dict": {}
    },
    {
        "nid": "Anima",
        "subicon_dict": {}
    },
    {
        "nid": "Axe",
        "subicon_dict": {}
    },
    {
        "nid": "Boosters",
        "subicon_dict": {
            "Master_Seal": [
                0,
                14
            ],
            "Boosters 0, 15": [
                0,
                15
            ]
        }
    },
    {
        "nid": "Bow",
        "subicon_dict": {}
    },
    {
        "nid": "Consumable",
        "subicon_dict": {}
    },
    {
        "nid": "Dark",
        "subicon_dict": {}
    },
    {
        "nid": "Lance",
        "subicon_dict": {}
    },
    {
        "nid": "Light",
        "subicon_dict": {}
    },
    {
        "nid": "Neutral",
        "subicon_dict": {}
    },
    {
        "nid": "Skills",
        "subicon_dict": {
            "Skills 0, 0": [
                0,
                0
            ]
        }
    },
    {
        "nid": "Staff",
        "subicon_dict": {}
    },
    {
        "nid": "Sword",
        "subicon_dict": {}
    },
    {
        "nid": "Valuable",
        "subicon_dict": {}
    },
    {
        "nid": "wexp_icons",
        "subicon_dict": {}
    },
    {
        "nid": "WexpDagger_icons",
        "subicon_dict": {}
    },
    {
        "nid": "{Ereshkigal} Dagger 1",
        "subicon_dict": {}
    },
    {
        "nid": "LTSkillIconSheet",
        "subicon_dict": {
            "LTSkillIconSheet 0, 32": [
                0,
                32
            ],
            "LTSkillIconSheet 0, 9": [
                0,
                9
            ],
            "LTSkillIconSheet 1, 43": [
                1,
                43
            ],
            "LTSkillIconSheet 4, 34": [
                4,
                34
            ],
            "LTSkillIconSheet 3, 50": [
                3,
                50
            ]
        }
    },
    {
        "nid": "tactics_ogre",
        "subicon_dict": {
            "tether": [
                4,
                3
            ]
        }
    },
    {
        "nid": "{Ereshkigal} Dagger 2",
        "subicon_dict": {}
    },
    {
        "nid": "{Batima} Sleet",
        "subicon_dict": {
            "{Batima} Sleet 0, 0": [
                0,
                0
            ]
        }
    },
    {
        "nid": "Food_by_ZessDynamite",
        "subicon_dict": {}
    },
    {
        "nid": "{Beansy} Divine",
        "subicon_dict": {
            "{Beansy} Divine 0, 0": [
                0,
                0
            ]
        }
    },
    {
        "nid": "{Celice} Tome 1",
        "subicon_dict": {}
    },
    {
        "nid": "{Zane} icon 058",
        "subicon_dict": {
            "{Zane} icon 058 0, 0": [
                0,
                0
            ]
        }
    },
    {
        "nid": "{Ereshkigal} Extra 36",
        "subicon_dict": {}
    },
    {
        "nid": "{Batima} Elwind (GBA-Style)",
        "subicon_dict": {
            "{Batima} Elwind (GBA-Style) 0, 0": [
                0,
                0
            ]
        }
    },
    {
        "nid": "{Ereshkigal} Staff 1",
        "subicon_dict": {}
    },
    {
        "nid": "{Batima} Wind",
        "subicon_dict": {}
    },
    {
        "nid": "{Batima} Bull Blade",
        "subicon_dict": {}
    },
    {
        "nid": "{Maxim} Amulet 1",
        "subicon_dict": {}
    },
    {
        "nid": "{Ereshkigal} Staff 4",
        "subicon_dict": {
            "{Ereshkigal} Staff 4 0, 0": [
                0,
                0
            ]
        }
    },
    {
        "nid": "{2WB} (Icon Blitz 1) Heal",
        "subicon_dict": {
            "{2WB} (Icon Blitz 1) Heal 0, 0": [
                0,
                0
            ]
        }
    },
    {
        "nid": "{Celice} Staff 1",
        "subicon_dict": {}
    },
    {
        "nid": "{CamTech075} (Pack 2) icon 035",
        "subicon_dict": {}
    },
    {
        "nid": "{Celice} Book 2",
        "subicon_dict": {}
    },
    {
        "nid": "{LordGlenn} Item 7",
        "subicon_dict": {}
    },
    {
        "nid": "{Zarg} Staff 1",
        "subicon_dict": {
            "{Zarg} Staff 1 0, 0": [
                0,
                0
            ]
        }
    },
    {
        "nid": "{Jubby} Dagger 5",
        "subicon_dict": {}
    },
    {
        "nid": "{Ereshkigal} Dagger 16",
        "subicon_dict": {}
    },
    {
        "nid": "{Batima} Stilleto",
        "subicon_dict": {}
    },
    {
        "nid": "{Ryan914} Bomb 5",
        "subicon_dict": {
            "{Ryan914} Bomb 5 0, 0": [
                0,
                0
            ]
        }
    },
    {
        "nid": "{Jubby} Dagger 7",
        "subicon_dict": {}
    },
    {
        "nid": "{Zane} icon 164",
        "subicon_dict": {}
    },
    {
        "nid": "{Lisandra Brave} Lance icon 003",
        "subicon_dict": {}
    },
    {
        "nid": "{Batima} Meisterlanze",
        "subicon_dict": {}
    },
    {
        "nid": "{Ereshkigal} Dagger 14",
        "subicon_dict": {}
    },
    {
        "nid": "{Ryan914} Bomb 2",
        "subicon_dict": {}
    },
    {
        "nid": "{2WB} (Icon Blitz 1) Imperial Blade1",
        "subicon_dict": {}
    },
    {
        "nid": "{Ryan914, Mike} Key III",
        "subicon_dict": {
            "{Ryan914, Mike} Key III 0, 0": [
                0,
                0
            ]
        }
    },
    {
        "nid": "{Ereshkigal} Sprite Sheet V1.4 Converted",
        "subicon_dict": {}
    },
    {
        "nid": "{Ereshkigal} Staves",
        "subicon_dict": {}
    },
    {
        "nid": "{LordGlenn} All Icons LordGlenn Pack 1",
        "subicon_dict": {}
    },
    {
        "nid": "{LordGlenn} {ArchaneaIconProject} 2019",
        "subicon_dict": {
            "steel_magnolia": [
                30,
                0
            ]
        }
    },
    {
        "nid": "{Velvet Kitsune} Dragonstone",
        "subicon_dict": {}
    },
    {
        "nid": "{Artist Unknown} Affinity Icons (3)",
        "subicon_dict": {}
    },
    {
        "nid": "{Ryan914} Medic Bag",
        "subicon_dict": {}
    },
    {
        "nid": "{Zane} Axe 28",
        "subicon_dict": {}
    },
    {
        "nid": "event_icons",
        "subicon_dict": {
            "event_icons 0, 0": [
                0,
                0
            ],
            "event_fight": [
                0,
                0
            ],
            "event_hp": [
                1,
                0
            ],
            "event_hp_down": [
                2,
                0
            ],
            "event_item": [
                3,
                0
            ],
            "event_item_down": [
                4,
                0
            ],
            "event_weapon": [
                5,
                0
            ],
            "event_weapon_random": [
                6,
                0
            ],
            "event_weapon_down": [
                7,
                0
            ],
            "event_accessory": [
                8,
                0
            ],
            "event_accessory_down": [
                9,
                0
            ],
            "event_money": [
                10,
                0
            ],
            "event_money_down": [
                11,
                0
            ],
            "event_essence": [
                12,
                0
            ],
            "event_essence_down": [
                13,
                0
            ],
            "event_flame": [
                14,
                0
            ],
            "event_flame_down": [
                15,
                0
            ],
            "event_fragments": [
                16,
                0
            ],
            "event_fragments_down": [
                17,
                0
            ],
            "event_mystery": [
                18,
                0
            ],
            "event_chance": [
                19,
                0
            ],
            "event_exp": [
                20,
                0
            ],
            "event_stratagem": [
                21,
                0
            ]
        }
    },
    {
        "nid": "GatesOfHell",
        "subicon_dict": {}
    },
    {
        "nid": "jellyunicorns item icons ltinsert",
        "subicon_dict": {}
    },
    {
        "nid": "beansy paper",
        "subicon_dict": {}
    },
    {
        "nid": "{Rootrick, Zarg} (Secret of Evermore) Item 39",
        "subicon_dict": {}
    },
    {
        "nid": "{Beansy} Black Fang",
        "subicon_dict": {}
    },
    {
        "nid": "ballista icons",
        "subicon_dict": {}
    },
    {
        "nid": "RWDragonstones",
        "subicon_dict": {}
    },
    {
        "nid": "{Batima} Thoron (DS)",
        "subicon_dict": {}
    },
    {
        "nid": "{Ereshkigal} Light 15",
        "subicon_dict": {}
    },
    {
        "nid": "{Ereshkigal} Dark 2",
        "subicon_dict": {}
    },
    {
        "nid": "{Ereshkigal} Dark 20",
        "subicon_dict": {}
    },
    {
        "nid": "{Batima} Wyvernstone - Copia",
        "subicon_dict": {}
    },
    {
        "nid": "{Mike} Butterfly Net",
        "subicon_dict": {}
    },
    {
        "nid": "{2WB} (Vanilla + Blitz) Metis s Tome",
        "subicon_dict": {}
    },
    {
        "nid": "{2WB} (Vanilla + Blitz) Mine",
        "subicon_dict": {}
    },
    {
        "nid": "{2WB} (Vanilla + Blitz) Light Rune",
        "subicon_dict": {}
    },
    {
        "nid": "flowweapons",
        "subicon_dict": {}
    },
    {
        "nid": "gabrielknightcrossbows",
        "subicon_dict": {}
    },
    {
        "nid": "{AtelierLabs} spear 3",
        "subicon_dict": {}
    },
    {
        "nid": "Batima_Stones",
        "subicon_dict": {}
    },
    {
        "nid": "{JPN} 4",
        "subicon_dict": {}
    },
    {
        "nid": "{Batima} Skydrake Whip",
        "subicon_dict": {}
    },
    {
        "nid": "{Dark} Minecraft Apple",
        "subicon_dict": {}
    },
    {
        "nid": "TerrariaLuckyHorseshoeSheet",
        "subicon_dict": {
            "TerrariaLuckyHorseshoeSheet 0, 0": [
                0,
                0
            ]
        }
    },
    {
        "nid": "TerrariaLuckyHorseshoeSheet_1",
        "subicon_dict": {
            "TerrariaLuckyHorseshoeSheet_1 0, 0": [
                0,
                0
            ]
        }
    },
    {
        "nid": "TerrariaLuckyHorseshoeSheet_2",
        "subicon_dict": {
            "TerrariaLuckyHorseshoeSheet_2 0, 0": [
                0,
                0
            ]
        }
    },
    {
        "nid": "TerrariaLuckyHorseshoeSheet_3",
        "subicon_dict": {}
    },
    {
        "nid": "TerrariaLuckyHorseshoeSheet_4",
        "subicon_dict": {}
    },
    {
        "nid": "Ryan914_Collection",
        "subicon_dict": {}
    },
    {
        "nid": "{SacredStones} Deathly Dagger (Jaffar - FEH) (SacredStones)",
        "subicon_dict": {
            "{SacredStones} Deathly Dagger (Jaffar - FEH) (SacredStones) 0, 0": [
                0,
                0
            ]
        }
    },
    {
        "nid": "{SacredStones} Deathly Dagger (Jaffar - FEH) (SacredStones)_1",
        "subicon_dict": {}
    },
    {
        "nid": "nikolas_datura_items",
        "subicon_dict": {}
    },
    {
        "nid": "{Beansy} Fissure(Devil Tome)",
        "subicon_dict": {}
    },
    {
        "nid": "zarg icons ltinsert",
        "subicon_dict": {}
    },
    {
        "nid": "boss_keys",
        "subicon_dict": {
            "bootes_key": [
                0,
                0
            ],
            "canes_key": [
                1,
                0
            ],
            "loreia_key": [
                2,
                0
            ],
            "fabien_key": [
                3,
                0
            ],
            "ouranos_key": [
                4,
                0
            ],
            "trinity_key": [
                5,
                0
            ]
        }
    },
    {
        "nid": "Null_Affinity",
        "subicon_dict": {}
    },
    {
        "nid": "skill_lose",
        "subicon_dict": {
            "event_stratagem_down": [
                0,
                0
            ]
        }
    },
    {
        "nid": "Beansy - Stinger",
        "subicon_dict": {}
    },
    {
        "nid": "Beansy - Stinger_1",
        "subicon_dict": {}
    },
    {
        "nid": "sniper",
        "subicon_dict": {}
    },
    {
        "nid": "sparking",
        "subicon_dict": {
            "spark_shard": [
                0,
                0
            ],
            "spark_stone": [
                1,
                0
            ]
        }
    },
    {
        "nid": "iron_emblem",
        "subicon_dict": {}
    }
]