[
    {
        "nid": "Aegis",
        "name": "Aegis",
        "desc": "User cannot crit or be crit, nor double or be doubled.",
        "icon_nid": "{LordGlenn} {ArchaneaIconProject} 2019",
        "icon_index": [
            28,
            3
        ],
        "components": [
            [
                "weapon",
                null
            ],
            [
                "target_enemy",
                null
            ],
            [
                "damage",
                10
            ],
            [
                "hit",
                85
            ],
            [
                "weapon_type",
                "Light"
            ],
            [
                "weapon_rank",
                "D"
            ],
            [
                "magic",
                null
            ],
            [
                "weight",
                10
            ],
            [
                "value",
                300
            ],
            [
                "min_range",
                1
            ],
            [
                "max_range",
                1
            ],
            [
                "map_hit_add_blend",
                [
                    255,
                    255,
                    0
                ]
            ],
            [
                "no_double",
                null
            ],
            [
                "alternate_attack_speed_formula",
                "ZERO"
            ],
            [
                "alternate_defense_speed_formula",
                "ONE_HUNDRED"
            ],
            [
                "multi_status_on_equip",
                [
                    "Anticrit",
                    "Wary_Fighter_Item"
                ]
            ]
        ]
    }
]