[
    {
        "nid": "Ancient_Heal",
        "name": "Ancient_Heal",
        "desc": "Restores 1 HP to all allies within range.",
        "icon_nid": "Staff",
        "icon_index": [
            0,
            4
        ],
        "components": [
            [
                "spell",
                null
            ],
            [
                "target_ally",
                null
            ],
            [
                "weapon_type",
                "Staff"
            ],
            [
                "magic",
                null
            ],
            [
                "value",
                800
            ],
            [
                "ally_blast_aoe",
                2
            ],
            [
                "heal",
                1
            ],
            [
                "attack_after_combat",
                null
            ]
        ]
    }
]