[
    {
        "nid": "Apple",
        "name": "Apple",
        "desc": "All non-boss enemies will Pursue.\nUnit will Provoke enemies.",
        "icon_nid": "{Dark} Minecraft Apple",
        "icon_index": [
            0,
            0
        ],
        "components": [
            [
                "accessory",
                null
            ],
            [
                "status_on_hold",
                "Apple"
            ],
            [
                "locked",
                null
            ]
        ]
    }
]