[
    {
        "nid": "Arumad",
        "name": "Arumad",
        "desc": "A legendary weapon... allegedly. Pierces Defense. Durability resets after each battle.",
        "icon_nid": "{LordGlenn} {ArchaneaIconProject} 2019",
        "icon_index": [
            1,
            3
        ],
        "components": [
            [
                "weapon",
                null
            ],
            [
                "target_enemy",
                null
            ],
            [
                "min_range",
                1
            ],
            [
                "max_range",
                1
            ],
            [
                "damage",
                14
            ],
            [
                "hit",
                65
            ],
            [
                "crit",
                0
            ],
            [
                "weight",
                25
            ],
            [
                "weapon_type",
                "Axe"
            ],
            [
                "weapon_rank",
                "E"
            ],
            [
                "alternate_resist_formula",
                "ZERO"
            ],
            [
                "c_uses",
                1
            ],
            [
                "uses_options",
                [
                    [
                        "LoseUsesOnMiss (T/F)",
                        "F",
                        "Lose uses even on miss"
                    ],
                    [
                        "OneLossPerCombat (T/F)",
                        "F",
                        "Doubling doesn't cost extra uses"
                    ]
                ]
            ]
        ]
    }
]