[
    {
        "nid": "Aum",
        "name": "Aum",
        "desc": "Revive a dead unit.",
        "icon_nid": "{LordGlenn} {ArchaneaIconProject} 2019",
        "icon_index": [
            21,
            3
        ],
        "components": [
            [
                "target_tile",
                null
            ],
            [
                "empty_tile_target_restrict",
                null
            ],
            [
                "min_range",
                1
            ],
            [
                "max_range",
                1
            ],
            [
                "event_on_hit",
                "Global Ability_Verraise"
            ],
            [
                "spell",
                null
            ],
            [
                "uses",
                1
            ],
            [
                "uses_options",
                [
                    [
                        "LoseUsesOnMiss (T/F)",
                        "F",
                        "Lose uses even on miss"
                    ],
                    [
                        "OneLossPerCombat (T/F)",
                        "F",
                        "Doubling doesn't cost extra uses"
                    ]
                ]
            ],
            [
                "weapon_type",
                "Staff"
            ],
            [
                "weapon_rank",
                "A"
            ],
            [
                "value",
                800
            ]
        ]
    }
]