[
    {
        "nid": "Axe_Splitter",
        "name": "Axe Splitter",
        "desc": "Against axes, might is doubled.\nAgainst other weapons, +4 damage received.",
        "icon_nid": "{Ereshkigal} Sprite Sheet V1.4 Converted",
        "icon_index": [
            10,
            0
        ],
        "components": [
            [
                "weapon",
                null
            ],
            [
                "value",
                300
            ],
            [
                "target_enemy",
                null
            ],
            [
                "min_range",
                1
            ],
            [
                "max_range",
                1
            ],
            [
                "damage",
                7
            ],
            [
                "hit",
                75
            ],
            [
                "crit",
                0
            ],
            [
                "weight",
                12
            ],
            [
                "weapon_type",
                "Sword"
            ],
            [
                "weapon_rank",
                "C"
            ],
            [
                "multi_status_on_equip",
                [
                    "Triangle_Expert",
                    "Triangle_Expert_Helper"
                ]
            ]
        ]
    }
]