[
    {
        "nid": "Banshee",
        "name": "Banshee",
        "desc": "",
        "icon_nid": "{Ereshkigal} Dark 2",
        "icon_index": [
            0,
            0
        ],
        "components": [
            [
                "weapon",
                null
            ],
            [
                "target_enemy",
                null
            ],
            [
                "min_range",
                2
            ],
            [
                "max_range",
                2
            ],
            [
                "damage",
                12
            ],
            [
                "hit",
                65
            ],
            [
                "crit",
                0
            ],
            [
                "weight",
                13
            ],
            [
                "weapon_type",
                "Dark"
            ],
            [
                "weapon_rank",
                "C"
            ],
            [
                "map_hit_add_blend",
                [
                    72,
                    0,
                    65
                ]
            ],
            [
                "magic",
                null
            ],
            [
                "value",
                300
            ]
        ]
    }
]