[
    {
        "nid": "Blue Gem",
        "name": "Blue Gem",
        "desc": "Grants 500 gold when owned\nat the end of a map.",
        "icon_nid": "Valuable",
        "icon_index": [
            0,
            1
        ],
        "components": []
    }
]