[
    {
        "nid": "Brave_Knife",
        "name": "Brave Knife",
        "desc": "When initiating, strikes consecutively.\nAfter combat, if a hit was landed, inflicts <blue>Toxin</> on the target.",
        "icon_nid": "{Ereshkigal} Sprite Sheet V1.4 Converted",
        "icon_index": [
            20,
            6
        ],
        "components": [
            [
                "weapon",
                null
            ],
            [
                "value",
                500
            ],
            [
                "target_enemy",
                null
            ],
            [
                "min_range",
                2
            ],
            [
                "max_range",
                2
            ],
            [
                "damage",
                6
            ],
            [
                "hit",
                80
            ],
            [
                "crit",
                0
            ],
            [
                "weight",
                10
            ],
            [
                "weapon_type",
                "Knife"
            ],
            [
                "weapon_rank",
                "A"
            ],
            [
                "brave_on_attack",
                null
            ],
            [
                "status_after_combat_on_hit",
                "Toxin"
            ]
        ]
    }
]