[
    {
        "nid": "Brave_Sword",
        "name": "Brave Sword",
        "desc": "When initiating, strikes consecutively.",
        "icon_nid": "Sword",
        "icon_index": [
            0,
            9
        ],
        "components": [
            [
                "weapon",
                null
            ],
            [
                "value",
                500
            ],
            [
                "target_enemy",
                null
            ],
            [
                "min_range",
                1
            ],
            [
                "max_range",
                1
            ],
            [
                "damage",
                9
            ],
            [
                "hit",
                75
            ],
            [
                "crit",
                0
            ],
            [
                "weight",
                12
            ],
            [
                "weapon_type",
                "Sword"
            ],
            [
                "weapon_rank",
                "A"
            ],
            [
                "brave_on_attack",
                null
            ]
        ]
    }
]