[
    {
        "nid": "Canes_Spite",
        "name": "Canes's Spite",
        "desc": "Effective against fliers.\nIf non-boss foe has <blue>Toxin</> or <blue>Poison</>, Executes them and gain a stack of <blue>Malice</>.\n<blue>Malice grants +2 damage against bosses</>.\n\n",
        "icon_nid": "{LordGlenn} All Icons LordGlenn Pack 1",
        "icon_index": [
            14,
            4
        ],
        "components": [
            [
                "weapon",
                null
            ],
            [
                "target_enemy",
                null
            ],
            [
                "damage",
                15
            ],
            [
                "hit",
                85
            ],
            [
                "weapon_type",
                "Bow"
            ],
            [
                "weapon_rank",
                "S"
            ],
            [
                "weight",
                8
            ],
            [
                "status_on_equip",
                "Injury_to_Insult"
            ],
            [
                "crit",
                0
            ],
            [
                "min_range",
                2
            ],
            [
                "max_range",
                2
            ],
            [
                "effective_damage",
                {
                    "effective_tags": [
                        "Flying"
                    ],
                    "effective_multiplier": 3,
                    "effective_bonus_damage": 0,
                    "show_effectiveness_flash": true
                }
            ],
            [
                "value",
                600
            ]
        ]
    }
]