[
    {
        "nid": "Coated_Arms",
        "name": "Coated Arms",
        "desc": "User can imbue their weapons with new properties.\nCan act after use.",
        "icon_nid": "Skills",
        "icon_index": [
            8,
            6
        ],
        "components": [
            [
                "no_map_hp_display",
                null
            ],
            [
                "target_ally",
                null
            ],
            [
                "min_range",
                0
            ],
            [
                "max_range",
                0
            ],
            [
                "event_on_hit",
                "Global Ability_Coated_Arms"
            ],
            [
                "attack_after_combat",
                null
            ],
            [
                "spell",
                null
            ]
        ]
    }
]