[
    {
        "nid": "Coconut",
        "name": "Coconut",
        "desc": "Every 4th turn, unit cannot attack or use items, but ignores all damage.",
        "icon_nid": "Food_by_ZessDynamite",
        "icon_index": [
            3,
            1
        ],
        "components": [
            [
                "accessory",
                null
            ],
            [
                "status_on_hold",
                "Coconut"
            ],
            [
                "locked",
                null
            ]
        ]
    }
]