[
    {
        "nid": "Cunning_Potion",
        "name": "Cunning Potion",
        "desc": "Grants the <blue>Knife Thrower</> skill for the rest of the battle.",
        "icon_nid": "tactics_ogre",
        "icon_index": [
            10,
            9
        ],
        "components": [
            [
                "usable",
                null
            ],
            [
                "value",
                200
            ],
            [
                "target_ally",
                null
            ],
            [
                "uses",
                3
            ],
            [
                "uses_options",
                [
                    [
                        "LoseUsesOnMiss (T/F)",
                        "F",
                        "Lose uses even on miss"
                    ]
                ]
            ],
            [
                "usable_in_base",
                null
            ],
            [
                "self_status_on_hit",
                "Knife_Thrower"
            ]
        ]
    }
]