[
    {
        "nid": "Dazzle",
        "name": "Dazzle",
        "desc": "Prevents the target from countering in their next combat.\nUses refresh after battle.",
        "icon_nid": "{Zarg} Staff 1",
        "icon_index": [
            0,
            0
        ],
        "components": [
            [
                "spell",
                null
            ],
            [
                "target_enemy",
                null
            ],
            [
                "min_range",
                1
            ],
            [
                "max_range",
                3
            ],
            [
                "weapon_type",
                "Staff"
            ],
            [
                "weapon_rank",
                "D"
            ],
            [
                "magic",
                null
            ],
            [
                "c_uses",
                3
            ],
            [
                "uses_options",
                [
                    [
                        "LoseUsesOnMiss (T/F)",
                        "F",
                        "Lose uses even on miss"
                    ],
                    [
                        "OneLossPerCombat (T/F)",
                        "F",
                        "Doubling doesn't cost extra uses"
                    ]
                ]
            ],
            [
                "status_on_hit",
                "Dazzled"
            ],
            [
                "value",
                200
            ]
        ]
    }
]