[
    {
        "nid": "Default",
        "name": "Default",
        "desc": "Gain 1 BP, and 1 stack of <blue>Moonshadow</>.\nThis turn, take 50% damage, but unit cannot counter.",
        "icon_nid": "LTSkillIconSheet",
        "icon_index": [
            4,
            9
        ],
        "components": [
            [
                "spell",
                null
            ],
            [
                "target_ally",
                null
            ],
            [
                "min_range",
                0
            ],
            [
                "max_range",
                0
            ],
            [
                "event_on_hit",
                "Global Ability_Bravely_Default"
            ],
            [
                "statuses_on_hit",
                [
                    "Default_Child",
                    "Moonshadow_Stack"
                ]
            ]
        ]
    }
]