[
    {
        "nid": "Detonate_Burst",
        "name": "Detonate",
        "desc": "Target an ally within 3 tiles. Cast a powerful AoE 1 explosion that inflicts Poison at their position, killing them.",
        "icon_nid": "LTSkillIconSheet",
        "icon_index": [
            0,
            0
        ],
        "components": [
            [
                "enemy_blast_aoe",
                1
            ],
            [
                "min_range",
                1
            ],
            [
                "max_range",
                4
            ],
            [
                "status_after_combat_on_hit",
                "Poisoned"
            ],
            [
                "damage",
                12
            ],
            [
                "hit",
                85
            ],
            [
                "spell",
                null
            ],
            [
                "target_tile",
                null
            ]
        ]
    }
]