[
    {
        "nid": "Devil_Axe",
        "name": "Devil Axe",
        "desc": "(31 - LCK)% chance for user to also damage self when striking.",
        "icon_nid": "Axe",
        "icon_index": [
            0,
            8
        ],
        "components": [
            [
                "weapon",
                null
            ],
            [
                "target_enemy",
                null
            ],
            [
                "damage",
                18
            ],
            [
                "hit",
                55
            ],
            [
                "weapon_type",
                "Axe"
            ],
            [
                "weapon_rank",
                "D"
            ],
            [
                "weight",
                18
            ],
            [
                "crit",
                0
            ],
            [
                "status_on_equip",
                "Devils_Reversal_Weapon"
            ],
            [
                "value",
                200
            ],
            [
                "min_range",
                1
            ],
            [
                "max_range",
                1
            ]
        ]
    }
]