[
    {
        "nid": "Devil_Sword",
        "name": "Devil Sword",
        "desc": "(31 - LCK)% chance for user to also damage self when striking.",
        "icon_nid": "{Ereshkigal} Sprite Sheet V1.4 Converted",
        "icon_index": [
            24,
            0
        ],
        "components": [
            [
                "weapon",
                null
            ],
            [
                "target_enemy",
                null
            ],
            [
                "damage",
                15
            ],
            [
                "hit",
                65
            ],
            [
                "weapon_type",
                "Sword"
            ],
            [
                "weapon_rank",
                "D"
            ],
            [
                "weight",
                15
            ],
            [
                "crit",
                0
            ],
            [
                "status_on_equip",
                "Devils_Reversal_Weapon"
            ],
            [
                "value",
                200
            ],
            [
                "min_range",
                1
            ],
            [
                "max_range",
                1
            ]
        ]
    }
]