[
    {
        "nid": "Digitize",
        "name": "Digitize",
        "desc": "Don the mantle of\none's virtual form.\nFree action.",
        "icon_nid": "LTSkillIconSheet",
        "icon_index": [
            6,
            50
        ],
        "components": [
            [
                "spell",
                null
            ],
            [
                "target_ally",
                null
            ],
            [
                "event_on_hit",
                "Global Ability_Digitize"
            ],
            [
                "attack_after_combat",
                null
            ]
        ]
    }
]