[
    {
        "nid": "Disintegrate",
        "name": "Disintegrate",
        "desc": "",
        "icon_nid": "zarg icons ltinsert",
        "icon_index": [
            6,
            6
        ],
        "components": [
            [
                "weapon",
                null
            ],
            [
                "target_enemy",
                null
            ],
            [
                "min_range",
                1
            ],
            [
                "max_range",
                1
            ],
            [
                "damage",
                12
            ],
            [
                "hit",
                75
            ],
            [
                "crit",
                0
            ],
            [
                "weight",
                11
            ],
            [
                "weapon_type",
                "Dark"
            ],
            [
                "weapon_rank",
                "B"
            ],
            [
                "map_hit_add_blend",
                [
                    72,
                    0,
                    65
                ]
            ],
            [
                "magic",
                null
            ],
            [
                "value",
                400
            ]
        ]
    }
]