[
    {
        "nid": "Dismounted",
        "name": "Mount Up",
        "desc": "Stop being dismounted.",
        "icon_nid": "LTSkillIconSheet",
        "icon_index": [
            6,
            48
        ],
        "components": [
            [
                "target_ally",
                null
            ],
            [
                "min_range",
                0
            ],
            [
                "max_range",
                0
            ],
            [
                "spell",
                null
            ],
            [
                "event_after_combat_on_hit",
                "Global Ability_MountUp"
            ],
            [
                "eval_available",
                "not has_skill(unit, 'DismountDivebomb_Landing')"
            ]
        ]
    }
]