[
    {
        "nid": "Divide",
        "name": "Divide",
        "desc": "Summons a Guardian to an adjacent space.",
        "icon_nid": "LTSkillIconSheet",
        "icon_index": [
            6,
            37
        ],
        "components": [
            [
                "target_tile",
                null
            ],
            [
                "min_range",
                0
            ],
            [
                "max_range",
                0
            ],
            [
                "event_on_hit",
                "Global Ability_Divide"
            ],
            [
                "spell",
                null
            ]
        ]
    }
]