[
    {
        "nid": "Dragonshield",
        "name": "Dragonshield",
        "desc": "Permanently raises Defense by 1 point.",
        "icon_nid": "Boosters",
        "icon_index": [
            0,
            5
        ],
        "components": [
            [
                "usable",
                null
            ],
            [
                "target_ally",
                null
            ],
            [
                "uses",
                1
            ],
            [
                "uses_options",
                [
                    [
                        "LoseUsesOnMiss (T/F)",
                        "F",
                        "Lose uses even on miss"
                    ]
                ]
            ],
            [
                "permanent_stat_change",
                [
                    [
                        "DEF",
                        1
                    ]
                ]
            ],
            [
                "usable_in_base",
                null
            ],
            [
                "value",
                300
            ]
        ]
    }
]