[
    {
        "nid": "Dream_Eater",
        "name": "Dream Eater",
        "desc": "The piercing claws of a Nightmare.",
        "icon_nid": "Neutral",
        "icon_index": [
            0,
            9
        ],
        "components": [
            [
                "weapon",
                null
            ],
            [
                "target_enemy",
                null
            ],
            [
                "damage",
                0
            ],
            [
                "hit",
                100
            ],
            [
                "weight",
                5
            ],
            [
                "locked",
                null
            ],
            [
                "crit",
                0
            ],
            [
                "min_range",
                1
            ],
            [
                "max_range",
                1
            ]
        ]
    }
]