[
    {
        "nid": "Elfire",
        "name": "Elfire",
        "desc": "",
        "icon_nid": "Anima",
        "icon_index": [
            0,
            2
        ],
        "components": [
            [
                "weapon",
                null
            ],
            [
                "target_enemy",
                null
            ],
            [
                "min_range",
                2
            ],
            [
                "max_range",
                2
            ],
            [
                "damage",
                10
            ],
            [
                "hit",
                85
            ],
            [
                "crit",
                0
            ],
            [
                "weight",
                10
            ],
            [
                "weapon_type",
                "Anima"
            ],
            [
                "weapon_rank",
                "C"
            ],
            [
                "map_hit_add_blend",
                [
                    224,
                    96,
                    0
                ]
            ],
            [
                "magic",
                null
            ],
            [
                "value",
                300
            ]
        ]
    }
]