[
    {
        "nid": "Elfortune",
        "name": "Elfortune",
        "desc": "AoE 1.\nAllies gain +50 Hit until next turn.\nUses refresh after battle.",
        "icon_nid": "{LordGlenn} All Icons LordGlenn Pack 1",
        "icon_index": [
            4,
            8
        ],
        "components": [
            [
                "spell",
                null
            ],
            [
                "target_ally",
                null
            ],
            [
                "weapon_type",
                "Staff"
            ],
            [
                "weapon_rank",
                "C"
            ],
            [
                "magic",
                null
            ],
            [
                "status_on_hit",
                "Hit_Plus_50"
            ],
            [
                "min_range",
                1
            ],
            [
                "max_range",
                3
            ],
            [
                "c_uses",
                2
            ],
            [
                "uses_options",
                [
                    [
                        "LoseUsesOnMiss (T/F)",
                        "T",
                        "Lose uses even on miss"
                    ],
                    [
                        "OneLossPerCombat (T/F)",
                        "T",
                        "Doubling doesn't cost extra uses"
                    ]
                ]
            ],
            [
                "value",
                300
            ],
            [
                "smart_blast_aoe",
                1
            ]
        ]
    }
]