[
    {
        "nid": "Enfeeble",
        "name": "Enfeeble",
        "desc": "Reduces all stats by 4. Stats recover by 1/turn.\nUses refresh after battle.",
        "icon_nid": "{Ereshkigal} Staves",
        "icon_index": [
            4,
            0
        ],
        "components": [
            [
                "spell",
                null
            ],
            [
                "weapon_type",
                "Staff"
            ],
            [
                "weapon_rank",
                "B"
            ],
            [
                "magic",
                null
            ],
            [
                "value",
                400
            ],
            [
                "min_range",
                1
            ],
            [
                "status_on_hit",
                "Enfeebled"
            ],
            [
                "target_enemy",
                null
            ],
            [
                "c_uses",
                2
            ],
            [
                "uses_options",
                [
                    [
                        "LoseUsesOnMiss (T/F)",
                        "F",
                        "Lose uses even on miss"
                    ],
                    [
                        "OneLossPerCombat (T/F)",
                        "F",
                        "Doubling doesn't cost extra uses"
                    ]
                ]
            ],
            [
                "max_range",
                5
            ]
        ]
    }
]