[
    {
        "nid": "Epee",
        "name": "\u00c9p\u00e9e",
        "desc": "Uses SKL instead of STR when calculating damage.",
        "icon_nid": "Sword",
        "icon_index": [
            0,
            8
        ],
        "components": [
            [
                "weapon",
                null
            ],
            [
                "target_enemy",
                null
            ],
            [
                "min_range",
                1
            ],
            [
                "max_range",
                1
            ],
            [
                "damage",
                3
            ],
            [
                "hit",
                95
            ],
            [
                "crit",
                10
            ],
            [
                "weight",
                5
            ],
            [
                "weapon_type",
                "Sword"
            ],
            [
                "weapon_rank",
                "E"
            ],
            [
                "value",
                100
            ],
            [
                "alternate_damage_formula",
                "SKILL"
            ]
        ]
    }
]