[
    {
        "nid": "EssenceRender",
        "name": "Essence-Render",
        "desc": "Stelle only. On kill, gain 5 Essence.",
        "icon_nid": "{LordGlenn} {ArchaneaIconProject} 2019",
        "icon_index": [
            39,
            2
        ],
        "components": [
            [
                "weapon",
                null
            ],
            [
                "target_enemy",
                null
            ],
            [
                "min_range",
                1
            ],
            [
                "max_range",
                1
            ],
            [
                "damage",
                4
            ],
            [
                "hit",
                100
            ],
            [
                "crit",
                0
            ],
            [
                "weight",
                10
            ],
            [
                "weapon_type",
                "Axe"
            ],
            [
                "prf_unit",
                [
                    "Stelle"
                ]
            ],
            [
                "status_on_equip",
                "EssenceRender"
            ]
        ]
    }
]