[
    {
        "nid": "Etherealize",
        "name": "Etherealize",
        "desc": "Until the end of next turn,\nunit cannot attack or be attacked,\nhas -2 MOV, walks through walls.",
        "icon_nid": "LTSkillIconSheet",
        "icon_index": [
            4,
            33
        ],
        "components": [
            [
                "target_ally",
                null
            ],
            [
                "min_range",
                0
            ],
            [
                "max_range",
                0
            ],
            [
                "self_status_on_hit",
                "Ethereal"
            ]
        ]
    }
]