[
    {
        "nid": "Faenia_Secret",
        "name": "Faenia's Secret",
        "desc": "If foe has <blue>Burning</>, <blue>Chilled</>, <blue>Frozen</>, or <blue>Dazzled</>:\nGain +10 damage dealt, +25 Hit, and +20 Critical Chance.\nAfter combat, if a hit was landed, inflicts <blue>Toxin</> on the target.",
        "icon_nid": "{LordGlenn} All Icons LordGlenn Pack 1",
        "icon_index": [
            3,
            1
        ],
        "components": [
            [
                "weapon",
                null
            ],
            [
                "value",
                600
            ],
            [
                "target_enemy",
                null
            ],
            [
                "min_range",
                2
            ],
            [
                "max_range",
                2
            ],
            [
                "damage",
                12
            ],
            [
                "hit",
                85
            ],
            [
                "crit",
                10
            ],
            [
                "weight",
                9
            ],
            [
                "weapon_type",
                "Knife"
            ],
            [
                "weapon_rank",
                "S"
            ],
            [
                "status_after_combat_on_hit",
                "Toxin"
            ],
            [
                "status_on_equip",
                "Animus_Blade"
            ]
        ]
    }
]