[
    {
        "nid": "FarAmp",
        "name": "FarAmp",
        "desc": "Grants the target +5 damage dealt in their next combat.\nIncreases to +10 against a <blue>Dazzled</> foe.\nCannot be stolen.",
        "icon_nid": "zarg icons ltinsert",
        "icon_index": [
            11,
            7
        ],
        "components": [
            [
                "spell",
                null
            ],
            [
                "target_ally",
                null
            ],
            [
                "min_range",
                3
            ],
            [
                "max_range",
                8
            ],
            [
                "weapon_type",
                "Staff"
            ],
            [
                "weapon_rank",
                "A"
            ],
            [
                "magic",
                null
            ],
            [
                "unstealable",
                null
            ],
            [
                "buff_ally",
                "Amped"
            ]
        ]
    }
]