[
    {
        "nid": "Flag_of_Hope",
        "name": "Flag of Hope",
        "desc": "Cannot be countered during a <blue>Leading Charge</>.\nCannot perform follow-up attacks.",
        "icon_nid": "tactics_ogre",
        "icon_index": [
            14,
            2
        ],
        "components": [
            [
                "weapon",
                null
            ],
            [
                "value",
                0
            ],
            [
                "target_enemy",
                null
            ],
            [
                "min_range",
                1
            ],
            [
                "max_range",
                1
            ],
            [
                "damage",
                3
            ],
            [
                "hit",
                100
            ],
            [
                "crit",
                0
            ],
            [
                "weight",
                0
            ],
            [
                "locked",
                null
            ],
            [
                "no_double",
                null
            ]
        ]
    }
]