[
    {
        "nid": "Flamehoist",
        "name": "Flamehoist",
        "desc": "Long-range ballista.",
        "icon_nid": "ballista icons",
        "icon_index": [
            2,
            0
        ],
        "components": [
            [
                "weapon",
                null
            ],
            [
                "value",
                300
            ],
            [
                "target_enemy",
                null
            ],
            [
                "min_range",
                4
            ],
            [
                "max_range",
                7
            ],
            [
                "damage",
                7
            ],
            [
                "hit",
                85
            ],
            [
                "weight",
                20
            ],
            [
                "crit",
                0
            ],
            [
                "weapon_type",
                "Bow"
            ],
            [
                "weapon_rank",
                "C"
            ],
            [
                "effective_damage",
                {
                    "effective_tags": [
                        "Flying"
                    ],
                    "effective_multiplier": 3,
                    "effective_bonus_damage": 0,
                    "show_effectiveness_flash": true
                }
            ],
            [
                "prf_class",
                [
                    "Ballistician",
                    "Airship"
                ]
            ]
        ]
    }
]