[
    {
        "nid": "FlowLance",
        "name": "Flow Lance",
        "desc": "Targets the lower of foe's DEF and RES.",
        "icon_nid": "flowweapons",
        "icon_index": [
            1,
            0
        ],
        "components": [
            [
                "weapon",
                null
            ],
            [
                "target_enemy",
                null
            ],
            [
                "min_range",
                1
            ],
            [
                "max_range",
                1
            ],
            [
                "damage",
                12
            ],
            [
                "hit",
                85
            ],
            [
                "crit",
                0
            ],
            [
                "weight",
                12
            ],
            [
                "weapon_type",
                "Lance"
            ],
            [
                "weapon_rank",
                "C"
            ],
            [
                "alternate_resist_formula",
                "WORSE_DEFENSE"
            ]
        ]
    }
]