[
    {
        "nid": "Flux",
        "name": "Flux",
        "desc": "",
        "icon_nid": "Dark",
        "icon_index": [
            0,
            0
        ],
        "components": [
            [
                "weapon",
                null
            ],
            [
                "value",
                100
            ],
            [
                "target_enemy",
                null
            ],
            [
                "min_range",
                2
            ],
            [
                "max_range",
                2
            ],
            [
                "damage",
                7
            ],
            [
                "hit",
                80
            ],
            [
                "crit",
                0
            ],
            [
                "weight",
                8
            ],
            [
                "weapon_type",
                "Dark"
            ],
            [
                "weapon_rank",
                "E"
            ],
            [
                "map_hit_add_blend",
                [
                    72,
                    0,
                    65
                ]
            ],
            [
                "magic",
                null
            ]
        ]
    }
]