[
    {
        "nid": "Gamblers_Brew",
        "name": "Gambler's Brew",
        "desc": "Converts a random stat (except for Mov) to match unit's Luck, and converts its growth to match the unit's Luck Growth.",
        "icon_nid": "tactics_ogre",
        "icon_index": [
            11,
            15
        ],
        "components": [
            [
                "usable",
                null
            ],
            [
                "value",
                300
            ],
            [
                "target_ally",
                null
            ],
            [
                "uses",
                1
            ],
            [
                "uses_options",
                [
                    [
                        "LoseUsesOnMiss (T/F)",
                        "F",
                        "Lose uses even on miss"
                    ]
                ]
            ],
            [
                "usable_in_base",
                null
            ],
            [
                "event_on_hit",
                "Global Item_Gamblers_Brew"
            ]
        ]
    }
]