[
    {
        "nid": "Ghostmaker",
        "name": "Ghostmaker",
        "desc": "Upon dying or killing an enemy with this tome, summon a ghost.",
        "icon_nid": "{LordGlenn} All Icons LordGlenn Pack 1",
        "icon_index": [
            10,
            7
        ],
        "components": [
            [
                "weapon",
                null
            ],
            [
                "target_enemy",
                null
            ],
            [
                "min_range",
                2
            ],
            [
                "max_range",
                2
            ],
            [
                "damage",
                12
            ],
            [
                "hit",
                70
            ],
            [
                "crit",
                0
            ],
            [
                "weight",
                18
            ],
            [
                "weapon_type",
                "Dark"
            ],
            [
                "weapon_rank",
                "A"
            ],
            [
                "map_hit_add_blend",
                [
                    72,
                    0,
                    65
                ]
            ],
            [
                "magic",
                null
            ],
            [
                "value",
                500
            ],
            [
                "status_on_equip",
                "Ghostmaker_Buff"
            ]
        ]
    }
]