[
    {
        "nid": "Glass_Flute",
        "name": "Glass Flute",
        "desc": "Refreshes an ally.\nUses refresh after combat.",
        "icon_nid": "{Rootrick, Zarg} (Secret of Evermore) Item 39",
        "icon_index": [
            0,
            0
        ],
        "components": [
            [
                "value",
                400
            ],
            [
                "target_ally",
                null
            ],
            [
                "min_range",
                1
            ],
            [
                "max_range",
                1
            ],
            [
                "refresh",
                null
            ],
            [
                "spell",
                null
            ],
            [
                "c_uses",
                2
            ],
            [
                "uses_options",
                [
                    [
                        "LoseUsesOnMiss (T/F)",
                        "F",
                        "Lose uses even on miss"
                    ],
                    [
                        "OneLossPerCombat (T/F)",
                        "F",
                        "Doubling doesn't cost extra uses"
                    ]
                ]
            ]
        ]
    }
]