[
    {
        "nid": "Heal",
        "name": "Heal",
        "desc": "Restores 7 HP.",
        "icon_nid": "Staff",
        "icon_index": [
            0,
            0
        ],
        "components": [
            [
                "spell",
                null
            ],
            [
                "value",
                200
            ],
            [
                "target_ally",
                null
            ],
            [
                "min_range",
                1
            ],
            [
                "max_range",
                1
            ],
            [
                "weapon_type",
                "Staff"
            ],
            [
                "weapon_rank",
                "E"
            ],
            [
                "uses",
                5
            ],
            [
                "uses_options",
                [
                    [
                        "LoseUsesOnMiss (T/F)",
                        "F",
                        "Lose uses even on miss"
                    ]
                ]
            ],
            [
                "map_hit_add_blend",
                [
                    96,
                    144,
                    232
                ]
            ],
            [
                "heal",
                7
            ]
        ]
    }
]