[
    {
        "nid": "Heavy_Spear_Plus",
        "name": "Heavy Spear+",
        "desc": "Effective against armored units.",
        "icon_nid": "Lance",
        "icon_index": [
            0,
            15
        ],
        "components": [
            [
                "weapon",
                null
            ],
            [
                "target_enemy",
                null
            ],
            [
                "damage",
                11
            ],
            [
                "hit",
                65
            ],
            [
                "weapon_type",
                "Lance"
            ],
            [
                "weapon_rank",
                "B"
            ],
            [
                "weight",
                15
            ],
            [
                "crit",
                0
            ],
            [
                "value",
                400
            ],
            [
                "min_range",
                1
            ],
            [
                "max_range",
                1
            ],
            [
                "effective_damage",
                {
                    "effective_tags": [
                        "Armor"
                    ],
                    "effective_multiplier": 3,
                    "effective_bonus_damage": 0,
                    "show_effectiveness_flash": true
                }
            ]
        ]
    }
]