[
    {
        "nid": "Hunger",
        "name": "Hunger",
        "desc": "Attacks in an AoE Cleave.\nCannot follow up or counter.",
        "icon_nid": "{LordGlenn} {ArchaneaIconProject} 2019",
        "icon_index": [
            18,
            4
        ],
        "components": [
            [
                "weapon",
                null
            ],
            [
                "value",
                300
            ],
            [
                "target_enemy",
                null
            ],
            [
                "min_range",
                1
            ],
            [
                "max_range",
                1
            ],
            [
                "damage",
                5
            ],
            [
                "hit",
                80
            ],
            [
                "crit",
                0
            ],
            [
                "weight",
                8
            ],
            [
                "weapon_type",
                "Dark"
            ],
            [
                "weapon_rank",
                "C"
            ],
            [
                "map_hit_add_blend",
                [
                    72,
                    0,
                    65
                ]
            ],
            [
                "magic",
                null
            ],
            [
                "cannot_counter",
                null
            ],
            [
                "no_double",
                null
            ],
            [
                "enemy_cleave_aoe",
                null
            ]
        ]
    }
]