[
    {
        "nid": "Ice_Rune",
        "name": "Ice Rune",
        "desc": "Magical. Strikes in a line. Inflicts <blue>Frozen</>.\nCannot counter.\n<violet>Dragon</>: Magical. Strikes the weaker of DEF or RES.",
        "icon_nid": "RWDragonstones",
        "icon_index": [
            4,
            0
        ],
        "components": [
            [
                "weapon",
                null
            ],
            [
                "target_enemy",
                null
            ],
            [
                "value",
                500
            ],
            [
                "damage",
                6
            ],
            [
                "hit",
                80
            ],
            [
                "crit",
                0
            ],
            [
                "min_range",
                1
            ],
            [
                "max_range",
                3
            ],
            [
                "enemy_line_aoe",
                null
            ],
            [
                "transform",
                null
            ],
            [
                "weapon_type",
                "Stone"
            ],
            [
                "weapon_rank",
                "A"
            ],
            [
                "weight",
                13
            ],
            [
                "multi_status_on_equip",
                [
                    "Dragonstone"
                ]
            ],
            [
                "magic",
                null
            ],
            [
                "cannot_counter",
                null
            ],
            [
                "status_on_hit",
                "Frozen"
            ]
        ]
    }
]