[
    {
        "nid": "Inferno_Stone",
        "name": "Inferno Stone",
        "desc": "<violet>Dragon</>: Magical. Strikes the weaker of DEF or RES.",
        "icon_nid": "Batima_Stones",
        "icon_index": [
            10,
            0
        ],
        "components": [
            [
                "weapon",
                null
            ],
            [
                "target_enemy",
                null
            ],
            [
                "value",
                500
            ],
            [
                "damage",
                14
            ],
            [
                "hit",
                80
            ],
            [
                "crit",
                0
            ],
            [
                "min_range",
                1
            ],
            [
                "max_range",
                1
            ],
            [
                "transform",
                null
            ],
            [
                "weapon_type",
                "Stone"
            ],
            [
                "weapon_rank",
                "A"
            ],
            [
                "weight",
                12
            ],
            [
                "multi_status_on_equip",
                [
                    "Dragonstone"
                ]
            ]
        ]
    }
]