[
    {
        "nid": "Infection_Override",
        "name": "Infection Override",
        "desc": "",
        "icon_nid": "Skills",
        "icon_index": [
            0,
            0
        ],
        "components": [
            [
                "statuses_after_combat_on_hit",
                [
                    "Infection_Debuff",
                    "Infection_Hit_Debuff"
                ]
            ]
        ]
    }
]