[
    {
        "nid": "Iron_Emblem",
        "name": "Iron Emblem",
        "desc": "+3 SKL/LCK, cannot be crit,\ncan be used to open chests.",
        "icon_nid": "iron_emblem",
        "icon_index": [
            0,
            0
        ],
        "components": [
            [
                "accessory",
                null
            ],
            [
                "stat_change",
                [
                    [
                        "SKL",
                        3
                    ],
                    [
                        "LCK",
                        3
                    ]
                ]
            ],
            [
                "status_on_equip",
                "Anticrit"
            ],
            [
                "can_unlock",
                "True"
            ],
            [
                "locked",
                null
            ]
        ]
    }
]