[
    {
        "nid": "Ise_no_Kami",
        "name": "Ise-no-Kami",
        "desc": "Eleanor Dee only.",
        "icon_nid": "{Ereshkigal} Sprite Sheet V1.4 Converted",
        "icon_index": [
            2,
            5
        ],
        "components": [
            [
                "weapon",
                null
            ],
            [
                "value",
                0
            ],
            [
                "target_enemy",
                null
            ],
            [
                "min_range",
                1
            ],
            [
                "max_range",
                1
            ],
            [
                "damage",
                8
            ],
            [
                "hit",
                90
            ],
            [
                "crit",
                30
            ],
            [
                "weight",
                5
            ],
            [
                "weapon_type",
                "Sword"
            ],
            [
                "prf_unit",
                [
                    "Eleanor"
                ]
            ]
        ]
    }
]