[
    {
        "nid": "Javelin",
        "name": "Javelin",
        "desc": "",
        "icon_nid": "Lance",
        "icon_index": [
            0,
            8
        ],
        "components": [
            [
                "weapon",
                null
            ],
            [
                "value",
                100
            ],
            [
                "target_enemy",
                null
            ],
            [
                "min_range",
                2
            ],
            [
                "max_range",
                2
            ],
            [
                "damage",
                6
            ],
            [
                "hit",
                65
            ],
            [
                "crit",
                0
            ],
            [
                "weight",
                11
            ],
            [
                "weapon_type",
                "Lance"
            ],
            [
                "weapon_rank",
                "E"
            ]
        ]
    }
]