[
    {
        "nid": "Jolt",
        "name": "Jolt",
        "desc": "Gathers 1 Black Mana and 1 White Mana on cast.",
        "icon_nid": "{LordGlenn} All Icons LordGlenn Pack 1",
        "icon_index": [
            9,
            5
        ],
        "components": [
            [
                "weapon",
                null
            ],
            [
                "target_enemy",
                null
            ],
            [
                "min_range",
                2
            ],
            [
                "max_range",
                2
            ],
            [
                "damage",
                4
            ],
            [
                "hit",
                90
            ],
            [
                "crit",
                0
            ],
            [
                "weight",
                4
            ],
            [
                "weapon_type",
                "Anima"
            ],
            [
                "weapon_rank",
                "E"
            ],
            [
                "map_hit_add_blend",
                [
                    224,
                    73,
                    43
                ]
            ],
            [
                "magic",
                null
            ]
        ]
    }
]