[
    {
        "nid": "Key_Part_B",
        "name": "Key Part B",
        "desc": "The second of 3 keys.\nWhat will happen once they're all collected?",
        "icon_nid": "Consumable",
        "icon_index": [
            0,
            6
        ],
        "components": [
            [
                "item_tags",
                [
                    "Temporary"
                ]
            ]
        ]
    }
]