[
    {
        "nid": "Killing_Edge",
        "name": "Killing Edge",
        "desc": "",
        "icon_nid": "Sword",
        "icon_index": [
            0,
            11
        ],
        "components": [
            [
                "weapon",
                null
            ],
            [
                "value",
                300
            ],
            [
                "target_enemy",
                null
            ],
            [
                "min_range",
                1
            ],
            [
                "max_range",
                1
            ],
            [
                "damage",
                9
            ],
            [
                "hit",
                75
            ],
            [
                "crit",
                30
            ],
            [
                "weight",
                7
            ],
            [
                "weapon_type",
                "Sword"
            ],
            [
                "weapon_rank",
                "C"
            ],
            [
                "warning",
                null
            ]
        ]
    }
]