[
    {
        "nid": "KnightsTour_1",
        "name": "Knight's Tour",
        "desc": "Activated. Teleport to a space exactly 1 knight's move away (2 tiles in one direction and 1 in another). Doesn't end turn. Usable up to twice per turn.",
        "icon_nid": "Skills",
        "icon_index": [
            3,
            1
        ],
        "components": [
            [
                "no_ai",
                null
            ],
            [
                "min_range",
                0
            ],
            [
                "max_range",
                0
            ],
            [
                "store_unit",
                null
            ],
            [
                "target_ally",
                null
            ],
            [
                "attack_after_combat",
                null
            ],
            [
                "spell",
                null
            ]
        ]
    }
]