[
    {
        "nid": "Levitator",
        "name": "Levitator",
        "desc": "Unit is treated as a Flying unit.",
        "icon_nid": "tactics_ogre",
        "icon_index": [
            16,
            8
        ],
        "components": [
            [
                "accessory",
                null
            ],
            [
                "value",
                200
            ],
            [
                "status_on_hold",
                "Levitating"
            ]
        ]
    }
]