[
    {
        "nid": "LotusBloom",
        "name": "Lotus Bloom",
        "desc": "Datura only.\n+3 SKL/SPD/LCK. Reverses weapon triangle.",
        "icon_nid": "nikolas_datura_items",
        "icon_index": [
            2,
            0
        ],
        "components": [
            [
                "weapon",
                null
            ],
            [
                "target_enemy",
                null
            ],
            [
                "min_range",
                1
            ],
            [
                "max_range",
                1
            ],
            [
                "damage",
                12
            ],
            [
                "hit",
                85
            ],
            [
                "crit",
                0
            ],
            [
                "weight",
                8
            ],
            [
                "weapon_type",
                "Sword"
            ],
            [
                "prf_unit",
                [
                    "Datura"
                ]
            ],
            [
                "stat_change",
                [
                    [
                        "SKL",
                        3
                    ],
                    [
                        "SPD",
                        3
                    ],
                    [
                        "LCK",
                        3
                    ]
                ]
            ],
            [
                "weapon_rank",
                "C"
            ],
            [
                "reaver",
                null
            ]
        ]
    }
]