[
    {
        "nid": "Magic_Expulsion",
        "name": "Magic Expulsion",
        "desc": "Strikes in a line, dealing magical damage.\nRange increases with every 2 stacks of <blue>Mana Channeling</>.\n3 turn cooldown.",
        "icon_nid": "Neutral",
        "icon_index": [
            0,
            1
        ],
        "components": [
            [
                "weapon",
                null
            ],
            [
                "target_enemy",
                null
            ],
            [
                "value",
                0
            ],
            [
                "damage",
                4
            ],
            [
                "hit",
                70
            ],
            [
                "crit",
                0
            ],
            [
                "min_range",
                1
            ],
            [
                "eval_max_range",
                "len([s for s in unit.skills if s.nid == 'Mana_Channeling']) // 2 if any([s for s in unit.skills if s.nid == 'Mana_Channeling']) else 2"
            ],
            [
                "weapon_type",
                "Stone"
            ],
            [
                "magic",
                null
            ],
            [
                "weight",
                15
            ],
            [
                "prf_unit",
                [
                    "Bootes",
                    "Bootes_Final"
                ]
            ],
            [
                "enemy_line_aoe",
                null
            ],
            [
                "cooldown",
                3
            ],
            [
                "unstealable",
                null
            ]
        ]
    }
]