[
    {
        "nid": "Malpractice",
        "name": "Malpractice",
        "desc": "Restores 10 HP. Reduces Max HP by 2.",
        "icon_nid": "{Ryan914} Medic Bag",
        "icon_index": [
            0,
            0
        ],
        "components": [
            [
                "spell",
                null
            ],
            [
                "value",
                0
            ],
            [
                "target_ally",
                null
            ],
            [
                "min_range",
                1
            ],
            [
                "max_range",
                1
            ],
            [
                "weapon_type",
                "Staff"
            ],
            [
                "weapon_rank",
                "E"
            ],
            [
                "uses",
                1
            ],
            [
                "uses_options",
                [
                    [
                        "LoseUsesOnMiss (T/F)",
                        "F",
                        "Lose uses even on miss"
                    ]
                ]
            ],
            [
                "map_hit_add_blend",
                [
                    96,
                    144,
                    232
                ]
            ],
            [
                "heal",
                10
            ],
            [
                "locked",
                null
            ],
            [
                "event_on_hit",
                "Global Item_Malpractice"
            ]
        ]
    }
]