[
    {
        "nid": "Master_Draw_Back",
        "name": "M. Draw Back",
        "desc": "",
        "icon_nid": "Skills",
        "icon_index": [
            0,
            0
        ],
        "components": [
            [
                "target_unit",
                null
            ],
            [
                "min_range",
                1
            ],
            [
                "max_range",
                1
            ],
            [
                "eval_target_restrict_2",
                "'Tile' not in target.tags"
            ],
            [
                "draw_back",
                1
            ],
            [
                "draw_back_target_restrict",
                1
            ],
            [
                "attack_after_combat",
                null
            ],
            [
                "spell",
                null
            ],
            [
                "cooldown",
                1
            ]
        ]
    }
]