[
    {
        "nid": "Master_Key",
        "name": "Master Key",
        "desc": "Opens doors and chests.",
        "icon_nid": "Consumable",
        "icon_index": [
            0,
            7
        ],
        "components": [
            [
                "value",
                100
            ],
            [
                "uses",
                3
            ],
            [
                "uses_options",
                [
                    [
                        "LoseUsesOnMiss (T/F)",
                        "F",
                        "Lose uses even on miss"
                    ]
                ]
            ],
            [
                "can_unlock",
                "region.nid.startswith('Chest') or region.nid.startswith('Door') or region.nid.startswith('chest') or region.nid.startswith('door')"
            ]
        ]
    }
]