[
    {
        "nid": "Mimic",
        "name": "Mimic",
        "desc": "Permanently copies one class skill from an adjacent ally, and removes a stack of this skill.\nNot all skills can be copied.",
        "icon_nid": "LTSkillIconSheet",
        "icon_index": [
            1,
            41
        ],
        "components": [
            [
                "spell",
                null
            ],
            [
                "target_ally",
                null
            ],
            [
                "min_range",
                1
            ],
            [
                "max_range",
                1
            ],
            [
                "event_on_hit",
                "Global Ability_Mimic"
            ],
            [
                "eval_target_restrict_2",
                "any([s for s in target.skills if s.copysafe and not has_skill(unit, s.nid)])"
            ]
        ]
    }
]