[
    {
        "nid": "Moonshadow_OR",
        "name": "Moonshadow",
        "desc": "",
        "icon_nid": "Skills",
        "icon_index": [
            0,
            0
        ],
        "components": [
            [
                "effective_damage",
                {
                    "effective_tags": [
                        "Monster"
                    ],
                    "effective_multiplier": 3,
                    "effective_bonus_damage": 0,
                    "show_effectiveness_flash": true
                }
            ],
            [
                "event_on_hit",
                "Global Ability_Moonshadow"
            ]
        ]
    }
]