[
    {
        "nid": "Perfect_Beef",
        "name": "Perfect Beef",
        "desc": "Can be used to recruit an enemy unit for the remainder of the battle.\nSuccess rate increases as enemy's health drops.\nHigher success rate than normal Beef.",
        "icon_nid": "Food_by_ZessDynamite",
        "icon_index": [
            1,
            5
        ],
        "components": [
            [
                "spell",
                null
            ],
            [
                "target_enemy",
                null
            ],
            [
                "min_range",
                1
            ],
            [
                "max_range",
                1
            ],
            [
                "uses",
                1
            ],
            [
                "uses_options",
                [
                    [
                        "LoseUsesOnMiss (T/F)",
                        "F",
                        "Lose uses even on miss"
                    ],
                    [
                        "OneLossPerCombat (T/F)",
                        "F",
                        "Doubling doesn't cost extra uses"
                    ]
                ]
            ],
            [
                "event_on_hit",
                "Global Item_Beef"
            ],
            [
                "eval_target_restrict_2",
                "'Boss' not in target.tags and 'Tile' not in target.tags"
            ],
            [
                "hit",
                120
            ],
            [
                "alternate_accuracy_formula",
                "DOUBLE_LUCK"
            ],
            [
                "alternate_avoid_formula",
                "HEALTH_AVOID"
            ]
        ]
    }
]