[
    {
        "nid": "Poison_Sword",
        "name": "Poison Sword",
        "desc": "Poisons on contact.",
        "icon_nid": "Sword",
        "icon_index": [
            0,
            7
        ],
        "components": [
            [
                "weapon",
                null
            ],
            [
                "target_enemy",
                null
            ],
            [
                "damage",
                3
            ],
            [
                "hit",
                80
            ],
            [
                "weapon_type",
                "Sword"
            ],
            [
                "weapon_rank",
                "E"
            ],
            [
                "weight",
                6
            ],
            [
                "crit",
                0
            ],
            [
                "status_on_hit",
                "Poisoned"
            ],
            [
                "min_range",
                1
            ],
            [
                "max_range",
                1
            ]
        ]
    }
]