[
    {
        "nid": "Potion_Belt",
        "name": "Potion Belt",
        "desc": "At the end of each map, consumables are placed in the Potion Belt.",
        "icon_nid": "tactics_ogre",
        "icon_index": [
            4,
            4
        ],
        "components": [
            [
                "accessory",
                null
            ],
            [
                "value",
                300
            ],
            [
                "multi_item",
                []
            ]
        ]
    }
]