[
    {
        "nid": "ProfanedHeart",
        "name": "Profaned Heart",
        "desc": "+20% Hit/Avoid. Can be consumed to permanently gain +10% Hit/Avoid.",
        "icon_nid": "nikolas_datura_items",
        "icon_index": [
            4,
            0
        ],
        "components": [
            [
                "accessory",
                null
            ],
            [
                "value",
                250
            ],
            [
                "status_on_hold",
                "ProfaneHeart_Held"
            ],
            [
                "status_after_combat_on_hit",
                "ProfaneHeart_Permanent"
            ],
            [
                "usable",
                null
            ],
            [
                "usable_in_base",
                null
            ],
            [
                "uses",
                1
            ],
            [
                "uses_options",
                [
                    [
                        "LoseUsesOnMiss (T/F)",
                        "F",
                        "Lose uses even on miss"
                    ],
                    [
                        "OneLossPerCombat (T/F)",
                        "F",
                        "Doubling doesn't cost extra uses"
                    ]
                ]
            ],
            [
                "target_ally",
                null
            ]
        ]
    }
]