[
    {
        "nid": "Protocol_HUNT",
        "name": "Protocol: HUNT",
        "desc": "Inflicts avoid and dodge -50 to an enemy on the map.\nUnit cannot crit against non-target enemies.",
        "icon_nid": "LTSkillIconSheet",
        "icon_index": [
            3,
            40
        ],
        "components": [
            [
                "target_enemy",
                null
            ],
            [
                "spell",
                null
            ],
            [
                "status_on_hit",
                "HUNT_enemy_child"
            ],
            [
                "min_range",
                5
            ],
            [
                "max_range",
                99
            ],
            [
                "attack_after_combat",
                null
            ]
        ]
    }
]