[
    {
        "nid": "Pulse",
        "name": "Pulse",
        "desc": "Uses refresh after battle.",
        "icon_nid": "{LordGlenn} {ArchaneaIconProject} 2019",
        "icon_index": [
            5,
            4
        ],
        "components": [
            [
                "target_enemy",
                null
            ],
            [
                "damage",
                2
            ],
            [
                "hit",
                90
            ],
            [
                "weapon_type",
                "Light"
            ],
            [
                "weapon_rank",
                "D"
            ],
            [
                "magic",
                null
            ],
            [
                "weight",
                20
            ],
            [
                "crit",
                0
            ],
            [
                "value",
                200
            ],
            [
                "min_range",
                3
            ],
            [
                "max_range",
                5
            ],
            [
                "siege_weapon",
                null
            ],
            [
                "map_hit_add_blend",
                [
                    255,
                    255,
                    0
                ]
            ],
            [
                "c_uses",
                1
            ],
            [
                "uses_options",
                [
                    [
                        "LoseUsesOnMiss (T/F)",
                        "T",
                        "Lose uses even on miss"
                    ],
                    [
                        "OneLossPerCombat (T/F)",
                        "F",
                        "Doubling doesn't cost extra uses"
                    ]
                ]
            ]
        ]
    }
]