[
    {
        "nid": "RecklessStrikeOverride",
        "name": "RecklessStrikeOverride",
        "desc": "Combat art. AoE Cleave. Brave. Debuffs Movement on hit.",
        "icon_nid": "Skills",
        "icon_index": [
            0,
            0
        ],
        "components": [
            [
                "enemy_cleave_aoe",
                null
            ],
            [
                "brave",
                null
            ],
            [
                "status_on_hit",
                "MOV_Minus_2"
            ]
        ]
    }
]