[
    {
        "nid": "Regroup",
        "name": "Regroup!",
        "desc": "",
        "icon_nid": "Skills",
        "icon_index": [
            0,
            0
        ],
        "components": [
            [
                "min_range",
                1
            ],
            [
                "max_range",
                3
            ],
            [
                "eval_target_restrict_2",
                "'Tile' not in target.tags"
            ],
            [
                "spell",
                null
            ],
            [
                "shove_flex_stops",
                -3
            ],
            [
                "eval_special_range",
                "x == 0 or y == 0"
            ],
            [
                "target_ally",
                null
            ]
        ]
    }
]