[
    {
        "nid": "Restore",
        "name": "Restore",
        "desc": "Removes negative statuses.\nUses refresh after battle.",
        "icon_nid": "Staff",
        "icon_index": [
            0,
            5
        ],
        "components": [
            [
                "spell",
                null
            ],
            [
                "target_ally",
                null
            ],
            [
                "weapon_type",
                "Staff"
            ],
            [
                "weapon_rank",
                "C"
            ],
            [
                "magic",
                null
            ],
            [
                "value",
                300
            ],
            [
                "min_range",
                1
            ],
            [
                "max_range",
                1
            ],
            [
                "restore",
                null
            ],
            [
                "c_uses",
                2
            ],
            [
                "uses_options",
                [
                    [
                        "LoseUsesOnMiss (T/F)",
                        "F",
                        "Lose uses even on miss"
                    ],
                    [
                        "OneLossPerCombat (T/F)",
                        "F",
                        "Doubling doesn't cost extra uses"
                    ]
                ]
            ]
        ]
    }
]