[
    {
        "nid": "Ridill",
        "name": "Ridill",
        "desc": "Reverses the weapon triangle.",
        "icon_nid": "tactics_ogre",
        "icon_index": [
            1,
            5
        ],
        "components": [
            [
                "weapon",
                null
            ],
            [
                "value",
                0
            ],
            [
                "target_enemy",
                null
            ],
            [
                "min_range",
                1
            ],
            [
                "max_range",
                1
            ],
            [
                "damage",
                7
            ],
            [
                "hit",
                80
            ],
            [
                "crit",
                10
            ],
            [
                "weight",
                8
            ],
            [
                "weapon_type",
                "Sword"
            ],
            [
                "weapon_rank",
                "D"
            ],
            [
                "reaver",
                null
            ]
        ]
    }
]