[
    {
        "nid": "Rigalbured_E",
        "name": "Rigalbured+",
        "desc": "King only.\nCan only attack at 1 range, or directly diagonally.",
        "icon_nid": "{LordGlenn} All Icons LordGlenn Pack 1",
        "icon_index": [
            3,
            1
        ],
        "components": [
            [
                "weapon",
                null
            ],
            [
                "target_enemy",
                null
            ],
            [
                "min_range",
                1
            ],
            [
                "max_range",
                2
            ],
            [
                "damage",
                18
            ],
            [
                "hit",
                95
            ],
            [
                "crit",
                10
            ],
            [
                "weight",
                5
            ],
            [
                "weapon_type",
                "Sword"
            ],
            [
                "prf_unit",
                [
                    "King",
                    "King_E"
                ]
            ],
            [
                "eval_special_range",
                "(x != -2) and (x != 2) and (y != -2) and (y != 2)"
            ]
        ]
    }
]