[
    {
        "nid": "Riposte_Arc",
        "name": "Riposte Arc",
        "desc": "When inititating an attack, 0 MT.",
        "icon_nid": "{Ereshkigal} Sprite Sheet V1.4 Converted",
        "icon_index": [
            8,
            3
        ],
        "components": [
            [
                "weapon",
                null
            ],
            [
                "target_enemy",
                null
            ],
            [
                "damage",
                15
            ],
            [
                "hit",
                100
            ],
            [
                "weapon_type",
                "Bow"
            ],
            [
                "weapon_rank",
                "C"
            ],
            [
                "weight",
                10
            ],
            [
                "crit",
                0
            ],
            [
                "value",
                300
            ],
            [
                "min_range",
                2
            ],
            [
                "max_range",
                2
            ],
            [
                "effective_damage",
                {
                    "effective_tags": [
                        "Flying"
                    ],
                    "effective_multiplier": 3,
                    "effective_bonus_damage": 0,
                    "show_effectiveness_flash": true
                }
            ],
            [
                "multi_status_on_equip",
                [
                    "Riposte_Arc_Nerf",
                    "Steel_Magnolia_Nerf"
                ]
            ]
        ]
    }
]