[
    {
        "nid": "Rondel",
        "name": "Rondel",
        "desc": "Knight only. Cannot be countered. After combat, if a hit was landed, inflicts <blue>Toxin</> on the target. Return to menu after combat.",
        "icon_nid": "jellyunicorns item icons ltinsert",
        "icon_index": [
            1,
            0
        ],
        "components": [
            [
                "weapon",
                null
            ],
            [
                "target_enemy",
                null
            ],
            [
                "min_range",
                1
            ],
            [
                "max_range",
                1
            ],
            [
                "damage",
                0
            ],
            [
                "hit",
                90
            ],
            [
                "crit",
                0
            ],
            [
                "weight",
                7
            ],
            [
                "weapon_type",
                "Knife"
            ],
            [
                "status_after_combat_on_hit",
                "Toxin"
            ],
            [
                "menu_after_combat",
                null
            ],
            [
                "prf_unit",
                [
                    "Knight"
                ]
            ],
            [
                "status_on_equip",
                "Firesweep"
            ]
        ]
    }
]