[
    {
        "nid": "Rusty_Nail",
        "name": "Rusty Nail",
        "desc": "Each attack inflicts one stack of <blue>Toxin</>.",
        "icon_nid": "tactics_ogre",
        "icon_index": [
            3,
            15
        ],
        "components": [
            [
                "status_on_hold",
                "Rusty_Strike"
            ],
            [
                "accessory",
                null
            ],
            [
                "value",
                200
            ]
        ]
    }
]