[
    {
        "nid": "Scripture",
        "name": "Scripture",
        "desc": "<red>Locked</>. On upkeep and on kill, put a Verse with random stats.\nEach Verse gives +2 LCK on use.",
        "icon_nid": "zarg icons ltinsert",
        "icon_index": [
            2,
            8
        ],
        "components": [
            [
                "accessory",
                null
            ],
            [
                "multi_item",
                []
            ],
            [
                "status_on_hold",
                "Inscribe"
            ],
            [
                "item_tags",
                [
                    "Randomize"
                ]
            ]
        ]
    }
]