[
    {
        "nid": "Sevens",
        "name": "Sevens",
        "desc": "Eureka only. Adds LCK to Hit, Avoid, and Crit when initiating combat.",
        "icon_nid": "jellyunicorns item icons ltinsert",
        "icon_index": [
            9,
            0
        ],
        "components": [
            [
                "weapon",
                null
            ],
            [
                "target_enemy",
                null
            ],
            [
                "min_range",
                1
            ],
            [
                "max_range",
                1
            ],
            [
                "damage",
                7
            ],
            [
                "hit",
                77
            ],
            [
                "crit",
                7
            ],
            [
                "weight",
                7
            ],
            [
                "prf_unit",
                [
                    "Eureka"
                ]
            ],
            [
                "status_on_equip",
                "SevensSword"
            ],
            [
                "weapon_type_exempt",
                "Sword"
            ]
        ]
    }
]