[
    {
        "nid": "Shield_Order",
        "name": "Shield Order",
        "desc": "Unit and allies within 2 spaces gain +2 DEF/RES/LCK and <blue>Wary Fighter</> for 1 turn.",
        "icon_nid": "LTSkillIconSheet",
        "icon_index": [
            4,
            2
        ],
        "components": [
            [
                "target_tile",
                null
            ],
            [
                "min_range",
                0
            ],
            [
                "max_range",
                0
            ],
            [
                "ally_blast_aoe",
                2
            ],
            [
                "status_on_hit",
                "Shield_Order_Child"
            ],
            [
                "spell",
                null
            ],
            [
                "event_after_combat_even_miss",
                "Global Ability_Battle_Armor"
            ]
        ]
    }
]