[
    {
        "nid": "ShiningBow",
        "name": "Shining Bow",
        "desc": "Tinola only. Uses MAG and targets RES. Cannot crit.",
        "icon_nid": "{LordGlenn} {ArchaneaIconProject} 2019",
        "icon_index": [
            12,
            3
        ],
        "components": [
            [
                "weapon",
                null
            ],
            [
                "target_enemy",
                null
            ],
            [
                "min_range",
                1
            ],
            [
                "max_range",
                2
            ],
            [
                "damage",
                7
            ],
            [
                "hit",
                70
            ],
            [
                "weight",
                9
            ],
            [
                "weapon_type",
                "Bow"
            ],
            [
                "effective_damage",
                {
                    "effective_tags": [
                        "Flying"
                    ],
                    "effective_multiplier": 3,
                    "effective_bonus_damage": 0,
                    "show_effectiveness_flash": true
                }
            ],
            [
                "prf_unit",
                [
                    "Tinola"
                ]
            ],
            [
                "magic",
                null
            ]
        ]
    }
]