[
    {
        "nid": "Shove",
        "name": "Shove",
        "desc": "",
        "icon_nid": "Skills",
        "icon_index": [
            0,
            0
        ],
        "components": [
            [
                "target_unit",
                null
            ],
            [
                "min_range",
                1
            ],
            [
                "max_range",
                1
            ],
            [
                "shove",
                1
            ],
            [
                "shove_target_restrict",
                1
            ],
            [
                "eval_target_restrict_2",
                "'Tile' not in target.tags"
            ],
            [
                "spell",
                null
            ]
        ]
    }
]