[
    {
        "nid": "Silencer",
        "name": "Silencer",
        "desc": "Effective against magical foes.\nAfter combat, if a hit was landed, inflicts <blue>Toxin</> on the target.",
        "icon_nid": "{Ereshkigal} Dagger 16",
        "icon_index": [
            0,
            0
        ],
        "components": [
            [
                "weapon",
                null
            ],
            [
                "value",
                200
            ],
            [
                "target_enemy",
                null
            ],
            [
                "min_range",
                2
            ],
            [
                "max_range",
                2
            ],
            [
                "damage",
                5
            ],
            [
                "hit",
                90
            ],
            [
                "crit",
                0
            ],
            [
                "weight",
                5
            ],
            [
                "weapon_type",
                "Knife"
            ],
            [
                "weapon_rank",
                "D"
            ],
            [
                "status_after_combat_on_hit",
                "Toxin"
            ],
            [
                "effective_damage",
                {
                    "effective_tags": [
                        "Magical"
                    ],
                    "effective_multiplier": 3,
                    "effective_bonus_damage": 0,
                    "show_effectiveness_flash": true
                }
            ]
        ]
    }
]