[
    {
        "nid": "Silver_Axe",
        "name": "Silver Axe",
        "desc": "",
        "icon_nid": "Axe",
        "icon_index": [
            0,
            2
        ],
        "components": [
            [
                "weapon",
                null
            ],
            [
                "value",
                400
            ],
            [
                "target_enemy",
                null
            ],
            [
                "min_range",
                1
            ],
            [
                "max_range",
                1
            ],
            [
                "damage",
                15
            ],
            [
                "hit",
                70
            ],
            [
                "crit",
                0
            ],
            [
                "weight",
                12
            ],
            [
                "weapon_type",
                "Axe"
            ],
            [
                "weapon_rank",
                "B"
            ]
        ]
    }
]