[
    {
        "nid": "Slumber_Stabber",
        "name": "Slumber Stabber",
        "desc": "Inflicts <blue>Inflexible</> on hit.\nAfter combat, if a hit was landed, inflicts <blue>Toxin</> on the target.",
        "icon_nid": "{Jubby} Dagger 7",
        "icon_index": [
            0,
            0
        ],
        "components": [
            [
                "weapon",
                null
            ],
            [
                "value",
                200
            ],
            [
                "target_enemy",
                null
            ],
            [
                "min_range",
                1
            ],
            [
                "max_range",
                1
            ],
            [
                "damage",
                3
            ],
            [
                "hit",
                85
            ],
            [
                "crit",
                0
            ],
            [
                "weight",
                5
            ],
            [
                "weapon_type",
                "Knife"
            ],
            [
                "weapon_rank",
                "D"
            ],
            [
                "status_on_hit",
                "Inflexible"
            ],
            [
                "status_after_combat_on_hit",
                "Toxin"
            ]
        ]
    }
]