[
    {
        "nid": "SpicyStew",
        "name": "Spicy Stew",
        "desc": "Grants +100 Crit to an ally's next attack.",
        "icon_nid": "Food_by_ZessDynamite",
        "icon_index": [
            4,
            7
        ],
        "components": [
            [
                "value",
                300
            ],
            [
                "target_ally",
                null
            ],
            [
                "uses",
                3
            ],
            [
                "uses_options",
                [
                    [
                        "LoseUsesOnMiss (T/F)",
                        "F",
                        "Lose uses even on miss"
                    ]
                ]
            ],
            [
                "min_range",
                1
            ],
            [
                "max_range",
                1
            ],
            [
                "status_on_hit",
                "SpicyStew"
            ],
            [
                "usable",
                null
            ]
        ]
    }
]