[
    {
        "nid": "Starchaser",
        "name": "The Starchaser",
        "desc": "Can unleash a 3-10 range attack once per map.\n\n",
        "icon_nid": "{LordGlenn} All Icons LordGlenn Pack 1",
        "icon_index": [
            13,
            4
        ],
        "components": [
            [
                "weapon",
                null
            ],
            [
                "target_enemy",
                null
            ],
            [
                "damage",
                12
            ],
            [
                "hit",
                90
            ],
            [
                "weapon_type",
                "Bow"
            ],
            [
                "weapon_rank",
                "S"
            ],
            [
                "weight",
                10
            ],
            [
                "crit",
                0
            ],
            [
                "min_range",
                2
            ],
            [
                "max_range",
                3
            ],
            [
                "effective_damage",
                {
                    "effective_tags": [
                        "Flying"
                    ],
                    "effective_multiplier": 3,
                    "effective_bonus_damage": 0,
                    "show_effectiveness_flash": true
                }
            ],
            [
                "value",
                600
            ],
            [
                "multi_item",
                [
                    "Starchaser_23",
                    "Starchaser_310"
                ]
            ]
        ]
    }
]