[
    {
        "nid": "Starchaser_310",
        "name": "Starchaser",
        "desc": "3-10 range attack.\n\n",
        "icon_nid": "{LordGlenn} All Icons LordGlenn Pack 1",
        "icon_index": [
            13,
            4
        ],
        "components": [
            [
                "weapon",
                null
            ],
            [
                "target_enemy",
                null
            ],
            [
                "damage",
                13
            ],
            [
                "hit",
                90
            ],
            [
                "weapon_type",
                "Bow"
            ],
            [
                "weapon_rank",
                "S"
            ],
            [
                "weight",
                10
            ],
            [
                "crit",
                0
            ],
            [
                "min_range",
                3
            ],
            [
                "max_range",
                10
            ],
            [
                "effective_damage",
                {
                    "effective_tags": [
                        "Flying"
                    ],
                    "effective_multiplier": 3,
                    "effective_bonus_damage": 0,
                    "show_effectiveness_flash": true
                }
            ],
            [
                "value",
                600
            ],
            [
                "c_uses",
                1
            ],
            [
                "uses_options",
                [
                    [
                        "LoseUsesOnMiss (T/F)",
                        "F",
                        "Lose uses even on miss"
                    ],
                    [
                        "OneLossPerCombat (T/F)",
                        "F",
                        "Doubling doesn't cost extra uses"
                    ]
                ]
            ]
        ]
    }
]