[
    {
        "nid": "Steal",
        "name": "Steal",
        "desc": "Steal items from enemies.",
        "icon_nid": "Skills",
        "icon_index": [
            7,
            10
        ],
        "components": [
            [
                "spell",
                null
            ],
            [
                "min_range",
                1
            ],
            [
                "max_range",
                1
            ],
            [
                "target_enemy",
                null
            ],
            [
                "gba_steal",
                null
            ],
            [
                "item_tags",
                [
                    "Steal"
                ]
            ]
        ]
    }
]