[
    {
        "nid": "Steel_Axe",
        "name": "Steel Axe",
        "desc": "",
        "icon_nid": "Axe",
        "icon_index": [
            0,
            1
        ],
        "components": [
            [
                "weapon",
                null
            ],
            [
                "value",
                200
            ],
            [
                "target_enemy",
                null
            ],
            [
                "min_range",
                1
            ],
            [
                "max_range",
                1
            ],
            [
                "damage",
                11
            ],
            [
                "hit",
                65
            ],
            [
                "crit",
                0
            ],
            [
                "weight",
                15
            ],
            [
                "weapon_type",
                "Axe"
            ],
            [
                "weapon_rank",
                "D"
            ]
        ]
    }
]