[
    {
        "nid": "Steroids",
        "name": "Steroids",
        "desc": "Permanently raises Strength by 3 points, but decreases all other stats by 1 point.",
        "icon_nid": "Food_by_ZessDynamite",
        "icon_index": [
            3,
            8
        ],
        "components": [
            [
                "usable",
                null
            ],
            [
                "target_ally",
                null
            ],
            [
                "uses",
                1
            ],
            [
                "uses_options",
                [
                    [
                        "LoseUsesOnMiss (T/F)",
                        "F",
                        "Lose uses even on miss"
                    ]
                ]
            ],
            [
                "permanent_stat_change",
                [
                    [
                        "STR",
                        3
                    ],
                    [
                        "MAG",
                        -1
                    ],
                    [
                        "SKL",
                        -1
                    ],
                    [
                        "SPD",
                        -1
                    ],
                    [
                        "LCK",
                        -1
                    ],
                    [
                        "DEF",
                        -1
                    ],
                    [
                        "RES",
                        -1
                    ],
                    [
                        "HP",
                        -1
                    ]
                ]
            ],
            [
                "usable_in_base",
                null
            ],
            [
                "value",
                300
            ]
        ]
    }
]