[
    {
        "nid": "StonewardShield",
        "name": "Stoneward Shield",
        "desc": "Unit or an adjacent ally gets 1.5x Defense during their next round of combat. If the target has Earth affinity, they get 1.5x Defense during their next 2 rounds instead.",
        "icon_nid": "LTSkillIconSheet",
        "icon_index": [
            2,
            9
        ],
        "components": [
            [
                "spell",
                null
            ],
            [
                "target_ally",
                null
            ],
            [
                "min_range",
                0
            ],
            [
                "max_range",
                1
            ],
            [
                "event_after_combat_on_hit",
                "Global Ability_StonewardShield"
            ]
        ]
    }
]