[
    {
        "nid": "Stout_Bow",
        "name": "Stout Bow",
        "desc": "",
        "icon_nid": "{Ereshkigal} Sprite Sheet V1.4 Converted",
        "icon_index": [
            14,
            3
        ],
        "components": [
            [
                "weapon",
                null
            ],
            [
                "target_enemy",
                null
            ],
            [
                "damage",
                7
            ],
            [
                "hit",
                90
            ],
            [
                "weapon_type",
                "Bow"
            ],
            [
                "weapon_rank",
                "B"
            ],
            [
                "weight",
                5
            ],
            [
                "crit",
                10
            ],
            [
                "value",
                400
            ],
            [
                "min_range",
                1
            ],
            [
                "max_range",
                1
            ],
            [
                "effective_damage",
                {
                    "effective_tags": [
                        "Flying"
                    ],
                    "effective_multiplier": 3,
                    "effective_bonus_damage": 0,
                    "show_effectiveness_flash": true
                }
            ]
        ]
    }
]