[
    {
        "nid": "Sucker_Punch",
        "name": "Sucker Punch",
        "desc": "Punch an enemy.",
        "icon_nid": "LTSkillIconSheet",
        "icon_index": [
            5,
            42
        ],
        "components": [
            [
                "weapon",
                null
            ],
            [
                "value",
                0
            ],
            [
                "target_enemy",
                null
            ],
            [
                "min_range",
                1
            ],
            [
                "max_range",
                1
            ],
            [
                "damage",
                6
            ],
            [
                "hit",
                90
            ],
            [
                "crit",
                0
            ],
            [
                "weight",
                0
            ],
            [
                "cannot_counter",
                null
            ],
            [
                "no_equip",
                null
            ]
        ]
    }
]