[
    {
        "nid": "SureStrike_Override",
        "name": "SureStrikeOverride",
        "desc": "+1 Range, Foe cannot counter, inflicts Inflexible. Cannot Double or Crit.",
        "icon_nid": "Skills",
        "icon_index": [
            0,
            0
        ],
        "components": [
            [
                "cannot_counter",
                null
            ],
            [
                "status_on_hit",
                "Inflexible"
            ],
            [
                "no_double",
                null
            ],
            [
                "status_on_equip",
                "Firesweep"
            ]
        ]
    }
]