[
    {
        "nid": "The_Lifter",
        "name": "The Lifter",
        "desc": "Ignore penalties while rescuing.\nHalf of Weapon Weight is added to damage and critical chance.",
        "icon_nid": "tactics_ogre",
        "icon_index": [
            11,
            14
        ],
        "components": [
            [
                "value",
                300
            ],
            [
                "accessory",
                null
            ],
            [
                "status_on_hold",
                "The_Lifter"
            ]
        ]
    }
]