[
    {
        "nid": "Thoron",
        "name": "Thoron",
        "desc": "",
        "icon_nid": "{Batima} Thoron (DS)",
        "icon_index": [
            0,
            0
        ],
        "components": [
            [
                "weapon",
                null
            ],
            [
                "target_enemy",
                null
            ],
            [
                "min_range",
                2
            ],
            [
                "max_range",
                2
            ],
            [
                "damage",
                12
            ],
            [
                "hit",
                70
            ],
            [
                "crit",
                0
            ],
            [
                "weight",
                12
            ],
            [
                "weapon_type",
                "Anima"
            ],
            [
                "weapon_rank",
                "B"
            ],
            [
                "map_hit_add_blend",
                [
                    255,
                    255,
                    0
                ]
            ],
            [
                "magic",
                null
            ],
            [
                "value",
                400
            ]
        ]
    }
]