[
    {
        "nid": "Torch",
        "name": "Torch",
        "desc": "Increases user's sight range in fog of war",
        "icon_nid": "Consumable",
        "icon_index": [
            0,
            11
        ],
        "components": [
            [
                "value",
                500
            ],
            [
                "uses",
                5
            ],
            [
                "uses_options",
                [
                    [
                        "LoseUsesOnMiss (T/F)",
                        "F",
                        "Lose uses even on miss"
                    ]
                ]
            ],
            [
                "target_ally",
                null
            ],
            [
                "usable",
                null
            ]
        ]
    }
]