[
    {
        "nid": "Tower_Shield",
        "name": "Tower Shield",
        "desc": "A massive shield.\n+2 DEF/RES, -10 SPD.\nDamage from foe's follow-up attacks is reduced to 50%.",
        "icon_nid": "tactics_ogre",
        "icon_index": [
            5,
            0
        ],
        "components": [
            [
                "value",
                300
            ],
            [
                "accessory",
                null
            ],
            [
                "status_on_hold",
                "Tower_Shield_Buff"
            ]
        ]
    }
]