[
    {
        "nid": "Toxify",
        "name": "Toxify",
        "desc": "Inflicts <blue>Toxin</>, AoE 1.\nUses refresh after battle.",
        "icon_nid": "{LordGlenn} All Icons LordGlenn Pack 1",
        "icon_index": [
            5,
            8
        ],
        "components": [
            [
                "spell",
                null
            ],
            [
                "weapon_type",
                "Staff"
            ],
            [
                "weapon_rank",
                "D"
            ],
            [
                "magic",
                null
            ],
            [
                "value",
                200
            ],
            [
                "min_range",
                2
            ],
            [
                "max_range",
                3
            ],
            [
                "status_on_hit",
                "Toxin"
            ],
            [
                "target_enemy",
                null
            ],
            [
                "c_uses",
                2
            ],
            [
                "uses_options",
                [
                    [
                        "LoseUsesOnMiss (T/F)",
                        "F",
                        "Lose uses even on miss"
                    ],
                    [
                        "OneLossPerCombat (T/F)",
                        "F",
                        "Doubling doesn't cost extra uses"
                    ]
                ]
            ],
            [
                "enemy_blast_aoe",
                1
            ]
        ]
    }
]