[
    {
        "nid": "Tycho_Flame",
        "name": "Tycho's Flame",
        "desc": "Brave.\nWhen initiating, deals 20% current HP damage and inflicts <blue>Burning</> on foes within 2 spaces of target after combat.",
        "icon_nid": "jellyunicorns item icons ltinsert",
        "icon_index": [
            3,
            4
        ],
        "components": [
            [
                "weapon",
                null
            ],
            [
                "target_enemy",
                null
            ],
            [
                "damage",
                14
            ],
            [
                "hit",
                75
            ],
            [
                "weapon_type",
                "Lance"
            ],
            [
                "weight",
                12
            ],
            [
                "weapon_rank",
                "S"
            ],
            [
                "status_on_equip",
                "Burning_Blow"
            ],
            [
                "crit",
                0
            ],
            [
                "min_range",
                1
            ],
            [
                "max_range",
                1
            ],
            [
                "brave_on_attack",
                null
            ],
            [
                "value",
                600
            ]
        ]
    }
]