[
    {
        "nid": "Unyielding_Defense",
        "name": "Unyielding Defense",
        "desc": "+2 STR/MAG/DEF/RES\nbut gain Inflexible.",
        "icon_nid": "Skills",
        "icon_index": [
            0,
            0
        ],
        "components": [
            [
                "target_ally",
                null
            ],
            [
                "min_range",
                0
            ],
            [
                "max_range",
                0
            ],
            [
                "spell",
                null
            ],
            [
                "statuses_on_hit",
                [
                    "Inflexible_Unyielding",
                    "Unyielding_Defense_Child"
                ]
            ]
        ]
    }
]