[
    {
        "nid": "Vile_Breath",
        "name": "Vile Breath",
        "desc": "Crawl only. Magical. Strikes the weaker of DEF or RES. Attacks in a line.\nAfter combat, if a hit was landed, inflicts <blue>Toxin</> on the target.",
        "icon_nid": "Neutral",
        "icon_index": [
            0,
            12
        ],
        "components": [
            [
                "weapon",
                null
            ],
            [
                "target_enemy",
                null
            ],
            [
                "damage",
                2
            ],
            [
                "hit",
                75
            ],
            [
                "crit",
                0
            ],
            [
                "min_range",
                1
            ],
            [
                "max_range",
                3
            ],
            [
                "transform",
                null
            ],
            [
                "weapon_type",
                "Stone"
            ],
            [
                "magic",
                null
            ],
            [
                "weight",
                16
            ],
            [
                "status_on_equip",
                "Dragonstone"
            ],
            [
                "enemy_line_aoe",
                null
            ],
            [
                "prf_unit",
                [
                    "Crawl"
                ]
            ],
            [
                "status_after_combat_on_hit",
                "Toxin"
            ],
            [
                "cannot_counter",
                null
            ]
        ]
    }
]