[
    {
        "nid": "WhirlingGale",
        "name": "Whirling Gale",
        "desc": "Activated. Shove all units within 2 tiles of this unit 2 tiles away.",
        "icon_nid": "LTSkillIconSheet",
        "icon_index": [
            4,
            48
        ],
        "components": [
            [
                "min_range",
                0
            ],
            [
                "max_range",
                0
            ],
            [
                "spell",
                null
            ],
            [
                "blast_aoe",
                2
            ],
            [
                "target_tile",
                null
            ],
            [
                "event_on_hit",
                "Global Ability_WhirlingGale"
            ],
            [
                "hit",
                150
            ],
            [
                "shove",
                2
            ]
        ]
    }
]