[
    {
        "nid": "WindWalk",
        "name": "Wind Walk",
        "desc": "Activated. Swap places with any ally on the map with Wind affinity. Free action. Usable up to thrice per turn.",
        "icon_nid": "LTSkillIconSheet",
        "icon_index": [
            6,
            38
        ],
        "components": [
            [
                "swap_on_end_combat",
                null
            ],
            [
                "spell",
                null
            ],
            [
                "global_range",
                null
            ],
            [
                "min_range",
                1
            ],
            [
                "attack_after_combat",
                null
            ],
            [
                "target_ally",
                null
            ],
            [
                "eval_target_restrict_2",
                "target.affinity and target.affinity == 'Wind'"
            ]
        ]
    }
]