[
    {
        "nid": "Windwreathing",
        "name": "Windwreathing",
        "desc": "All playable units on the map with Wind affinity get Canter 2 this turn. Then, this unit's affinity becomes Earth. Free action.",
        "icon_nid": "LTSkillIconSheet",
        "icon_index": [
            1,
            35
        ],
        "components": [
            [
                "target_ally",
                null
            ],
            [
                "spell",
                null
            ],
            [
                "min_range",
                0
            ],
            [
                "max_range",
                0
            ],
            [
                "event_after_combat_on_hit",
                "Global Ability_Windwreathing"
            ],
            [
                "attack_after_combat",
                null
            ]
        ]
    }
]