[
    {
        "nid": "Wishblade",
        "name": "Wishblade",
        "desc": "Said to choose its wielder. Haryld only.\nGrants +5 DEF while equipped.",
        "icon_nid": "{LordGlenn} {ArchaneaIconProject} 2019",
        "icon_index": [
            33,
            2
        ],
        "components": [
            [
                "weapon",
                null
            ],
            [
                "target_enemy",
                null
            ],
            [
                "min_range",
                1
            ],
            [
                "max_range",
                1
            ],
            [
                "damage",
                16
            ],
            [
                "hit",
                85
            ],
            [
                "crit",
                0
            ],
            [
                "weight",
                11
            ],
            [
                "prf_unit",
                [
                    "Haryld"
                ]
            ],
            [
                "stat_change",
                [
                    [
                        "DEF",
                        5
                    ]
                ]
            ],
            [
                "weapon_type_exempt",
                "Lance"
            ],
            [
                "wexp",
                0
            ]
        ]
    }
]