[
    {
        "nid": "Wounding_Fang",
        "name": "Wounding Fang",
        "desc": "Inflicts <blue>Bleed</> on hit.",
        "icon_nid": "Neutral",
        "icon_index": [
            0,
            12
        ],
        "components": [
            [
                "weapon",
                null
            ],
            [
                "target_enemy",
                null
            ],
            [
                "damage",
                4
            ],
            [
                "hit",
                95
            ],
            [
                "weight",
                3
            ],
            [
                "locked",
                null
            ],
            [
                "crit",
                0
            ],
            [
                "min_range",
                1
            ],
            [
                "max_range",
                1
            ],
            [
                "status_on_hit",
                "Bleeding"
            ]
        ]
    }
]