[
    {
        "nid": "Zanbato",
        "name": "Zanbato",
        "desc": "Effective against horseback units.",
        "icon_nid": "Sword",
        "icon_index": [
            0,
            17
        ],
        "components": [
            [
                "weapon",
                null
            ],
            [
                "target_enemy",
                null
            ],
            [
                "damage",
                6
            ],
            [
                "hit",
                85
            ],
            [
                "weapon_type",
                "Sword"
            ],
            [
                "weapon_rank",
                "D"
            ],
            [
                "weight",
                11
            ],
            [
                "crit",
                0
            ],
            [
                "value",
                200
            ],
            [
                "min_range",
                1
            ],
            [
                "max_range",
                1
            ],
            [
                "effective_damage",
                {
                    "effective_tags": [
                        "Horse",
                        "Beast"
                    ],
                    "effective_multiplier": 3,
                    "effective_bonus_damage": 0,
                    "show_effectiveness_flash": true
                }
            ]
        ]
    }
]