[
    {
        "nid": "Zephyr",
        "name": "Zephyr",
        "desc": "After initiated combat, foe is Shoved until they collide with an obstacle.",
        "icon_nid": "{LordGlenn} All Icons LordGlenn Pack 1",
        "icon_index": [
            0,
            5
        ],
        "components": [
            [
                "weapon",
                null
            ],
            [
                "target_enemy",
                null
            ],
            [
                "min_range",
                2
            ],
            [
                "max_range",
                2
            ],
            [
                "damage",
                5
            ],
            [
                "hit",
                95
            ],
            [
                "crit",
                0
            ],
            [
                "weight",
                4
            ],
            [
                "weapon_type",
                "Anima"
            ],
            [
                "weapon_rank",
                "C"
            ],
            [
                "map_hit_add_blend",
                [
                    0,
                    170,
                    127
                ]
            ],
            [
                "magic",
                null
            ],
            [
                "value",
                300
            ],
            [
                "shove_flexible_on_end_combat_initiate",
                99
            ]
        ]
    }
]