[
    {
        "name": "Door_Break",
        "trigger": "unit_death",
        "level_nid": "10",
        "condition": "'door' in unit.nid",
        "commands": [],
        "only_once": false,
        "priority": 20,
        "_source": [
            "if;unit.nid == 'doorL1'",
            "show_layer;doorL;fade",
            "remove_unit;Wall (doorL2)",
            "remove_region;doorL",
            "elif;unit.nid == 'doorL2'",
            "show_layer;doorL;fade",
            "remove_unit;Wall (doorL1)",
            "remove_region;doorL",
            "elif;unit.nid == 'doorR1'",
            "show_layer;doorR;fade",
            "remove_unit;Wall (doorR2)",
            "remove_region;doorR",
            "elif;unit.nid == 'doorR2'",
            "show_layer;doorR;fade",
            "remove_unit;Wall (doorR1)",
            "remove_region;doorR",
            "end"
        ]
    }
]