[
    {
        "name": "Reinforcements_L",
        "trigger": "turn_change",
        "level_nid": "11",
        "condition": "any_unit_in_region('rein1_zone', team='player')",
        "commands": [],
        "only_once": false,
        "priority": 20,
        "_source": [
            "if;game.level_vars.get('reinsL', 0) != 1",
            "add_group;left;left;;closest",
            "center_cursor;Phantom (114);FLAG(immediate)",
            "flicker_cursor;Phantom (114)",
            "level_var;infinites_left;1",
            "level_var;reinsL;1",
            "end"
        ]
    }
]