[
    {
        "name": "Reinforcements_B",
        "trigger": "turn_change",
        "level_nid": "11",
        "condition": "game.turncount == 5",
        "commands": [],
        "only_once": false,
        "priority": 20,
        "_source": [
            "add_group;bottom;bottom;;closest",
            "center_cursor;Phantom (116);FLAG(immediate)",
            "flicker_cursor;Phantom (116)",
            "center_cursor;Phantom (117);FLAG(immediate)",
            "flicker_cursor;Phantom (117)"
        ]
    }
]