[
    {
        "name": "Reinforcements_R",
        "trigger": "turn_change",
        "level_nid": "11",
        "condition": "any_unit_in_region('rein2_zone', team='player')",
        "commands": [],
        "only_once": false,
        "priority": 20,
        "_source": [
            "if;game.level_vars.get('reinsR', 0) != 1",
            "add_group;right;right;;closest",
            "center_cursor;Phantom (115);FLAG(immediate)",
            "flicker_cursor;Phantom (115)",
            "level_var;infinites_right;1",
            "level_var;reinsR;1",
            "end"
        ]
    }
]