[
    {
        "name": "Win_Condition_Alter",
        "trigger": "unit_death",
        "level_nid": "11",
        "condition": "unit.team == 'enemy' or unit.team == 'enemy2'",
        "commands": [],
        "only_once": false,
        "priority": 15,
        "_source": [
            "#To account for poison kills",
            "if;unit.nid == 'pillarL' and is_dead('pillarR') and any([s.fatal_damage for s in unit.skills])",
            "    win_game",
            "end",
            "if;unit.nid == 'pillarR' and is_dead('pillarL') and any([s.fatal_damage for s in unit.skills])",
            "    win_game",
            "end"
        ]
    }
]