[
    {
        "name": "Door_Unlock",
        "trigger": "Door",
        "level_nid": "14",
        "condition": "'Door' in region.nid",
        "commands": [],
        "only_once": false,
        "priority": 20,
        "_source": [
            "if;region.nid == 'DoorL'",
            "remove_unit;DoorL;immediate",
            "show_layer;DoorL;fade",
            "elif;region.nid == 'DoorR'",
            "remove_unit;DoorR;immediate",
            "show_layer;DoorR;fade",
            "elif;region.nid == 'DoorB'",
            "remove_unit;DoorB_1;immediate",
            "remove_unit;DoorB_2;immediate",
            "remove_unit;DoorB_3;immediate",
            "show_layer;DoorB;fade",
            "end",
            "unlock;{unit}",
            "has_attacked;{unit}"
        ]
    }
]