[
    {
        "name": "Bosses_Dead",
        "trigger": "combat_end",
        "level_nid": "17",
        "condition": "is_dead('101') and is_dead('102') and is_dead('103')",
        "commands": [],
        "only_once": true,
        "priority": 20,
        "_source": [
            "win_game"
        ]
    }
]