[
    {
        "name": "Turn3",
        "trigger": "turn_change",
        "level_nid": "17",
        "condition": "game.turncount == 3",
        "commands": [],
        "only_once": false,
        "priority": 20,
        "_source": [
            "add_group;T3;T3;fade;closest",
            "move_cursor;109",
            "flicker_cursor;109",
            "move_cursor;110",
            "flicker_cursor;110",
            "if;game.check_alive('101')",
            "move_cursor;101",
            "flicker_cursor;101",
            "change_ai;101;Pursue",
            "speak;;\u2028This boss has begun to charge.;;;hint;NumLines=1;Width=180",
            "end"
        ]
    }
]