[
    {
        "name": "Win_Condition",
        "trigger": "combat_end",
        "level_nid": "18",
        "condition": "is_dead('Supplies_1') and is_dead('Supplies_2') and is_dead('Supplies_3') and is_dead('Supplies_4')",
        "commands": [],
        "only_once": false,
        "priority": 20,
        "_source": [
            "win_game"
        ]
    }
]