[
    {
        "name": "Reinforcements_1",
        "trigger": "turn_change",
        "level_nid": "21",
        "condition": "any_unit_in_region('ReinforcementZone2', team='player')",
        "commands": [],
        "only_once": false,
        "priority": 20,
        "_source": [
            "if;game.level_vars.get('reijs', 0) != 1",
            "add_group;Reinforcements2;Reinforcements2;fade;closest",
            "move_cursor;119",
            "flicker_cursor;119",
            "move_cursor;120",
            "flicker_cursor;120",
            "move_cursor;121",
            "flicker_cursor;121",
            "level_var;reijs;1",
            "end"
        ]
    }
]