[
    {
        "name": "Door_Break",
        "trigger": "unit_death",
        "level_nid": "22",
        "condition": "'Door' in unit.nid",
        "commands": [],
        "only_once": false,
        "priority": 20,
        "_source": [
            "if;unit.nid == 'DoorL'",
            "show_layer;DoorL;fade",
            "remove_region;DoorL",
            "elif;unit.nid == 'DoorT'",
            "show_layer;DoorT;fade",
            "remove_region;DoorT",
            "elif;unit.nid == 'DoorB'",
            "show_layer;DoorB;fade",
            "remove_region;DoorB",
            "elif;unit.nid == 'DoorR'",
            "show_layer;DoorR;fade",
            "remove_region;DoorR",
            "elif;unit.nid == 'DoorFunny'",
            "show_layer;DoorFunny;fade",
            "remove_region;DoorFunny",
            "end"
        ]
    }
]