[
    {
        "name": "Turn4",
        "trigger": "turn_change",
        "level_nid": "23",
        "condition": "game.turncount == 5",
        "commands": [],
        "only_once": false,
        "priority": 20,
        "_source": [
            "add_group;T4;T4;fade;closest",
            "move_cursor;117",
            "flicker_cursor;117",
            "move_cursor;118",
            "flicker_cursor;118"
        ]
    }
]