[
    {
        "name": "Boss_Dead",
        "trigger": "combat_end",
        "level_nid": "27",
        "condition": "is_dead('101')",
        "commands": [],
        "only_once": true,
        "priority": 20,
        "_source": [
            "win_game"
        ]
    }
]