[
    {
        "name": "Rein2",
        "trigger": "turn_change",
        "level_nid": "28",
        "condition": "any_unit_in_region('Rein2', team='player')",
        "commands": [],
        "only_once": false,
        "priority": 20,
        "_source": [
            "if;game.level_vars.get('reins2', 0) != 1",
            "add_group;Rein2;Rein2;fade;closest",
            "move_cursor;119",
            "flicker_cursor;119",
            "move_cursor;120",
            "flicker_cursor;120",
            "level_var;reins2;1",
            "end"
        ]
    }
]