[
    {
        "name": "Visit",
        "trigger": "Visit",
        "level_nid": "28",
        "condition": "'Visit' in region.nid",
        "commands": [],
        "only_once": false,
        "priority": 20,
        "_source": [
            "if;region.nid == 'VisitT'",
            "show_layer;HouseT",
            "remove_region;VisitT",
            "elif;region.nid == 'VisitL'",
            "show_layer;HouseL",
            "remove_region;VisitL",
            "elif;region.nid == 'VisitR'",
            "show_layer;HouseR",
            "remove_region;VisitR",
            "end",
            "inc_level_var;houses_visited;1",
            "if;{v:houses_visited} >= 3",
            "win_game",
            "end",
            "has_traded;{unit}"
        ]
    }
]