[
    {
        "name": "Door_Break",
        "trigger": "unit_death",
        "level_nid": "31",
        "condition": "'Door' in unit.nid",
        "commands": [],
        "only_once": false,
        "priority": 20,
        "_source": [
            "show_layer;Door;fade",
            "remove_region;Door",
            "",
            ""
        ]
    }
]