[
    {
        "name": "Win_Condition",
        "trigger": "Seize",
        "level_nid": "31",
        "condition": "True",
        "commands": [],
        "only_once": false,
        "priority": 20,
        "_source": [
            "win_game"
        ]
    }
]