[
    {
        "name": "Loss_Condition",
        "trigger": "Enemy_Seize",
        "level_nid": "32",
        "condition": "True",
        "commands": [],
        "only_once": false,
        "priority": 20,
        "_source": [
            "trigger_script;Global_Loss (Global Global_Loss)"
        ]
    }
]