[
    {
        "name": "Reinforcements",
        "trigger": "turn_change",
        "level_nid": "32",
        "condition": "True",
        "commands": [],
        "only_once": false,
        "priority": 20,
        "_source": [
            "if;game.turncount == 3",
            "add_group;rein1;rein1;;closest",
            "center_cursor;Phantom (111);FLAG(immediate)",
            "flicker_cursor;Phantom (111)",
            "center_cursor;Phantom (113);FLAG(immediate)",
            "flicker_cursor;Phantom (113)",
            "elif;game.turncount == 4",
            "add_group;rein2;rein2;;closest",
            "center_cursor;Phantom (112);FLAG(immediate)",
            "flicker_cursor;Phantom (112)",
            "center_cursor;Phantom (114);FLAG(immediate)",
            "flicker_cursor;Phantom (114)",
            "end"
        ]
    }
]