[
    {
        "name": "Door_HP",
        "trigger": "combat_end",
        "level_nid": "33",
        "condition": "'door' in unit2.nid",
        "commands": [],
        "only_once": false,
        "priority": 20,
        "_source": [
            "if;unit2.nid == 'door_1'",
            "set_current_hp;door_2;{e:unit2.get_hp()}",
            "elif;unit2.nid == 'door_2'",
            "set_current_hp;door_1;{e:unit2.get_hp()}",
            "elif;unit2.nid == 'door_3'",
            "set_current_hp;door_4;{e:unit2.get_hp()}",
            "elif;unit2.nid == 'door_4'",
            "set_current_hp;door_3;{e:unit2.get_hp()}",
            "elif;unit2.nid == 'door_5'",
            "set_current_hp;door_6;{e:unit2.get_hp()}",
            "elif;unit2.nid == 'door_6'",
            "set_current_hp;door_5;{e:unit2.get_hp()}",
            "end",
            "",
            ""
        ]
    }
]