[
    {
        "name": "Reinforcements",
        "trigger": "turn_change",
        "level_nid": "35",
        "condition": "True",
        "commands": [],
        "only_once": false,
        "priority": 30,
        "_source": [
            "if;game.turncount in [4, 6]",
            "create_unit;Phantom (113_flier);Position=12,0;FLAG(copy_stats)",
            "center_cursor;12,0;FLAG(immediate)",
            "flicker_cursor;12,0",
            "create_unit;Phantom (114_flier);Position=8,14;FLAG(copy_stats)",
            "center_cursor;8,14;FLAG(immediate)",
            "flicker_cursor;8,14",
            "elif;game.turncount in [3, 5, 7]",
            "create_unit;Phantom (115_flier);Position=17,14;FLAG(copy_stats)",
            "center_cursor;17,14;FLAG(immediate)",
            "flicker_cursor;17,14",
            "create_unit;Phantom (116_flier);Position=0,6;FLAG(copy_stats)",
            "center_cursor;0,6;FLAG(immediate)",
            "flicker_cursor;0,6",
            "end"
        ]
    }
]