[
    {
        "name": "Top_Bridge_Die",
        "trigger": "unit_death",
        "level_nid": "37",
        "condition": "unit.nid == 'TT' or unit.nid == 'TB'",
        "commands": [],
        "only_once": false,
        "priority": 20,
        "_source": [
            "show_layer;TopBridge;fade",
            "remove_unit;TT",
            "remove_unit;TB",
            "level_var;TopBridgeBroken;1",
            "if;{v:BottomBridgeBroken} == 1",
            "win_game",
            "end"
        ]
    }
]