[
    {
        "name": "Win_Condition",
        "trigger": "combat_end",
        "level_nid": "38",
        "condition": "True",
        "commands": [],
        "only_once": false,
        "priority": 20,
        "_source": [
            "if;is_dead('101')",
            "win_game",
            "end"
        ]
    }
]