[
    {
        "name": "Reinforcements",
        "trigger": "turn_change",
        "level_nid": "40",
        "condition": "any_unit_in_region('rein_zone', team='player')",
        "commands": [],
        "only_once": false,
        "priority": 20,
        "_source": [
            "if;game.level_vars.get('reins', 0) % 2 != 1",
            "create_unit;Phantom (114);Position=4,7;FLAG(copy_stats)",
            "center_cursor;4,7;FLAG(immediate)",
            "flicker_cursor;4,7",
            "inc_level_var;reins;1",
            "end"
        ]
    }
]