[
    {
        "name": "Win_Condition",
        "trigger": "combat_end",
        "level_nid": "53",
        "condition": "True",
        "commands": [],
        "only_once": false,
        "priority": 20,
        "_source": [
            "if;not any([u for u in game.get_enemy_units()]) or game.level_vars.get('win', 0) == 1",
            "win_game",
            "end"
        ]
    }
]