[
    {
        "name": "Intro",
        "trigger": "level_start",
        "level_nid": "56",
        "condition": "True",
        "commands": [],
        "only_once": false,
        "priority": 20,
        "_source": [
            "trigger_script;Get_Next_Chapter (Global Get_Next_Chapter)",
            "for;special_unit;[u for u in game.level.units if u.nid in ['Wagon', 'Ballista', 'Ballista_1']]",
            "level_var;level_plus;1 + int({v:Game_Level})",
            "autolevel_to;{special_unit};{v:level_plus};fixed;FLAG(no_warn)",
            "endf",
            "arrange_formation",
            "prep;t",
            "if;any([len(u.items) == 0 for u in game.get_player_units()])",
            "    choice;naked_deploy;One or more allies have no items. Deploy?;No,Yes",
            "    if;'{v:naked_deploy}' == 'No'",
            "        prep;t",
            "    end",
            "end",
            "trigger_script;Global Music_Battle_Start"
        ]
    }
]