[
    {
        "name": "Reinforcements",
        "trigger": "turn_change",
        "level_nid": "56",
        "condition": "any_unit_in_region('rein_zone', team='player')",
        "commands": [],
        "only_once": true,
        "priority": 20,
        "_source": [
            "add_unit;Phantom (111);14,11;;closest",
            "center_cursor;Phantom (111);FLAG(immediate)",
            "flicker_cursor;Phantom (111)"
        ]
    }
]