[
    {
        "name": "RindSink_3",
        "trigger": "turn_change",
        "level_nid": "57",
        "condition": "game.turncount == 4",
        "commands": [],
        "only_once": false,
        "priority": 20,
        "_source": [
            "transition;close",
            "wait;1000",
            "sound;PureWater",
            "show_layer;3",
            "wait;1000",
            "transition;open",
            ""
        ]
    }
]