[
    {
        "name": "Chest",
        "trigger": "Chest",
        "level_nid": "5",
        "condition": "region.nid == 'Chest'",
        "commands": [],
        "only_once": false,
        "priority": 20,
        "_source": [
            "unlock;{unit}",
            "trigger_script_with_args;Global_Random_Reward (Global Global_Random_Reward);receiver,{e:unit.nid},item_type,any",
            "show_layer;chest",
            "has_attacked;{unit}"
        ]
    }
]