[
    {
        "name": "Reinforcements",
        "trigger": "turn_change",
        "level_nid": "5",
        "condition": "any_unit_in_region('rein_zone', team='player')",
        "commands": [],
        "only_once": false,
        "priority": 20,
        "_source": [
            "if;game.level_vars.get('reins', 0) != 1",
            "add_group;rein;rein;;closest",
            "center_cursor;Phantom (126);FLAG(immediate)",
            "flicker_cursor;Phantom (126)",
            "center_cursor;Phantom (127);FLAG(immediate)",
            "flicker_cursor;Phantom (127)",
            "level_var;reins;1",
            "end"
        ]
    }
]