[
    {
        "name": "Reinforcements",
        "trigger": "turn_change",
        "level_nid": "64",
        "condition": "any_unit_in_region('ReinforcementZone', team='player')",
        "commands": [],
        "only_once": false,
        "priority": 20,
        "_source": [
            "if;game.level_vars.get('reins', 0) != 1",
            "add_group;Reinforcements;Reinforcements;fade;closest",
            "move_cursor;115_flier",
            "flicker_cursor;115_flier",
            "move_cursor;116_flier",
            "flicker_cursor;116_flier",
            "level_var;reins;1",
            "end",
            "",
            ""
        ]
    }
]