[
    {
        "name": "Warp_Tiles",
        "trigger": "Warp",
        "level_nid": "64",
        "condition": "True",
        "commands": [],
        "only_once": false,
        "priority": 20,
        "_source": [
            "give_skill;{unit};Door Fatigue (Door_Fatigue);;FLAG(no_banner)",
            "give_skill;{unit};Door Fatigue (Door_Fatigue_Check);FLAG(no_banner)",
            "if;region.nid == 'Warp_1'",
            "move_unit;{unit};7,14;warp;closest",
            "elif;region.nid == 'Warp_2'",
            "move_unit;{unit};9,12;warp;closest",
            "elif;region.nid == 'Warp_3'",
            "move_unit;{unit};4,4;warp;closest",
            "elif;region.nid == 'Warp_4'",
            "move_unit;{unit};6,8;warp;closest",
            "elif;region.nid == 'Warp_5'",
            "move_unit;{unit};4,2;warp;closest",
            "elif;region.nid == 'Back_1'",
            "move_unit;{unit};7,19;warp;closest",
            "elif;region.nid == 'Back_2'",
            "move_unit;{unit};9,17;warp;closest",
            "elif;region.nid == 'Back_3'",
            "move_unit;{unit};1,9;warp;closest",
            "elif;region.nid == 'Back_4'",
            "move_unit;{unit};3,9;warp;closest",
            "elif;region.nid == 'Back_5'",
            "move_unit;{unit};11,8;warp;closest",
            "end",
            "has_traded;{unit1}"
        ]
    }
]