[
    {
        "name": "Win_Condition",
        "trigger": "Escape",
        "level_nid": "66",
        "condition": "True",
        "commands": [],
        "only_once": false,
        "priority": 20,
        "_source": [
            "remove_unit;{unit}",
            "win_game"
        ]
    }
]