[
    {
        "name": "Visit",
        "trigger": "Visit",
        "level_nid": "6",
        "condition": "'Visit' in region.nid",
        "commands": [],
        "only_once": false,
        "priority": 20,
        "_source": [
            "if;region.nid == 'Visit_1'",
            "show_layer;house1",
            "elif;region.nid == 'Visit_2'",
            "show_layer;house2",
            "elif;region.nid == 'Visit_3'",
            "show_layer;house3",
            "elif;region.nid == 'Visit_4'",
            "show_layer;house4",
            "elif;region.nid == 'Visit_5'",
            "show_layer;house5",
            "end",
            "inc_level_var;houses_visited;1",
            "if;{v:houses_visited} >= 4",
            "win_game",
            "end",
            "has_traded;{unit}"
        ]
    }
]