[
    {
        "name": "Talk_Dealer",
        "trigger": "on_talk",
        "level_nid": "Act_1",
        "condition": "unit2.nid in ['dealer']",
        "commands": [],
        "only_once": false,
        "priority": 20,
        "_source": [
            "trigger_script;Talk_Trader (Global Talk_Trader)"
        ]
    }
]