[
    {
        "name": "Talk_PageGuy",
        "trigger": "on_talk",
        "level_nid": "Act_3",
        "condition": "unit2.nid in ['page_vendor']",
        "commands": [],
        "only_once": false,
        "priority": 20,
        "_source": [
            "trigger_script;Global Talk_Page_Vendor"
        ]
    }
]