[
    {
        "name": "Intro",
        "trigger": "level_start",
        "level_nid": "Act_1",
        "condition": "True",
        "commands": [],
        "only_once": false,
        "priority": 20,
        "_source": [
            "trigger_script;Global Music_Act_Start",
            "if;v('Floor') == 1",
            "    b;BlackBackground",
            "    t;close",
            "    music;{e:v('act1_song')}",
            "    b;foggy_castle_field",
            "    t;open;2000",
            "    draw_overlay_sprite;namecard;Act_1_Title;;1;fade;2000",
            "    wait;3500",
            "    t;close;2000",
            "    b",
            "    remove_overlay_sprite;namecard",
            "    wait;500",
            "    t;open;500",
            "end",
            "if;not RECORDS.get('rooms_first_time')",
            "    speak;;In each room, you will have a choice between at least 3 options.|Enemies will start a battle, which give EXP, Gold, and other rewards.|Merchant caravans have shops where you can spend gold to buy items.|Camps allow you to summon temporary allies and heal.|Events can be a variety of different things, including battles, healing, and items.;center;NumLines=5;DialogBox=menu_bg_parchment (menu_bg_parchment)",
            "    create_record;rooms_first_time;1",
            "end",
            "#Free accessory, if unlocked",
            "if;RECORDS.get('Starting_Accessory') and not game.game_vars.get('starting_acc', 0) == 1",
            "    game_var;starting_acc;1",
            "    give_item;convoy;{e:game.get_random_choice({v:acc_pool})}",
            "end",
            "#Leve vars",
            "level_var;rooms;['Combat','Combat','Combat','Combat','Event','Event','Event','Shop','Shop','Respite']",
            "level_var;room_dupes;[]",
            "level_var;reward_type;['Weapons+','Weapons+','Money','Money','Essence','Essence','Flame','Flame','Stratagem']",
            "level_var;reward_dupes;[]",
            "level_var;elites;['Gemini', 'Tournament']",
            "if;RECORDS.get('Game_Speed') == 1 and {v:Floor} > 3 and {v:Floor} < 14",
            "    inc_game_var;elite_chance;10",
            "    if;game.get_random(0, 99) < {v:elite_chance}",
            "        level_var;spawn_elite;1",
            "    end",
            "elif;RECORDS.get('Game_Speed') == 2 and {v:Floor} > 1 and {v:Floor} < 9",
            "    inc_game_var;elite_chance;15",
            "    if;game.get_random(0, 99) < {v:elite_chance}",
            "        level_var;spawn_elite;1",
            "    end",
            "end",
            "#Change Roaming Unit",
            "level_var;main_unit;game.get_units_in_party()[0].nid",
            "change_roaming_unit;{v:main_unit}",
            "add_unit;{v:main_unit};7,7",
            "#Rig certain floors",
            "if;v('Floor') in [1]",
            "    level_var;rooms;['Combat']",
            "end",
            "#Set up rooms",
            "if;(RECORDS.get('Game_Speed') == 1 and {v:Floor} == 14) or (RECORDS.get('Game_Speed') == 2 and {v:Floor} == 9)",
            "    if;not RECORDS.get('boss_info_first_time')",
            "        speak;;As you journey through the Fog, you will encounter special fights: Trials and Bosses.|You will have to play them one right after the other, with the Trial being first, and the Boss second.|You will be able to manage items and change deployment between them.|Please note that only the Boss stage grants <icon>Master_Seal</>Master Seals.;center;NumLines=5;DialogBox=menu_bg_parchment (menu_bg_parchment)",
            "        create_record;boss_info_first_time;1",
            "    end",
            "    #Set up Boss if on Boss Floor",
            "    level_var;room1;'Adrius'",
            "    make_generic;room1;Sage;1;enemy;None;Phantom (Phantom);FLAG(no_warn)",
            "    add_unit;room1;6,3",
            "    add_talk;{v:main_unit};room1",
            "    level_var;room2;'Lupus'",
            "    make_generic;room2;Gwyllgi (Gwyllgi);1;enemy;None;Phantom (Phantom);FLAG(no_warn)",
            "    add_unit;room2;8,3",
            "    add_talk;{v:main_unit};room2",
            "    make_generic;healer;Cleric;1;other;None;Phantom (Phantom);FLAG(no_warn)",
            "    make_generic;gacha;Summoner;1;other;None;Phantom (Phantom);FLAG(no_warn)",
            "    add_unit;healer;4,7",
            "    add_unit;gacha;10,7",
            "    add_talk;{v:main_unit};healer",
            "    add_talk;{v:main_unit};gacha",
            "    trigger_script;Global Get_Reserves",
            "elif;(RECORDS.get('Game_Speed') == 1 and {v:Floor} == 15) or (RECORDS.get('Game_Speed') == 2 and {v:Floor} == 10)",
            "    #Set up Boss if on Boss Floor",
            "    if;'{v:subboss}' == 'adrius'",
            "        level_var;room1;'Bootes'",
            "        make_generic;room1;Mage Dragon (Mage_Dragon);1;enemy;None;Phantom (Phantom);FLAG(no_warn)",
            "        add_unit;room1;7,3",
            "        add_talk;{v:main_unit};room1",
            "    elif;'{v:subboss}' == 'lupus'",
            "        level_var;room2;'Canes'",
            "        make_generic;room2;Veteran_Tamer (Veteran_Tamer);1;enemy;None;Phantom (Phantom);FLAG(no_warn)",
            "        add_unit;room2;7,3",
            "        add_talk;{v:main_unit};room2",
            "    end",
            "else",
            "    #Set up events",
            "    level_var;room1;game.get_random_choice({v:rooms})",
            "    if;'{v:room1}' != 'Combat'",
            "        level_var;room_dupes;{v:room_dupes} + ['{v:room1}']",
            "    end",
            "    level_var;room2;game.get_random_choice([x for x in {v:rooms} if x not in {v:room_dupes}])",
            "    if;'{v:room2}' != 'Combat'",
            "        level_var;room_dupes;{v:room_dupes} + ['{v:room2}']",
            "    end",
            "    level_var;room3;game.get_random_choice([x for x in {v:rooms} if x not in {v:room_dupes}])",
            "    if;'{v:room3}' != 'Combat'",
            "        level_var;room_dupes;{v:room_dupes} + ['{v:room3}']",
            "    end",
            "    for;rooms;['{v:room1}','{v:room2}','{v:room3}']",
            "        inc_level_var;counter;1",
            "        level_var;random_reward;game.get_random_choice([r for r in {v:reward_type} if r not in {v:reward_dupes}])",
            "        level_var;reward_dupes;{v:reward_dupes} + ['{v:random_reward}']",
            "        level_var;{e:'room' + '{v:counter}' + '_reward'};'{v:random_reward}'",
            "        if;'{rooms}' in ['Combat']",
            "            if;'{v:random_reward}' == 'Weapons+'",
            "                make_generic;{e:'room' + '{v:counter}'};Soldier (Soldier);1;enemy;None;Phantom (Phantom);FLAG(no_warn)",
            "            elif;'{v:random_reward}' == 'Money'",
            "                make_generic;{e:'room' + '{v:counter}'};Thief (Thief);1;enemy;None;Phantom (Phantom);FLAG(no_warn)",
            "            elif;'{v:random_reward}' == 'Essence'",
            "                make_generic;{e:'room' + '{v:counter}'};Monk (Monk);1;enemy;None;Phantom (Phantom);FLAG(no_warn)",
            "            elif;'{v:random_reward}' == 'Flame'",
            "                make_generic;{e:'room' + '{v:counter}'};Mage (Mage);1;enemy;None;Phantom (Phantom);FLAG(no_warn)",
            "            elif;'{v:random_reward}' == 'Fragments'",
            "                make_generic;{e:'room' + '{v:counter}'};Armor (Armor);1;enemy;None;Phantom (Phantom);FLAG(no_warn)",
            "            elif;'{v:random_reward}' == 'Stratagem'",
            "                make_generic;{e:'room' + '{v:counter}'};Strategist (Strategist);1;enemy;None;Phantom (Phantom);FLAG(no_warn)",
            "            end",
            "        elif;'{rooms}' in ['Event']",
            "            make_generic;{e:'room' + '{v:counter}'};Room (Room);1;enemy2;None;Phantom (Phantom);FLAG(no_warn)",
            "        elif;'{rooms}' in ['Shop']",
            "            make_generic;{e:'room' + '{v:counter}'};Wagon (Wagon);1;other;None;Phantom (Phantom);FLAG(no_warn)",
            "        elif;'{rooms}' in ['Respite']",
            "            make_generic;{e:'room' + '{v:counter}'};Tent (Tent);1;other;None;Phantom (Phantom);FLAG(no_warn)",
            "        end",
            "    endf",
            "    add_unit;room1;7,3",
            "    add_unit;room2;5,4",
            "    add_unit;room3;9,4",
            "    add_talk;{v:main_unit};room1",
            "    add_talk;{v:main_unit};room2",
            "    add_talk;{v:main_unit};room3",
            "    if;game.level_vars.get('spawn_elite', 0)",
            "        game_var;elite_chance;0",
            "        level_var;valid_elites;[e for e in {v:elites} if e not in {v:fought_elites}]",
            "        if;len({v:valid_elites}) >= 1",
            "            level_var;elite_fight;game.get_random_choice({v:valid_elites})",
            "            level_var;room4;'{v:elite_fight}'",
            "            if;'{v:elite_fight}' == 'Gemini'",
            "                make_generic;room4;Assassin;1;enemy;None;Phantom (Phantom);FLAG(no_warn)",
            "            elif;'{v:elite_fight}' == 'Tournament'",
            "                make_generic;room4;Staff_Armor;1;enemy;None;Phantom (Phantom);FLAG(no_warn)",
            "            end",
            "            add_unit;room4;3,3",
            "            add_talk;{v:main_unit};room4",
            "        end",
            "    end",
            "end",
            "game_var;in_combat;0",
            "if;RECORDS.get('game_clear') and not game.game_vars.get('demon_quest', 0) >= 1",
            "    show_layer;door",
            "end",
            "if;RECORDS.get('game_clear')",
            "    show_layer;house",
            "end",
            "location_card;{e:'Room ' + '{v:Floor}'}"
        ]
    }
]