[
    {
        "name": "Talk_Room",
        "trigger": "on_talk",
        "level_nid": "Act_4",
        "condition": "unit2.nid in ['room1','room2','room3','room4','room5']",
        "commands": [],
        "only_once": false,
        "priority": 20,
        "_source": [
            "if;unit2.nid == 'room1'",
            "    level_var;the_var;'{v:room1}'",
            "end",
            "if;'{v:the_var}' == 'Libra'",
            "    choice;begin;Begin boss fight?;Yes,No;FLAG(backable)",
            "    if;'{v:begin}' == 'Yes'",
            "        game_var;in_combat;1",
            "        set_next_chapter;Final",
            "        skip_save;t",
            "        win_game",
            "    else",
            "        add_talk;{v:main_unit};{unit2}",
            "    end",
            "elif;'{v:the_var}' == 'Tower'",
            "    choice;begin;Begin trial?;Yes,No;FLAG(backable)",
            "    if;'{v:begin}' == 'Yes'",
            "        game_var;in_combat;1",
            "        set_next_chapter;Trial_F",
            "        game_var;next_reward;'Money'",
            "        skip_save;t",
            "        win_game",
            "    else",
            "        add_talk;{v:main_unit};{unit2}",
            "    end",
            "end"
        ]
    }
]