[
    {
        "name": "z. Event - Last Hope WEXP",
        "trigger": null,
        "level_nid": "Act_3",
        "condition": "True",
        "commands": [],
        "only_once": false,
        "priority": 20,
        "_source": [
            "trigger_script;Get_Next_Chapter (Global Get_Next_Chapter)",
            "speak;;Deep in these snowy hills, you've clashed with the Last Hope army over and over again. For such a ragtag organization, they're well trained - they're been wielding weapons previous empires have only dreamt about,|with fighting styles unthought of. You've begun to secretly steal some of their techniques - perhaps an old dog can learn new tricks.;center;NumLines=5;DialogBox=menu_bg_parchment (menu_bg_parchment)",
            "trigger_script_with_args;Global Global_Give_WEXP;receiver,all,amount,11,alert,Yes",
            "win_game"
        ]
    }
]