[
    {
        "name": "z. Event - Inheritance",
        "trigger": null,
        "level_nid": "Act_2",
        "condition": "True",
        "commands": [],
        "only_once": false,
        "priority": 20,
        "_source": [
            "speak;;Two local nobles, brother and sister, demand that|you help them resolve an inheritance dispute. Their late father had named|the son his heir in life, but in his will,|instead chose to give his money to his daughter.|The former is furious, and the latter hardly seems to care.;center;DialogBox=menu_bg_parchment (menu_bg_parchment)",
            "choice;dispute;What will you do?;['1|Support the son  <icon>event_accessory</><icon>event_accessory</>','2|Support the daughter  <icon>event_hp</>','3|Take the inheritance for yourself  <icon>event_money</>'];200;FLAG(expression)",
            "if;'{v:dispute}' == '1'",
            "speak;;He thanks you for your most kindly support,|and offers in exchange some old family heirlooms.;center;DialogBox=menu_bg_parchment (menu_bg_parchment)",
            "trigger_script_with_args;Global_Random_Reward (Global Global_Random_Reward);receiver,convoy,item_type,accessory",
            "trigger_script_with_args;Global_Random_Reward (Global Global_Random_Reward);receiver,convoy,item_type,accessory",
            "elif;'{v:dispute}' == '2'",
            "speak;;In private, she tells you that she doesn't even want the inheritance,|and instead plans to donate it to the church.|As thanks, the priests offer her, and by extension you, free healing.;center;DialogBox=menu_bg_parchment (menu_bg_parchment)",
            "choice;heal_choice;Select a unit to heal;[u.nid for u in game.get_units_in_party()];100;v;center;;;type_unit;;;FLAG(expression)",
            "set_current_hp;{v:heal_choice};{e:u('{v:heal_choice}').get_max_hp()}",
            "alert;{e:u('{v:heal_choice}').name} is fully healed!",
            "else",
            "speak;;It's not even that much gold -|you're not sure why there was such an argument over it.|Both siblings unite in their demands to stop this robbery,|but can't quite catch up to you.;center;DialogBox=menu_bg_parchment (menu_bg_parchment)",
            "trigger_script_with_args;Global_Give_Money (Global Global_Give_Money);amount,350,alert,Yes",
            "end",
            "trigger_script;Get_Next_Chapter (Global Get_Next_Chapter)",
            "win_game"
        ]
    }
]