[
    {
        "name": "Talk_Super_Shop",
        "trigger": "on_talk",
        "level_nid": "Act_1",
        "condition": "unit2.nid in ['super_shop']",
        "commands": [],
        "only_once": false,
        "priority": 20,
        "_source": [
            "shop;{unit};{e:','.join([i for i in {v:super_shop_items}])};armory;1,1,1,1,1,1,1,1,1,1;{e:'super' + '{v:super_nids}'}",
            "add_talk;{v:main_unit};{unit2}"
        ]
    }
]