[
    {
        "name": "House",
        "trigger": "House",
        "level_nid": "Act_1",
        "condition": "True",
        "commands": [],
        "only_once": false,
        "priority": 20,
        "_source": [
            "u;OldMan1;Left",
            "if;game.game_vars.get('fish_needed', 0) == 0",
            "    s;OldMan1;Hmm?|Who're you?|...the Final Key?|I dunno what that is.|I do have this weird doohickey though.|I'll trade it to you for a fish.",
            "    game_var;fish_needed;1",
            "elif;game.game_vars.get('fish_needed', 0) == 1",
            "    s;OldMan1;There's a river nearby.|Fish tend to live in those, in case you weren't aware.",
            "elif;game.game_vars.get('fish_needed', 0) == 2",
            "    s;OldMan1;A fish?|For me!|Wonderful!|Here, you can have this.",
            "    give_item;convoy;Key_Part_A",
            "    s;OldMan1;What, you expected more tasks?|It's a simple one for one trade, we don't need to make a whole song and dance of it.|Now get off my lawn.",
            "    game_var;fish_needed;3",
            "else",
            "    s;OldMan1;You're back?|Don't you have better things to be doing?|Like finding the other pieces of that doohickey?",
            "end",
            "r;OldMan1"
        ]
    }
]