[
    {
        "name": "z. Event - Two For One",
        "trigger": null,
        "level_nid": "Act_3",
        "condition": "True",
        "commands": [],
        "only_once": false,
        "priority": 20,
        "_source": [
            "speak;;A dense fog rolls over the party.|They hear a voice, which says: \"One steps forth.\";center;NumLines=5;DialogBox=menu_bg_parchment (menu_bg_parchment)",
            "choice;whomst;Who steps forward?;[u.nid + '|' + u.name for u in game.get_units_in_party()];Dimensions=8,1;FLAG(expression)",
            "speak;;The voice speaks again.|\"One given, two gained.\"|\"One taken, two lost.\";center;NumLines=5;DialogBox=menu_bg_parchment (menu_bg_parchment)",
            "lvar;stat;['STR','MAG','SKL','SPD','DEF','RES','LCK']",
            "lvar;valid_stats;['HP']",
            "for;stats;{v:stat}",
            "    if;u('{v:whomst}').stats['{stats}'] > 0",
            "        lvar;valid_stats;{v:valid_stats} + ['{stats}']",
            "    end",
            "endf",
            "level_var;choices;['1|Give a Stat  <icon>event_hp_down</><icon>event_weapon</><icon>event_stratagem</>']",
            "if;any([s for s in u('{v:whomst}').skills if s.class_skill])",
            "    level_var;choices;v('choices') + ['2|Give a Skill  <icon>event_stratagem_down</><icon>event_accessory</><icon>event_weapon</>']",
            "end",
            "if;any([i for i in u('{v:whomst}').items])",
            "    level_var;choices;v('choices') + ['3|Give an Item  <icon>event_item_down</><icon>event_accessory</><icon>event_stratagem</>']",
            "end",
            "if;any([i for i in u('{v:whomst}').items]) and any([s for s in u('{v:whomst}').skills if s.class_skill])",
            "    level_var;choices;v('choices') + ['4|Take a Stat  <icon>event_hp</><icon>event_item_down</><icon>event_stratagem_down</>']",
            "end",
            "if;any([i for i in u('{v:whomst}').items])",
            "    level_var;choices;v('choices') + ['5|Take a Skill  <icon>event_stratagem</><icon>event_item_down</><icon>event_hp_down</>']",
            "end",
            "if;any([s for s in u('{v:whomst}').skills if s.class_skill])",
            "    level_var;choices;v('choices') + ['6|Take an Item  <icon>event_item</><icon>event_stratagem_down</><icon>event_hp_down</>']",
            "end",
            "choice;twofer;What will you do?;v('choices');200;Dimensions=6,1;FLAG(expression)",
            "if;'{v:twofer}' == '1'",
            "    choice;chosen_stat;Choose a stat to lose;v('valid_stats');Dimensions=5,1;expression",
            "    if;'{v:chosen_stat}' == 'HP'",
            "        set_stats;{e:u('{v:whomst}')};HP,1",
            "    else",
            "        set_stats;{e:u('{v:whomst}')};{e:'{v:chosen_stat}'},0",
            "    end",
            "    trigger_script_with_args;Global Global_Reward_Choice;rarity,epic,item_type,weapon",
            "    lvar;rando_skill;game.get_random_choice([s.nid for s in DB.skills if s.components.get('copysafe') and s.nid not in [x.nid for x in u('{v:whomst}').skills]])",
            "    give_skill;{e:u('{v:whomst}')};{v:rando_skill}",
            "    for;skills;[s for s in get_skill(u('{v:whomst}'),'{v:rando_skill}').copysafe.value]",
            "        give_skill;{v:whomst};{skills};FLAG(no_banner)",
            "    endf",
            "elif;'{v:twofer}' == '2'",
            "    choice;skill_remove;Remove a skill;[s.nid + '|' + s.name for s in u('{v:whomst}').skills if s.class_skill];Dimensions=5,1;EntryType=type_skill;expression",
            "    if;get_skill(u('{v:whomst}'),'{v:skill_remove}').copysafe",
            "        for;skills;[s for s in get_skill(u('{v:whomst}'),'{v:skill_remove}').copysafe.value]",
            "            remove_skill;{v:whomst};{skills};FLAG(no_banner)",
            "        endf",
            "    end",
            "    remove_skill;{e:u('{v:whomst}')};{v:skill_remove}",
            "    trigger_script_with_args;Global Global_Reward_Choice;rarity,epic,item_type,accessory",
            "    trigger_script_with_args;Global Global_Reward_Choice;rarity,epic,item_type,weapon",
            "elif;'{v:twofer}' == '3'",
            "    choice;item_remove;Remove an item;[str(i.uid) + '|' + i.name for i in u('{v:whomst}').items];Dimensions=5,1;EntryType=type_game_item;expression",
            "    remove_item;{e:u('{v:whomst}')};{v:item_remove}",
            "    trigger_script_with_args;Global Global_Reward_Choice;rarity,epic,item_type,accessory",
            "    lvar;rando_skill;game.get_random_choice([s.nid for s in DB.skills if s.components.get('copysafe') and s.nid not in [x.nid for x in u('{v:whomst}').skills]])",
            "    give_skill;{e:u('{v:whomst}')};{v:rando_skill}",
            "    for;skills;[s for s in get_skill(u('{v:whomst}'),'{v:rando_skill}').copysafe.value]",
            "        give_skill;{v:whomst};{skills};FLAG(no_banner)",
            "    endf",
            "elif;'{v:twofer}' == '4'",
            "    choice;stat_gain;Choose a stat to gain;['HP','STR','MAG','SKL','SPD','DEF','RES','LCK'];Dimensions=5,1;expression",
            "    change_stats;{e:u('{v:whomst}')};{e:'{v:stat_gain}'},5",
            "    remove_item;{e:u('{v:whomst}')};{e:game.get_random_choice([i.nid for i in u('{v:whomst}').items])}",
            "    lvar;rando_skill;game.get_random_choice([s.nid for s in u('{v:whomst}').skills if s.class_skill])",
            "    if;get_skill(u('{v:whomst}'),'{v:rando_skill}').copysafe",
            "        for;skills;[s for s in get_skill(u('{v:whomst}'),'{v:rando_skill}').copysafe.value]",
            "            remove_skill;{v:whomst};{skills};FLAG(no_banner)",
            "        endf",
            "    end",
            "    remove_skill;{e:u('{v:whomst}')};{v:rando_skill}",
            "elif;'{v:twofer}' == '5'",
            "    choice;skill_gain;Take a skill;[s.nid + '|' + s.name for s in DB.skills if s.components.get('copysafe') and s.nid not in [x.nid for x in u('{v:whomst}').skills]];Dimensions=8,2;EntryType=type_skill;expression",
            "    give_skill;{e:u('{v:whomst}')};{v:skill_gain}",
            "    for;skills;[s for s in get_skill(u('{v:whomst}'),'{v:skill_gain}').copysafe.value]",
            "        give_skill;{v:whomst};{skills};FLAG(no_banner)",
            "    endf",
            "    lvar;stat_lose;game.get_random_choice({v:valid_stats})",
            "    set_stats;{e:u('{v:whomst}')};{e:'{v:stat_lose}'},0",
            "    remove_item;{e:u('{v:whomst}')};{e:game.get_random_choice([i.nid for i in u('{v:whomst}').items])}",
            "elif;'{v:twofer}' == '6'",
            "    choice;item_gain;Take an item;[DB.items.get(i).nid + '|' + DB.items.get(i).name for i in ({v:all_game_weapons} + {v:item_pool} + {v:acc_pool})];EntryType=type_base_item;Dimensions=8,2;expression",
            "    give_item;{e:u('{v:whomst}')};{v:item_gain}",
            "    lvar;stat_lose;game.get_random_choice({v:valid_stats})",
            "    set_stats;{e:u('{v:whomst}')};{e:'{v:stat_lose}'},0",
            "    lvar;rando_skill;game.get_random_choice([s.nid for s in u('{v:whomst}').skills if s.class_skill])",
            "    if;get_skill(u('{v:whomst}'),'{v:rando_skill}').copysafe",
            "        for;skills;[s for s in get_skill(u('{v:whomst}'),'{v:rando_skill}').copysafe.value]",
            "            remove_skill;{v:whomst};{skills};FLAG(no_banner)",
            "        endf",
            "    end",
            "    remove_skill;{e:u('{v:whomst}')};{v:rando_skill}",
            "end",
            "trigger_script;Get_Next_Chapter (Global Get_Next_Chapter)",
            "win_game"
        ]
    }
]