[
    {
        "name": "z. Event - Voice_Sub_1",
        "trigger": null,
        "level_nid": "Act_3",
        "condition": "True",
        "commands": [],
        "only_once": false,
        "priority": 20,
        "_source": [
            "choice;Skill_Choice;Discard which?;[s.nid + '|' + s.name for s in u('{v:Remove_From_Unit}').skills if s.class_skill];Dimensions=5,1;Alignment=right;EntryType=type_skill;FLAG(expression);FLAG(backable)",
            "if;'{v:Skill_Choice}' != 'BACK'",
            "    remove_skill;{v:Remove_From_Unit};{v:Skill_Choice}",
            "    if;{v:Skill_Choice}.copysafe",
            "        for;skills;[s for s in get_skill(u('{v:Remove_From_Unit}'),'{v:Skill_Choice}').copysafe.value]",
            "            remove_skill;{v:Remove_From_Unit};{skills}",
            "        endf",
            "    end",
            "    trigger_script_with_args;Global_Give_Exp (Global Global_Give_Exp);receiver,{v:Remove_From_Unit},amount,100,alert,Yes",
            "    trigger_script_with_args;Global_Reward_Choice (Global Global_Reward_Choice);item_type,weapon,rarity,rare",
            "    win_game",
            "else",
            "    unchoice",
            "end",
            "",
            ""
        ]
    }
]