[
    {
        "name": "Talk_Trainer",
        "trigger": "on_talk",
        "level_nid": "Act_3",
        "condition": "unit2.nid in ['trainer']",
        "commands": [],
        "only_once": false,
        "priority": 20,
        "_source": [
            "trigger_script;Talk_Trainer (Global Talk_Trainer)"
        ]
    }
]