[
    {
        "name": "Generate_Shop_Items",
        "trigger": null,
        "level_nid": "Act_3",
        "condition": "True",
        "commands": [],
        "only_once": false,
        "priority": 20,
        "_source": [
            "trigger_script;Get_Weapon_Drops (Global Get_Weapon_Drops)",
            "if;not v('armory_nids')",
            "game_var;armory_nids;100",
            "game_var;vendor_nids;100",
            "else",
            "inc_game_var;armory_nids;1",
            "inc_game_var;vendor_nids;1",
            "end",
            "#Armory",
            "level_var;armory_items;[]",
            "level_var;pool;{v:droppable_weapons}",
            "for;gamba;range(10)",
            "level_var;selection;game.get_random_choice([i for i in {v:pool} if i not in {v:armory_items}])",
            "level_var;armory_items;{v:armory_items} + ['{v:selection}']",
            "endf",
            "#Vendor",
            "level_var;vendor_items;[]",
            "level_var;pool;{v:item_pool} + {v:acc_pool}",
            "for;gamba;range(5)",
            "level_var;selection;game.get_random_choice([i for i in {v:pool} if i not in {v:vendor_items}])",
            "level_var;vendor_items;{v:vendor_items} + ['{v:selection}']",
            "endf"
        ]
    }
]