[
    {
        "name": "z. Event - Mansion",
        "trigger": null,
        "level_nid": "Act_1",
        "condition": "True",
        "commands": [],
        "only_once": false,
        "priority": 20,
        "_source": [
            "speak;;As you walk down the beaten path, your thoughts eventually turn to the mansion.|Who made it? Where is it from? Can it be trusted?|All you know about it is that it's the only place out of the fog. This makes it...;center;DialogBox=menu_bg_parchment (menu_bg_parchment)",
            "choice;mansion;Is the mansion...;['1|a safe place <icon>event_mystery</>','2|a danger <icon>event_mystery</><icon>event_fragments</>'];200;FLAG(expression)",
            "if;'{v:mansion}' == '1'",
            "    speak;;It's the only thing that protects you from the fog.|As long as it's secured, you and your team can safely relax at home.|...That reminds you. Did you remember to lock the door?;center;DialogBox=menu_bg_parchment (menu_bg_parchment)",
            "    for;reserve_unit;range(min(len(game.get_units_in_party('Reserves')) // 2, 5))",
            "        level_var;reserve_pick;game.get_random_choice([u.nid for u in game.get_units_in_party('Reserves')])",
            "        change_party;{v:reserve_pick};Player's Group (Player)",
            "        for;LOCKED_ITEM;[i.uid for i in u('{v:reserve_pick}').items]",
            "            add_item_component;{v:reserve_pick};{LOCKED_ITEM};locked_2",
            "        endf",
            "        trigger_script_with_args;Global_Give_Exp (Global Global_Give_Exp);receiver,{e:game.get_unit('{v:reserve_pick}')},amount,{v:accumulated_exp},alert,No",
            "        trigger_script_with_args;Global_Give_WEXP (Global Global_Give_WEXP);receiver,{e:game.get_unit('{v:reserve_pick}')},amount,{v:accumulated_wexp},alert,No",
            "        kill_unit;{v:reserve_pick};FLAG(immediate)",
            "    endf",
            "elif;'{v:mansion}' == '2'",
            "    speak;;There's no way something that suspicious isn't nefarious.|No matter how tempting it is, you've drilled it into your team's head that vigilance is key.|As you hear familiar footsteps approach you from behind,|you're grateful for the hidden exits your team has found.;center;DialogBox=menu_bg_parchment (menu_bg_parchment)",
            "    level_var;reserve_pick;game.get_random_choice([u.nid for u in game.get_units_in_party('Reserves')])",
            "    change_party;{v:reserve_pick};Player's Group (Player)",
            "    table;portrait;u('{v:reserve_pick}').portrait_nid;;Alignment=top;EntryType=type_portrait;FLAG(expression)",
            "    speak;;{e:game.get_unit('{v:reserve_pick}').name} has joined the party!;bottom;;;;;;menu_bg_parchment (menu_bg_parchment)",
            "    trigger_script_with_args;Global_Give_Exp (Global Global_Give_Exp);receiver,{e:game.get_unit('{v:reserve_pick}')},amount,{v:accumulated_exp},alert,No",
            "    trigger_script_with_args;Global_Give_WEXP (Global Global_Give_WEXP);receiver,{e:game.get_unit('{v:reserve_pick}')},amount,{v:accumulated_wexp},alert,No",
            "    set_current_hp;{e:game.get_unit('{v:reserve_pick}')};99",
            "    remove_table;portrait",
            "    trigger_script_with_args;Global_Give_Currency (Global Global_Give_Currency);amount,35,currency_type,Fragments",
            "end",
            "trigger_script;Get_Next_Chapter (Global Get_Next_Chapter)",
            "win_game"
        ]
    }
]