[
    {
        "name": "Demon_Quest_3",
        "trigger": "Secret",
        "level_nid": "Act_3",
        "condition": "True",
        "commands": [],
        "only_once": false,
        "priority": 20,
        "_source": [
            "if;len([u for u in game.get_units_in_party()]) > 1",
            "    speak;;You see a ritual circle beyond this point...|If you sacrifice one more person, you will be force into an extremely dangerous encounter.;center;NumLines=3;DialogBox=menu_bg_parchment (menu_bg_parchment)",
            "    choice;sacrifice;Sacrifice an ally?;Yes,No;backable",
            "    if;'{v:sacrifice}' == 'Yes'",
            "        choice;sacrifice2;Select an ally;[u.nid + '|' + u.name for u in game.get_units_in_party()];expression",
            "        kill;{e:'{v:sacrifice2}'}",
            "        speak;;The skies darken.|The oceans rumble, and the very ground begins to split.|Before you know it, before you stands the mightiest of all demons...;center;NumLines=5;DialogBox=menu_bg_parchment (menu_bg_parchment)",
            "        game_var;demon_quest;3",
            "        set_next_chapter;EX_1",
            "        game_var;in_combat;1",
            "        game_var;next_reward;'EXP'",
            "        skip_save;t",
            "        win_game",
            "    end",
            "else",
            "    speak;;You see a ritual circle beyond this point...|However, you do not have enough allies to do anything with it.;center;NumLines=3;DialogBox=menu_bg_parchment (menu_bg_parchment)",
            "end"
        ]
    }
]