[
    {
        "name": "Events",
        "trigger": null,
        "level_nid": "Act_3",
        "condition": "True",
        "commands": [],
        "only_once": false,
        "priority": 20,
        "_source": [
            "level_var;possible_events;['bootes_event','general','inheritance','music_man','skill_merchant','skillshare','actors','portal','stoneslab','timecube','battery','chess','tunnel','buried_tome','two4one', 'last_hope', 'dragon', 'voice', 'timetravel']",
            "level_var;chosen;game.get_random_choice([e for e in v('possible_events') if e not in v('seen_events')])",
            "game_var;seen_events;v('seen_events') + [v('chosen')]",
            "if;len([u for u in game.get_units_in_party() if u.nid != 'Player']) >= 1",
            "    level_var;possible_events;v('possible_events') + ['best']",
            "end",
            "transition",
            "change_background;BlackBackground",
            "transition",
            "for;party_unit;[u for u in game.get_units_in_party()]",
            "    if;has_skill(u('{party_unit}'), 'Mythwalker')",
            "        trigger_script_with_args;Global_Give_Exp (Global Global_Give_Exp);receiver,{party_unit},amount,50,alert,No",
            "    end",
            "endf",
            "if;RECORDS.get('Event_EXP_level')",
            "    level_var;event_exp;10 * RECORDS.get('Event_EXP_level')",
            "    trigger_script_with_args;Global_Give_Exp (Global Global_Give_Exp);receiver,all,amount,{v:event_exp},alert,No",
            "end",
            "if;'{v:chosen}' == 'general'",
            "    trigger_script;z. Event - Finest General",
            "elif;'{v:chosen}' == 'inheritance'",
            "    trigger_script;z. Event - Inheritance",
            "elif;'{v:chosen}' == 'timetravel'",
            "    trigger_script;z. Event - TimeTravel",
            "elif;'{v:chosen}' == 'music_man'",
            "    trigger_script;z. Event - Music_Man",
            "elif;'{v:chosen}' == 'skill_merchant'",
            "    trigger_script;z. Event - Skill_Merchant",
            "elif;'{v:chosen}' == 'skillshare'",
            "    trigger_script;z. Event - Skill_Share",
            "elif;'{v:chosen}' == 'actors'",
            "    trigger_script;z. Event - Actors",
            "elif;'{v:chosen}' == 'portal'",
            "    trigger_script;z. Event - Portal",
            "elif;'{v:chosen}' == 'stoneslab'",
            "    trigger_script;z. Event - Stone Slab",
            "elif;'{v:chosen}' == 'timecube'",
            "    trigger_script;z. Event - Timecube",
            "elif;'{v:chosen}' == 'battery'",
            "    trigger_script;z. Event - Battery",
            "elif;'{v:chosen}' == 'chess'",
            "    trigger_script;z. Event - Chess",
            "elif;'{v:chosen}' == 'best'",
            "    trigger_script;z. Event - The Best",
            "elif;'{v:chosen}' == 'bootes_event'",
            "    trigger_script;z. Event - Bootes",
            "elif;'{v:chosen}' == 'tunnel'",
            "    trigger_script;z. Event - Tunnel_Weapons",
            "elif;'{v:chosen}' == 'voice'",
            "    trigger_script;z. Event - Voice",
            "elif;'{v:chosen}' == 'buried_tome'",
            "    trigger_script;z. Event - Buried Tome",
            "elif;'{v:chosen}' == 'two4one'",
            "    trigger_script;z. Event - Two For One",
            "elif;'{v:chosen}' == 'last_hope'",
            "    trigger_script;Act_3 z. Event - Last Hope WEXP",
            "elif;'{v:chosen}' == 'dragon'",
            "    trigger_script;Act_3 z. Event - Dragon",
            "end"
        ]
    }
]