[
    {
        "name": "Talk_Room",
        "trigger": "on_talk",
        "level_nid": "Act_2",
        "condition": "unit2.nid in ['room1','room2','room3','room4','room5']",
        "commands": [],
        "only_once": false,
        "priority": 20,
        "_source": [
            "if;unit2.nid == 'room1'",
            "    level_var;the_var;'{v:room1}'",
            "    level_var;the_reward;'{v:room1_reward}';FLAG(no_warn)",
            "elif;unit2.nid == 'room2'",
            "    level_var;the_var;'{v:room2}'",
            "    level_var;the_reward;'{v:room2_reward}';FLAG(no_warn)",
            "elif;unit2.nid == 'room3'",
            "    level_var;the_var;'{v:room3}'",
            "    level_var;the_reward;'{v:room3_reward}';FLAG(no_warn)",
            "elif;unit2.nid == 'room5'",
            "    level_var;the_var;'{v:room5}'",
            "    level_var;the_reward;'{v:room5_reward}';FLAG(no_warn)",
            "end",
            "if;unit2.nid == 'room4'",
            "    choice;begin;Begin Elite fight?;Yes,No;FLAG(backable)",
            "    if;'{v:begin}' == 'Yes'",
            "        game_var;in_combat;1",
            "        set_next_chapter;{v:elite_fight}",
            "        game_var;fought_elites;{v:fought_elites} + ['{v:elite_fight}']",
            "        game_var;next_reward;'EXP'",
            "        skip_save;t",
            "        win_game",
            "    else",
            "        add_talk;{v:main_unit};{unit2}",
            "    end",
            "elif;'{v:the_var}' in ['Combat']",
            "    textbox;reward_preview;\"Reward: \" + \"{v:the_reward}\";bottom;100;1;FLAG(expression)",
            "    choice;begin;Begin standard combat?;Yes,No;FLAG(backable)",
            "    if;'{v:begin}' == 'Yes'",
            "        level_var;banned_levels;[0, 1, 13, 15, 26, 41, 42, 52, 58, 59, 60, 62, 63, 65]",
            "        level_var;levels;[x for x in range(68) if str(x) not in {v:seen_maps} and x not in {v:banned_levels}]",
            "        #the number in range(x) should be 1 above the final combat map",
            "        #Determine level, reward, and set up battle",
            "        level_var;next;str(game.get_random_choice({v:levels}))",
            "        set_next_chapter;{v:next}",
            "        game_var;in_combat;1",
            "        game_var;seen_maps;v('seen_maps') + [v('next')]",
            "        game_var;next_reward;'{v:the_reward}'",
            "        skip_save;t",
            "        win_game",
            "    else",
            "        add_talk;{v:main_unit};{unit2}",
            "    end",
            "    remove_table;reward_preview",
            "elif;'{v:the_var}' in ['Event']",
            "    choice;begin;Begin event?;Yes,No;FLAG(backable)",
            "    if;'{v:begin}' == 'Yes'",
            "        trigger_script;Events (Act_2 Events)",
            "    else",
            "        add_talk;{v:main_unit};{unit2}",
            "    end",
            "elif;'{v:the_var}' in ['Shop']",
            "    choice;begin;Visit the shops?;Yes,No;FLAG(backable)",
            "    if;'{v:begin}' == 'Yes'",
            "        game_var;in_subroom;1",
            "        transition",
            "        remove_all_units",
            "        add_unit;{v:main_unit};7,7",
            "        make_generic;armory;Citizen;1;other;None;Phantom (Phantom);FLAG(no_warn)",
            "        make_generic;vendor;Citizen;1;other;None;Phantom (Phantom);Female;FLAG(no_warn)",
            "        make_generic;trainer;Spartan;1;other;None;Phantom (Phantom);FLAG(no_warn)",
            "        make_generic;strategist;Strategist;1;other;None;Phantom (Phantom);FLAG(no_warn)",
            "        make_generic;dealer;Thief;1;other;None;Phantom (Phantom);FLAG(no_warn)",
            "        make_generic;exit;Room;1;other;None;Phantom (Phantom);FLAG(no_warn)",
            "        add_unit;armory;9,3",
            "        add_unit;vendor;5,3",
            "        add_unit;trainer;9,5",
            "        add_unit;exit;7,3",
            "        add_unit;strategist;5,5",
            "        add_unit;dealer;6,6",
            "        add_talk;{v:main_unit};armory",
            "        add_talk;{v:main_unit};vendor",
            "        add_talk;{v:main_unit};trainer",
            "        add_talk;{v:main_unit};strategist",
            "        add_talk;{v:main_unit};dealer",
            "        add_talk;{v:main_unit};exit",
            "        trigger_script;Generate_Shop_Items (Global Generate_Shop_Items)",
            "        if;RECORDS.get('game_clear') and not RECORDS.get('ex_page_1')",
            "            make_generic;page_vendor;Rogue;1;other;None;Phantom (Phantom);FLAG(no_warn)",
            "            add_unit;page_vendor;8,6",
            "            add_talk;{v:main_unit};page_vendor",
            "        end",
            "        if;RECORDS.get('Great_Merchant')",
            "            make_generic;super_shop;Wagon;1;other;None;Phantom (Phantom);FLAG(no_warn)",
            "            add_unit;super_shop;11,6",
            "            add_talk;{v:main_unit};super_shop",
            "        end",
            "        transition",
            "    else",
            "        add_talk;{v:main_unit};{unit2}",
            "    end",
            "elif;'{v:the_var}' in ['Respite']",
            "    choice;begin;Enter rest site?;Yes,No;FLAG(backable)",
            "    if;'{v:begin}' == 'Yes'",
            "        game_var;in_subroom;1",
            "        transition",
            "        remove_all_units",
            "        add_unit;{v:main_unit};7,7",
            "        make_generic;healer;Cleric;1;other;None;Phantom (Phantom);FLAG(no_warn)",
            "        make_generic;gacha;Summoner;1;other;None;Phantom (Phantom);FLAG(no_warn)",
            "        make_generic;exit;Room;1;other;None;Phantom (Phantom);FLAG(no_warn)",
            "        if;not RECORDS.get('Recruiter_level') == 1",
            "            add_unit;healer;6,4",
            "        end",
            "        if;not RECORDS.get('Preserver_level') == 1",
            "            add_unit;gacha;8,4",
            "        end",
            "        add_unit;exit;7,3",
            "        add_talk;{v:main_unit};healer",
            "        add_talk;{v:main_unit};gacha",
            "        add_talk;{v:main_unit};exit",
            "        trigger_script;Global Get_Reserves",
            "        transition",
            "    else",
            "        add_talk;{v:main_unit};{unit2}",
            "    end",
            "elif;'{v:the_var}' == 'Fabien'",
            "    choice;begin;Begin boss fight?;Yes,No;FLAG(backable)",
            "    if;'{v:begin}' == 'Yes'",
            "        game_var;in_combat;1",
            "        game_var;next_reward;'Boss'",
            "        set_next_chapter;Fabien",
            "        skip_save;t",
            "        win_game",
            "    else",
            "        add_talk;{v:main_unit};{unit2}",
            "    end",
            "elif;'{v:the_var}' == 'Loreia'",
            "    choice;begin;Begin boss fight?;Yes,No;FLAG(backable)",
            "    if;'{v:begin}' == 'Yes'",
            "        game_var;in_combat;1",
            "        game_var;next_reward;'Boss'",
            "        set_next_chapter;Loreia",
            "        skip_save;t",
            "        win_game",
            "    else",
            "        add_talk;{v:main_unit};{unit2}",
            "    end",
            "elif;'{v:the_var}' == 'Coalition'",
            "    choice;begin;Begin trial?;Yes,No;FLAG(backable)",
            "    if;'{v:begin}' == 'Yes'",
            "        game_var;in_combat;1",
            "        set_next_chapter;Coalition",
            "        game_var;next_reward;'Money'",
            "        game_var;subboss;'Coalition'",
            "        skip_save;t",
            "        win_game",
            "    else",
            "        add_talk;{v:main_unit};{unit2}",
            "    end",
            "elif;'{v:the_var}' == 'Rebellion'",
            "    choice;begin;Begin trial?;Yes,No;FLAG(backable)",
            "    if;'{v:begin}' == 'Yes'",
            "        game_var;in_combat;1",
            "        set_next_chapter;Rebellion",
            "        game_var;next_reward;'Money'",
            "        game_var;subboss;'Rebellion'",
            "        skip_save;t",
            "        win_game",
            "    else",
            "        add_talk;{v:main_unit};{unit2}",
            "    end",
            "end",
            "",
            "",
            "",
            "",
            ""
        ]
    }
]