[
    {
        "name": "z. Event - Actors",
        "trigger": null,
        "level_nid": "Act_3",
        "condition": "True",
        "commands": [],
        "only_once": false,
        "priority": 20,
        "_source": [
            "speak;;While journeying, you meet a troupe of traveling actors, who are setting up a stage to put on a play.|They recognize your obvious theatrical talent and request that your join their performance.;center;NumLines=3;DialogBox=menu_bg_parchment (menu_bg_parchment)",
            "#",
            "choice;acting;What will you do?;['1|Perform in a comedy  <icon>event_hp</><icon>event_item</>','2|Perform in a tragedy  <icon>event_fragments</><icon>event_weapon</>','3|Sell snacks  <icon>event_money</>'];200;FLAG(expression)",
            "#",
            "if;'{v:acting}' == '1'",
            "speak;;You perform in a play about a spearman from the frozen north,|who journeys through the lands fighting \"bad guys\" alongside a posse of friends.|The story inspires you to push past your injuries,|and you manage to keep one of the props.;center;NumLines=3;DialogBox=menu_bg_parchment (menu_bg_parchment)",
            "#",
            "for;player_unit;[u for u in game.get_units_in_party()]",
            "set_current_hp;{player_unit};{e:u('{player_unit}').get_hp() + 6}",
            "endf",
            "alert;All units heal 6 HP!",
            "#",
            "trigger_script_with_args;Global_Random_Reward (Global Global_Random_Reward);receiver,convoy,item_type,accessory",
            "#",
            "elif;'{v:acting}' == '2'",
            "speak;;You perform in a play about a swordswoman from a mighty empire,|who is betrayed first by her commander, then by a rebellion she joins,|and finally by the woman she loves most.|The story helps you reminisce on your own fragmented past,|and you manage to keep one of the props.;center;NumLines=3;DialogBox=menu_bg_parchment (menu_bg_parchment)",
            "#",
            "trigger_script_with_args;Global_Give_Currency (Global Global_Give_Currency);amount,50,currency_type,Fragments",
            "#",
            "trigger_script_with_args;Global_Random_Reward (Global Global_Random_Reward);receiver,convoy,item_type,weapon",
            "#",
            "else",
            "speak;;Instead of participating in the play,|you stand off to the side and sell food and drinks to the audience,|turning a tidy profit from it all.;center;NumLines=3;DialogBox=menu_bg_parchment (menu_bg_parchment)",
            "#",
            "trigger_script_with_args;Global_Give_Money (Global Global_Give_Money);amount,350,alert,Yes",
            "#",
            "end",
            "#",
            "#",
            "#",
            "#",
            "trigger_script;Get_Next_Chapter (Global Get_Next_Chapter)",
            "win_game"
        ]
    }
]