[
    {
        "name": "z. Event - Character_Death",
        "trigger": null,
        "level_nid": "Act_1",
        "condition": "True",
        "commands": [],
        "only_once": false,
        "priority": 20,
        "_source": [
            "speak;;You come across two other travelers. They appear to be debating the nature of character deaths within a story.|One, adorned with accessories depicting a beautiful woman, argues that characters should all be allowed to live to the end should they see their plots through, bringing joy to the readers that grew close to them.|The other, garbed in relics of an era bygone, insists that deaths are part of the circumstances of reality, and the story should reflect that, evoking catharsis in the readers that grew close to them.|They ask you to settle the debate.;center;;NumLines=5;DialogBox=menu_bg_parchment (menu_bg_parchment)\u2028#",
            "choice;death;Which do you prefer?;\u2028['1|It is nice when people live <icon>event_accessory</>',\u2028'2|Death is a natural part of the cycle <icon>event_stratagem</>',\u2028'3|Death is an illusion <icon>event_money</>'];200;FLAG(expression)\u2028#",
            "if;'{v:death}' == '1'",
            "speak;;The first traveler nods and gives you a small charm of fortune.;center;NumLines=3;DialogBox=menu_bg_parchment (menu_bg_parchment)",
            "#",
            "give_item;convoy;Happiness Charm (Happiness_Charm)",
            "#",
            "elif;'{v:death}' == '2'",
            "speak;;The second traveler smiles and speaks a blessing for your group.;center;NumLines=3;DialogBox=menu_bg_parchment (menu_bg_parchment)",
            "#",
            "for;player_unit;[u for u in game.get_units_in_party()]",
            "give_skill;{player_unit};Thanatos's Boon (ThanatosBoon)",
            "endf",
            "#",
            "else",
            "speak;;The two are flummoxed by your denial of the premise,|and you rob them in their momentary confusion.;center;NumLines=3;DialogBox=menu_bg_parchment (menu_bg_parchment)",
            "#",
            "trigger_script_with_args;Global_Give_Money (Global Global_Give_Money);amount,250,alert,Yes",
            "#",
            "end",
            "#",
            "#",
            "#",
            "#",
            "trigger_script;Get_Next_Chapter (Global Get_Next_Chapter)",
            "win_game"
        ]
    }
]