[
    {
        "name": "z. Event - Skill_Share",
        "trigger": null,
        "level_nid": "Act_2",
        "condition": "True",
        "commands": [],
        "only_once": false,
        "priority": 20,
        "_source": [
            "trigger_script;Get_Next_Chapter (Global Get_Next_Chapter)",
            "if;len([u for u in game.get_units_in_party()]) > 1",
            "speak;;\u2028Your group is stalled for a day due to a heavy rainstorm. Your party takes the initiative to train each other on their specialties in this spare time.;center;NumLines=5;DialogBox=menu_bg_parchment (menu_bg_parchment)",
            "choice;Copy_To_Unit;Who to teach?;[u.nid + '|' + u.name for u in game.get_units_in_party()];Dimensions=8,1;Alignment=left;EventNid=z. Event - Skill_Share_Sub_1;FLAG(expression);FLAG(backable)",
            "else",
            "speak;;You are stalled for a day due to a heavy rainstorm. Sadly, as you are alone, you must simply spend the time alone in silence.;center;NumLines=5;DialogBox=menu_bg_parchment (menu_bg_parchment)",
            "end",
            "choice;proceed;Proceed without training?;Yes,No",
            "if;'{v:proceed}' == 'No'",
            "trigger_script;z. Event - Skill_Share",
            "end",
            "win_game"
        ]
    }
]