[
    {
        "name": "Talk_Gacha",
        "trigger": "on_talk",
        "level_nid": "Act_2",
        "condition": "unit2.nid == 'gacha'",
        "commands": [],
        "only_once": false,
        "priority": 20,
        "_source": [
            "trigger_script;Talk_Gacha (Global Talk_Gacha)"
        ]
    }
]