[
    {
        "name": "Outro",
        "trigger": "level_end",
        "level_nid": "Adrius",
        "condition": "True",
        "commands": [],
        "only_once": false,
        "priority": 20,
        "_source": [
            "multi_add_portrait;Adrius_Young;Right;Player;Left",
            "speak;Adrius_Young;You're every bit as powerful as I remember.|But that was just a warm up.|Next, you'll be facing against the Herdsman himself.|And I assure you, he's no slouch.",
            "multi_remove_portrait;Adrius_Young;Player",
            "game_var;in_combat;0",
            "trigger_script;Global_Rewards (Global Global_Rewards)"
        ]
    }
]