[
    {
        "name": "Intro",
        "trigger": "level_start",
        "level_nid": "Adrius",
        "condition": "True",
        "commands": [],
        "only_once": false,
        "priority": 20,
        "_source": [
            "trigger_script;Get_Next_Chapter (Global Get_Next_Chapter)",
            "trigger_script;Boss_Level (Global Boss_Level)",
            "change_background;BlackBackground",
            "transition",
            "change_background",
            "center_cursor;2,19;FLAG(immediate)",
            "arrange_formation",
            "set_game_board_bounds;0;15;14;24",
            "if;RECORDS.get('Act_1_Power_level') == 0",
            "    set_skill_data;Adrius;Legend (Legend);charge;0",
            "elif;RECORDS.get('Act_1_Power_level') > 0",
            "    show_layer;wall",
            "    remove_unit;115;immediate",
            "    remove_unit;116;immediate",
            "    add_group;ninjas;ninjas;immediate",
            "end",
            "transition",
            "prep;t",
            "if;any([len(u.items) == 0 for u in game.get_player_units()])",
            "    choice;naked_deploy;One or more allies have no items. Deploy?;No,Yes",
            "    if;'{v:naked_deploy}' == 'No'",
            "        prep;t",
            "    end",
            "end",
            "center_cursor;Adrius (Adrius);FLAG(immediate)",
            "flicker_cursor;Adrius (Adrius)",
            "multi_add_portrait;Adrius_Young;Right;Player;Left",
            "speak;Adrius_Young;Your trial begins here.|Your first task is to defeat me in battle.|Only once you have done that, may you fight the Herdsman.|...|You've only been with us for about four years, as I recall.|I'm amazed that you're going after Bo\u00f6tes's position already.|While I don't quite understand your motivation, I suppose it doesn't matter.|While I may only be an attendant, I'll have you know that I was chosen for a reason.|Prepare yourself!",
            "multi_remove_portrait;Player;Adrius_Young",
            "trigger_script;Global Music_Battle_Start"
        ]
    }
]