[
    {
        "name": "HM: Pylons_dead",
        "trigger": "unit_death",
        "level_nid": "Bootes",
        "condition": "RECORDS.get('Act_1_Power_level') > 0",
        "commands": [],
        "only_once": false,
        "priority": 20,
        "_source": [
            "if;unit.nid == '132' and is_dead('133') and is_dead('134') and is_dead('135')",
            "    trigger_script;Bootes_Phase_2",
            "elif;unit.nid == '133' and is_dead('132') and is_dead('134') and is_dead('135')",
            "    trigger_script;Bootes_Phase_2",
            "elif;unit.nid == '134' and is_dead('132') and is_dead('133') and is_dead('135')",
            "    trigger_script;Bootes_Phase_2",
            "elif;unit.nid == '135' and is_dead('132') and is_dead('133') and is_dead('134')",
            "    trigger_script;Bootes_Phase_2",
            "end"
        ]
    }
]