[
    {
        "name": "Intro",
        "trigger": "level_start",
        "level_nid": "Bootes",
        "condition": "True",
        "commands": [],
        "only_once": false,
        "priority": 20,
        "_source": [
            "trigger_script;Get_Next_Chapter (Global Get_Next_Chapter)",
            "trigger_script;Boss_Level (Global Boss_Level)",
            "change_background;BlackBackground",
            "transition",
            "change_background",
            "center_cursor;19,14;FLAG(immediate)",
            "add_group;Bootes",
            "set_game_board_bounds;14;0;24;15",
            "arrange_formation",
            "level_var;bootes_time;0",
            "lvar;hard_mode_reins;1",
            "if;RECORDS.get('Act_1_Power_level') == 0",
            "    set_skill_data;Bo\u00f6tes (Bootes);Legend (Legend);charge;0",
            "elif;RECORDS.get('Act_1_Power_level') > 0",
            "    add_group;hm_1;hm_1;immediate;closest",
            "    remove_item;Bootes;Magic_Expulsion;no_banner",
            "    give_item;Bootes;Magic_Expulsion_Plus;no_banner",
            "end",
            "transition",
            "prep;t;;Check Seals;true;Menu_Seal_Check",
            "if;any([len(u.items) == 0 for u in game.get_player_units()])",
            "    choice;naked_deploy;One or more allies have no items. Deploy?;No,Yes",
            "    if;'{v:naked_deploy}' == 'No'",
            "        prep;t",
            "    end",
            "end",
            "center_cursor;Bo\u00f6tes (Bootes);FLAG(immediate)",
            "flicker_cursor;Bo\u00f6tes (Bootes)",
            "multi_add_portrait;Bo\u00f6tes (Bootes);Left;Player;Right",
            "speak;Bootes;I've acted as the leader of the Oculi for well over a century now.|While the prospect of retirement certainly sounds appealing,|you will have to prove your worth first.|Show me that you have the power to protect this world|from the Fog that threatens to consume it!",
            "multi_remove_portrait;Bootes;Player",
            "trigger_script;Global Music_Battle_Start"
        ]
    }
]