[
    {
        "name": "Outro",
        "trigger": "level_end",
        "level_nid": "Bootes",
        "condition": "True",
        "commands": [],
        "only_once": false,
        "priority": 20,
        "_source": [
            "game_var;in_combat;0",
            "transition",
            "change_background;BlackBackground",
            "transition",
            "speak;;A vision of the past plays out before you...;center;DialogBox=menu_bg_parchment (menu_bg_parchment)",
            "transition",
            "remove_all_units",
            "make_generic;BootesF;Manakete (Manakete);1;other",
            "make_generic;AdriusF;Sage (Sage);1;other",
            "make_generic;LT_F;Manakete_Lord (Manakete_Lord);1;player",
            "add_weather;smoke",
            "add_unit;BootesF;19,4",
            "add_unit;AdriusF;18,5",
            "add_unit;LT_F;19,6",
            "center_cursor;BootesF;FLAG(immediate)",
            "change_background",
            "transition",
            "flicker_cursor;AdriusF",
            "multi_add_portrait;Adrius_Young;FarLeft;Bootes;MidLeft;Player;Right",
            "speak;Adrius_Young;To manage to take down the Herdsman...|Your power is truly something to behold.",
            "speak;Bootes;Indeed.|Many have tried to seize my position in the past.|I was starting to worry that the day would|never come where one would best me.|But today, the Oculi have a new leader.",
            "speak;Bootes;Before we conclude this process, I want to|ensure you truly understand what you're getting yourself into.|As you well know, the Oculi rule over this world.|As leader, that would put you at the very top.|All other members ultimately answer to you.|But that kind of power comes with a price.|For our greatest responsibility is to ensure the safety of the gate.|I am, of course, referring to the gate that separates our world from the Fog.",
            "wait;300",
            "speak;Bootes;Yes, you're not the first to ask that.|I can't say that I truly understand it either.|The Fog is...|Well, I hesitate to call it an evil force, per se.|It's moreso that such power is simply... uncontrollable.|Tell me, do you know what happens when a person dies?|What happens to their soul, their memory?",
            "wait;300",
            "speak;Bootes;Of course, I can't say I know for certain either.|But I can hazard a guess.|It is my belief that they become one with the Fog.",
            "speak;Adrius_Young;This is news to me, master Bo\u00f6tes.|I wasn't aware that you had studied the Fog this far.",
            "speak;Bootes;In truth, I only came to this hypothesis when I looked inside the gate.",
            "speak;Adrius_Young;Y-You did what!?|But isn't that forbidden!?",
            "speak;Bootes;Yes, it is.|But remember, who made that rule?",
            "speak;Adrius_Young;...",
            "speak;Bootes;Either way, it's a mistake I won't make again.|The Fog must not be observed.|Such power is not meant to be used.|It must remain sealed.|Of course, that seal is becoming more difficult to maintain.|I have no idea how much longer it will hold.",
            "speak;Adrius_Young;Are you saying the power of the Priestesses won't be enough?",
            "speak;Bootes;That will eventually be the case.|In the meantime, we will simply create more of them.|The people will not be fond of it, but it must be done.|Hopefully one day, we will find a better solution.|But we're getting off course.{w} Now, step forward.",
            "multi_remove_portrait;Bootes;Player;Adrius_Young",
            "move_unit;LT_F;19,5",
            "multi_add_portrait;Adrius_Young;FarLeft;Bootes;MidLeft;Player;Right",
            "speak;Bootes;Are you prepared to handle this burden?|To lead mankind boldly into the future?|To be an arbiter who will judge all who live in this world?",
            "expression;Player;CloseEyes",
            "speak;Bootes;Very well.|And so the mantle of leadership is passed.|To you, the Oculi's own Scale of Justice, <red>Libra</>!",
            "transition",
            "change_background;BlackBackground",
            "transition",
            "speak;;Your vision begins to fade as you recall your draconic title.|Libra, the Scale of Justice...|Is this who you are?|A member of the Oculi, and defender of the Fog...|The... Fog...?|Does it have something to do with this realm?|You try to put the pieces together...|And yet, you can no longer think straight.|The world begins to shift around you,|and you descend into darkness once more...;center;NumLines=3;DialogBox=menu_bg_parchment (menu_bg_parchment)",
            "if;not RECORDS.get('forename')",
            "    create_record;forename;'Discovered'",
            "    alert;Bo\u00f6tes's key obtained!;;;bootes_key",
            "end",
            "level_var;seals;0",
            "if;RECORDS.get('currency_blocker') != 'Locked'",
            "    level_var;level_id;game.level.nid",
            "    for;deploys;[u for u in {v:deployed_units}]",
            "        if;not RECORDS.get('{e:'{deploys}' + game.level.nid}')",
            "            game_var;ms_tracker;{v:ms_tracker} + ['{e:'{deploys}' + game.level.nid}']",
            "            inc_level_var;seals;1",
            "        end",
            "    endf",
            "end",
            "if;{v:seals} > 0",
            "    trigger_script_with_args;Global_Give_Currency (Global Global_Give_Currency);amount,{v:seals},currency_type,Master_Seals",
            "end",
            "trigger_script;Global_Rewards (Global Global_Rewards)",
            "if;is_dead('Player')",
            "    resurrect;Player",
            "    set_current_hp;Player;99",
            "end",
            "for;player_unit;[u for u in (game.get_units_in_party('Player') + game.get_units_in_party('Flex'))]",
            "    set_current_hp;{player_unit};99",
            "endf"
        ]
    }
]