[
    {
        "name": "MemoryOfCaladium",
        "trigger": "unit_death",
        "level_nid": "Bootes",
        "condition": "unit.nid == 'Bootes' and any([s.nid == 'MemoryOfCaladium' for s in unit2.skills])",
        "commands": [],
        "only_once": false,
        "priority": 20,
        "_source": [
            "give_item;{unit2};InfiniteVigil"
        ]
    }
]