[
    {
        "name": "Win_Condition",
        "trigger": "combat_end",
        "level_nid": "Canes",
        "condition": "is_dead('Canes') and is_dead('Lupus_B')",
        "commands": [],
        "only_once": false,
        "priority": 20,
        "_source": [
            "add_portrait;Canes;FarLeft",
            "speak;Canes;You'll see...|This world, it doesn't have long...|The Oculi... and the common folk...|Their fragile peace...will soon...shatter...",
            "expression;Canes;CloseEyes",
            "remove_portrait;Canes",
            "win_game"
        ]
    }
]