[
    {
        "name": "Win_Condition",
        "trigger": "combat_end",
        "level_nid": "Coalition",
        "condition": "True",
        "commands": [],
        "only_once": false,
        "priority": 20,
        "_source": [
            "if;v('win_con') >= 4 and RECORDS.get('Act_2_Power_level') == 0",
            "    win_game",
            "elif;v('win_con') >= 5 and RECORDS.get('Act_2_Power_level') > 0",
            "    win_game",
            "end"
        ]
    }
]