[
    {
        "name": "Outro",
        "trigger": "level_end",
        "level_nid": "Coalition",
        "condition": "True",
        "commands": [],
        "only_once": false,
        "priority": 20,
        "_source": [
            "game_var;in_combat;0",
            "multi_add_portrait;Edryd;Right;Player;Left",
            "speak;Edryd;Looks like we've managed to secure this area.|We should move to the interior and prepare for a siege.|...|But still... why are they going after the gate?|Surely they're aware of how foolish this is.",
            "wait;300",
            "speak;Edryd;Yes, yes, I know.|Speculation is meaningless and all that.|You've softened over the years,|but I still think you need to perk up a bit more.|For Trina's sake, as well.",
            "expression;Player;HalfCloseEyes",
            "speak;Edryd;Hey, don't give me that look!|You know I'm right!|... anyway, enough joking around.|We've got work to do, right?",
            "multi_remove_portrait;Player;Edryd",
            "trigger_script;Global_Rewards (Global Global_Rewards)"
        ]
    }
]