[
    {
        "name": "Intro",
        "trigger": "level_start",
        "level_nid": "EV_Chess",
        "condition": "True",
        "commands": [],
        "only_once": false,
        "priority": 20,
        "_source": [
            "# because why the heck not",
            "add_weather;snow",
            "#",
            "level_var;SpawnedReins;0",
            "level_var;EnteredPhase2;0",
            "#",
            "for;enemy_unit;[u for u in game.level.units if u.team in ['enemy', 'enemy2']]",
            "level_var;level_plus;1 + int({v:Game_Level})",
            "autolevel_to;{enemy_unit};{v:level_plus};fixed;FLAG(no_warn)",
            "endf",
            "set_skill_data;King_E;Legend;charge;1",
            "trigger_script;Get_Next_Chapter (Global Get_Next_Chapter)",
            "arrange_formation",
            "prep;t",
            "if;any([len(u.items) == 0 for u in game.get_player_units()])",
            "    choice;naked_deploy;One or more allies have no items. Deploy?;No,Yes",
            "    if;'{v:naked_deploy}' == 'No'",
            "        prep;t",
            "    end",
            "end",
            "trigger_script;Global Music_Battle_Start"
        ]
    }
]