[
    {
        "name": "Win_Condition_Alter",
        "trigger": "unit_death",
        "level_nid": "EV_Quartet",
        "condition": "unit.nid in ['Stranger','Stranger_2','Stranger_3','Stranger_4']",
        "commands": [],
        "only_once": false,
        "priority": 20,
        "_source": [
            "inc_level_var;win_con;1",
            "if;unit.nid == 'Stranger' and is_dead('Stranger_2') and is_dead('Stranger_3') and is_dead('Stranger_4') and any([s.fatal_damage for s in unit.skills])",
            "    win_game",
            "elif;unit.nid == 'Stranger_2' and is_dead('Stranger') and is_dead('Stranger_3') and is_dead('Stranger_4') and any([s.fatal_damage for s in unit.skills])",
            "    win_game",
            "elif;unit.nid == 'Stranger_3' and is_dead('Stranger') and is_dead('Stranger_2') and is_dead('Stranger_4') and any([s.fatal_damage for s in unit.skills])",
            "    win_game",
            "elif;unit.nid == 'Stranger_4' and is_dead('Stranger') and is_dead('Stranger_2') and is_dead('Stranger_3') and any([s.fatal_damage for s in unit.skills])",
            "    win_game",
            "end"
        ]
    }
]