[
    {
        "name": "Win_Condition",
        "trigger": "combat_end",
        "level_nid": "EV_Stranger",
        "condition": "True",
        "commands": [],
        "only_once": false,
        "priority": 20,
        "_source": [
            "if;is_dead('Stranger')",
            "    win_game",
            "end"
        ]
    }
]