[
    {
        "name": "Intro",
        "trigger": "level_start",
        "level_nid": "EV_Thieves",
        "condition": "True",
        "commands": [],
        "only_once": false,
        "priority": 20,
        "_source": [
            "for;enemy_unit;[u for u in game.level.units if u.team in ['enemy', 'enemy2']]",
            "    level_var;level_plus;1 + int({v:Game_Level})",
            "    autolevel_to;{enemy_unit};{v:level_plus};fixed;FLAG(no_warn)",
            "endf",
            "trigger_script_with_args;Get_Weapon_Pool (Global Get_Weapon_Pool);rarity,rare",
            "#If ANY unit we have in the current party can use the weapon type, then that weapon type can drop. Dead allies included since revives are a thing.",
            "level_var;weapon_types;[]",
            "for;test_weapon;[i for i in {v:irons}]",
            "    if;any([item_system.available(x, DB.items.get('{test_weapon}')) for x in game.get_all_units_in_party()])",
            "        level_var;weapon_types;{v:weapon_types} + [DB.items.get('{test_weapon}').weapon_type.value]",
            "    end",
            "endf",
            "level_var;droppable_weapons;[]",
            "for;weapons;[w for w in {v:cur_wep_pool} if DB.items.get(w).weapon_type.value in {v:weapon_types}]",
            "    level_var;droppable_weapons;{v:droppable_weapons} + ['{weapons}']",
            "endf",
            "level_var;full_pool;{v:droppable_weapons} + {v:acc_pool} + {v:item_pool}",
            "level_var;reward;[]",
            "level_var;generic_thief;101",
            "for;item_drop;range(4)",
            "    level_var;selection;game.get_random_choice([r for r in {v:full_pool} if r not in {v:reward}])",
            "    level_var;reward;{v:reward} + ['{v:selection}']",
            "    give_item;{v:generic_thief};{v:selection};FLAG(droppable);FLAG(no_banner)",
            "    level_var;generic_thief;{v:generic_thief} + 1",
            "endf",
            "give_item;105;Blue Gem (Blue Gem);FLAG(droppable);FLAG(no_banner)",
            "trigger_script;Get_Next_Chapter (Global Get_Next_Chapter)",
            "arrange_formation",
            "prep;t",
            "if;any([len(u.items) == 0 for u in game.get_player_units()])",
            "    choice;naked_deploy;One or more allies have no items. Deploy?;No,Yes",
            "    if;'{v:naked_deploy}' == 'No'",
            "        prep;t",
            "    end",
            "end",
            "trigger_script;Global Music_Battle_Start"
        ]
    }
]