[
    {
        "name": "Horseshoe_Check",
        "trigger": "combat_end",
        "level_nid": "EV_Thieves",
        "condition": "True",
        "commands": [],
        "only_once": false,
        "priority": 99,
        "_source": [
            "if;unit2.team == 'enemy'",
            "    level_var;bad_guy;unit2.nid",
            "else",
            "    level_var;bad_guy;unit.nid",
            "end",
            "if;get_item(v('bad_guy'), 'Broken_Horseshoe')",
            "    remove_item;{v:bad_guy};Broken_Horseshoe;no_banner",
            "    give_item;{v:bad_guy};Broken_Horseshoe;droppable;no_banner",
            "end"
        ]
    }
]