[
    {
        "name": "Reinforcements",
        "trigger": "turn_change",
        "level_nid": "Final",
        "condition": "game.level_vars.get('phase_2', 0) == 1",
        "commands": [],
        "only_once": false,
        "priority": 20,
        "_source": [
            "if;game.turncount % 2 == 0",
            "    create_unit;Penitence (rein_1);Position=14,2;FLAG(copy_stats)",
            "    center_cursor;14,2;FLAG(immediate)",
            "    flicker_cursor;14,2",
            "    create_unit;Penitence (rein_2);Position=20,2;FLAG(copy_stats)",
            "    center_cursor;20,2;FLAG(immediate)",
            "    flicker_cursor;20,2",
            "else",
            "    create_unit;Penitence (rein_3);Position=16,34;FLAG(copy_stats)",
            "    center_cursor;16,34;FLAG(immediate)",
            "    flicker_cursor;16,34",
            "    create_unit;Penitence (rein_4);Position=18,34;FLAG(copy_stats)",
            "    center_cursor;18,34;FLAG(immediate)",
            "    flicker_cursor;18,34",
            "end"
        ]
    }
]