[
    {
        "name": "Death_Libra",
        "trigger": "combat_end",
        "level_nid": "Final",
        "condition": "is_dead('Libra')",
        "commands": [],
        "only_once": true,
        "priority": 20,
        "_source": [
            "if;int(RECORDS.get('current_density')) >= int(RECORDS.get('highest_density'))",
            "    update_record;highest_density;int(RECORDS.get('highest_density')) + 1",
            "end",
            "if;RECORDS.get('Act_4_Power_level') > 0 and RECORDS.get('current_density') >= 10 and RECORDS.get('highest_density') >= 10",
            "    create_record;True_Ending_Cleared;1",
            "end",
            "end",
            "if;RECORDS.get('Dispersal_level') > 0 and RECORDS.get('current_density') >= 5",
            "    create_record;Shiki_Ouji_Gain_A;1",
            "end",
            "multi_add_portrait;Libra;Right;Player;Left",
            "speak;Libra;........|Very well then...|If you're so determined to return to that world, then so be it.|But know this.|You will not be welcomed back with open arms.|You will be hated.{w} Despised.|Many will come for your head.|What awaits you will be a greater challenge than this Fog ever was.|If you're prepared for all of that...|Then just...go.|Return to the world we hated...",
            "multi_remove_portrait;Player;Libra",
            "wait;500",
            "transition;close;;255,255,255",
            "change_background;WhiteBackground",
            "remove_all_units",
            "transition;open;;255,255,255",
            "speak;;And this is where I'd put my credits sequence.|IF I HAD ONE.;center;NumLines=3;DialogBox=menu_bg_parchment (menu_bg_parchment)",
            "if;RECORDS.get('currency_blocker') == 'Unlocked'",
            "    update_record;currency_blocker;'Locked'",
            "    update_record;Essence;RECORDS.get('Essence') + {v:run_essence}",
            "    update_record;Flame;RECORDS.get('Flame') + {v:run_flame}",
            "    update_record;Fragments;RECORDS.get('Fragments') + {v:run_fragments}",
            "    for;ms_earned;[x for x in {v:ms_tracker}]",
            "        create_record;{e:'{ms_earned}'};1",
            "    endf",
            "    update_record;Master_Seals;RECORDS.get('Master_Seals') + {v:run_seals}",
            "    lvar;spark_count;{v:run_sparks} + RECORDS.get('Spark_Shards')",
            "    if;{v:spark_count} >= 3",
            "        update_record;Spark_Shards;{v:spark_count} % 3",
            "        update_record;Spark_Stones;{v:spark_count} // 3",
            "    else",
            "        update_record;Spark_Shards;RECORDS.get('Spark_Shards') + {v:run_sparks}",
            "    end",
            "    speak;;Total Essence gained: {v:run_essence}{br}Total Flame gained: {v:run_flame}{br}Total Fragments gained: {v:run_fragments}{br}Master Seals gained: {v:run_seals};center;;;;;;menu_bg_parchment (menu_bg_parchment);4",
            "elif;RECORDS.get('currency_blocker') == 'Locked'",
            "    speak;;A previous save was loaded. Currency will not be gained.",
            "end",
            "speak;;Congratulations!|You have beaten the game!|But greater challenges still await you within the Fog.|Select New Game from the menu to continue your adventures.|Thanks for playing!;center;NumLines=3;DialogBox=menu_bg_parchment (menu_bg_parchment)",
            "if;not RECORDS.get('game_clear')",
            "    give_skill;L. T. (Player);Assimilate (Assimilate)",
            "    create_record;game_clear;1",
            "end",
            "main_menu"
        ]
    }
]