[
    {
        "name": "Boss_Level",
        "trigger": null,
        "level_nid": null,
        "condition": "True",
        "commands": [],
        "only_once": false,
        "priority": 20,
        "_source": [
            "if;RECORDS.get('Enemy_Level_level') > 0",
            "trigger_script;Set_Elevated_Level (Global Set_Elevated_Level)",
            "end"
        ]
    }
]