[
    {
        "name": "Ability_ManaBalance",
        "trigger": null,
        "level_nid": null,
        "condition": "True",
        "commands": [],
        "only_once": false,
        "priority": 20,
        "_source": [
            "if;item.nid == 'Jolt'",
            "give_skill;{unit};White Mana (White_Mana);FLAG(no_banner)",
            "give_skill;{unit};Black Mana (Black_Mana);FLAG(no_banner)",
            "elif;item.nid == 'Verraise'",
            "give_skill;{unit};White Mana (White_Mana);FLAG(no_banner)",
            "give_skill;{unit};White Mana (White_Mana);FLAG(no_banner)",
            "elif;item_system.weapon_type(unit, item) in ['Anima', 'Dark']",
            "give_skill;{unit};Black Mana (Black_Mana);FLAG(no_banner)",
            "give_skill;{unit};Black Mana (Black_Mana);FLAG(no_banner)",
            "elif;item_system.weapon_type(unit, item) in ['Light', 'Staff']",
            "give_skill;{unit};White Mana (White_Mana);FLAG(no_banner)",
            "give_skill;{unit};White Mana (White_Mana);FLAG(no_banner)",
            "end"
        ]
    }
]