[
    {
        "name": "Set_Elevated_Level",
        "trigger": null,
        "level_nid": null,
        "condition": "True",
        "commands": [],
        "only_once": false,
        "priority": 20,
        "_source": [
            "for;enemy_unit;[u.nid for u in game.level.units if u.team in ['enemy', 'enemy2'] and 'Tile' not in u.tags]",
            "    if;u('{enemy_unit}').generic",
            "        level_var;level_plus;1 + int({v:Game_Level})",
            "    else",
            "        level_var;level_plus;int(u('{enemy_unit}').level * (1 + (.225 * RECORDS.get('Enemy_Level_level'))))",
            "    end",
            "    autolevel_to;{enemy_unit};{v:level_plus};fixed;FLAG(no_warn)",
            "endf"
        ]
    }
]