[
    {
        "name": "Ability_Spirited_Exsanguination",
        "trigger": null,
        "level_nid": null,
        "condition": "True",
        "commands": [],
        "only_once": false,
        "priority": 20,
        "_source": [
            "for;charge_skill;[s.nid for s in unit.skills if s.data.get('charge', 99) != 99]",
            "set_skill_data;{unit};{charge_skill};charge;min(get_skill(unit, '{charge_skill}').data['charge'] + 1, get_skill(unit, '{charge_skill}').data['total_charge'])",
            "endf"
        ]
    }
]