[
    {
        "name": "Ability_Consumed_Blood",
        "trigger": "level_end",
        "level_nid": null,
        "condition": "True",
        "commands": [],
        "only_once": false,
        "priority": 20,
        "_source": [
            "set_current_hp;Anopheles;{e:game.get_unit('Anopheles').get_hp() + 5 * len([s for s in game.get_unit('Anopheles').skills if s.nid == 'Consumed_Blood'])}",
            "remove_skill;Anopheles elibis (Anopheles);Consumed Blood (Consumed_Blood);;FLAG(no_banner)"
        ]
    }
]