[
    {
        "name": "Ability_Poison",
        "trigger": null,
        "level_nid": null,
        "condition": "True",
        "commands": [],
        "only_once": false,
        "priority": 20,
        "_source": [
            "if;not is_dead(unit.nid)",
            "    map_anim;MapPoisonShock;{unit}",
            "end",
            "wait;500",
            "if;unit.get_hp() <= 2 and not any([s.fatal_block for s in unit.skills])",
            "    kill_unit;{unit}",
            "    if;game.game_vars.get('game_over' , 0) == 1",
            "        trigger_script;Global_Loss (Global Global_Loss)",
            "    end",
            "else",
            "    set_current_hp;{unit};{e:unit.get_hp() - 2}",
            "end"
        ]
    }
]