[
    {
        "name": "Support_Execute",
        "trigger": null,
        "level_nid": null,
        "condition": "True",
        "commands": [],
        "only_once": false,
        "priority": 20,
        "_source": [
            "if;len([x for x in game.get_enemy_units() if 'Boss' not in x.tags]) > 0",
            "table;items;[item.nid for item in game.get_unit(\"{v:target_e_choice_hover}\").items];;RowWidth=110;EntryType=type_base_item;Alignment=right;FLAG(expression)",
            "choice;target_e;Select a target;[x.nid for x in game.get_enemy_units() if 'Boss' not in x.tags];RowWidth=75;Alignment=left;Dimensions=8,1;EntryType=type_unit;FLAG(expression);FLAG(backable)",
            "if;'{v:target_e}' != 'BACK'",
            "remove_table;items",
            "center_cursor;{e:game.get_unit('{v:target_e}').position};FLAG(immediate)",
            "flicker_cursor;{e:game.get_unit('{v:target_e}').position}",
            "choice;killing;Kill this unit?;Yes,No",
            "remove_table;items",
            "if;'{v:killing}' == 'Yes'",
            "interact_unit;{e:'{v:target_e}'};{e:u('{v:target_e}').position};;Execution (Execution_Yasukage)",
            "#kill_unit;{e:'{v:target_e}'}",
            "inc_game_var;support_points;-1",
            "end",
            "end",
            "else",
            "alert;No valid targets!",
            "end"
        ]
    }
]