[
    {
        "name": "Item_Potion_Belt",
        "trigger": "level_end",
        "level_nid": null,
        "condition": "True",
        "commands": [],
        "only_once": false,
        "priority": 20,
        "_source": [
            "for;unit_potion;[u for u in game.get_player_units() if any([i.nid == 'Potion_Belt' for i in u.items])]",
            "    for;consumable;[i.nid for i in u('{unit_potion}').items if i.nid in {v:item_pool} and not i.weapon]",
            "        add_item_to_multiitem;{unit_potion};Potion_Belt (Potion_Belt);{consumable}",
            "        remove_item;{unit_potion};{consumable};;FLAG(no_banner)",
            "        #alert;A {consumable} has been stored in {unit_potion}'s Potion Belt!",
            "    endf",
            "endf"
        ]
    }
]