[
    {
        "name": "Ability_Rally_Spectators_Remove",
        "trigger": "level_end",
        "level_nid": null,
        "condition": "any([u for u in game.get_units_in_party() if has_skill(u.nid, 'Rallied_Spectator')])",
        "commands": [],
        "only_once": false,
        "priority": 20,
        "_source": [
            "if;game.level_vars.get('not_spectators')",
            "for;remove_spectator;[u for u in {v:not_spectators}]",
            "remove_skill;{remove_spectator};Rallied Spectator (Rallied_Spectator);3;FLAG(no_banner);FLAG(no_warn)",
            "endf",
            "end"
        ]
    }
]