[
    {
        "name": "Ability_Resolution",
        "trigger": "unit_death",
        "level_nid": null,
        "condition": "has_skill(unit, 'Resolution')",
        "commands": [],
        "only_once": false,
        "priority": 20,
        "_source": [
            "remove_skill;{unit};Resolution (Resolution);FLAG(no_banner)"
        ]
    }
]