[
    {
        "name": "Item_FragmentMaker",
        "trigger": null,
        "level_nid": null,
        "condition": "True",
        "commands": [],
        "only_once": false,
        "priority": 20,
        "_source": [
            "trigger_script_with_args;Global_Give_Currency (Global Global_Give_Currency);amount,5,currency_type,Fragments"
        ]
    }
]