[
    {
        "name": "Support_Call",
        "trigger": null,
        "level_nid": null,
        "condition": "True",
        "commands": [],
        "only_once": false,
        "priority": 20,
        "_source": [
            "trigger_script;Global Get_Current_Act",
            "if;v('support_points') > 0",
            "    textbox;supp_points;\"Uses left: \" + str({v:support_points});top_left;75;FLAG(expression)",
            "    level_var;supp_options;[]",
            "    #Determine choices",
            "    if;game.game_vars.get('in_combat', 0) == 1",
            "    #Escape, Execute, Fight",
            "        level_var;supp_options;{v:supp_options} + ['Escape']",
            "        if;RECORDS.get('Execute_unlocked') >= 2",
            "            level_var;supp_options;{v:supp_options} + ['Execute']",
            "        end",
            "    else",
            "    #Search, Order, Supply, Fight",
            "        level_var;supp_options;{v:supp_options} + ['Search']",
            "        if;RECORDS.get('Order_unlocked') >= 2",
            "            level_var;supp_options;{v:supp_options} + ['Order Item']",
            "        end",
            "        if;RECORDS.get('Supply_unlocked') >= 2",
            "            level_var;supp_options;{v:supp_options} + ['Supply']",
            "        end",
            "    end",
            "    if;RECORDS.get('Fight_unlocked') >= 2",
            "        level_var;supp_options;{v:supp_options} + ['Fight']",
            "    end",
            "    #Choice",
            "    choice;supp_action;Give which command?;{v:supp_options};;;center;FLAG(expression);FLAG(backable)",
            "    remove_table;supp_points",
            "    #Do the thing selected",
            "    if;'{v:supp_action}' == 'Escape'",
            "        if;game.level.nid in ['Adrius','Bootes','Lupus','Canes','Rebellion','Loreia','Coalition','Fabien','Nikume','Gemini','Ilona','Grigol','Trinity','Ouranos','Machine'] or {v:current_act} == 4",
            "            alert;Cannot escape from this fight!",
            "        else",
            "            inc_game_var;support_points;-1",
            "            if;RECORDS.get('Escape+_unlocked') == 2",
            "                game_var;next_reward;'LowEXP'",
            "            else",
            "                game_var;next_reward;'Nothing'",
            "            end",
            "            level_var;escaped;1",
            "            win_game",
            "        end",
            "    elif;'{v:supp_action}' == 'Search'",
            "        if;not v('supp_searched') == 1",
            "            trigger_script;Support_Search (Global Support_Search)",
            "        else",
            "            alert;Room already created!",
            "        end",
            "    elif;'{v:supp_action}' == 'Order Item'",
            "        if;v('support_order_item') == 1",
            "            trigger_script;Support_Order (Global Support_Order)",
            "        else",
            "            alert;Order already placed!",
            "        end",
            "    elif;'{v:supp_action}' == 'Supply'",
            "        trigger_script;Support_Supply (Global Support_Supply)",
            "    elif;'{v:supp_action}' == 'Execute'",
            "        trigger_script;Support_Execute (Global Support_Execute)",
            "    elif;'{v:supp_action}' == 'Fight'",
            "        trigger_script;Support_Fight (Global Support_Fight)",
            "    end",
            "    trigger_script;Support_Lock_Menu_Option (Global Support_Lock_Menu_Option)",
            "else",
            "    alert;No points remaining!",
            "end"
        ]
    }
]