[
    {
        "name": "Ability_Bloodforce",
        "trigger": null,
        "level_nid": null,
        "condition": "True",
        "commands": [],
        "only_once": false,
        "priority": 20,
        "_source": [
            "remove_skill;{unit};Blood (Blood);4;FLAG(no_banner)",
            "change_portrait;Griselda;Griselda"
        ]
    }
]