[
    {
        "name": "Ability_Ghostmaker Death",
        "trigger": "unit_death",
        "level_nid": null,
        "condition": "has_skill(unit,'Ghostmaker_Buff')",
        "commands": [],
        "only_once": false,
        "priority": 20,
        "_source": [
            "make_generic;;Ghost;1;{e:unit.team};Pursue;Phantom (Phantom);;Phantom_Knife",
            "autolevel_to;{created_unit};{e:unit.level};fixed",
            "give_skill;{created_unit};No Trade (No_Trade);FLAG(no_banner)",
            "add_tag;{created_unit};Temporary",
            "for;summon_item;[i.uid for i in u('{created_unit}').items]",
            "    add_item_component;{created_unit};{summon_item};locked;FLAG(no_warn)",
            "endf",
            "set_stats;{created_unit};HP,10;FLAG(immediate)",
            "if;'{e:unit.team}' == 'player'",
            "    change_ai;{created_unit};None",
            "end",
            "add_unit;{created_unit};{unit};fade;stack"
        ]
    }
]