[
    {
        "name": "Ability_MotivationDoor",
        "trigger": "Door",
        "level_nid": null,
        "condition": "has_skill(unit, 'Motivation')",
        "commands": [],
        "only_once": false,
        "priority": 20,
        "_source": [
            "give_skill;{unit};Motivation (Motivation_Child)"
        ]
    }
]