[
    {
        "name": "Ability_Reverse_Verse",
        "trigger": "combat_end",
        "level_nid": null,
        "condition": "has_skill(unit,'Reverse_Verse_Proc')",
        "commands": [],
        "only_once": false,
        "priority": 20,
        "_source": [
            "s;;Reversed Verse!",
            "for;verse;[i.nid for i in get_item(unit, 'Scripture').subitems]",
            "    remove_item_from_multiitem;{unit};Scripture;{verse};no_warn",
            "endf",
            "remove_skill;{unit};Lck_2;no_banner"
        ]
    }
]