[
    {
        "name": "Ability_Ritual_Lament_Stat_Gain",
        "trigger": "unit_death",
        "level_nid": null,
        "condition": "unit.team == 'player'",
        "commands": [],
        "only_once": false,
        "priority": 20,
        "_source": [
            "if;not unit.generic and not 'Temporary' in unit.tags",
            "    for;Lamenting;[u.nid for u in game.get_player_units() if u.position and has_skill(u,'Ritual_Lament')]",
            "        if;unit.affinity == 'Fire'",
            "            change_stats;{Lamenting};STR,1;FLAG(immediate)",
            "        elif;unit.affinity == 'Anima'",
            "            change_stats;{Lamenting};MAG,1;FLAG(immediate)",
            "        elif;unit.affinity == 'Thunder'",
            "            change_stats;{Lamenting};SKL,2;FLAG(immediate)",
            "        elif;unit.affinity == 'Wind'",
            "            change_stats;{Lamenting};SPD,1;FLAG(immediate)",
            "        elif;unit.affinity == 'Light'",
            "            change_stats;{Lamenting};LCK,2;FLAG(immediate)",
            "        elif;unit.affinity == 'Earth'",
            "            change_stats;{Lamenting};DEF,1;FLAG(immediate)",
            "        elif;unit.affinity == 'Water'",
            "            change_stats;{Lamenting};RES,1;FLAG(immediate)",
            "        elif;unit.affinity == 'Ice'",
            "            change_stats;{Lamenting};CON,1;FLAG(immediate)",
            "        elif;unit.affinity == 'Dark'",
            "            change_stats;{Lamenting};HP,3;FLAG(immediate)",
            "        end",
            "    endf",
            "end"
        ]
    }
]