[
    {
        "name": "Item_Wall_Staff",
        "trigger": null,
        "level_nid": null,
        "condition": "True",
        "commands": [],
        "only_once": false,
        "priority": 20,
        "_source": [
            "map_anim;BlueDot;{e:target_pos};FLAG(permanent)",
            "make_generic;;Wall10 (Wall10);1;other;None;Wall (Wall)",
            "add_unit;{created_unit};{e:target_pos};warp;push",
            "set_unit_field;{created_unit};isWall;1"
        ]
    }
]