[
    {
        "name": "Ability_Harmony_Setup",
        "trigger": "turn_change",
        "level_nid": null,
        "condition": "True",
        "commands": [],
        "only_once": false,
        "priority": 20,
        "_source": [
            "if;game.turncount == 1 and game.game_vars.get('in_combat', 0) == 1",
            "for;harmony_units;[u.nid for u in game.get_player_units() if has_skill(u.nid, 'Harmony')]",
            "give_skill;{harmony_units};Harmony_Stacks;;FLAG(no_banner)",
            "endf",
            "end"
        ]
    }
]