[
    {
        "name": "Ability_Prepared_Casting",
        "trigger": "turn_change",
        "level_nid": null,
        "condition": "game.turncount == 1 and (game.game_vars.get('in_combat', 0) == 1 or game.level.nid == 'DEBUG')",
        "commands": [],
        "only_once": false,
        "priority": 20,
        "_source": [
            "for;PREP_CASTER_PREV;[u.nid for u in game.get_all_units_in_party()]",
            "    if;has_item('Spellbook', nid='{PREP_CASTER_PREV}')",
            "        remove_item;{PREP_CASTER_PREV};Spellbook (Spellbook);FLAG(no_banner);FLAG(no_warn)",
            "    end",
            "    for;CANTRIP;[i.uid for i in u('{PREP_CASTER_PREV}').items if 'Cantrip' in i.tags];FLAG(no_warn)",
            "        remove_item;{PREP_CASTER_PREV};{CANTRIP};FLAG(no_banner)",
            "    endf",
            "endf",
            "for;PREP_CASTER;[u for u in game.get_player_units() if 'Vancian' in u.tags];FLAG(no_warn)",
            "    game_var;prep_lvl;u('{PREP_CASTER}').level // 8",
            "    game_var;prep_tier;[]",
            "    give_item;{PREP_CASTER};Spellbook",
            "    if;v('prep_lvl') >= 0",
            "        game_var;prep_tier;v('prep_tier') + [\"E\"]",
            "    end",
            "    if;v('prep_lvl') >= 1",
            "        game_var;prep_tier;v('prep_tier') + [\"D\"]",
            "    end",
            "    if;v('prep_lvl') >= 2",
            "        game_var;prep_tier;v('prep_tier') + [\"C\"]",
            "    end",
            "    if;v('prep_lvl') >= 3",
            "        game_var;prep_tier;v('prep_tier') + [\"B\"]",
            "    end",
            "    if;v('prep_lvl') >= 4",
            "        game_var;prep_tier;v('prep_tier') + [\"A\"]",
            "    end",
            "    if;v('prep_lvl') >= 5",
            "        game_var;prep_tier;v('prep_tier') + [\"S\"]",
            "    end",
            "end",
            "game_var;prep_options;[]",
            "for;SPELL_OPTION;[i.nid for i in DB.items if item_system.weapon_type(u('{PREP_CASTER}'), i) in ['Anima', 'Light', 'Dark', 'Staff'] and not i.nid == 'Iron_Staff' and not i.uses and i.weapon_rank and item_system.weapon_rank(u('{PREP_CASTER}'), i) in v('prep_tier') and not i.prf_unit and not i.prf_class and not i.prf_tags and not i.prf_affinity]",
            "    game_var;prep_options;v('prep_options') + ['{SPELL_OPTION}']",
            "endf",
            "for;SPELL_SELECT;range(3 + v('prep_lvl'))",
            "    choice;spell_choice;Prepare which spell?;{v:prep_options};EntryType=type_base_item;Dimensions=6,2;FLAG(expression);FLAG(scroll_bar)",
            "    add_item_to_multiitem;{PREP_CASTER};Spellbook;{v:spell_choice}",
            "endf",
            "for;subitem;[i.uid for i in get_item(u('{PREP_CASTER}'), 'Spellbook').subitems]",
            "    game_var;prep_weapon_type;item_system.weapon_type(u('{PREP_CASTER}'), game.get_item({subitem}))",
            "    remove_item_component;{PREP_CASTER};{subitem};weapon_type;FLAG(recursive)",
            "    add_item_component;{PREP_CASTER};{subitem};weapon_type_exempt;v('prep_weapon_type');FLAG(recursive)",
            "    remove_item_component;{PREP_CASTER};{subitem};weapon_rank;FLAG(recursive)",
            "    remove_item_component;{PREP_CASTER};{subitem};c_uses;FLAG(recursive)",
            "    add_item_component;{PREP_CASTER};{subitem};uses;1;FLAG(recursive)",
            "    remove_item_component;{PREP_CASTER};{subitem};uses_options;FLAG(recursive)",
            "    add_item_component;{PREP_CASTER};{subitem};uses_options;[['LoseUsesOnMiss (T/F)', 'T', 'Lose uses even on miss'],['OneLossPerCombat (T/F)', 'T', \"Doubling doesn't cost extra uses\"]];FLAG(recursive)",
            "endf",
            "if;\"{PREP_CASTER}\" == \"Vance\" and RECORDS.get(\"Vance_2\")",
            "    game_var;prep_options;[]",
            "    for;SPELL_OPTION;[i.nid for i in DB.items if item_system.weapon_type(u('{PREP_CASTER}'), i) in ['Anima', 'Light', 'Dark'] and not i.uses and i.weapon_rank and item_system.weapon_rank(u('{PREP_CASTER}'), i) == 'E' and not i.prf_unit and not i.prf_class and not i.prf_tags and not i.prf_affinity]",
            "        game_var;prep_options;v('prep_options') + ['{SPELL_OPTION}']",
            "    endf",
            "    choice;spell_choice;Prepare which cantrip?;{v:prep_options};EntryType=type_base_item;Dimensions=6,2;FLAG(expression);FLAG(scroll_bar)",
            "    give_item;{PREP_CASTER};{v:spell_choice}",
            "    add_item_component;{PREP_CASTER};{v:spell_choice};locked",
            "    add_item_component;{PREP_CASTER};{v:spell_choice};item_tags;[\"Cantrip\"]",
            "    game_var;prep_weapon_type;item_system.weapon_type(u('{PREP_CASTER}'), DB.items.get('{v:spell_choice}'))",
            "    remove_item_component;{PREP_CASTER};{v:spell_choice};weapon_type",
            "    add_item_component;{PREP_CASTER};{v:spell_choice};weapon_type_exempt;v('prep_weapon_type')",
            "    remove_item_component;{PREP_CASTER};{v:spell_choice};weapon_rank",
            "    add_item_component;{PREP_CASTER};{v:spell_choice};uses;4",
            "    remove_item_component;{PREP_CASTER};{v:spell_choice};uses_options",
            "    add_item_component;{PREP_CASTER};{v:spell_choice};uses_options;[['LoseUsesOnMiss (T/F)', 'T', 'Lose uses even on miss'],['OneLossPerCombat (T/F)', 'T', \"Doubling doesn't cost extra uses\"]]",
            "end",
            "#",
            "endf"
        ]
    }
]