[
    {
        "name": "Ability_Assimilate_Great",
        "trigger": null,
        "level_nid": null,
        "condition": "True",
        "commands": [],
        "only_once": false,
        "priority": 20,
        "_source": [
            "for;get_skill;[s.nid for s in unit2.skills if s.copysafe]",
            "    give_skill;{unit};{get_skill}",
            "    for;skills;[s for s in get_skill(unit2, '{get_skill}').copysafe.value]",
            "        give_skill;{unit};{skills}",
            "    endf",
            "endf",
            "for;wep_type;[w for w in u('{e:unit2}').wexp]",
            "    if;u('{e:unit2}').wexp.get('{wep_type}') > 0",
            "        give_wexp;{unit};{wep_type};{e:int(u('{e:unit2}').wexp['{wep_type}'])}",
            "    end",
            "endf",
            "kill_unit;{unit2}"
        ]
    }
]