[
    {
        "name": "Ability_FlashingStrike_Store",
        "trigger": null,
        "level_nid": null,
        "condition": "True",
        "commands": [],
        "only_once": false,
        "priority": 20,
        "_source": [
            "level_var;flashing_pos;target_pos"
        ]
    }
]