[
    {
        "name": "Stratagem_Select",
        "trigger": null,
        "level_nid": null,
        "condition": "True",
        "commands": [],
        "only_once": false,
        "priority": 20,
        "_source": [
            "level_var;choices;[]",
            "for;strats;range(3)",
            "    level_var;choices;{v:choices} + [game.get_random_choice([s.nid + '|' + s.name for s in game.get_data('Stratagems') if s.nid + '|' + s.name not in {v:choices} and s.stratagem_type == 'Normal' and s.nid not in {v:Active_Stratagems}])]",
            "endf",
            "if;len({v:choices}) > 0",
            "    textbox;strat_desc;\"{d:Stratagems.{v:strat_choice_choice_hover}.description}\";right;120;7;BG=menu_bg_parchment (menu_bg_parchment);FLAG(expression)",
            "    choice;strat_choice;Select a Stratagem;{v:choices};RowWidth=90;Alignment=left;Dimensions=3,1;FLAG(expression)",
            "    alert;{d:Stratagems.{v:strat_choice}.name} now in effect!",
            "    game_var;Active_Stratagems;{v:Active_Stratagems} + ['{d:Stratagems.{v:strat_choice}.nid}']",
            "end"
        ]
    }
]