[
    {
        "name": "Ability_Shadowstep_Recharge",
        "trigger": "combat_end",
        "level_nid": null,
        "condition": "any([s.nid == 'Shadowstep' for s in unit.skills]) and unit2.is_dying",
        "commands": [],
        "only_once": false,
        "priority": 20,
        "_source": [
            "if;get_skill(unit, 'Shadowstep') and get_skill(unit, 'Shadowstep').data['charge'] == 0",
            "set_skill_data;{unit};Shadowstep;charge;1",
            "end"
        ]
    }
]