[
    {
        "name": "Ability_SunriseProc",
        "trigger": null,
        "level_nid": null,
        "condition": "has_skill(unit,'Sunrise') and len([s for s in unit.skills if s.nid == 'Daylight']) == 5",
        "commands": [],
        "only_once": false,
        "priority": 20,
        "_source": [
            "remove_skill;{unit};Daylight"
        ]
    }
]