[
    {
        "name": "Ability_Fimbulwinter_Recharge",
        "trigger": null,
        "level_nid": null,
        "condition": "True",
        "commands": [],
        "only_once": false,
        "priority": 20,
        "_source": [
            "set_skill_data;{unit};Fimbulwinter;charge;1"
        ]
    }
]