[
    {
        "name": "Ability_Verraise",
        "trigger": null,
        "level_nid": null,
        "condition": "True",
        "commands": [],
        "only_once": false,
        "priority": 20,
        "_source": [
            "choice;revival;Who to revive?;[u.nid for u in game.get_all_units_in_party() if is_dead(u.nid) and 'Banished' not in u.tags];Dimensions=8,1;FLAG(expression)",
            "trigger_script_with_args;Global Global Revive;to_revive,{v:revival}",
            "set_current_hp;{v:revival};1",
            "add_unit;{v:revival};{e:target_pos};warp",
            "has_finished;{v:revival}",
            "remove_skill;{unit};Verraise (Verraise)",
            "remove_skill;{unit};AshenEmblem",
            "remove_skill;{unit};EmblemAshes;99;FLAG(no_banner)"
        ]
    }
]