[
    {
        "name": "Get_Next_Chapter",
        "trigger": null,
        "level_nid": null,
        "condition": "True",
        "commands": [],
        "only_once": false,
        "priority": 20,
        "_source": [
            "if;RECORDS.get('Game_Speed') == 1",
            "    if;{v:Floor} < 15",
            "        set_next_chapter;Act_1",
            "    elif;{v:Floor} >= 15 and {v:Floor} < 30",
            "        set_next_chapter;Act_2",
            "    elif;{v:Floor} >= 30 and {v:Floor} < 45",
            "        set_next_chapter;Act_3",
            "    else",
            "        set_next_chapter;Act_4",
            "    end",
            "elif;RECORDS.get('Game_Speed') == 2",
            "    if;{v:Floor} < 10",
            "        set_next_chapter;Act_1",
            "    elif;{v:Floor} >= 10 and {v:Floor} < 20",
            "        set_next_chapter;Act_2",
            "    elif;{v:Floor} >= 20 and {v:Floor} < 30",
            "        set_next_chapter;Act_3",
            "    else",
            "        set_next_chapter;Act_4",
            "    end",
            "end"
        ]
    }
]