[
    {
        "name": "Global_Base",
        "trigger": null,
        "level_nid": null,
        "condition": "True",
        "commands": [],
        "only_once": false,
        "priority": 20,
        "_source": [
            "base;default_background"
        ]
    }
]