[
    {
        "name": "Ability_SummonStand",
        "trigger": null,
        "level_nid": null,
        "condition": "True",
        "commands": [],
        "only_once": false,
        "priority": 20,
        "_source": [
            "make_generic;;Stand;1;player;None;Phantom (Phantom)",
            "game_var;avail_weapons;[]",
            "for;WEAPON_TYPE;unit.wexp",
            "    if;DB.classes.get(unit.klass).wexp_gain.get('{WEAPON_TYPE}').usable",
            "        set_wexp;{created_unit};{WEAPON_TYPE};{e:int(unit.wexp['{WEAPON_TYPE}'])};FLAG(no_banner)",
            "        game_var;avail_weapons;v('avail_weapons') + ['{WEAPON_TYPE}']",
            "    end",
            "endf",
            "for;WEAPON_TYPE;v('avail_weapons')",
            "    game_var;summon_options;[i.nid for i in DB.items if item_system.weapon_type(created_unit, i) == '{WEAPON_TYPE}' and (i.nid in {v:all_game_weapons} or i.nid in {v:irons}) and i.weapon_rank and DB.weapon_ranks.get(i.weapon_rank.value).requirement <= created_unit.wexp.get('{WEAPON_TYPE}') and not i.prf_unit and not i.prf_class and not i.prf_tags and not i.prf_affinity]",
            "    if;len(v('summon_options')) > 0 and len(created_unit.items) < 3",
            "        game_var;item_draw;game.get_random_choice(v('summon_options'))",
            "        give_item;{created_unit};{v:item_draw};FLAG(no_banner)",
            "    end",
            "endf",
            "for;stand_item;[i.uid for i in created_unit.items]",
            "    add_item_component;{created_unit};{stand_item};locked;FLAG(no_warn)",
            "endf",
            "autolevel_to;{created_unit};{e:unit.level};fixed",
            "set_unit_field;{created_unit};Summoner;unit.nid",
            "set_unit_field;{created_unit};Summoned_by;'Summon_Stand'",
            "give_skill;{created_unit};No Trade (No_Trade);FLAG(no_banner)",
            "add_tag;{created_unit};Temporary",
            "add_unit;{created_unit};{e:target_pos};warp;closest"
        ]
    }
]