[
    {
        "name": "Ability_Devils_Brand",
        "trigger": "combat_start",
        "level_nid": null,
        "condition": "(has_skill(unit, 'Devils_Brand_Child') and unit.affinity == 'Fire') or (has_skill(unit2, 'Devils_Brand_Child') and unit2.affinity == 'Fire')",
        "commands": [],
        "only_once": false,
        "priority": 20,
        "_source": [
            "if;any([s.nid == 'Devils_Brand_Child' for s in unit.skills])",
            "    if;any([s.nid == 'Burning' for s in unit2.skills])",
            "        give_skill;{unit2};Devil's Reversal (Devils_Reversal_Burning);FLAG(no_banner)",
            "    else;",
            "        give_skill;{unit2};Devil's Reversal (Devils_Reversal_Temp);FLAG(no_banner)",
            "    end",
            "end",
            "",
            "if;any([s.nid == 'Devils_Brand_Child' for s in unit2.skills])",
            "    if;any([s.nid == 'Burning' for s in unit.skills])",
            "        give_skill;{unit};Devil's Reversal (Devils_Reversal_Burning);FLAG(no_banner)",
            "    else;",
            "        give_skill;{unit};Devil's Reversal (Devils_Reversal_Temp);FLAG(no_banner)",
            "    end",
            "end"
        ]
    }
]