[
    {
        "name": "Summon_Unit",
        "trigger": null,
        "level_nid": null,
        "condition": "True",
        "commands": [],
        "only_once": false,
        "priority": 20,
        "_source": [
            "level_var;pool;[u for u in {v:Full_Gacha_Pool} if u not in RECORDS.get('Available_Units') and u not in [x.nid for x in game.get_all_units_in_party()]]",
            "if;len({v:pool}) > 0",
            "    level_var;new_unit;game.get_random_choice({v:pool})",
            "    load_unit;{v:new_unit};player",
            "    if;'{v:new_unit}' == 'Tamer'",
            "        set_name;Tamer (Tamer);{e:game.get_random_choice(['Mike','Stephen','Edward','Calvin','Hobbes','Titus','Luke','Zack','Marth','Gil'])}",
            "    elif;'{v:new_unit}' == 'Gemini_F'",
            "        load_unit;Gemini (Gemini_M);player",
            "        change_party;Gemini (Gemini_M);Flex (Flex)",
            "    end",
            "    table;portrait;u('{v:new_unit}').portrait_nid;;Alignment=top;EntryType=type_portrait;FLAG(expression)",
            "    speak;;{e:game.get_unit('{v:new_unit}').name} has joined the party!;bottom;;;;;;menu_bg_parchment (menu_bg_parchment)",
            "    trigger_script_with_args;Global_Give_Exp (Global Global_Give_Exp);receiver,{e:game.get_unit('{v:new_unit}')},amount,{v:accumulated_exp},alert,No",
            "    trigger_script_with_args;Global_Give_WEXP (Global Global_Give_WEXP);receiver,{e:game.get_unit('{v:new_unit}')},amount,{v:accumulated_wexp},alert,No",
            "    trigger_script_with_args;Global Tonics_Apply;receiver,{e:game.get_unit('{v:new_unit}')}",
            "    remove_table;portrait",
            "else",
            "    alert;There are no memories left to construct.",
            "end"
        ]
    }
]