[
    {
        "name": "Talk_Healer",
        "trigger": null,
        "level_nid": null,
        "condition": "True",
        "commands": [],
        "only_once": false,
        "priority": 20,
        "_source": [
            "if;RECORDS.get('Revival_Magic') and any([u for u in game.get_all_units_in_party() if is_dead(u.nid) and 'Banished' not in u.tags])",
            "    choice;which_heal;Receive healing?;Healing,Revival;FLAG(backable)",
            "    if;'{v:which_heal}' == 'Healing'",
            "        level_var;heal_amt;0.25",
            "        for;FAITH;[unitx.nid for unitx in game.get_units_in_party() if has_skill(unitx, 'Faith')]",
            "            level_var;heal_amt;max(v('heal_amt'), 0.25 + 0.05 * len([skill.nid for skill in u('{FAITH}').skills if skill.nid == 'Faith']))",
            "        endf",
            "        for;player_unit;[u for u in (game.get_units_in_party('Player') + game.get_units_in_party('Flex'))]",
            "            set_current_hp;{player_unit};{e:u('{player_unit}').get_hp() + int(u('{player_unit}').get_max_hp() * v('heal_amt'))}",
            "        endf",
            "        alert;All units healed!",
            "        remove_unit;{unit2}",
            "    elif;'{v:which_heal}' == 'Revival'",
            "        choice;revival;Who to revive?;[u.nid + '|' + u.name for u in game.get_all_units_in_party() if is_dead(u.nid) and 'Banished' not in u.tags];;;;;;;7,1;FLAG(expression);FLAG(backable);FLAG(scroll_bar)",
            "        if;'{v:revival}' != 'BACK'",
            "            trigger_script_with_args;Global Global Revive;to_revive,{v:revival}",
            "            remove_unit;{unit2}",
            "        end",
            "    end",
            "else",
            "    level_var;heal_amt;0.25",
            "    for;FAITH;[unitx.nid for unitx in game.get_units_in_party() if has_skill(unitx, 'Faith')]",
            "        level_var;heal_amt;max(v('heal_amt'), 0.25 + 0.05 * len([skill.nid for skill in u('{FAITH}').skills if skill.nid == 'Faith']))",
            "    endf",
            "    choice;healing;Heals all units ({e:int(v('heal_amt') * 100)}%)?;Yes,No;FLAG(backable)",
            "    if;'{v:healing}' == 'Yes'",
            "        for;player_unit;[u for u in (game.get_units_in_party('Player') + game.get_units_in_party('Flex'))]",
            "            set_current_hp;{player_unit};{e:u('{player_unit}').get_hp() + int(u('{player_unit}').get_max_hp() * v('heal_amt'))}",
            "            if;has_skill(v('player_unit'), 'NecromanticArtes_Recharging')",
            "                remove_skill;{player_unit};NecromanticArtes_Recharging;FLAG(no_banner)",
            "            end",
            "        endf",
            "        alert;All units healed!",
            "        remove_unit;{unit2}",
            "    else",
            "        add_talk;{v:main_unit};{unit2}",
            "    end",
            "end"
        ]
    }
]