[
    {
        "name": "Ability_Soul_Sap",
        "trigger": null,
        "level_nid": null,
        "condition": "True",
        "commands": [],
        "only_once": false,
        "priority": 20,
        "_source": [
            "if;unit.get_hp() == 1",
            "    kill_unit;{unit}",
            "    if;game.game_vars.get('game_over' , 0) == 1",
            "        trigger_script;Global_Loss (Global Global_Loss)",
            "    end",
            "else",
            "    set_current_hp;{unit};{e:unit.get_hp() - 1}",
            "end"
        ]
    }
]