[
    {
        "name": "Ability_SpurSummon_LevelStart",
        "trigger": "level_start",
        "level_nid": null,
        "condition": "True",
        "commands": [],
        "only_once": false,
        "priority": 10,
        "_source": [
            "for;BRONOSER;[u.nid for u in game.get_all_units_in_party() if has_skill(u, 'Spur_Summon')];FLAG(no_warn)",
            "give_skill;{BRONOSER};Spur Summon (Spur_Summon_True);FLAG(no_banner)",
            "endf"
        ]
    }
]