[
    {
        "name": "Ability_Faithful_LossGreen",
        "trigger": "unit_death",
        "level_nid": null,
        "condition": "unit.team == 'other'",
        "commands": [],
        "only_once": false,
        "priority": 20,
        "_source": [
            "for;FAITH;[unitx.nid for unitx in game.get_units_in_party() if has_skill(unitx, 'Faith')]",
            "remove_skill;{FAITH};Faith (Faith);FLAG(no_banner)",
            "endf"
        ]
    }
]