[
    {
        "name": "Ability_DarkBond",
        "trigger": "unit_death",
        "level_nid": null,
        "condition": "has_skill(unit,'DarkBond')",
        "commands": [],
        "only_once": false,
        "priority": 20,
        "_source": [
            "give_item;convoy;Proof of Covenant (ProofOfCovenant)",
            "remove_skill;{unit};Dark Bond (DarkBond)"
        ]
    }
]