[
    {
        "name": "Ability_Gemini_Swap",
        "trigger": null,
        "level_nid": null,
        "condition": "True",
        "commands": [],
        "only_once": false,
        "priority": 20,
        "_source": [
            "if;unit.nid == 'Gemini_F'",
            "add_unit;Gemini_M;{unit1};swoosh;stack",
            "remove_unit;{unit};immediate",
            "change_party;Gemini (Gemini_F);Flex (Flex)",
            "change_party;Gemini (Gemini_M);Player's Group (Player)",
            "elif;unit.nid == 'Gemini_M'",
            "add_unit;Gemini_F;{unit1};swoosh;stack",
            "remove_unit;{unit};immediate",
            "change_party;Gemini (Gemini_M);Flex (Flex)",
            "change_party;Gemini (Gemini_F);Player's Group (Player)",
            "end"
        ]
    }
]