[
    {
        "name": "Global_Give_WEXP",
        "trigger": null,
        "level_nid": null,
        "condition": "True",
        "commands": [],
        "only_once": false,
        "priority": 20,
        "_source": [
            "level_var;total_wexp;int({e:amount})",
            "#If we're in fast game mode, increase by 1",
            "if;RECORDS.get('Game_Speed') == 2",
            "    inc_game_var;wexp_tracker;{v:total_wexp}",
            "    if;v('wexp_tracker') >= 3",
            "        level_var;total_wexp;int({v:total_wexp} + 1)",
            "        game_var;wexp_tracker;{v:wexp_tracker} - 3",
            "    end",
            "end",
            "if;'{e:receiver}' != 'all'",
            "    if;has_skill(u('{e:receiver}'), 'Discipline')",
            "        level_var;wexp_allocate;int({v:total_wexp} * 1.5)",
            "    else",
            "        level_var;wexp_allocate;{v:total_wexp}",
            "    end",
            "    for;wep_type;[w for w in u('{e:receiver}').wexp]",
            "        if;u('{e:receiver}').wexp.get('{wep_type}') > 0",
            "            give_wexp;{e:receiver};{wep_type};{v:wexp_allocate};FLAG(no_banner)",
            "            if;'{e:receiver}' == 'Gemini_F'",
            "                give_wexp;Gemini_M;{wep_type};{v:wexp_allocate};FLAG(no_banner)",
            "            elif;'{e:receiver}' == 'Gemini_M'",
            "                give_wexp;Gemini_F;{wep_type};{v:wexp_allocate};FLAG(no_banner)",
            "            end",
            "        end",
            "    endf",
            "else",
            "    level_var;combined_parties;[u.nid for u in game.get_all_units_in_party('Player')] + [u.nid for u in game.get_units_in_party('Flex')]",
            "    for;party_unit;[u for u in {v:combined_parties}]",
            "        if;has_skill(u('{party_unit}'), 'Discipline')",
            "            level_var;wexp_allocate;int({v:total_wexp} * 1.5)",
            "        else",
            "            level_var;wexp_allocate;{v:total_wexp}",
            "        end",
            "        for;wep_type;[w for w in u('{party_unit}').wexp]",
            "            if;u('{party_unit}').wexp.get('{wep_type}') > 0",
            "                give_wexp;{party_unit};{wep_type};{v:wexp_allocate};FLAG(no_banner)",
            "            end",
            "        endf",
            "    endf",
            "    inc_game_var;accumulated_wexp;{v:total_wexp}",
            "end",
            "if;'{e:alert}' == 'Yes'",
            "    if;'{e:receiver}' != 'all'",
            "        alert;{e:(u('{e:receiver}').name} gains {v:total_wexp} WEXP!",
            "    else",
            "        alert;All allies gain {v:total_wexp} WEXP!",
            "    end",
            "end",
            ""
        ]
    }
]