[
    {
        "name": "Ability_Insomniac_End",
        "trigger": "combat_end",
        "level_nid": null,
        "condition": "unit2 and has_skill(unit, 'Insomniac') and get_skill(unit, 'Insomniac').data['charge'] > 0",
        "commands": [],
        "only_once": false,
        "priority": 20,
        "_source": [
            "if;unit2.klass != 'Nightmare' and unit2.nid != unit.nid",
            "    lvar;insomniac_hp_end;unit2.get_hp()",
            "    lvar;insomniac_hp;abs({v:insomniac_hp_start} - {v:insomniac_hp_end})",
            "    if;v('insomniac_hp') > 0",
            "        set_skill_data;{unit};Insomniac;charge;max(get_skill(unit,'Insomniac').data['charge'] - 1, 0)",
            "        if;unit.nid == 'Autumn' and RECORDS.get('Autumn_3')",
            "            make_generic;;Nightmare;1;enemy2;Pursue;Phantom (Phantom);;Dream_Eater",
            "        else",
            "            make_generic;;Nightmare;1;enemy;Pursue;Phantom (Phantom);;Dream_Eater",
            "        end",
            "        autolevel_to;{created_unit};{e:unit.level};fixed",
            "        give_skill;{created_unit};No Trade (No_Trade);FLAG(no_banner)",
            "        add_tag;{created_unit};Temporary",
            "        for;summon_item;[i.uid for i in u('{created_unit}').items]",
            "            add_item_component;{created_unit};{summon_item};locked;FLAG(no_warn)",
            "        endf",
            "        set_stats;{created_unit};HP,{e:v('insomniac_hp')},STR,{e:v('insomniac_hp')},MAG,{e:v('insomniac_hp')},SKL,{e:v('insomniac_hp')},SPD,{e:v('insomniac_hp')},LCK,{e:v('insomniac_hp')},DEF,{e:v('insomniac_hp')},RES,{e:v('insomniac_hp')};FLAG(immediate)",
            "        lvar;all_auras;[s.nid for s in DB.skills if s.components.get('aura') and s.components.get('copysafe')]",
            "        lvar;selected_aura;game.get_random_choice({v:all_auras})",
            "        give_skill;{created_unit};{v:selected_aura};no_banner",
            "        if;get_skill(u('{created_unit}'), '{v:selected_aura}').copysafe",
            "            for;skills;[s for s in get_skill(u('{created_unit}'),'{v:selected_aura}').copysafe.value]",
            "                give_skill;{created_unit};{skills};FLAG(no_banner)",
            "            endf",
            "        end",
            "        change_portrait;{created_unit};Nightmare",
            "        add_unit;{created_unit};{unit};fade;closest",
            "    end",
            "end"
        ]
    }
]