[
    {
        "name": "Ability_Load",
        "trigger": null,
        "level_nid": null,
        "condition": "True",
        "commands": [],
        "only_once": false,
        "priority": 20,
        "_source": [
            "separate;{unit}",
            "remove_skill;{unit};Rescue (Rescue);FLAG(no_banner)",
            "inc_game_var;priestesses;1"
        ]
    }
]