[
    {
        "name": "Ability_Phoenix Death",
        "trigger": "unit_death",
        "level_nid": null,
        "condition": "has_skill(unit,'Cycle_of_the_Phoenix') and get_skill(unit, 'Cycle_of_the_Phoenix').data['charge'] > 0",
        "commands": [],
        "only_once": false,
        "priority": 20,
        "_source": [
            "set_skill_data;{unit};Cycle_of_the_Phoenix;charge;0",
            "if;{v:PhoenixExplosion} == 1",
            "else",
            "    level_var;PhoenixExplosion;1",
            "    give_skill;{unit};DivineRod_DontHurtAllies;;FLAG(no_banner)",
            "    interact_unit;{unit};{unit};hit1;Immolation (Immolation_Phoenix)",
            "    remove_skill;{unit};DivineRod_DontHurtAllies;;FLAG(no_banner)",
            "end",
            "level_var;fire_dead;[u.nid for u in game.get_all_units_in_party() if is_dead(u.nid) and 'Banished' not in u.tags and u.affinity == 'Fire' and u.nid != unit.nid]",
            "if;len({v:fire_dead}) > 0",
            "    level_var;fire_revival;game.get_random_choice({v:fire_dead})",
            "    trigger_script_with_args;Global Global Revive;to_revive,{v:fire_revival}",
            "    add_unit;{v:fire_revival};{unit};warp;closest",
            "    has_finished;{v:fire_revival}",
            "end",
            "level_var;PhoenixExplosion;0"
        ]
    }
]