[
    {
        "name": "Item_DivineRod",
        "trigger": null,
        "level_nid": null,
        "condition": "True",
        "commands": [],
        "only_once": false,
        "priority": 20,
        "_source": [
            "give_skill;{unit};DivineRod_DontHurtAllies;;FLAG(no_banner)",
            "interact_unit;{unit};{unit2};;DivineRod_Blast",
            "remove_skill;{unit};DivineRod_DontHurtAllies;;FLAG(no_banner)",
            ""
        ]
    }
]