[
    {
        "name": "Ability_Armor_March",
        "trigger": null,
        "level_nid": null,
        "condition": "True",
        "commands": [],
        "only_once": false,
        "priority": 20,
        "_source": [
            "if;any([u for u in get_allies_within_distance(unit.position, 1) if 'Armor' in u.tags and u.nid != unit.nid])",
            "give_skill;{unit};Armor March (Armor_March_Effect);{unit};FLAG(no_banner)",
            "for;ally_armor;[u for u in get_allies_within_distance(unit.position, 1) if 'Armor' in u.tags]",
            "give_skill;{ally_armor};Armor March (Armor_March_Effect);{unit};FLAG(no_banner)",
            "endf",
            "end"
        ]
    }
]