[
    {
        "name": "Tonics_Apply",
        "trigger": null,
        "level_nid": null,
        "condition": "True",
        "commands": [],
        "only_once": false,
        "priority": 20,
        "_source": [
            "if;'{v:active_tonic}' == 'Proficiency'",
            "    for;wep_type;[w for w in u('{e:receiver}').wexp]",
            "        if;u('{e:receiver}').wexp.get('{wep_type}') > 0",
            "            give_wexp;{e:receiver};{wep_type};4;FLAG(no_banner)",
            "        end",
            "    endf",
            "elif;'{v:active_tonic}' == 'Agility'",
            "    give_skill;{e:receiver};SPD +2 (Speed_Plus_2);FLAG(no_banner)",
            "elif;'{v:active_tonic}' == 'Luck'",
            "    give_skill;{e:receiver};LCK +10 (Luck_Plus_10);FLAG(no_banner)",
            "elif;'{v:active_tonic}' == 'Thievery'",
            "    give_skill;{e:receiver};Thief_Tools;;no_banner",
            "elif;'{v:active_tonic}' == 'Vigor'",
            "    give_skill;{party_unit};Immunity;;no_banner",
            "end"
        ]
    }
]