[
    {
        "name": "Global Recharge",
        "trigger": null,
        "level_nid": null,
        "condition": "True",
        "commands": [],
        "only_once": false,
        "priority": 20,
        "_source": [
            "set_skill_data;{e:charge_tgt};{e:charge_up};charge;get_skill(charge_tgt, charge_up).data.get('charge') + int(charge_val)",
            "if;get_skill(charge_tgt,'BP').data['charge'] < 0",
            "    give_skill;{e:charge_tgt};BP (BP_Sickness);FLAG(no_banner)",
            "else",
            "    remove_skill;{e:charge_tgt};BP (BP_Sickness);FLAG(no_banner)",
            "end"
        ]
    }
]