[
    {
        "name": "Ability_BloodPortraitReset",
        "trigger": "level_end",
        "level_nid": null,
        "condition": "True",
        "commands": [],
        "only_once": false,
        "priority": 20,
        "_source": [
            "change_portrait;Griselda;GriseldaOriginal"
        ]
    }
]