[
    {
        "name": "Item_Decaying_Mist",
        "trigger": null,
        "level_nid": null,
        "condition": "True",
        "commands": [],
        "only_once": false,
        "priority": 20,
        "_source": [
            "remove_skill;Libra (Libra);Poisoned (Poisoned);99;FLAG(no_banner);FLAG(no_warn)",
            "remove_skill;Libra (Libra);Enfeebled (Enfeebled);99;FLAG(no_banner);FLAG(no_warn)",
            "remove_skill;Libra (Libra);Toxin (Toxin);99;FLAG(no_banner);FLAG(no_warn)",
            ""
        ]
    }
]