[
    {
        "name": "Ability_DismountDivebomb",
        "trigger": null,
        "level_nid": null,
        "condition": "True",
        "commands": [],
        "only_once": false,
        "priority": 20,
        "_source": [
            "#has_finished;{unit}",
            "#reset;{unit}",
            "give_skill;{unit};DismountDivebomb_Landing;;FLAG(no_banner)",
            "give_skill;{unit};Dismounted;;FLAG(no_banner)"
        ]
    }
]