[
    {
        "name": "Ability_Harmony_MagicUpdate",
        "trigger": null,
        "level_nid": null,
        "condition": "True",
        "commands": [],
        "only_once": false,
        "priority": 20,
        "_source": [
            "give_skill;{unit};Harmony_Stacks;;FLAG(no_banner)"
        ]
    }
]