[
    {
        "name": "Ability_Break_Verse_Start",
        "trigger": null,
        "level_nid": null,
        "condition": "True",
        "commands": [],
        "only_once": false,
        "priority": 20,
        "_source": [
            "lvar;curr_verse;unit.get_weapon().uid",
            ""
        ]
    }
]