[
    {
        "name": "Ability_SoulEaterAAAA",
        "trigger": "unit_death",
        "level_nid": null,
        "condition": "has_skill(unit2,'DarkBond')",
        "commands": [],
        "only_once": false,
        "priority": 20,
        "_source": [
            "#SoulEater_Child",
            "if;game.check_alive('Beau') and game.get_unit('Beau').position",
            "give_skill;Beau;SoulEater_Child",
            "end"
        ]
    }
]