[
    {
        "name": "Ability_DeathThroes",
        "trigger": null,
        "level_nid": null,
        "condition": "True",
        "commands": [],
        "only_once": false,
        "priority": 20,
        "_source": [
            "resurrect;{unit2}",
            "set_current_hp;{unit2};1",
            "add_unit;{unit2};{f:{e:unit.nid}.Death_Throes_Target};;closest",
            "remove_unit;{unit};fade",
            "change_team;{unit2};player",
            "add_tag;{unit2};Temporary",
            "set_unit_field;{unit2};Possessor;unit.nid",
            "give_skill;{unit2};Death's Door (Deaths_Door);FLAG(no_banner)"
        ]
    }
]