[
    {
        "name": "Item_Arms_Scroll",
        "trigger": null,
        "level_nid": null,
        "condition": "True",
        "commands": [],
        "only_once": false,
        "priority": 20,
        "_source": [
            "for;wep_type;[w for w in unit.wexp]",
            "    if;unit.wexp.get('{wep_type}') > 0",
            "        give_wexp;{unit};{wep_type};6",
            "    end",
            "endf"
        ]
    }
]