[
    {
        "name": "Support_Fight",
        "trigger": null,
        "level_nid": null,
        "condition": "True",
        "commands": [],
        "only_once": false,
        "priority": 20,
        "_source": [
            "change_party;Yasukage (Yasukage);Player's Group (Player)",
            "if;game.game_vars.get('in_combat', 0) == 1",
            "add_unit;Yasukage;{e:game.get_player_units()[0].position};swoosh;closest",
            "add_tag;Yasukage (Yasukage);Deployed",
            "else",
            "table;portrait;u('Yasukage').portrait_nid;;Alignment=top;EntryType=type_portrait;FLAG(expression)",
            "speak;;Yasukage has joined the party!;bottom;;;;;;menu_bg_parchment (menu_bg_parchment)",
            "remove_table;portrait",
            "end",
            "game_var;support_points;0"
        ]
    }
]