[
    {
        "name": "Ability_ThanatosBoon",
        "trigger": "unit_death",
        "level_nid": null,
        "condition": "has_skill(unit,'ThanatosBoon')",
        "commands": [],
        "only_once": false,
        "priority": 20,
        "_source": [
            "remove_skill;{unit};Thanatos's Boon (ThanatosBoon)",
            "for;deployed_units;[u.nid for u in game.get_player_units() if u.position]",
            "give_skill;{deployed_units};Thanatos's Gift (ThanatosBoon_Child);FLAG(no_banner)",
            "endf"
        ]
    }
]