[
    {
        "name": "Talk_Trainer",
        "trigger": null,
        "level_nid": null,
        "condition": "True",
        "commands": [],
        "only_once": false,
        "priority": 20,
        "_source": [
            "textbox;gold;\"Gold: \" + str(game.get_money());top_left;100;FLAG(expression)",
            "choice;level_buy;Buy 50 EXP and 1 WEXP for 100 gold?;Yes,No;FLAG(backable)",
            "if;'{v:level_buy}' == 'Yes' and game.get_money() >= 100",
            "trigger_script_with_args;Global_Give_Exp (Global Global_Give_Exp);amount,50,receiver,all,alert,Yes",
            "trigger_script_with_args;Global_Give_WEXP (Global Global_Give_WEXP);amount,1,receiver,all,alert,Yes",
            "remove_unit;{unit2}",
            "give_money;-100;FLAG(no_banner)",
            "elif;'{v:level_buy}' == 'Yes' and game.get_money() < 100",
            "alert;Not enough money!",
            "add_talk;{v:main_unit};{unit2}",
            "else",
            "add_talk;{v:main_unit};{unit2}",
            "end",
            "remove_table;gold"
        ]
    }
]