[
    {
        "name": "Ability_Capture_Piece",
        "trigger": "combat_end",
        "level_nid": null,
        "condition": "(any([s.nid == 'Capture_Piece' for s in unit.skills]) or any([s.nid == 'ChessmanStep_Child' for s in unit.skills])) and unit2.is_dying",
        "commands": [],
        "only_once": false,
        "priority": 20,
        "_source": [
            "move_unit;{unit};{v:capture_piece_loc};swoosh;closest",
            "if;has_skill(unit,'Chessmaster_Child') or has_skill(unit,'Chessmaster')",
            "give_skill;{unit};Chessmaster_Proc;FLAG(no_banner)",
            "end"
        ]
    }
]