[
    {
        "name": "Doors",
        "trigger": "Door",
        "level_nid": "Hallway",
        "condition": "True",
        "commands": [],
        "only_once": false,
        "priority": 20,
        "_source": [
            "if;region.nid == 'Door_1'",
            "    speak;;There is an inscription on the door...|\"Present the Herdsman's key.\";center;NumLines=3;DialogBox=menu_bg_parchment (menu_bg_parchment)",
            "    if;RECORDS.get('forename')",
            "        alert;Used Bo\u00f6tes's key!;;;bootes_key",
            "        remove_region;Door_1",
            "        hide_layer;door1",
            "    else",
            "        speak;;You do not possess the needed key.|It would seem that you cannot proceed any further at this time...;center;NumLines=3;DialogBox=menu_bg_parchment (menu_bg_parchment)",
            "        trigger_script;Menu_Abandon",
            "    end",
            "elif;region.nid == 'Door_2'",
            "    speak;;There is an inscription on the door...|\"Present the Hunting Hound's key.\";center;NumLines=3;DialogBox=menu_bg_parchment (menu_bg_parchment)",
            "    if;RECORDS.get('original_name')",
            "        alert;Used Canes's key!;;;canes_key",
            "        remove_region;Door_2",
            "        hide_layer;door2",
            "    else",
            "        speak;;You do not possess the needed key.|It would seem that you cannot proceed any further at this time...;center;NumLines=3;DialogBox=menu_bg_parchment (menu_bg_parchment)",
            "        trigger_script;Menu_Abandon",
            "    end",
            "elif;region.nid == 'Door_3'",
            "    speak;;There is an inscription on the door...|\"Present the Priestess's key.\";center;NumLines=3;DialogBox=menu_bg_parchment (menu_bg_parchment)",
            "    if;RECORDS.get('loreia_defeated')",
            "        alert;Used Loreia's key!;;;loreia_key",
            "        remove_region;Door_3",
            "        hide_layer;door3",
            "    else",
            "        speak;;You do not possess the needed key.|It would seem that you cannot proceed any further at this time...;center;NumLines=3;DialogBox=menu_bg_parchment (menu_bg_parchment)",
            "        trigger_script;Menu_Abandon",
            "    end",
            "elif;region.nid == 'Door_4'",
            "    speak;;There is an inscription on the door...|\"Present the key of the Lovers.\";center;NumLines=3;DialogBox=menu_bg_parchment (menu_bg_parchment)",
            "    if;RECORDS.get('fog_gate_opening')",
            "        alert;Used Fabiens's and Chantal's key!;;;fabien_key",
            "        remove_region;Door_4",
            "        hide_layer;door4",
            "    else",
            "        speak;;You do not possess the needed key.|It would seem that you cannot proceed any further at this time...;center;NumLines=3;DialogBox=menu_bg_parchment (menu_bg_parchment)",
            "        trigger_script;Menu_Abandon",
            "    end",
            "elif;region.nid == 'Door_5'",
            "    speak;;There is an inscription on the door...|\"Present the key of another world.\";center;NumLines=3;DialogBox=menu_bg_parchment (menu_bg_parchment)",
            "    if;RECORDS.get('sydney_assimilation')",
            "        alert;Used Ouranos's key!;;;ouranos_key",
            "        remove_region;Door_5",
            "        hide_layer;door5",
            "    else",
            "        speak;;You do not possess the needed key.|It would seem that you cannot proceed any further at this time...;center;NumLines=3;DialogBox=menu_bg_parchment (menu_bg_parchment)",
            "        trigger_script;Menu_Abandon",
            "    end",
            "elif;region.nid == 'Door_6'",
            "    speak;;There is an inscription on the door...|\"Present the Dragonslayer's key.\";center;NumLines=3;DialogBox=menu_bg_parchment (menu_bg_parchment)",
            "    if;RECORDS.get('trinity_boss')",
            "        alert;Used Trinity's key!;;;trinity_key",
            "        remove_region;Door_6",
            "        hide_layer;door6",
            "    else",
            "        speak;;You do not possess the needed key.|It would seem that you cannot proceed any further at this time...;center;NumLines=3;DialogBox=menu_bg_parchment (menu_bg_parchment)",
            "        trigger_script;Menu_Abandon",
            "    end",
            "end"
        ]
    }
]