[
    {
        "name": "Intro",
        "trigger": "level_start",
        "level_nid": "Hallway",
        "condition": "True",
        "commands": [],
        "only_once": false,
        "priority": 20,
        "_source": [
            "change_background;BlackBackground",
            "transition",
            "center_cursor;L. T. (Player);FLAG(immediate)",
            "transition",
            "if;'Player' not in [u.nid for u in game.get_units_in_party('Player')]",
            "    change_party;L. T. (Player);Player's Group (Player);FLAG(no_warn)",
            "    trigger_script_with_args;Global_Give_Exp (Global Global_Give_Exp);receiver,{e:game.get_unit('Player')},amount,{v:accumulated_exp},alert,No",
            "    trigger_script_with_args;Global_Give_WEXP (Global Global_Give_WEXP);receiver,{e:game.get_unit('Player')},amount,{v:accumulated_wexp},alert,No",
            "    set_current_hp;Player;99",
            "end",
            "trigger_script;Get_Next_Chapter (Global Get_Next_Chapter)",
            "show_layer;door1",
            "show_layer;door2",
            "show_layer;door3",
            "show_layer;door4",
            "show_layer;door5",
            "show_layer;door6"
        ]
    }
]