[
    {
        "name": "Reinforcements_2_Reached",
        "trigger": "Reinforce_2",
        "level_nid": "Ilona",
        "condition": "True",
        "commands": [],
        "only_once": false,
        "priority": 20,
        "_source": [
            "level_var;rein2;1",
            "center_cursor;{unit};FLAG(immediate)",
            "flicker_cursor;{unit}",
            "remove_unit;{unit}"
        ]
    }
]