[
    {
        "name": "Intro",
        "trigger": "level_start",
        "level_nid": "Loreia",
        "condition": "True",
        "commands": [],
        "only_once": false,
        "priority": 20,
        "_source": [
            "trigger_script;Get_Next_Chapter (Global Get_Next_Chapter)",
            "trigger_script;Boss_Level (Global Boss_Level)",
            "level_var;reins_1;1",
            "level_var;reins_2;1",
            "level_var;reins_3;1",
            "level_var;reins_4;1",
            "change_background;BlackBackground",
            "transition",
            "resurrect;Adrius (Adrius_T);FLAG(no_warn)",
            "set_current_hp;Adrius (Adrius_T);99",
            "add_unit;Adrius (Adrius_T);15,21;immediate",
            "change_team;Adrius (Adrius_T);player",
            "change_background",
            "level_var;xtra_priestesses;4 - int({v:priestesses})",
            "if;{v:xtra_priestesses} >= 1",
            "    add_unit;Lux Coalition (Priestess_3);4,18",
            "end",
            "if;{v:xtra_priestesses} >= 2",
            "    add_unit;Lux Coalition (Priestess_4);12,18",
            "end",
            "if;{v:xtra_priestesses} >= 3",
            "    add_unit;Lux Coalition (Priestess_5);5,3",
            "end",
            "if;{v:xtra_priestesses} >= 4",
            "    add_unit;Lux Coalition (Priestess_6);11,3",
            "end",
            "if;RECORDS.get('Act_2_Power_level') > 0",
            "    give_skill;Loreia_B;HP_Double;no_banner",
            "    set_current_hp;Loreia_B;999",
            "    give_skill;Loreia_B;Priestess_Protection;no_banner",
            "    add_group;hm_1;hm_1;immediate;closest",
            "end",
            "arrange_formation",
            "transition",
            "center_cursor;Loreia (Loreia_B);FLAG(immediate)",
            "flicker_cursor;Loreia (Loreia_B)",
            "multi_add_portrait;Loreia;Left;SoldierRed;Right",
            "speak;SoldierRed;Lady Loreia, a path has been secured.|We should evacuate while we still can.",
            "speak;Loreia;It's too late for that.|Look.|They're already here.|Besides, everyone that's still here has decided.|We're going to stay and fight.",
            "speak;SoldierRed;Milady, you can't be serious!|This is suicide!",
            "speak;Loreia;If we give up, we're as good as dead anyway.|So we won't run anymore.|Even if it's hopeless, we must make a stand.",
            "multi_remove_portrait;Loreia;SoldierRed",
            "prep;t;;Check Seals;true;Menu_Seal_Check",
            "if;any([len(u.items) == 0 for u in game.get_player_units()])",
            "    choice;naked_deploy;One or more allies have no items. Deploy?;No,Yes",
            "    if;'{v:naked_deploy}' == 'No'",
            "        prep;t",
            "    end",
            "end",
            "center_cursor;Adrius (Adrius_T)",
            "flicker_cursor;Adrius (Adrius_T)",
            "add_portrait;Adrius_Old;Right",
            "speak;Adrius_Old;The gates behind us have been closed.|Capturing the remaining Priestesses would be too much of a hassle.|Eliminate any who stand in our path!",
            "remove_portrait;Adrius_Old",
            "trigger_script;Global Music_Battle_Start"
        ]
    }
]