[
    {
        "name": "Loss_Condition",
        "trigger": "combat_end",
        "level_nid": "Lupus",
        "condition": "is_dead('Loreia_T')",
        "commands": [],
        "only_once": false,
        "priority": 20,
        "_source": [
            "add_portrait;Loreia;FarRight",
            "speak;Loreia;Ah, no...{w}help...me...{w}Ta...",
            "expression;Loreia;CloseEyes",
            "remove_portrait;Loreia",
            "trigger_script;Global_Loss (Global Global_Loss)"
        ]
    }
]