[
    {
        "name": "Spawn_Clone",
        "trigger": "turn_change",
        "level_nid": "Nikume",
        "condition": "game.turncount > 1",
        "commands": [],
        "only_once": false,
        "priority": 20,
        "_source": [
            "lvar;spawn_point;game.get_random_choice({v:clone_spots})",
            "#If we still have clones available and Kaku is alive",
            "if;v('nikume_counter') < 10 and not is_dead('Kaku_E')",
            "    #The real one is on the map    ",
            "    if;u('Nikume_E').position",
            "        add_unit;{e:'Nikume_' + '{v:nikume_counter}'};{e:game.get_region('{v:spawn_point}').position};;closest",
            "        inc_level_var;nikume_counter;1",
            "    else",
            "        lvar;real_chance;game.get_random(1, 100)",
            "        if;{v:real_chance} <= 33",
            "            add_unit;Nikume_E;{e:game.get_region('{v:spawn_point}').position};;closest",
            "        else",
            "            add_unit;{e:'Nikume_' + '{v:nikume_counter}'};{e:game.get_region('{v:spawn_point}').position};;closest",
            "            inc_level_var;nikume_counter;1",
            "        end",
            "    end",
            "    center_cursor;{e:game.get_region('{v:spawn_point}').position};immediate",
            "    flicker_cursor;{e:game.get_region('{v:spawn_point}').position}",
            "end",
            "#If Kaku is dead and the real Nikume isn't on the field, add Nikume",
            "if;is_dead('Kaku_E') and not u('Nikume_E').position",
            "    add_unit;Nikume_E;{e:game.get_region('{v:spawn_point}').position};;closest",
            "    center_cursor;{e:game.get_region('{v:spawn_point}').position};immediate",
            "    flicker_cursor;{e:game.get_region('{v:spawn_point}').position}",
            "end"
        ]
    }
]