[
    {
        "name": "Intro",
        "trigger": "level_start",
        "level_nid": "Nikume",
        "condition": "True",
        "commands": [],
        "only_once": false,
        "priority": 20,
        "_source": [
            "trigger_script;Get_Next_Chapter (Global Get_Next_Chapter)",
            "show_layer;decorative",
            "if;RECORDS.get('Act_2_Power_level') > 0",
            "    give_skill;Nikume_E;HP_Double;no_banner",
            "    add_group;hm_1;hm_1;immediate;closest",
            "end",
            "level_var;kaku_counter;1",
            "level_var;nikume_counter;1",
            "level_var;flier_counter;1",
            "level_var;ground_counter;1",
            "level_var;clone_spots;[r.nid for r in game.level.regions if 'Clone_Spot' in r.nid]",
            "level_var;level_plus;3 + int({v:Game_Level})",
            "trigger_script;Clone_Creation",
            "for;enemy_unit;[u for u in game.level.units if u.team in ['enemy', 'enemy2']]",
            "    autolevel_to;{enemy_unit};{v:level_plus};fixed;FLAG(no_warn)",
            "endf",
            "arrange_formation",
            "prep;t",
            "if;any([len(u.items) == 0 for u in game.get_player_units()])",
            "    choice;naked_deploy;One or more allies have no items. Deploy?;No,Yes",
            "    if;'{v:naked_deploy}' == 'No'",
            "        prep;t",
            "    end",
            "end",
            "uu;Nikume;Left;Player;Right",
            "speak;Nikume;The people of Tawanai will serve you no longer.|You promised progress, yet as the years pass nothing changes.|Perhaps the Herdsman was your better by far.|You are just a failure, and must be disposed of.",
            "rr;Nikume;Player",
            "trigger_script;Global Music_Battle_Start"
        ]
    }
]