[
    {
        "name": "Win_Condition",
        "trigger": "combat_end",
        "level_nid": "Nikume",
        "condition": "is_dead('Nikume_E')",
        "commands": [],
        "only_once": false,
        "priority": 20,
        "_source": [
            "win_game"
        ]
    }
]