[
    {
        "name": "Ouranos_Leap",
        "trigger": "turn_change",
        "level_nid": "Ouranos",
        "condition": "True",
        "commands": [],
        "only_once": false,
        "priority": 20,
        "_source": [
            "if;(game.turncount == 1 or game.turncount % 4 == 0) and not game.turncount == 20",
            "    center_cursor;Ouranos (Ouranos_T);FLAG(immediate)",
            "    flicker_cursor;Ouranos (Ouranos_T)",
            "    remove_unit;Ouranos (Ouranos_T);swoosh",
            "    wait;200",
            "    level_var;shot_pos_1;game.get_random_choice([u.position for u in game.get_player_units()])",
            "    map_anim;Target_2x2;{e:{v:shot_pos_1}};FLAG(permanent)",
            "    if;(game.turncount >= 4 and game.turncount < 12) or RECORDS.get('Act_3_Power_level') > 0",
            "        level_var;shot_pos_2;game.get_random_choice([u.position for u in game.get_player_units() if u.position != {v:shot_pos_1}])",
            "        map_anim;Target_2x2;{e:{v:shot_pos_2}};FLAG(permanent)",
            "    end",
            "    if;game.turncount >= 12 or RECORDS.get('Act_3_Power_level') > 0",
            "        level_var;shot_pos_3;game.get_random_choice([u.position for u in game.get_player_units() if u.position not in [{v:shot_pos_1}, {v:shot_pos_2}]])",
            "        map_anim;Target_2x2;{e:{v:shot_pos_3}};FLAG(permanent)",
            "    end",
            "    level_var;ouranos_phase;1",
            "end",
            "if;game.turncount == 19",
            "    center_cursor;Ouranos (Ouranos_T);FLAG(immediate)",
            "    flicker_cursor;Ouranos (Ouranos_T)",
            "    wait;200",
            "    add_portrait;Ouranos (Ouranos_T);Right",
            "    speak;Ouranos;DOOMSDAY DEVICE, CHARGING... 95% COMPLETE.",
            "    remove_portrait;Ouranos (Ouranos_T)",
            "end",
            "if;game.turncount == 20",
            "    center_cursor;Ouranos (Ouranos_T);FLAG(immediate)",
            "    flicker_cursor;Ouranos (Ouranos_T)",
            "    remove_unit;Ouranos (Ouranos_T);swoosh",
            "    wait;200",
            "    add_portrait;Ouranos (Ouranos_T);Right",
            "    speak;Ouranos;DOOMSDAY DEVICE, CHARGING COMPLETE.|STARTING ANNIHILATION PROCEDURE.",
            "    remove_portrait;Ouranos (Ouranos_T)",
            "    level_var;ouranos_phase;3",
            "end"
        ]
    }
]