[
    {
        "name": "Escape",
        "trigger": "Escape",
        "level_nid": "Rebellion",
        "condition": "True",
        "commands": [],
        "only_once": false,
        "priority": 20,
        "_source": [
            "remove_unit;{unit}"
        ]
    }
]