[
    {
        "name": "Wagon_Death",
        "trigger": "unit_death",
        "level_nid": "Rebellion",
        "condition": "unit.nid == 'Wagon'",
        "commands": [],
        "only_once": false,
        "priority": 20,
        "_source": [
            "game_var;priestesses;0",
            "add_portrait;Adrius_Old;Right",
            "speak;Adrius_Old;Blast, the wagon's been destroyed!|We won't be able to capture any of the priestesses now!|We're in for a tough fight ahead...",
            "remove_portrait;Adrius_Old",
            "if;not u('Tycho').position",
            "level_var;spawn_anyway;1",
            "end"
        ]
    }
]