[
    {
        "name": "Tycho_Spawn",
        "trigger": "turn_change",
        "level_nid": "Rebellion",
        "condition": "True",
        "commands": [],
        "only_once": false,
        "priority": 20,
        "_source": [
            "if;(not u('Tycho').position and not any([u.position for u in game.get_enemy_units() if 'Priestess' in u.nid]) and not v('tycho_spawn') == 2) or (v('spawn_anyway') and not v('tycho_spawn') == 2)",
            "    add_unit;Tycho (Tycho);9,0;;closest",
            "    give_skill;Tycho;Overrun;no_banner",
            "    center_cursor;Tycho (Tycho);FLAG(immediate)",
            "    flicker_cursor;Tycho (Tycho)",
            "    add_portrait;Tycho;Right",
            "    speak;Tycho;Looks like all of the Priestesses have vacated the battlefield...|I won't need to hold back then.|Scale! We will fear you no longer!|Today you face Tycho, the Burning Brand of the Lux!",
            "    remove_portrait;Tycho",
            "    move_unit;Tycho (Tycho);9,4;;closest",
            "    remove_skill;Tycho;Overrun;no_banner",
            "    level_var;tycho_spawn;2",
            "    if;RECORDS.get('Act_2_Power_level') > 0",
            "        add_unit;Coalition (126);8,4;swoosh",
            "        center_cursor;Coalition (126);FLAG(immediate)",
            "        flicker_cursor;Coalition (126)",
            "        resurrect;Faenia",
            "        set_current_hp;Faenia;99",
            "        add_unit;Faenia (Faenia);8,21;;closest",
            "        center_cursor;Faenia (Faenia);FLAG(immediate)",
            "        flicker_cursor;Faenia (Faenia)",
            "        set_skill_data;Faenia;Legend (Legend);charge;1",
            "        add_unit;Coalition (127);9,21",
            "        center_cursor;Coalition (127);FLAG(immediate)",
            "        flicker_cursor;Coalition (127)",
            "    end",
            "end"
        ]
    }
]