[
    {
        "name": "Win_Condition_1",
        "trigger": "combat_end",
        "level_nid": "Tournament",
        "condition": "game.phase.get_current() != 'player'",
        "commands": [],
        "only_once": false,
        "priority": 20,
        "_source": [
            "if;not any([u for u in game.get_enemy_units() if u.nid != unit.nid])",
            "    lvar;next_round;2",
            "end"
        ]
    }
]