[
    {
        "name": "Reinforcements_2",
        "trigger": "turn_change",
        "level_nid": "Trial_F",
        "condition": "True",
        "commands": [],
        "only_once": false,
        "priority": 20,
        "_source": [
            "if;{v:rein1} >= 1",
            "    inc_level_var;rein1;1",
            "    if;{v:rein1} % 3 == 0",
            "        create_unit;Phantom (120);Position=7,27;FLAG(copy_stats)",
            "        center_cursor;7,27;FLAG(immediate)",
            "        flicker_cursor;7,27",
            "        create_unit;Phantom (121);Position=8,27;FLAG(copy_stats)",
            "        center_cursor;8,27;FLAG(immediate)",
            "        flicker_cursor;8,27",
            "    end",
            "end",
            "if;{v:rein2} >= 1",
            "    inc_level_var;rein2;1",
            "    if;{v:rein2} % 3 == 0",
            "        create_unit;Phantom (122);Position=2,19;FLAG(copy_stats)",
            "        center_cursor;2,19;FLAG(immediate)",
            "        flicker_cursor;2,19",
            "        create_unit;Phantom (123);Position=12,21;FLAG(copy_stats)",
            "        center_cursor;12,21;FLAG(immediate)",
            "        flicker_cursor;12,21",
            "    end",
            "end",
            "if;{v:rein3} >= 1",
            "    inc_level_var;rein3;1",
            "    if;{v:rein3} % 3 == 0",
            "        create_unit;Phantom (124);Position=3,14;FLAG(copy_stats)",
            "        center_cursor;3,14;FLAG(immediate)",
            "        flicker_cursor;3,14",
            "        create_unit;Phantom (125);Position=11,14;FLAG(copy_stats)",
            "        center_cursor;11,14;FLAG(immediate)",
            "        flicker_cursor;11,14",
            "    end",
            "end"
        ]
    }
]