[
    {
        "name": "Outro",
        "trigger": "level_end",
        "level_nid": "Trial_F",
        "condition": "True",
        "commands": [],
        "only_once": false,
        "priority": 20,
        "_source": [
            "game_var;in_combat;0",
            "trigger_script;Global_Rewards (Global Global_Rewards)"
        ]
    }
]