[
    {
        "name": "Intro",
        "trigger": "level_start",
        "level_nid": "Trinity",
        "condition": "True",
        "commands": [],
        "only_once": false,
        "priority": 20,
        "_source": [
            "#trigger_script;Get_Next_Chapter (Global Get_Next_Chapter)",
            "trigger_script;Boss_Level (Global Boss_Level)",
            "change_background;BlackBackground",
            "transition",
            "change_background",
            "if;RECORDS.get('Act_3_Power_level') > 0",
            "    give_skill;Trinity_B;HP_Double;no_banner",
            "    set_current_hp;Trinity_B;999",
            "    give_item;Trinity_B;Trinity_Spear;no_banner",
            "    give_item;Trinity_B;Ribbon;no_banner",
            "    remove_item;Trinity_B;Dragonspear_Plus;no_banner",
            "    add_group;hm_1;hm_1;immediate;closest",
            "end",
            "transition",
            "center_cursor;Trinity_B;FLAG(immediate)",
            "flicker_cursor;Trinity_B",
            "multi_add_portrait;Trinity;Left;Player;Right",
            "speak;Trinity;So... Grigol is dead.|I'm the only one left then...|I've trained for decades for this day, I suppose.|But will that even be enough, I wonder?|Nobody has even come close to taking you down, correct?",
            "wait;500",
            "speak;Trinity;I thought not.|But I will still do what I must.|...|Look, perhaps I already know the answer, but...|Could I convince you to stop?|You've already won.|There is no one left to stand in your way.|I understand your pain, truly!|I share it as well, you know this!|Please, just...|Even if it's just for me, would you stop this rampage?",
            "wait;500",
            "speak;Trinity;I understand.|Then you leave me with no choice.|Regardless of which one of us still stands, this will be the end.|Prepare yourself, Fell Dragon.",
            "multi_remove_portrait;Player;Trinity",
            "arrange_formation",
            "prep;t;;Check Seals;true;Menu_Seal_Check",
            "if;any([len(u.items) == 0 for u in game.get_player_units()])",
            "    choice;naked_deploy;One or more allies have no items. Deploy?;No,Yes",
            "    if;'{v:naked_deploy}' == 'No'",
            "        prep;t",
            "    end",
            "end",
            "trigger_script;Global Music_Battle_Start"
        ]
    }
]