[
    {
        "name": "1. Support_Menu_Sub",
        "trigger": null,
        "level_nid": "X",
        "condition": "True",
        "commands": [],
        "only_once": false,
        "priority": 20,
        "_source": [
            "if;not any([r.nid for r in game.get_data('Support_Features') if RECORDS.get(r.nid + '_unlocked') == 1])",
            "    alert;All functionality unlocked!",
            "    finish",
            "end",
            "if;'{v:exchange}' == '1' and RECORDS.get('Essence') >= 50",
            "    update_record;Essence;RECORDS.get('Essence') - 50",
            "    update_record;support_progress;RECORDS.get('support_progress') + 1",
            "elif;'{v:exchange}' == '2' and RECORDS.get('Flame') >= 20",
            "    update_record;Flame;RECORDS.get('Flame') - 20",
            "    update_record;support_progress;RECORDS.get('support_progress') + 1",
            "elif;'{v:exchange}' == '3' and RECORDS.get('Fragments') >= 25",
            "    update_record;Fragments;RECORDS.get('Fragments') - 25",
            "    update_record;support_progress;RECORDS.get('support_progress') + 1",
            "end",
            "if;RECORDS.get('support_progress') >= 5",
            "    update_record;support_progress;0",
            "    for;upgrade_function;[r.nid for r in game.get_data('Support_Features') if RECORDS.get(r.nid + '_unlocked') == 1]",
            "        update_record;{e:'{upgrade_function}' + '_unlocked'};2",
            "        if;'{upgrade_function}' == 'Coated_Arms'",
            "            if;RECORDS.get('skill_inheritance').update({'Coated_Arms':'None'})",
            "            end",
            "            alert;Coated Arms added to skill inheritance!;;Coated Arms (Coated_Arms)",
            "        elif;'{upgrade_function}' == 'Multishot'",
            "            if;RECORDS.get('skill_inheritance').update({'Multishot':'None'})",
            "            end",
            "            alert;Multishot added to skill inheritance!;;Multishot (Multishot)",
            "        else",
            "            alert;{e:'Unlocked ' + '{d:Support_Features.{upgrade_function}.name}' + '!'}",
            "        end",
            "        finish",
            "    endf",
            "end"
        ]
    }
]