[
    {
        "name": "21. Check Seals",
        "trigger": null,
        "level_nid": "X",
        "condition": "True",
        "commands": [],
        "only_once": false,
        "priority": 20,
        "_source": [
            "level_var;boss_choices;[]",
            "if;RECORDS.get('forename')",
            "level_var;boss_choices;{v:boss_choices} + [['Bootes', 'Bootes']]",
            "end",
            "if;RECORDS.get('original_name')",
            "level_var;boss_choices;{v:boss_choices} + [['Canes', 'Canes']]",
            "end",
            "if;RECORDS.get('fog_gate_opening')",
            "level_var;boss_choices;{v:boss_choices} + [['Fabien', 'Fabien & Chantal']]",
            "end",
            "if;RECORDS.get('loreia_defeated')",
            "level_var;boss_choices;{v:boss_choices} + [['Loreia', 'Loreia']]",
            "end",
            "if;RECORDS.get('sydney_assimilation')",
            "level_var;boss_choices;{v:boss_choices} + [['Machine', 'The Savior']]",
            "end",
            "if;RECORDS.get('trinity_boss')",
            "level_var;boss_choices;{v:boss_choices} + [['Trinity', 'Trinity']]",
            "end",
            "choice;boss_view;Check for which?;[x[0] + '|' + x[1] for x in {v:boss_choices}];Dimensions=6,1;FLAG(expression)",
            "trigger_script_with_args;Menu_Seal_Check (Global Menu_Seal_Check);boss,{v:boss_view}"
        ]
    }
]