[
    {
        "name": "3. Trace_Menu",
        "trigger": "on_talk",
        "level_nid": "X",
        "condition": "unit2.nid == 'Trace'",
        "commands": [],
        "only_once": false,
        "priority": 20,
        "_source": [
            "if;not RECORDS.get('trace_first_time')",
            "speak;;The Hero allows you to permanently upgrade the characters you have summoned.|Upgrades cost Master Seals.|You can get Master Seals for defeating bosses while using characters that have not defeated that boss before.|Upgrades will take effect once you venture into the Fog.;center;NumLines=5;DialogBox=menu_bg_parchment (menu_bg_parchment)",
            "create_record;trace_first_time;1",
            "end",
            "textbox;seals;\"Master Seals: \" + str(RECORDS.get('Master_Seals'));top_right;100;FLAG(expression)",
            "choice;Upgrade_Unit;Who to upgrade?;[u.nid + '|' + u.name for u in game.get_units_in_party()];Dimensions=8,1;Alignment=left;EventNid=3. Trace_Menu_Sub_1;FLAG(expression);FLAG(backable)",
            "remove_table;seals"
        ]
    }
]