[
    {
        "name": "9. Skill_Change",
        "trigger": null,
        "level_nid": "X",
        "condition": "True",
        "commands": [],
        "only_once": false,
        "priority": 20,
        "_source": [
            "if;'{v:add_skill}' != 'Nothing'",
            "    give_skill;{v:player};{v:add_skill};FLAG(no_banner)",
            "    if;get_skill(u('{v:player}'), '{v:add_skill}').copysafe",
            "        for;skills;[s for s in get_skill(u('{v:player}'),'{v:add_skill}').copysafe.value]",
            "            give_skill;{v:player};{skills};FLAG(no_banner)",
            "        endf",
            "    end",
            "    #Special Cases",
            "    if;'{v:add_skill}' == 'Battle_Armor'",
            "        give_skill;{v:player};Battle_Armor_Helper;FLAG(no_banner)",
            "    end",
            "end",
            "if;'{v:rm_skill}' != 'Nothing'",
            "    remove_skill;{v:player};{v:rm_skill};FLAG(no_banner)",
            "end"
        ]
    }
]