[
    {
        "name": "e. Currency_Exchange_Sub",
        "trigger": null,
        "level_nid": "X",
        "condition": "True",
        "commands": [],
        "only_once": false,
        "priority": 20,
        "_source": [
            "if;'{v:want}' == '1'",
            "    lvar;choices;['2|20 Flame','3|25 Fragments','4|1 Master Seal']",
            "elif;'{v:want}' == '2'",
            "    lvar;choices;['1|50 Essence','3|25 Fragments','4|1 Master Seal']",
            "elif;'{v:want}' == '3'",
            "    lvar;choices;['1|50 Essence','2|20 Flame','4|1 Master Seal']",
            "elif;'{v:want}' == '4'",
            "    lvar;choices;['1|150 Essence','2|60 Flame','3|75 Fragments']",
            "else",
            "    lvar;choices;['1|150 Essence','2|60 Flame','3|75 Fragments','4|1 Master Seal']",
            "end",
            "choice;exchange;Use which currency?;{v:choices};;;center;EventNid=e. Currency_Exchange_Sub_1;FLAG(expression);FLAG(persist)",
            "unchoice"
        ]
    }
]