[
    {
        "name": "f. Talk_Adrius",
        "trigger": "on_talk",
        "level_nid": "X",
        "condition": "unit2.nid == 'Adrius_False'",
        "commands": [],
        "only_once": false,
        "priority": 20,
        "_source": [
            "uu;Player;Left;Adrius_Fog;Right",
            "s;Adrius_Fog;Tweed didn't have the time to write this yet.|Go play Density 10 with Act 4 Power on, after clearing Density 9.",
            "create_record;true_end;1",
            "alert;A new difficulty modifier is available!",
            ""
        ]
    }
]