[
    {
        "nid": "23",
        "name": "Survival",
        "tilemap": "23",
        "bg_tilemap": null,
        "party": "Player",
        "music": {},
        "objective": {
            "simple": "Survive {e:game.turncount}/6 turns",
            "win": "Survive",
            "loss": "All allies defeated"
        },
        "roam": false,
        "roam_unit": null,
        "go_to_overworld": false,
        "should_record": true,
        "units": [
            {
                "nid": "101",
                "variant": null,
                "level": 1,
                "klass": "Citizen",
                "faction": "Phantom",
                "starting_items": [],
                "starting_skills": [],
                "team": "enemy",
                "ai": "Pursue",
                "roam_ai": null,
                "ai_group": null,
                "starting_position": [
                    2,
                    8
                ],
                "starting_traveler": null,
                "generic": true
            },
            {
                "nid": "103",
                "variant": null,
                "level": 1,
                "klass": "Citizen",
                "faction": "Phantom",
                "starting_items": [],
                "starting_skills": [],
                "team": "enemy",
                "ai": "Pursue",
                "roam_ai": null,
                "ai_group": null,
                "starting_position": [
                    4,
                    6
                ],
                "starting_traveler": null,
                "generic": true
            },
            {
                "nid": "104",
                "variant": null,
                "level": 1,
                "klass": "Citizen",
                "faction": "Phantom",
                "starting_items": [],
                "starting_skills": [],
                "team": "enemy",
                "ai": "Pursue",
                "roam_ai": null,
                "ai_group": null,
                "starting_position": [
                    15,
                    2
                ],
                "starting_traveler": null,
                "generic": true
            },
            {
                "nid": "106",
                "variant": null,
                "level": 1,
                "klass": "Citizen",
                "faction": "Phantom",
                "starting_items": [],
                "starting_skills": [],
                "team": "enemy",
                "ai": "Pursue",
                "roam_ai": null,
                "ai_group": null,
                "starting_position": [
                    17,
                    4
                ],
                "starting_traveler": null,
                "generic": true
            },
            {
                "nid": "107",
                "variant": null,
                "level": 1,
                "klass": "Citizen",
                "faction": "Phantom",
                "starting_items": [],
                "starting_skills": [],
                "team": "enemy",
                "ai": "Pursue",
                "roam_ai": null,
                "ai_group": null,
                "starting_position": [
                    13,
                    9
                ],
                "starting_traveler": null,
                "generic": true
            },
            {
                "nid": "108",
                "variant": null,
                "level": 1,
                "klass": "Citizen",
                "faction": "Phantom",
                "starting_items": [],
                "starting_skills": [],
                "team": "enemy",
                "ai": "Pursue",
                "roam_ai": null,
                "ai_group": null,
                "starting_position": [
                    13,
                    11
                ],
                "starting_traveler": null,
                "generic": true
            },
            {
                "nid": "109",
                "variant": null,
                "level": 1,
                "klass": "Citizen",
                "faction": "Phantom",
                "starting_items": [],
                "starting_skills": [],
                "team": "enemy",
                "ai": "Pursue",
                "roam_ai": null,
                "ai_group": null,
                "starting_position": [
                    8,
                    1
                ],
                "starting_traveler": null,
                "generic": true
            },
            {
                "nid": "111",
                "variant": null,
                "level": 1,
                "klass": "Citizen",
                "faction": "Phantom",
                "starting_items": [],
                "starting_skills": [],
                "team": "enemy",
                "ai": "Pursue",
                "roam_ai": null,
                "ai_group": null,
                "starting_position": [
                    10,
                    1
                ],
                "starting_traveler": null,
                "generic": true
            },
            {
                "nid": "112",
                "variant": null,
                "level": 1,
                "klass": "Citizen",
                "faction": "Phantom",
                "starting_items": [],
                "starting_skills": [],
                "team": "enemy",
                "ai": "Attack",
                "roam_ai": null,
                "ai_group": null,
                "starting_position": [
                    0,
                    1
                ],
                "starting_traveler": null,
                "generic": true
            },
            {
                "nid": "113",
                "variant": null,
                "level": 1,
                "klass": "Citizen",
                "faction": "Phantom",
                "starting_items": [],
                "starting_skills": [],
                "team": "enemy",
                "ai": "Attack",
                "roam_ai": null,
                "ai_group": null,
                "starting_position": [
                    1,
                    0
                ],
                "starting_traveler": null,
                "generic": true
            },
            {
                "nid": "114",
                "variant": null,
                "level": 1,
                "klass": "Citizen",
                "faction": "Phantom",
                "starting_items": [],
                "starting_skills": [],
                "team": "enemy",
                "ai": "Pursue",
                "roam_ai": null,
                "ai_group": null,
                "starting_position": null,
                "starting_traveler": null,
                "generic": true
            },
            {
                "nid": "115",
                "variant": null,
                "level": 1,
                "klass": "Citizen",
                "faction": "Phantom",
                "starting_items": [],
                "starting_skills": [],
                "team": "enemy",
                "ai": "Pursue",
                "roam_ai": null,
                "ai_group": null,
                "starting_position": null,
                "starting_traveler": null,
                "generic": true
            },
            {
                "nid": "116",
                "variant": null,
                "level": 1,
                "klass": "Citizen",
                "faction": "Phantom",
                "starting_items": [],
                "starting_skills": [],
                "team": "enemy",
                "ai": "Pursue",
                "roam_ai": null,
                "ai_group": null,
                "starting_position": null,
                "starting_traveler": null,
                "generic": true
            },
            {
                "nid": "117",
                "variant": null,
                "level": 1,
                "klass": "Citizen",
                "faction": "Phantom",
                "starting_items": [],
                "starting_skills": [],
                "team": "enemy",
                "ai": "Pursue",
                "roam_ai": null,
                "ai_group": null,
                "starting_position": null,
                "starting_traveler": null,
                "generic": true
            },
            {
                "nid": "118",
                "variant": null,
                "level": 1,
                "klass": "Citizen",
                "faction": "Phantom",
                "starting_items": [],
                "starting_skills": [],
                "team": "enemy",
                "ai": "Pursue",
                "roam_ai": null,
                "ai_group": null,
                "starting_position": null,
                "starting_traveler": null,
                "generic": true
            }
        ],
        "regions": [
            {
                "nid": "Formation_1",
                "region_type": "formation",
                "position": [
                    9,
                    9
                ],
                "size": [
                    1,
                    1
                ],
                "sub_nid": "",
                "condition": "True",
                "time_left": null,
                "only_once": false,
                "interrupt_move": false
            },
            {
                "nid": "Formation_2",
                "region_type": "formation",
                "position": [
                    11,
                    9
                ],
                "size": [
                    1,
                    1
                ],
                "sub_nid": "",
                "condition": "True",
                "time_left": null,
                "only_once": false,
                "interrupt_move": false
            },
            {
                "nid": "Formation_3",
                "region_type": "formation",
                "position": [
                    8,
                    11
                ],
                "size": [
                    1,
                    1
                ],
                "sub_nid": "",
                "condition": "True",
                "time_left": null,
                "only_once": false,
                "interrupt_move": false
            },
            {
                "nid": "Formation_4",
                "region_type": "formation",
                "position": [
                    10,
                    11
                ],
                "size": [
                    1,
                    1
                ],
                "sub_nid": "",
                "condition": "True",
                "time_left": null,
                "only_once": false,
                "interrupt_move": false
            }
        ],
        "unit_groups": [
            {
                "nid": "T3",
                "units": [
                    "114",
                    "115",
                    "116"
                ],
                "positions": {
                    "114": [
                        8,
                        0
                    ],
                    "116": [
                        10,
                        0
                    ]
                }
            },
            {
                "nid": "T4",
                "units": [
                    "117",
                    "118"
                ],
                "positions": {
                    "117": [
                        0,
                        0
                    ],
                    "118": [
                        17,
                        0
                    ]
                }
            }
        ],
        "ai_groups": []
    }
]