[
    {
        "nid": "33",
        "name": "Survival",
        "tilemap": "33",
        "bg_tilemap": null,
        "party": "Player",
        "music": {},
        "objective": {
            "simple": "Survive {e:game.turncount}/6 turns",
            "win": "Survive",
            "loss": "All allies defeated"
        },
        "roam": false,
        "roam_unit": null,
        "go_to_overworld": false,
        "should_record": true,
        "units": [
            {
                "nid": "door_1",
                "variant": null,
                "level": 1,
                "klass": "Door20",
                "faction": "Wall",
                "starting_items": [],
                "starting_skills": [],
                "team": "enemy2",
                "ai": "None",
                "roam_ai": null,
                "ai_group": null,
                "starting_position": [
                    5,
                    5
                ],
                "starting_traveler": null,
                "generic": true
            },
            {
                "nid": "door_2",
                "variant": null,
                "level": 1,
                "klass": "Door20",
                "faction": "Wall",
                "starting_items": [],
                "starting_skills": [],
                "team": "enemy2",
                "ai": "None",
                "roam_ai": null,
                "ai_group": null,
                "starting_position": [
                    6,
                    5
                ],
                "starting_traveler": null,
                "generic": true
            },
            {
                "nid": "door_3",
                "variant": null,
                "level": 1,
                "klass": "Door20",
                "faction": "Wall",
                "starting_items": [],
                "starting_skills": [],
                "team": "enemy2",
                "ai": "None",
                "roam_ai": null,
                "ai_group": null,
                "starting_position": [
                    7,
                    10
                ],
                "starting_traveler": null,
                "generic": true
            },
            {
                "nid": "door_4",
                "variant": null,
                "level": 1,
                "klass": "Door20",
                "faction": "Wall",
                "starting_items": [],
                "starting_skills": [],
                "team": "enemy2",
                "ai": "None",
                "roam_ai": null,
                "ai_group": null,
                "starting_position": [
                    8,
                    10
                ],
                "starting_traveler": null,
                "generic": true
            },
            {
                "nid": "door_5",
                "variant": null,
                "level": 1,
                "klass": "Door20",
                "faction": "Wall",
                "starting_items": [],
                "starting_skills": [],
                "team": "enemy2",
                "ai": "None",
                "roam_ai": null,
                "ai_group": null,
                "starting_position": [
                    9,
                    5
                ],
                "starting_traveler": null,
                "generic": true
            },
            {
                "nid": "door_6",
                "variant": null,
                "level": 1,
                "klass": "Door20",
                "faction": "Wall",
                "starting_items": [],
                "starting_skills": [],
                "team": "enemy2",
                "ai": "None",
                "roam_ai": null,
                "ai_group": null,
                "starting_position": [
                    10,
                    5
                ],
                "starting_traveler": null,
                "generic": true
            },
            {
                "nid": "101",
                "variant": null,
                "level": 1,
                "klass": "Citizen",
                "faction": "Phantom",
                "starting_items": [],
                "starting_skills": [],
                "team": "enemy",
                "ai": "Pursue",
                "roam_ai": null,
                "ai_group": null,
                "starting_position": [
                    9,
                    0
                ],
                "starting_traveler": null,
                "generic": true
            },
            {
                "nid": "102",
                "variant": null,
                "level": 1,
                "klass": "Citizen",
                "faction": "Phantom",
                "starting_items": [],
                "starting_skills": [],
                "team": "enemy",
                "ai": "Pursue",
                "roam_ai": null,
                "ai_group": null,
                "starting_position": [
                    14,
                    2
                ],
                "starting_traveler": null,
                "generic": true
            },
            {
                "nid": "103",
                "variant": null,
                "level": 1,
                "klass": "Citizen",
                "faction": "Phantom",
                "starting_items": [],
                "starting_skills": [],
                "team": "enemy",
                "ai": "Pursue",
                "roam_ai": null,
                "ai_group": null,
                "starting_position": [
                    14,
                    8
                ],
                "starting_traveler": null,
                "generic": true
            },
            {
                "nid": "104",
                "variant": null,
                "level": 1,
                "klass": "Citizen",
                "faction": "Phantom",
                "starting_items": [],
                "starting_skills": [],
                "team": "enemy",
                "ai": "Pursue",
                "roam_ai": null,
                "ai_group": null,
                "starting_position": [
                    13,
                    13
                ],
                "starting_traveler": null,
                "generic": true
            },
            {
                "nid": "105",
                "variant": null,
                "level": 1,
                "klass": "Citizen",
                "faction": "Phantom",
                "starting_items": [],
                "starting_skills": [],
                "team": "enemy",
                "ai": "Pursue",
                "roam_ai": null,
                "ai_group": null,
                "starting_position": [
                    7,
                    14
                ],
                "starting_traveler": null,
                "generic": true
            },
            {
                "nid": "106",
                "variant": null,
                "level": 1,
                "klass": "Citizen",
                "faction": "Phantom",
                "starting_items": [],
                "starting_skills": [],
                "team": "enemy",
                "ai": "Pursue",
                "roam_ai": null,
                "ai_group": null,
                "starting_position": [
                    1,
                    13
                ],
                "starting_traveler": null,
                "generic": true
            },
            {
                "nid": "107",
                "variant": null,
                "level": 1,
                "klass": "Citizen",
                "faction": "Phantom",
                "starting_items": [],
                "starting_skills": [],
                "team": "enemy",
                "ai": "Pursue",
                "roam_ai": null,
                "ai_group": null,
                "starting_position": [
                    3,
                    7
                ],
                "starting_traveler": null,
                "generic": true
            },
            {
                "nid": "108",
                "variant": null,
                "level": 1,
                "klass": "Citizen",
                "faction": "Phantom",
                "starting_items": [],
                "starting_skills": [],
                "team": "enemy",
                "ai": "Pursue",
                "roam_ai": null,
                "ai_group": null,
                "starting_position": [
                    5,
                    2
                ],
                "starting_traveler": null,
                "generic": true
            },
            {
                "nid": "109",
                "variant": null,
                "level": 1,
                "klass": "Citizen",
                "faction": "Phantom",
                "starting_items": [],
                "starting_skills": [],
                "team": "enemy",
                "ai": "Pursue",
                "roam_ai": null,
                "ai_group": null,
                "starting_position": null,
                "starting_traveler": null,
                "generic": true
            },
            {
                "nid": "110",
                "variant": null,
                "level": 1,
                "klass": "Citizen",
                "faction": "Phantom",
                "starting_items": [],
                "starting_skills": [],
                "team": "enemy",
                "ai": "Pursue",
                "roam_ai": null,
                "ai_group": null,
                "starting_position": null,
                "starting_traveler": null,
                "generic": true
            },
            {
                "nid": "111",
                "variant": null,
                "level": 1,
                "klass": "Citizen",
                "faction": "Phantom",
                "starting_items": [],
                "starting_skills": [],
                "team": "enemy",
                "ai": "Pursue",
                "roam_ai": null,
                "ai_group": null,
                "starting_position": null,
                "starting_traveler": null,
                "generic": true
            },
            {
                "nid": "112",
                "variant": null,
                "level": 1,
                "klass": "Citizen",
                "faction": "Phantom",
                "starting_items": [],
                "starting_skills": [],
                "team": "enemy",
                "ai": "Pursue",
                "roam_ai": null,
                "ai_group": null,
                "starting_position": null,
                "starting_traveler": null,
                "generic": true
            },
            {
                "nid": "113",
                "variant": null,
                "level": 1,
                "klass": "Citizen",
                "faction": "Phantom",
                "starting_items": [],
                "starting_skills": [],
                "team": "enemy",
                "ai": "Pursue",
                "roam_ai": null,
                "ai_group": null,
                "starting_position": null,
                "starting_traveler": null,
                "generic": true
            }
        ],
        "regions": [
            {
                "nid": "Formation_1",
                "region_type": "formation",
                "position": [
                    7,
                    7
                ],
                "size": [
                    1,
                    1
                ],
                "sub_nid": "",
                "condition": "True",
                "time_left": null,
                "only_once": false,
                "interrupt_move": false
            },
            {
                "nid": "Formation_2",
                "region_type": "formation",
                "position": [
                    8,
                    7
                ],
                "size": [
                    1,
                    1
                ],
                "sub_nid": "",
                "condition": "True",
                "time_left": null,
                "only_once": false,
                "interrupt_move": false
            },
            {
                "nid": "Formation_3",
                "region_type": "formation",
                "position": [
                    7,
                    8
                ],
                "size": [
                    1,
                    1
                ],
                "sub_nid": "",
                "condition": "True",
                "time_left": null,
                "only_once": false,
                "interrupt_move": false
            },
            {
                "nid": "Formation_4",
                "region_type": "formation",
                "position": [
                    8,
                    8
                ],
                "size": [
                    1,
                    1
                ],
                "sub_nid": "",
                "condition": "True",
                "time_left": null,
                "only_once": false,
                "interrupt_move": false
            },
            {
                "nid": "Formation_5",
                "region_type": "formation",
                "position": [
                    6,
                    7
                ],
                "size": [
                    1,
                    1
                ],
                "sub_nid": "",
                "condition": "True",
                "time_left": null,
                "only_once": false,
                "interrupt_move": false
            },
            {
                "nid": "Door_1",
                "region_type": "event",
                "position": [
                    5,
                    4
                ],
                "size": [
                    2,
                    3
                ],
                "sub_nid": "Door",
                "condition": "unit.can_unlock(region)",
                "time_left": null,
                "only_once": true,
                "interrupt_move": false
            },
            {
                "nid": "Door_2",
                "region_type": "event",
                "position": [
                    7,
                    9
                ],
                "size": [
                    2,
                    3
                ],
                "sub_nid": "Door",
                "condition": "unit.can_unlock(region)",
                "time_left": null,
                "only_once": true,
                "interrupt_move": false
            },
            {
                "nid": "Door_3",
                "region_type": "event",
                "position": [
                    9,
                    4
                ],
                "size": [
                    2,
                    3
                ],
                "sub_nid": "Door",
                "condition": "unit.can_unlock(region)",
                "time_left": null,
                "only_once": true,
                "interrupt_move": false
            }
        ],
        "unit_groups": [
            {
                "nid": "rein1",
                "units": [],
                "positions": {}
            },
            {
                "nid": "rein2",
                "units": [],
                "positions": {}
            },
            {
                "nid": "rein3",
                "units": [],
                "positions": {}
            },
            {
                "nid": "rein4",
                "units": [],
                "positions": {}
            }
        ],
        "ai_groups": []
    }
]