[
    {
        "nid": "54",
        "name": "Rout",
        "tilemap": "54",
        "bg_tilemap": null,
        "party": "Player",
        "music": {},
        "objective": {
            "simple": "Rout",
            "win": "Rout",
            "loss": "All allies defeated"
        },
        "roam": false,
        "roam_unit": null,
        "go_to_overworld": false,
        "should_record": true,
        "units": [
            {
                "nid": "101",
                "variant": null,
                "level": 1,
                "klass": "Citizen",
                "faction": "Phantom",
                "starting_items": [],
                "starting_skills": [],
                "team": "enemy",
                "ai": "Guard",
                "roam_ai": null,
                "ai_group": "",
                "starting_position": [
                    14,
                    11
                ],
                "starting_traveler": null,
                "generic": true
            },
            {
                "nid": "102",
                "variant": null,
                "level": 1,
                "klass": "Citizen",
                "faction": "Phantom",
                "starting_items": [],
                "starting_skills": [],
                "team": "enemy",
                "ai": "Guard",
                "roam_ai": null,
                "ai_group": "",
                "starting_position": [
                    13,
                    6
                ],
                "starting_traveler": null,
                "generic": true
            },
            {
                "nid": "103",
                "variant": null,
                "level": 1,
                "klass": "Citizen",
                "faction": "Phantom",
                "starting_items": [],
                "starting_skills": [],
                "team": "enemy",
                "ai": "Guard",
                "roam_ai": null,
                "ai_group": "",
                "starting_position": [
                    13,
                    1
                ],
                "starting_traveler": null,
                "generic": true
            },
            {
                "nid": "104",
                "variant": null,
                "level": 1,
                "klass": "Citizen",
                "faction": "Phantom",
                "starting_items": [],
                "starting_skills": [],
                "team": "enemy",
                "ai": "Pursue",
                "roam_ai": null,
                "ai_group": "",
                "starting_position": [
                    5,
                    4
                ],
                "starting_traveler": null,
                "generic": true
            },
            {
                "nid": "105",
                "variant": null,
                "level": 1,
                "klass": "Citizen",
                "faction": "Phantom",
                "starting_items": [],
                "starting_skills": [],
                "team": "enemy",
                "ai": "Guard",
                "roam_ai": null,
                "ai_group": "",
                "starting_position": [
                    0,
                    11
                ],
                "starting_traveler": null,
                "generic": true
            },
            {
                "nid": "106",
                "variant": null,
                "level": 1,
                "klass": "Citizen",
                "faction": "Phantom",
                "starting_items": [],
                "starting_skills": [],
                "team": "enemy",
                "ai": "Pursue",
                "roam_ai": null,
                "ai_group": "",
                "starting_position": [
                    5,
                    10
                ],
                "starting_traveler": null,
                "generic": true
            },
            {
                "nid": "107",
                "variant": null,
                "level": 1,
                "klass": "Citizen",
                "faction": "Phantom",
                "starting_items": [],
                "starting_skills": [],
                "team": "enemy",
                "ai": "Guard",
                "roam_ai": null,
                "ai_group": "",
                "starting_position": [
                    0,
                    2
                ],
                "starting_traveler": null,
                "generic": true
            },
            {
                "nid": "108",
                "variant": null,
                "level": 1,
                "klass": "Citizen",
                "faction": "Phantom",
                "starting_items": [],
                "starting_skills": [],
                "team": "enemy",
                "ai": "Pursue",
                "roam_ai": null,
                "ai_group": "",
                "starting_position": [
                    8,
                    5
                ],
                "starting_traveler": null,
                "generic": true
            }
        ],
        "regions": [
            {
                "nid": "Formation_1",
                "region_type": "formation",
                "position": [
                    3,
                    1
                ],
                "size": [
                    1,
                    1
                ],
                "sub_nid": "",
                "condition": "True",
                "time_left": null,
                "only_once": false,
                "interrupt_move": false
            },
            {
                "nid": "Formation_2",
                "region_type": "formation",
                "position": [
                    8,
                    1
                ],
                "size": [
                    1,
                    1
                ],
                "sub_nid": null,
                "condition": "True",
                "time_left": null,
                "only_once": false,
                "interrupt_move": false
            },
            {
                "nid": "Formation_3",
                "region_type": "formation",
                "position": [
                    6,
                    8
                ],
                "size": [
                    1,
                    1
                ],
                "sub_nid": null,
                "condition": "True",
                "time_left": null,
                "only_once": false,
                "interrupt_move": false
            },
            {
                "nid": "Formation_4",
                "region_type": "formation",
                "position": [
                    10,
                    9
                ],
                "size": [
                    1,
                    1
                ],
                "sub_nid": null,
                "condition": "True",
                "time_left": null,
                "only_once": false,
                "interrupt_move": false
            },
            {
                "nid": "Chest_1",
                "region_type": "event",
                "position": [
                    4,
                    1
                ],
                "size": [
                    1,
                    1
                ],
                "sub_nid": "Chest",
                "condition": "unit.can_unlock(region)",
                "time_left": null,
                "only_once": true,
                "interrupt_move": false
            },
            {
                "nid": "Chest_2",
                "region_type": "event",
                "position": [
                    5,
                    7
                ],
                "size": [
                    1,
                    1
                ],
                "sub_nid": "Chest",
                "condition": "unit.can_unlock(region)",
                "time_left": null,
                "only_once": true,
                "interrupt_move": false
            },
            {
                "nid": "Chest_3",
                "region_type": "event",
                "position": [
                    10,
                    1
                ],
                "size": [
                    1,
                    1
                ],
                "sub_nid": "Chest",
                "condition": "unit.can_unlock(region)",
                "time_left": null,
                "only_once": true,
                "interrupt_move": false
            }
        ],
        "unit_groups": [],
        "ai_groups": []
    }
]