[
    {
        "nid": "63",
        "name": "Visit",
        "tilemap": "63",
        "bg_tilemap": null,
        "party": "Player",
        "music": {},
        "objective": {
            "simple": "Visit {v:houses_visited} / 6 houses",
            "win": "Visit 6 houses",
            "loss": "All allies defeated"
        },
        "roam": false,
        "roam_unit": null,
        "go_to_overworld": false,
        "should_record": true,
        "units": [
            {
                "nid": "101_flier",
                "variant": null,
                "level": 1,
                "klass": "Citizen",
                "faction": "Phantom",
                "starting_items": [],
                "starting_skills": [],
                "team": "enemy",
                "ai": "Defend",
                "roam_ai": null,
                "ai_group": "Lake",
                "starting_position": [
                    7,
                    0
                ],
                "starting_traveler": null,
                "generic": true
            },
            {
                "nid": "102_flier",
                "variant": null,
                "level": 1,
                "klass": "Citizen",
                "faction": "Phantom",
                "starting_items": [],
                "starting_skills": [],
                "team": "enemy",
                "ai": "Defend",
                "roam_ai": null,
                "ai_group": "Lake",
                "starting_position": [
                    11,
                    0
                ],
                "starting_traveler": null,
                "generic": true
            },
            {
                "nid": "103",
                "variant": null,
                "level": 1,
                "klass": "Citizen",
                "faction": "Phantom",
                "starting_items": [],
                "starting_skills": [],
                "team": "enemy",
                "ai": "Guard",
                "roam_ai": null,
                "ai_group": "",
                "starting_position": [
                    9,
                    11
                ],
                "starting_traveler": null,
                "generic": true
            },
            {
                "nid": "104",
                "variant": null,
                "level": 1,
                "klass": "Citizen",
                "faction": "Phantom",
                "starting_items": [],
                "starting_skills": [],
                "team": "enemy",
                "ai": "Guard",
                "roam_ai": null,
                "ai_group": "",
                "starting_position": [
                    10,
                    11
                ],
                "starting_traveler": null,
                "generic": true
            },
            {
                "nid": "106",
                "variant": null,
                "level": 1,
                "klass": "Citizen",
                "faction": "Phantom",
                "starting_items": [],
                "starting_skills": [],
                "team": "enemy",
                "ai": "Guard",
                "roam_ai": null,
                "ai_group": "",
                "starting_position": [
                    14,
                    3
                ],
                "starting_traveler": null,
                "generic": true
            },
            {
                "nid": "110",
                "variant": null,
                "level": 1,
                "klass": "Citizen",
                "faction": "Phantom",
                "starting_items": [],
                "starting_skills": [],
                "team": "enemy",
                "ai": "Guard",
                "roam_ai": null,
                "ai_group": "",
                "starting_position": [
                    14,
                    5
                ],
                "starting_traveler": null,
                "generic": true
            },
            {
                "nid": "113",
                "variant": null,
                "level": 1,
                "klass": "Citizen",
                "faction": "Phantom",
                "starting_items": [],
                "starting_skills": [],
                "team": "enemy",
                "ai": "Guard",
                "roam_ai": null,
                "ai_group": "",
                "starting_position": [
                    16,
                    14
                ],
                "starting_traveler": null,
                "generic": true
            },
            {
                "nid": "115",
                "variant": null,
                "level": 1,
                "klass": "Citizen",
                "faction": "Phantom",
                "starting_items": [],
                "starting_skills": [],
                "team": "enemy",
                "ai": "Guard",
                "roam_ai": null,
                "ai_group": "",
                "starting_position": [
                    16,
                    15
                ],
                "starting_traveler": null,
                "generic": true
            },
            {
                "nid": "111",
                "variant": null,
                "level": 1,
                "klass": "Citizen",
                "faction": "Phantom",
                "starting_items": [],
                "starting_skills": [],
                "team": "enemy",
                "ai": "Guard",
                "roam_ai": null,
                "ai_group": "",
                "starting_position": [
                    1,
                    13
                ],
                "starting_traveler": null,
                "generic": true
            },
            {
                "nid": "112",
                "variant": null,
                "level": 1,
                "klass": "Citizen",
                "faction": "Phantom",
                "starting_items": [],
                "starting_skills": [],
                "team": "enemy",
                "ai": "Guard",
                "roam_ai": null,
                "ai_group": "",
                "starting_position": [
                    3,
                    13
                ],
                "starting_traveler": null,
                "generic": true
            },
            {
                "nid": "107",
                "variant": null,
                "level": 1,
                "klass": "Citizen",
                "faction": "Phantom",
                "starting_items": [],
                "starting_skills": [],
                "team": "enemy",
                "ai": "Defend",
                "roam_ai": null,
                "ai_group": "BottomHouses",
                "starting_position": [
                    8,
                    14
                ],
                "starting_traveler": null,
                "generic": true
            },
            {
                "nid": "108",
                "variant": null,
                "level": 1,
                "klass": "Citizen",
                "faction": "Phantom",
                "starting_items": [],
                "starting_skills": [],
                "team": "enemy",
                "ai": "Defend",
                "roam_ai": null,
                "ai_group": "BottomHouses",
                "starting_position": [
                    13,
                    13
                ],
                "starting_traveler": null,
                "generic": true
            },
            {
                "nid": "109",
                "variant": null,
                "level": 1,
                "klass": "Citizen",
                "faction": "Phantom",
                "starting_items": [],
                "starting_skills": [],
                "team": "enemy",
                "ai": "Defend",
                "roam_ai": null,
                "ai_group": "BottomHouses",
                "starting_position": [
                    10,
                    15
                ],
                "starting_traveler": null,
                "generic": true
            },
            {
                "nid": "TopBridge1_short",
                "variant": null,
                "level": 1,
                "klass": "Citizen",
                "faction": "Phantom",
                "starting_items": [],
                "starting_skills": [],
                "team": "enemy",
                "ai": "Defend",
                "roam_ai": null,
                "ai_group": "TopBridge",
                "starting_position": [
                    6,
                    3
                ],
                "starting_traveler": null,
                "generic": true
            },
            {
                "nid": "TopBridge2_short",
                "variant": null,
                "level": 1,
                "klass": "Citizen",
                "faction": "Phantom",
                "starting_items": [],
                "starting_skills": [],
                "team": "enemy",
                "ai": "Defend",
                "roam_ai": null,
                "ai_group": "TopBridge",
                "starting_position": [
                    5,
                    4
                ],
                "starting_traveler": null,
                "generic": true
            },
            {
                "nid": "105",
                "variant": null,
                "level": 1,
                "klass": "Citizen",
                "faction": "Phantom",
                "starting_items": [],
                "starting_skills": [],
                "team": "enemy",
                "ai": "Pursue",
                "roam_ai": null,
                "ai_group": "",
                "starting_position": [
                    11,
                    5
                ],
                "starting_traveler": null,
                "generic": true
            },
            {
                "nid": "106_short",
                "variant": null,
                "level": 1,
                "klass": "Citizen",
                "faction": "Phantom",
                "starting_items": [],
                "starting_skills": [],
                "team": "enemy",
                "ai": "Attack",
                "roam_ai": null,
                "ai_group": "",
                "starting_position": [
                    20,
                    3
                ],
                "starting_traveler": null,
                "generic": true
            },
            {
                "nid": "120_short",
                "variant": null,
                "level": 1,
                "klass": "Citizen",
                "faction": "Phantom",
                "starting_items": [],
                "starting_skills": [],
                "team": "enemy",
                "ai": "Attack",
                "roam_ai": null,
                "ai_group": "",
                "starting_position": [
                    20,
                    9
                ],
                "starting_traveler": null,
                "generic": true
            },
            {
                "nid": "121_short",
                "variant": null,
                "level": 1,
                "klass": "Citizen",
                "faction": "Phantom",
                "starting_items": [],
                "starting_skills": [],
                "team": "enemy",
                "ai": "Attack",
                "roam_ai": null,
                "ai_group": "",
                "starting_position": [
                    20,
                    10
                ],
                "starting_traveler": null,
                "generic": true
            },
            {
                "nid": "110_short",
                "variant": null,
                "level": 1,
                "klass": "Citizen",
                "faction": "Phantom",
                "starting_items": [],
                "starting_skills": [],
                "team": "enemy",
                "ai": "Attack",
                "roam_ai": null,
                "ai_group": "",
                "starting_position": [
                    20,
                    4
                ],
                "starting_traveler": null,
                "generic": true
            },
            {
                "nid": "111_grounded",
                "variant": null,
                "level": 1,
                "klass": "Citizen",
                "faction": "Phantom",
                "starting_items": [],
                "starting_skills": [],
                "team": "enemy",
                "ai": "Attack",
                "roam_ai": null,
                "ai_group": "",
                "starting_position": [
                    5,
                    8
                ],
                "starting_traveler": null,
                "generic": true
            },
            {
                "nid": "112_grounded",
                "variant": null,
                "level": 1,
                "klass": "Citizen",
                "faction": "Phantom",
                "starting_items": [],
                "starting_skills": [],
                "team": "enemy",
                "ai": "Attack",
                "roam_ai": null,
                "ai_group": "",
                "starting_position": [
                    4,
                    9
                ],
                "starting_traveler": null,
                "generic": true
            },
            {
                "nid": "113_short",
                "variant": null,
                "level": 1,
                "klass": "Citizen",
                "faction": "Phantom",
                "starting_items": [],
                "starting_skills": [],
                "team": "enemy",
                "ai": "Attack",
                "roam_ai": null,
                "ai_group": "",
                "starting_position": [
                    3,
                    8
                ],
                "starting_traveler": null,
                "generic": true
            },
            {
                "nid": "114",
                "variant": null,
                "level": 1,
                "klass": "Citizen",
                "faction": "Phantom",
                "starting_items": [],
                "starting_skills": [],
                "team": "enemy",
                "ai": "Defend",
                "roam_ai": null,
                "ai_group": "",
                "starting_position": [
                    5,
                    16
                ],
                "starting_traveler": null,
                "generic": true
            },
            {
                "nid": "115_long",
                "variant": null,
                "level": 1,
                "klass": "Citizen",
                "faction": "Phantom",
                "starting_items": [],
                "starting_skills": [],
                "team": "enemy",
                "ai": "Defend",
                "roam_ai": null,
                "ai_group": "TopLeft",
                "starting_position": [
                    1,
                    0
                ],
                "starting_traveler": null,
                "generic": true
            },
            {
                "nid": "116_long",
                "variant": null,
                "level": 1,
                "klass": "Citizen",
                "faction": "Phantom",
                "starting_items": [],
                "starting_skills": [],
                "team": "enemy",
                "ai": "Defend",
                "roam_ai": null,
                "ai_group": "TopLeft",
                "starting_position": [
                    0,
                    1
                ],
                "starting_traveler": null,
                "generic": true
            },
            {
                "nid": "115_short",
                "variant": null,
                "level": 1,
                "klass": "Citizen",
                "faction": "Phantom",
                "starting_items": [],
                "starting_skills": [],
                "team": "enemy",
                "ai": "Attack",
                "roam_ai": null,
                "ai_group": "",
                "starting_position": [
                    0,
                    15
                ],
                "starting_traveler": null,
                "generic": true
            },
            {
                "nid": "122",
                "variant": null,
                "level": 1,
                "klass": "Citizen",
                "faction": "Phantom",
                "starting_items": [],
                "starting_skills": [],
                "team": "enemy",
                "ai": "Defend",
                "roam_ai": null,
                "ai_group": "RightMid",
                "starting_position": [
                    15,
                    9
                ],
                "starting_traveler": null,
                "generic": true
            },
            {
                "nid": "123",
                "variant": null,
                "level": 1,
                "klass": "Citizen",
                "faction": "Phantom",
                "starting_items": [],
                "starting_skills": [],
                "team": "enemy",
                "ai": "Defend",
                "roam_ai": null,
                "ai_group": "RightMid",
                "starting_position": [
                    17,
                    11
                ],
                "starting_traveler": null,
                "generic": true
            },
            {
                "nid": "Rein1_flier",
                "variant": null,
                "level": 1,
                "klass": "Citizen",
                "faction": "Phantom",
                "starting_items": [],
                "starting_skills": [],
                "team": "enemy",
                "ai": "Pursue",
                "roam_ai": null,
                "ai_group": "",
                "starting_position": null,
                "starting_traveler": null,
                "generic": true
            },
            {
                "nid": "Rein2_flier",
                "variant": null,
                "level": 1,
                "klass": "Citizen",
                "faction": "Phantom",
                "starting_items": [],
                "starting_skills": [],
                "team": "enemy",
                "ai": "Pursue",
                "roam_ai": null,
                "ai_group": "",
                "starting_position": null,
                "starting_traveler": null,
                "generic": true
            },
            {
                "nid": "Rein3_flier",
                "variant": null,
                "level": 1,
                "klass": "Citizen",
                "faction": "Phantom",
                "starting_items": [],
                "starting_skills": [],
                "team": "enemy",
                "ai": "Pursue",
                "roam_ai": null,
                "ai_group": "",
                "starting_position": null,
                "starting_traveler": null,
                "generic": true
            },
            {
                "nid": "Rein4_flier",
                "variant": null,
                "level": 1,
                "klass": "Citizen",
                "faction": "Phantom",
                "starting_items": [],
                "starting_skills": [],
                "team": "enemy",
                "ai": "Pursue",
                "roam_ai": null,
                "ai_group": "",
                "starting_position": null,
                "starting_traveler": null,
                "generic": true
            }
        ],
        "regions": [
            {
                "nid": "1",
                "region_type": "formation",
                "position": [
                    8,
                    7
                ],
                "size": [
                    1,
                    1
                ],
                "sub_nid": "",
                "condition": "True",
                "time_left": null,
                "only_once": false,
                "interrupt_move": false
            },
            {
                "nid": "2",
                "region_type": "formation",
                "position": [
                    9,
                    6
                ],
                "size": [
                    1,
                    1
                ],
                "sub_nid": null,
                "condition": "True",
                "time_left": null,
                "only_once": false,
                "interrupt_move": false
            },
            {
                "nid": "3",
                "region_type": "formation",
                "position": [
                    9,
                    8
                ],
                "size": [
                    1,
                    1
                ],
                "sub_nid": null,
                "condition": "True",
                "time_left": null,
                "only_once": false,
                "interrupt_move": false
            },
            {
                "nid": "4",
                "region_type": "formation",
                "position": [
                    11,
                    8
                ],
                "size": [
                    1,
                    1
                ],
                "sub_nid": null,
                "condition": "True",
                "time_left": null,
                "only_once": false,
                "interrupt_move": false
            },
            {
                "nid": "5",
                "region_type": "formation",
                "position": [
                    8,
                    9
                ],
                "size": [
                    1,
                    1
                ],
                "sub_nid": null,
                "condition": "True",
                "time_left": null,
                "only_once": false,
                "interrupt_move": false
            },
            {
                "nid": "6",
                "region_type": "formation",
                "position": [
                    10,
                    9
                ],
                "size": [
                    1,
                    1
                ],
                "sub_nid": "",
                "condition": "True",
                "time_left": null,
                "only_once": false,
                "interrupt_move": false
            },
            {
                "nid": "Visit_TL",
                "region_type": "event",
                "position": [
                    4,
                    2
                ],
                "size": [
                    1,
                    1
                ],
                "sub_nid": "Visit",
                "condition": "unit.team == 'player'",
                "time_left": null,
                "only_once": true,
                "interrupt_move": false
            },
            {
                "nid": "Visit_TR",
                "region_type": "event",
                "position": [
                    15,
                    2
                ],
                "size": [
                    1,
                    1
                ],
                "sub_nid": "Visit",
                "condition": "unit.team == 'player'",
                "time_left": null,
                "only_once": true,
                "interrupt_move": false
            },
            {
                "nid": "Visit_ML",
                "region_type": "event",
                "position": [
                    5,
                    7
                ],
                "size": [
                    1,
                    1
                ],
                "sub_nid": "Visit",
                "condition": "unit.team == 'player'",
                "time_left": null,
                "only_once": true,
                "interrupt_move": false
            },
            {
                "nid": "Visit_MR",
                "region_type": "event",
                "position": [
                    17,
                    7
                ],
                "size": [
                    1,
                    1
                ],
                "sub_nid": "Visit",
                "condition": "unit.team == 'player'",
                "time_left": null,
                "only_once": true,
                "interrupt_move": false
            },
            {
                "nid": "Visit_BL",
                "region_type": "event",
                "position": [
                    7,
                    12
                ],
                "size": [
                    1,
                    1
                ],
                "sub_nid": "Visit",
                "condition": "unit.team == 'player'",
                "time_left": null,
                "only_once": true,
                "interrupt_move": false
            },
            {
                "nid": "Visit_BR",
                "region_type": "event",
                "position": [
                    12,
                    12
                ],
                "size": [
                    1,
                    1
                ],
                "sub_nid": "Visit",
                "condition": "unit.team == 'player'",
                "time_left": null,
                "only_once": true,
                "interrupt_move": false
            }
        ],
        "unit_groups": [
            {
                "nid": "Reinforcements",
                "units": [
                    "Rein1_flier",
                    "Rein2_flier",
                    "Rein3_flier",
                    "Rein4_flier"
                ],
                "positions": {
                    "Rein1_flier": [
                        0,
                        0
                    ],
                    "Rein2_flier": [
                        20,
                        0
                    ],
                    "Rein3_flier": [
                        20,
                        16
                    ],
                    "Rein4_flier": [
                        0,
                        16
                    ]
                }
            }
        ],
        "ai_groups": [
            {
                "nid": "Lake",
                "trigger_threshold": 1
            },
            {
                "nid": "BottomHouses",
                "trigger_threshold": 1
            },
            {
                "nid": "TopBridge",
                "trigger_threshold": 1
            },
            {
                "nid": "TopLeft",
                "trigger_threshold": 1
            },
            {
                "nid": "RightMid",
                "trigger_threshold": 1
            }
        ]
    }
]