[
    {
        "nid": "Act_3",
        "name": "Stage Selection",
        "tilemap": "Event_Selection_3",
        "bg_tilemap": "Sky",
        "party": "Player",
        "music": {},
        "objective": {
            "simple": "",
            "win": "",
            "loss": ""
        },
        "roam": true,
        "roam_unit": "Player",
        "go_to_overworld": false,
        "should_record": false,
        "units": [],
        "regions": [
            {
                "nid": "Nothing",
                "region_type": "normal",
                "position": [
                    7,
                    8
                ],
                "size": [
                    1,
                    1
                ],
                "sub_nid": "",
                "condition": "True",
                "time_left": null,
                "only_once": false,
                "interrupt_move": false
            },
            {
                "nid": "YushaFight",
                "region_type": "event",
                "position": [
                    0,
                    1
                ],
                "size": [
                    1,
                    2
                ],
                "sub_nid": "Yusha",
                "condition": "RECORDS.get('game_clear') and  not game.game_vars.get('in_subroom', 0) == 1",
                "time_left": null,
                "only_once": false,
                "interrupt_move": false
            },
            {
                "nid": "Secret",
                "region_type": "event",
                "position": [
                    7,
                    0
                ],
                "size": [
                    1,
                    2
                ],
                "sub_nid": "Secret",
                "condition": "game.game_vars.get('demon_quest', 0) == 2 and  not game.game_vars.get('in_subroom', 0) == 1",
                "time_left": null,
                "only_once": false,
                "interrupt_move": false
            },
            {
                "nid": "Dig",
                "region_type": "event",
                "position": [
                    14,
                    8
                ],
                "size": [
                    1,
                    1
                ],
                "sub_nid": "Dig",
                "condition": "RECORDS.get('game_clear') and not RECORDS.get('ex_note_3')",
                "time_left": null,
                "only_once": false,
                "interrupt_move": false
            }
        ],
        "unit_groups": [],
        "ai_groups": []
    }
]