[
    {
        "nid": "DEBUG",
        "name": "DEBUG",
        "tilemap": "Chapter 2",
        "bg_tilemap": null,
        "party": "Player",
        "music": {
            "player_phase": "Shadow of the Enemy",
            "enemy_phase": null,
            "other_phase": null,
            "enemy2_phase": null,
            "player_battle": "Attack",
            "enemy_battle": null,
            "other_battle": null,
            "enemy2_battle": null
        },
        "objective": {
            "simple": "DEBUG",
            "win": "Don't Crash",
            "loss": "Crash"
        },
        "roam": false,
        "roam_unit": null,
        "go_to_overworld": false,
        "should_record": true,
        "units": [
            {
                "nid": "Johanna",
                "team": "player",
                "ai": "None",
                "roam_ai": null,
                "ai_group": "",
                "starting_position": [
                    2,
                    5
                ],
                "starting_traveler": null,
                "generic": false
            },
            {
                "nid": "101",
                "variant": null,
                "level": 5,
                "klass": "Mercenary",
                "faction": "Phantom",
                "starting_items": [
                    [
                        "Iron_Sword",
                        false
                    ]
                ],
                "starting_skills": [],
                "team": "enemy",
                "ai": "Guard",
                "roam_ai": null,
                "ai_group": "",
                "starting_position": [
                    4,
                    6
                ],
                "starting_traveler": null,
                "generic": true
            },
            {
                "nid": "Shiki_Ouji",
                "team": "player",
                "ai": "None",
                "roam_ai": null,
                "ai_group": "",
                "starting_position": [
                    5,
                    4
                ],
                "starting_traveler": null,
                "generic": false
            },
            {
                "nid": "Gorbat",
                "team": "player",
                "ai": "None",
                "roam_ai": null,
                "ai_group": "",
                "starting_position": [
                    2,
                    8
                ],
                "starting_traveler": null,
                "generic": false
            },
            {
                "nid": "Dallas",
                "team": "player",
                "ai": "None",
                "roam_ai": null,
                "ai_group": "",
                "starting_position": [
                    4,
                    4
                ],
                "starting_traveler": null,
                "generic": false
            }
        ],
        "regions": [
            {
                "nid": "Armory",
                "region_type": "event",
                "position": [
                    5,
                    7
                ],
                "size": [
                    1,
                    1
                ],
                "sub_nid": "Armory",
                "condition": "True",
                "time_left": null,
                "only_once": false,
                "interrupt_move": false
            },
            {
                "nid": "Door1",
                "region_type": "event",
                "position": [
                    4,
                    2
                ],
                "size": [
                    1,
                    1
                ],
                "sub_nid": "Door",
                "condition": "unit.can_unlock(region)",
                "time_left": null,
                "only_once": true,
                "interrupt_move": false
            },
            {
                "nid": "Chest",
                "region_type": "event",
                "position": [
                    7,
                    2
                ],
                "size": [
                    1,
                    1
                ],
                "sub_nid": "Chest",
                "condition": "unit.can_unlock(region)",
                "time_left": null,
                "only_once": false,
                "interrupt_move": false
            },
            {
                "nid": "Escape",
                "region_type": "event",
                "position": [
                    4,
                    14
                ],
                "size": [
                    1,
                    1
                ],
                "sub_nid": "test",
                "condition": "True",
                "time_left": null,
                "only_once": false,
                "interrupt_move": false
            },
            {
                "nid": "Test",
                "region_type": "event",
                "position": [
                    8,
                    9
                ],
                "size": [
                    1,
                    1
                ],
                "sub_nid": "Test",
                "condition": "True",
                "time_left": null,
                "only_once": false,
                "interrupt_move": false
            }
        ],
        "unit_groups": [],
        "ai_groups": []
    }
]