[
    {
        "nid": "EV_Crypt",
        "name": "Event: The Crypt",
        "tilemap": "16",
        "bg_tilemap": null,
        "party": "Player",
        "music": {},
        "objective": {
            "simple": "Rout",
            "win": "Rout",
            "loss": "All allies defeated"
        },
        "roam": false,
        "roam_unit": null,
        "go_to_overworld": false,
        "should_record": true,
        "units": [
            {
                "nid": "101",
                "variant": null,
                "level": 1,
                "klass": "Sword_Bonewalker",
                "faction": "Monster",
                "starting_items": [
                    [
                        "Iron_Sword",
                        false
                    ]
                ],
                "starting_skills": [],
                "team": "enemy",
                "ai": "Pursue",
                "roam_ai": null,
                "ai_group": "",
                "starting_position": [
                    10,
                    6
                ],
                "starting_traveler": null,
                "generic": true
            },
            {
                "nid": "102",
                "variant": null,
                "level": 1,
                "klass": "Sword_Bonewalker",
                "faction": "Monster",
                "starting_items": [
                    [
                        "Iron_Sword",
                        false
                    ]
                ],
                "starting_skills": [],
                "team": "enemy",
                "ai": "Pursue",
                "roam_ai": null,
                "ai_group": "",
                "starting_position": [
                    12,
                    5
                ],
                "starting_traveler": null,
                "generic": true
            },
            {
                "nid": "103",
                "variant": null,
                "level": 1,
                "klass": "Sword_Bonewalker",
                "faction": "Monster",
                "starting_items": [
                    [
                        "Iron_Sword",
                        false
                    ]
                ],
                "starting_skills": [],
                "team": "enemy",
                "ai": "Defend",
                "roam_ai": null,
                "ai_group": "BL",
                "starting_position": [
                    1,
                    9
                ],
                "starting_traveler": null,
                "generic": true
            },
            {
                "nid": "104",
                "variant": null,
                "level": 1,
                "klass": "Bow_Bonewalker",
                "faction": "Monster",
                "starting_items": [
                    [
                        "Iron_Bow",
                        false
                    ]
                ],
                "starting_skills": [],
                "team": "enemy",
                "ai": "Defend",
                "roam_ai": null,
                "ai_group": "BL",
                "starting_position": [
                    3,
                    11
                ],
                "starting_traveler": null,
                "generic": true
            },
            {
                "nid": "105",
                "variant": null,
                "level": 1,
                "klass": "Sword_Bonewalker",
                "faction": "Monster",
                "starting_items": [
                    [
                        "Steel_Sword",
                        false
                    ]
                ],
                "starting_skills": [],
                "team": "enemy",
                "ai": "Defend",
                "roam_ai": null,
                "ai_group": "BR",
                "starting_position": [
                    12,
                    10
                ],
                "starting_traveler": null,
                "generic": true
            },
            {
                "nid": "106",
                "variant": null,
                "level": 1,
                "klass": "Ghost",
                "faction": "Monster",
                "starting_items": [
                    [
                        "Steel_Knife",
                        false
                    ]
                ],
                "starting_skills": [],
                "team": "enemy",
                "ai": "Defend",
                "roam_ai": null,
                "ai_group": "BR",
                "starting_position": [
                    14,
                    11
                ],
                "starting_traveler": null,
                "generic": true
            },
            {
                "nid": "107",
                "variant": null,
                "level": 1,
                "klass": "Sword_Wight",
                "faction": "Monster",
                "starting_items": [
                    [
                        "Rapier",
                        false
                    ],
                    [
                        "Light_Brand",
                        false
                    ]
                ],
                "starting_skills": [
                    "Boss_Tag"
                ],
                "team": "enemy",
                "ai": "Defend",
                "roam_ai": null,
                "ai_group": "BR",
                "starting_position": [
                    14,
                    9
                ],
                "starting_traveler": null,
                "generic": true
            },
            {
                "nid": "108",
                "variant": null,
                "level": 1,
                "klass": "Ghost",
                "faction": "Monster",
                "starting_items": [
                    [
                        "Iron_Knife",
                        false
                    ]
                ],
                "starting_skills": [],
                "team": "enemy",
                "ai": "Pursue",
                "roam_ai": null,
                "ai_group": "",
                "starting_position": [
                    8,
                    10
                ],
                "starting_traveler": null,
                "generic": true
            },
            {
                "nid": "109",
                "variant": null,
                "level": 1,
                "klass": "Bow_Bonewalker",
                "faction": "Monster",
                "starting_items": [
                    [
                        "Iron_Bow",
                        false
                    ]
                ],
                "starting_skills": [],
                "team": "enemy",
                "ai": "Attack",
                "roam_ai": null,
                "ai_group": "",
                "starting_position": [
                    6,
                    8
                ],
                "starting_traveler": null,
                "generic": true
            },
            {
                "nid": "110",
                "variant": null,
                "level": 1,
                "klass": "Sword_Bonewalker",
                "faction": "Monster",
                "starting_items": [
                    [
                        "Iron_Sword",
                        false
                    ]
                ],
                "starting_skills": [],
                "team": "enemy",
                "ai": "Defend",
                "roam_ai": null,
                "ai_group": "",
                "starting_position": [
                    5,
                    10
                ],
                "starting_traveler": null,
                "generic": true
            }
        ],
        "regions": [
            {
                "nid": "1",
                "region_type": "formation",
                "position": [
                    8,
                    3
                ],
                "size": [
                    1,
                    1
                ],
                "sub_nid": null,
                "condition": "True",
                "time_left": null,
                "only_once": false,
                "interrupt_move": false
            },
            {
                "nid": "2",
                "region_type": "formation",
                "position": [
                    9,
                    4
                ],
                "size": [
                    1,
                    1
                ],
                "sub_nid": null,
                "condition": "True",
                "time_left": null,
                "only_once": false,
                "interrupt_move": false
            },
            {
                "nid": "3",
                "region_type": "formation",
                "position": [
                    7,
                    4
                ],
                "size": [
                    1,
                    1
                ],
                "sub_nid": null,
                "condition": "True",
                "time_left": null,
                "only_once": false,
                "interrupt_move": false
            },
            {
                "nid": "4",
                "region_type": "formation",
                "position": [
                    8,
                    5
                ],
                "size": [
                    1,
                    1
                ],
                "sub_nid": null,
                "condition": "True",
                "time_left": null,
                "only_once": false,
                "interrupt_move": false
            }
        ],
        "unit_groups": [],
        "ai_groups": [
            {
                "nid": "BR",
                "trigger_threshold": 1
            },
            {
                "nid": "BL",
                "trigger_threshold": 1
            }
        ]
    }
]