[
    {
        "nid": "EV_Quartet",
        "name": "Event: The Quartet",
        "tilemap": "Event_Map_1",
        "bg_tilemap": null,
        "party": "Player",
        "music": {},
        "objective": {
            "simple": "Defeat the Strangers",
            "win": "Defeat the Strangers",
            "loss": "All allies defeated"
        },
        "roam": false,
        "roam_unit": null,
        "go_to_overworld": false,
        "should_record": true,
        "units": [
            {
                "nid": "Stranger",
                "variant": "",
                "level": 1,
                "klass": "Swordmaster",
                "faction": "Sellsword",
                "starting_items": [
                    [
                        "Killing_Edge_Plus",
                        false
                    ],
                    [
                        "Critical_Mark",
                        false
                    ]
                ],
                "starting_skills": [
                    "Commander"
                ],
                "team": "enemy",
                "ai": "Pursue",
                "roam_ai": null,
                "ai_group": "",
                "starting_position": [
                    11,
                    5
                ],
                "starting_traveler": null,
                "generic": true
            },
            {
                "nid": "Stranger_2",
                "variant": null,
                "level": 1,
                "klass": "World_Engine",
                "faction": "Cutthroat",
                "starting_items": [
                    [
                        "Brave_Lance",
                        false
                    ],
                    [
                        "Spear",
                        false
                    ],
                    [
                        "Silver_Shield",
                        false
                    ]
                ],
                "starting_skills": [
                    "Commander"
                ],
                "team": "enemy",
                "ai": "Pursue",
                "roam_ai": null,
                "ai_group": "",
                "starting_position": [
                    12,
                    5
                ],
                "starting_traveler": null,
                "generic": true
            },
            {
                "nid": "Stranger_3",
                "variant": null,
                "level": 1,
                "klass": "Nobleman",
                "faction": "Cutthroat",
                "starting_items": [
                    [
                        "Ruin",
                        false
                    ],
                    [
                        "Crush",
                        false
                    ],
                    [
                        "Levitator",
                        false
                    ]
                ],
                "starting_skills": [
                    "Commander"
                ],
                "team": "enemy",
                "ai": "Pursue",
                "roam_ai": null,
                "ai_group": "",
                "starting_position": [
                    14,
                    4
                ],
                "starting_traveler": null,
                "generic": true
            },
            {
                "nid": "Stranger_4",
                "variant": null,
                "level": 1,
                "klass": "Harrier",
                "faction": "Cutthroat",
                "starting_items": [
                    [
                        "Thoron",
                        false
                    ],
                    [
                        "Scorch",
                        false
                    ],
                    [
                        "Fili_Shield",
                        false
                    ]
                ],
                "starting_skills": [
                    "Commander"
                ],
                "team": "enemy",
                "ai": "Pursue",
                "roam_ai": null,
                "ai_group": "",
                "starting_position": [
                    14,
                    6
                ],
                "starting_traveler": null,
                "generic": true
            }
        ],
        "regions": [
            {
                "nid": "Formation_1",
                "region_type": "formation",
                "position": [
                    3,
                    5
                ],
                "size": [
                    1,
                    1
                ],
                "sub_nid": "",
                "condition": "True",
                "time_left": null,
                "only_once": false,
                "interrupt_move": false
            },
            {
                "nid": "Formation_2",
                "region_type": "formation",
                "position": [
                    2,
                    5
                ],
                "size": [
                    1,
                    1
                ],
                "sub_nid": "",
                "condition": "True",
                "time_left": null,
                "only_once": false,
                "interrupt_move": false
            },
            {
                "nid": "Formation_3",
                "region_type": "formation",
                "position": [
                    0,
                    4
                ],
                "size": [
                    1,
                    1
                ],
                "sub_nid": "",
                "condition": "True",
                "time_left": null,
                "only_once": false,
                "interrupt_move": false
            },
            {
                "nid": "Formation_4",
                "region_type": "formation",
                "position": [
                    0,
                    6
                ],
                "size": [
                    1,
                    1
                ],
                "sub_nid": "",
                "condition": "True",
                "time_left": null,
                "only_once": false,
                "interrupt_move": false
            }
        ],
        "unit_groups": [],
        "ai_groups": []
    }
]