[
    {
        "nid": "EX_1",
        "name": "Defeat Boss",
        "tilemap": "Demon_Map_Final",
        "bg_tilemap": null,
        "party": "Player",
        "music": {},
        "objective": {
            "simple": "Slay the Great Demon",
            "win": "Slay the Great Demon",
            "loss": "All allies defeated"
        },
        "roam": false,
        "roam_unit": null,
        "go_to_overworld": false,
        "should_record": true,
        "units": [
            {
                "nid": "G_Demon",
                "team": "enemy",
                "ai": "Defend",
                "roam_ai": null,
                "ai_group": "",
                "starting_position": [
                    8,
                    3
                ],
                "starting_traveler": null,
                "generic": false
            },
            {
                "nid": "101",
                "variant": null,
                "level": 35,
                "klass": "Draco_Zombie",
                "faction": "Phantom",
                "starting_items": [
                    [
                        "Inferno_Stone",
                        false
                    ],
                    [
                        "Shadow_Stone",
                        false
                    ]
                ],
                "starting_skills": [],
                "team": "enemy",
                "ai": "Pursue",
                "roam_ai": null,
                "ai_group": "",
                "starting_position": [
                    13,
                    3
                ],
                "starting_traveler": null,
                "generic": true
            },
            {
                "nid": "102",
                "variant": null,
                "level": 35,
                "klass": "Draco_Zombie",
                "faction": "Phantom",
                "starting_items": [
                    [
                        "Inferno_Stone",
                        false
                    ],
                    [
                        "Shadow_Stone",
                        false
                    ]
                ],
                "starting_skills": [],
                "team": "enemy",
                "ai": "Pursue",
                "roam_ai": null,
                "ai_group": "",
                "starting_position": [
                    3,
                    3
                ],
                "starting_traveler": null,
                "generic": true
            },
            {
                "nid": "103",
                "variant": null,
                "level": 35,
                "klass": "Draco_Zombie",
                "faction": "Phantom",
                "starting_items": [
                    [
                        "Inferno_Stone",
                        false
                    ],
                    [
                        "Shadow_Stone",
                        false
                    ]
                ],
                "starting_skills": [],
                "team": "enemy",
                "ai": "Pursue",
                "roam_ai": null,
                "ai_group": "",
                "starting_position": null,
                "starting_traveler": null,
                "generic": true
            },
            {
                "nid": "104",
                "variant": null,
                "level": 35,
                "klass": "Draco_Zombie",
                "faction": "Phantom",
                "starting_items": [
                    [
                        "Inferno_Stone",
                        false
                    ],
                    [
                        "Shadow_Stone",
                        false
                    ]
                ],
                "starting_skills": [],
                "team": "enemy",
                "ai": "Pursue",
                "roam_ai": null,
                "ai_group": "",
                "starting_position": null,
                "starting_traveler": null,
                "generic": true
            }
        ],
        "regions": [
            {
                "nid": "Formation_1",
                "region_type": "formation",
                "position": [
                    5,
                    11
                ],
                "size": [
                    1,
                    1
                ],
                "sub_nid": "",
                "condition": "True",
                "time_left": null,
                "only_once": false,
                "interrupt_move": false
            },
            {
                "nid": "Formation_2",
                "region_type": "formation",
                "position": [
                    12,
                    11
                ],
                "size": [
                    1,
                    1
                ],
                "sub_nid": "",
                "condition": "True",
                "time_left": null,
                "only_once": false,
                "interrupt_move": false
            },
            {
                "nid": "Formation_3",
                "region_type": "formation",
                "position": [
                    10,
                    11
                ],
                "size": [
                    1,
                    1
                ],
                "sub_nid": "",
                "condition": "True",
                "time_left": null,
                "only_once": false,
                "interrupt_move": false
            },
            {
                "nid": "Formation_4",
                "region_type": "formation",
                "position": [
                    7,
                    11
                ],
                "size": [
                    1,
                    1
                ],
                "sub_nid": "",
                "condition": "True",
                "time_left": null,
                "only_once": false,
                "interrupt_move": false
            },
            {
                "nid": "Formation_5",
                "region_type": "formation",
                "position": [
                    6,
                    11
                ],
                "size": [
                    1,
                    1
                ],
                "sub_nid": "",
                "condition": "True",
                "time_left": null,
                "only_once": false,
                "interrupt_move": false
            },
            {
                "nid": "Formation_6",
                "region_type": "formation",
                "position": [
                    12,
                    12
                ],
                "size": [
                    1,
                    1
                ],
                "sub_nid": "",
                "condition": "True",
                "time_left": null,
                "only_once": false,
                "interrupt_move": false
            },
            {
                "nid": "Formation_7",
                "region_type": "formation",
                "position": [
                    11,
                    11
                ],
                "size": [
                    1,
                    1
                ],
                "sub_nid": "",
                "condition": "True",
                "time_left": null,
                "only_once": false,
                "interrupt_move": false
            },
            {
                "nid": "Formation_8",
                "region_type": "formation",
                "position": [
                    10,
                    12
                ],
                "size": [
                    1,
                    1
                ],
                "sub_nid": "",
                "condition": "True",
                "time_left": null,
                "only_once": false,
                "interrupt_move": false
            },
            {
                "nid": "Formation_9",
                "region_type": "formation",
                "position": [
                    6,
                    12
                ],
                "size": [
                    1,
                    1
                ],
                "sub_nid": "",
                "condition": "True",
                "time_left": null,
                "only_once": false,
                "interrupt_move": false
            },
            {
                "nid": "Formation_10",
                "region_type": "formation",
                "position": [
                    7,
                    12
                ],
                "size": [
                    1,
                    1
                ],
                "sub_nid": "",
                "condition": "True",
                "time_left": null,
                "only_once": false,
                "interrupt_move": false
            }
        ],
        "unit_groups": [],
        "ai_groups": []
    }
]