[
    {
        "nid": "Final",
        "name": "Libra Tacita",
        "tilemap": "final_boss",
        "bg_tilemap": "fog_moon_bg",
        "party": "Player",
        "music": {
            "player_phase": "FB_Fight",
            "enemy_phase": "FB_Fight",
            "enemy2_phase": "FB_Fight",
            "other_phase": "FB_Fight"
        },
        "objective": {
            "simple": "Defeat the Fell Dragon",
            "win": "Defeat the Fell Dragon",
            "loss": "Tacita dies"
        },
        "roam": false,
        "roam_unit": null,
        "go_to_overworld": false,
        "should_record": true,
        "units": [
            {
                "nid": "Player",
                "team": "player",
                "ai": "None",
                "roam_ai": null,
                "ai_group": "",
                "starting_position": [
                    17,
                    30
                ],
                "starting_traveler": null,
                "generic": false
            },
            {
                "nid": "Libra_False",
                "team": "enemy",
                "ai": "Pursue",
                "roam_ai": null,
                "ai_group": "",
                "starting_position": [
                    17,
                    25
                ],
                "starting_traveler": null,
                "generic": false
            },
            {
                "nid": "Libra",
                "team": "enemy",
                "ai": "Guard",
                "roam_ai": null,
                "ai_group": "",
                "starting_position": null,
                "starting_traveler": null,
                "generic": false
            },
            {
                "nid": "Bootes_Final",
                "team": "enemy",
                "ai": "Defend",
                "roam_ai": null,
                "ai_group": "",
                "starting_position": null,
                "starting_traveler": null,
                "generic": false
            },
            {
                "nid": "Lupus_Final",
                "team": "enemy",
                "ai": "Defend",
                "roam_ai": null,
                "ai_group": "canes",
                "starting_position": null,
                "starting_traveler": null,
                "generic": false
            },
            {
                "nid": "Canes_Final",
                "team": "enemy",
                "ai": "Defend",
                "roam_ai": null,
                "ai_group": "canes",
                "starting_position": null,
                "starting_traveler": null,
                "generic": false
            },
            {
                "nid": "Loreia_Final",
                "team": "enemy",
                "ai": "Defend",
                "roam_ai": null,
                "ai_group": "",
                "starting_position": null,
                "starting_traveler": null,
                "generic": false
            },
            {
                "nid": "Fabien_Final",
                "team": "enemy",
                "ai": "Defend",
                "roam_ai": null,
                "ai_group": "fabien",
                "starting_position": null,
                "starting_traveler": null,
                "generic": false
            },
            {
                "nid": "Chantal_Final",
                "team": "enemy",
                "ai": "Defend",
                "roam_ai": null,
                "ai_group": "fabien",
                "starting_position": null,
                "starting_traveler": null,
                "generic": false
            },
            {
                "nid": "Ouranos_Final",
                "team": "enemy",
                "ai": "Defend",
                "roam_ai": null,
                "ai_group": "",
                "starting_position": null,
                "starting_traveler": null,
                "generic": false
            },
            {
                "nid": "Trinity_Final",
                "team": "enemy",
                "ai": "Defend",
                "roam_ai": null,
                "ai_group": "",
                "starting_position": null,
                "starting_traveler": null,
                "generic": false
            },
            {
                "nid": "pylon_1",
                "variant": null,
                "level": 21,
                "klass": "Pylon",
                "faction": "Wall",
                "starting_items": [],
                "starting_skills": [],
                "team": "enemy",
                "ai": "None",
                "roam_ai": null,
                "ai_group": "",
                "starting_position": null,
                "starting_traveler": null,
                "generic": true
            },
            {
                "nid": "pylon_2",
                "variant": null,
                "level": 21,
                "klass": "Pylon",
                "faction": "Wall",
                "starting_items": [],
                "starting_skills": [],
                "team": "enemy",
                "ai": "None",
                "roam_ai": null,
                "ai_group": "",
                "starting_position": null,
                "starting_traveler": null,
                "generic": true
            },
            {
                "nid": "101",
                "variant": null,
                "level": 27,
                "klass": "Swordmaster",
                "faction": "Penitence",
                "starting_items": [
                    [
                        "Axe_Splitter",
                        false
                    ],
                    [
                        "Runesword",
                        false
                    ]
                ],
                "starting_skills": [],
                "team": "enemy",
                "ai": "Defend",
                "roam_ai": null,
                "ai_group": "bot",
                "starting_position": [
                    18,
                    17
                ],
                "starting_traveler": null,
                "generic": true
            },
            {
                "nid": "102",
                "variant": null,
                "level": 27,
                "klass": "Halberdier",
                "faction": "Penitence",
                "starting_items": [
                    [
                        "Sword_Catcher",
                        false
                    ],
                    [
                        "Spear",
                        false
                    ]
                ],
                "starting_skills": [],
                "team": "enemy",
                "ai": "Defend",
                "roam_ai": null,
                "ai_group": "bot",
                "starting_position": [
                    16,
                    17
                ],
                "starting_traveler": null,
                "generic": true
            },
            {
                "nid": "103",
                "variant": null,
                "level": 27,
                "klass": "Sage",
                "faction": "Penitence",
                "starting_items": [
                    [
                        "Scorch",
                        false
                    ],
                    [
                        "Thoron",
                        false
                    ]
                ],
                "starting_skills": [],
                "team": "enemy",
                "ai": "Defend",
                "roam_ai": null,
                "ai_group": "mid",
                "starting_position": [
                    16,
                    12
                ],
                "starting_traveler": null,
                "generic": true
            },
            {
                "nid": "104",
                "variant": null,
                "level": 27,
                "klass": "Bishop",
                "faction": "Penitence",
                "starting_items": [
                    [
                        "Brilliance",
                        false
                    ],
                    [
                        "Ray",
                        false
                    ]
                ],
                "starting_skills": [],
                "team": "enemy",
                "ai": "Defend",
                "roam_ai": null,
                "ai_group": "",
                "starting_position": [
                    18,
                    12
                ],
                "starting_traveler": null,
                "generic": true
            },
            {
                "nid": "105",
                "variant": null,
                "level": 27,
                "klass": "Mage_Dragon",
                "faction": "Penitence",
                "starting_items": [
                    [
                        "Ruin",
                        false
                    ],
                    [
                        "Blizzard_Stone",
                        false
                    ]
                ],
                "starting_skills": [],
                "team": "enemy",
                "ai": "Guard",
                "roam_ai": null,
                "ai_group": "",
                "starting_position": [
                    17,
                    8
                ],
                "starting_traveler": null,
                "generic": true
            },
            {
                "nid": "106",
                "variant": null,
                "level": 27,
                "klass": "Druid",
                "faction": "Penitence",
                "starting_items": [
                    [
                        "Ruin",
                        false
                    ]
                ],
                "starting_skills": [],
                "team": "enemy",
                "ai": "Pursue",
                "roam_ai": null,
                "ai_group": "",
                "starting_position": [
                    3,
                    26
                ],
                "starting_traveler": null,
                "generic": true
            },
            {
                "nid": "107",
                "variant": null,
                "level": 27,
                "klass": "General",
                "faction": "Penitence",
                "starting_items": [
                    [
                        "Brave_Axe",
                        false
                    ]
                ],
                "starting_skills": [],
                "team": "enemy",
                "ai": "Pursue",
                "roam_ai": null,
                "ai_group": "",
                "starting_position": [
                    4,
                    29
                ],
                "starting_traveler": null,
                "generic": true
            },
            {
                "nid": "108",
                "variant": null,
                "level": 27,
                "klass": "Sniper",
                "faction": "Penitence",
                "starting_items": [
                    [
                        "Silver_Bow",
                        false
                    ],
                    [
                        "Stout_Bow",
                        false
                    ]
                ],
                "starting_skills": [],
                "team": "enemy",
                "ai": "Pursue",
                "roam_ai": null,
                "ai_group": "",
                "starting_position": [
                    5,
                    26
                ],
                "starting_traveler": null,
                "generic": true
            },
            {
                "nid": "109",
                "variant": null,
                "level": 27,
                "klass": "Assassin",
                "faction": "Penitence",
                "starting_items": [
                    [
                        "Rapier",
                        false
                    ],
                    [
                        "Serrated_Blade",
                        false
                    ]
                ],
                "starting_skills": [],
                "team": "enemy",
                "ai": "Pursue",
                "roam_ai": null,
                "ai_group": "",
                "starting_position": [
                    30,
                    29
                ],
                "starting_traveler": null,
                "generic": true
            },
            {
                "nid": "110",
                "variant": null,
                "level": 27,
                "klass": "Mage_Knight",
                "faction": "Penitence",
                "starting_items": [
                    [
                        "Thoron",
                        false
                    ]
                ],
                "starting_skills": [],
                "team": "enemy",
                "ai": "Pursue",
                "roam_ai": null,
                "ai_group": "",
                "starting_position": [
                    31,
                    26
                ],
                "starting_traveler": null,
                "generic": true
            },
            {
                "nid": "111",
                "variant": null,
                "level": 27,
                "klass": "Wyvern_Lord",
                "faction": "Penitence",
                "starting_items": [
                    [
                        "Silver_Axe",
                        false
                    ],
                    [
                        "Saunion",
                        false
                    ]
                ],
                "starting_skills": [],
                "team": "enemy",
                "ai": "Pursue",
                "roam_ai": null,
                "ai_group": "",
                "starting_position": [
                    29,
                    26
                ],
                "starting_traveler": null,
                "generic": true
            },
            {
                "nid": "112",
                "variant": null,
                "level": 27,
                "klass": "Earth_Dragon",
                "faction": "Penitence",
                "starting_items": [
                    [
                        "Earth_Stone",
                        false
                    ],
                    [
                        "Thoron",
                        false
                    ]
                ],
                "starting_skills": [],
                "team": "enemy",
                "ai": "Defend",
                "roam_ai": null,
                "ai_group": "",
                "starting_position": [
                    30,
                    20
                ],
                "starting_traveler": null,
                "generic": true
            },
            {
                "nid": "113",
                "variant": null,
                "level": 27,
                "klass": "Divine_Dragon",
                "faction": "Penitence",
                "starting_items": [
                    [
                        "Life_Stone",
                        false
                    ],
                    [
                        "Brilliance",
                        false
                    ]
                ],
                "starting_skills": [],
                "team": "enemy",
                "ai": "Defend",
                "roam_ai": null,
                "ai_group": "",
                "starting_position": [
                    4,
                    20
                ],
                "starting_traveler": null,
                "generic": true
            },
            {
                "nid": "Priestess_1",
                "variant": "Female",
                "level": 27,
                "klass": "Bishop",
                "faction": "Phantom",
                "starting_items": [
                    [
                        "Assault_Plus",
                        false
                    ],
                    [
                        "ArcDazzle",
                        false
                    ],
                    [
                        "FarAmp",
                        false
                    ]
                ],
                "starting_skills": [],
                "team": "enemy",
                "ai": "Guard",
                "roam_ai": null,
                "ai_group": "",
                "starting_position": null,
                "starting_traveler": null,
                "generic": true
            },
            {
                "nid": "Priestess_2",
                "variant": "Female",
                "level": 27,
                "klass": "Bishop",
                "faction": "Phantom",
                "starting_items": [
                    [
                        "Assault_Plus",
                        false
                    ],
                    [
                        "ArcDazzle",
                        false
                    ],
                    [
                        "FarAmp",
                        false
                    ]
                ],
                "starting_skills": [],
                "team": "enemy",
                "ai": "Guard",
                "roam_ai": null,
                "ai_group": "",
                "starting_position": null,
                "starting_traveler": null,
                "generic": true
            },
            {
                "nid": "Priestess_3",
                "variant": "Female",
                "level": 27,
                "klass": "Bishop",
                "faction": "Phantom",
                "starting_items": [
                    [
                        "Assault_Plus",
                        false
                    ],
                    [
                        "ArcDazzle",
                        false
                    ],
                    [
                        "FarAmp",
                        false
                    ]
                ],
                "starting_skills": [],
                "team": "enemy",
                "ai": "Guard",
                "roam_ai": null,
                "ai_group": "",
                "starting_position": null,
                "starting_traveler": null,
                "generic": true
            },
            {
                "nid": "Priestess_4",
                "variant": "Female",
                "level": 27,
                "klass": "Bishop",
                "faction": "Phantom",
                "starting_items": [
                    [
                        "Assault_Plus",
                        false
                    ],
                    [
                        "ArcDazzle",
                        false
                    ],
                    [
                        "FarAmp",
                        false
                    ]
                ],
                "starting_skills": [],
                "team": "enemy",
                "ai": "Guard",
                "roam_ai": null,
                "ai_group": "",
                "starting_position": null,
                "starting_traveler": null,
                "generic": true
            },
            {
                "nid": "rein_1",
                "variant": null,
                "level": 27,
                "klass": "Draco_Zombie",
                "faction": "Phantom",
                "starting_items": [
                    [
                        "Prism_Stone",
                        false
                    ]
                ],
                "starting_skills": [],
                "team": "enemy",
                "ai": "Pursue",
                "roam_ai": null,
                "ai_group": "",
                "starting_position": null,
                "starting_traveler": null,
                "generic": true
            },
            {
                "nid": "rein_2",
                "variant": null,
                "level": 27,
                "klass": "Greater_Beastkin",
                "faction": "Phantom",
                "starting_items": [
                    [
                        "Prism_Stone",
                        false
                    ]
                ],
                "starting_skills": [],
                "team": "enemy",
                "ai": "Pursue",
                "roam_ai": null,
                "ai_group": "",
                "starting_position": null,
                "starting_traveler": null,
                "generic": true
            },
            {
                "nid": "rein_3",
                "variant": null,
                "level": 27,
                "klass": "Nobleman",
                "faction": "Phantom",
                "starting_items": [
                    [
                        "Disintegrate",
                        false
                    ],
                    [
                        "Fenrir",
                        false
                    ]
                ],
                "starting_skills": [],
                "team": "enemy",
                "ai": "Pursue",
                "roam_ai": null,
                "ai_group": "",
                "starting_position": null,
                "starting_traveler": null,
                "generic": true
            },
            {
                "nid": "rein_4",
                "variant": null,
                "level": 27,
                "klass": "Paladin",
                "faction": "Phantom",
                "starting_items": [
                    [
                        "Brave_Sword",
                        false
                    ],
                    [
                        "Spear",
                        false
                    ]
                ],
                "starting_skills": [],
                "team": "enemy",
                "ai": "Pursue",
                "roam_ai": null,
                "ai_group": "",
                "starting_position": null,
                "starting_traveler": null,
                "generic": true
            }
        ],
        "regions": [
            {
                "nid": "Formation_1",
                "region_type": "formation",
                "position": [
                    17,
                    29
                ],
                "size": [
                    1,
                    1
                ],
                "sub_nid": "",
                "condition": "True",
                "time_left": null,
                "only_once": false,
                "interrupt_move": false
            },
            {
                "nid": "Formation_2",
                "region_type": "formation",
                "position": [
                    16,
                    30
                ],
                "size": [
                    1,
                    1
                ],
                "sub_nid": null,
                "condition": "True",
                "time_left": null,
                "only_once": false,
                "interrupt_move": false
            },
            {
                "nid": "Formation_3",
                "region_type": "formation",
                "position": [
                    18,
                    30
                ],
                "size": [
                    1,
                    1
                ],
                "sub_nid": null,
                "condition": "True",
                "time_left": null,
                "only_once": false,
                "interrupt_move": false
            },
            {
                "nid": "Formation_4",
                "region_type": "formation",
                "position": [
                    30,
                    32
                ],
                "size": [
                    1,
                    1
                ],
                "sub_nid": null,
                "condition": "True",
                "time_left": null,
                "only_once": false,
                "interrupt_move": false
            },
            {
                "nid": "Formation_5",
                "region_type": "formation",
                "position": [
                    29,
                    32
                ],
                "size": [
                    1,
                    1
                ],
                "sub_nid": null,
                "condition": "True",
                "time_left": null,
                "only_once": false,
                "interrupt_move": false
            },
            {
                "nid": "Formation_6",
                "region_type": "formation",
                "position": [
                    31,
                    32
                ],
                "size": [
                    1,
                    1
                ],
                "sub_nid": null,
                "condition": "True",
                "time_left": null,
                "only_once": false,
                "interrupt_move": false
            },
            {
                "nid": "Formation_7",
                "region_type": "formation",
                "position": [
                    30,
                    31
                ],
                "size": [
                    1,
                    1
                ],
                "sub_nid": null,
                "condition": "True",
                "time_left": null,
                "only_once": false,
                "interrupt_move": false
            },
            {
                "nid": "Formation_8",
                "region_type": "formation",
                "position": [
                    3,
                    32
                ],
                "size": [
                    1,
                    1
                ],
                "sub_nid": null,
                "condition": "True",
                "time_left": null,
                "only_once": false,
                "interrupt_move": false
            },
            {
                "nid": "Formation_9",
                "region_type": "formation",
                "position": [
                    4,
                    32
                ],
                "size": [
                    1,
                    1
                ],
                "sub_nid": null,
                "condition": "True",
                "time_left": null,
                "only_once": false,
                "interrupt_move": false
            },
            {
                "nid": "Formation_10",
                "region_type": "formation",
                "position": [
                    5,
                    32
                ],
                "size": [
                    1,
                    1
                ],
                "sub_nid": null,
                "condition": "True",
                "time_left": null,
                "only_once": false,
                "interrupt_move": false
            },
            {
                "nid": "Formation_11",
                "region_type": "formation",
                "position": [
                    4,
                    31
                ],
                "size": [
                    1,
                    1
                ],
                "sub_nid": "",
                "condition": "True",
                "time_left": null,
                "only_once": false,
                "interrupt_move": false
            },
            {
                "nid": "Switch_L",
                "region_type": "event",
                "position": [
                    4,
                    16
                ],
                "size": [
                    1,
                    1
                ],
                "sub_nid": "Switch",
                "condition": "unit.team == 'player'",
                "time_left": null,
                "only_once": true,
                "interrupt_move": false
            },
            {
                "nid": "Switch_R",
                "region_type": "event",
                "position": [
                    30,
                    16
                ],
                "size": [
                    1,
                    1
                ],
                "sub_nid": "Switch",
                "condition": "unit.team == 'player'",
                "time_left": null,
                "only_once": true,
                "interrupt_move": false
            },
            {
                "nid": "Heal_1",
                "region_type": "event",
                "position": [
                    15,
                    27
                ],
                "size": [
                    1,
                    1
                ],
                "sub_nid": "Heal",
                "condition": "unit.team == 'player'",
                "time_left": null,
                "only_once": false,
                "interrupt_move": false
            },
            {
                "nid": "Heal_2",
                "region_type": "event",
                "position": [
                    19,
                    27
                ],
                "size": [
                    1,
                    1
                ],
                "sub_nid": "Heal",
                "condition": "unit.team == 'player'",
                "time_left": null,
                "only_once": false,
                "interrupt_move": false
            }
        ],
        "unit_groups": [],
        "ai_groups": [
            {
                "nid": "canes",
                "trigger_threshold": 2
            },
            {
                "nid": "fabien",
                "trigger_threshold": 2
            },
            {
                "nid": "bot",
                "trigger_threshold": 2
            },
            {
                "nid": "mid",
                "trigger_threshold": 2
            }
        ]
    }
]