[
    {
        "nid": "Hallway",
        "name": "The Great Hall",
        "tilemap": "Hallway",
        "bg_tilemap": null,
        "party": "Player",
        "music": {},
        "objective": {
            "simple": "",
            "win": "",
            "loss": ""
        },
        "roam": true,
        "roam_unit": "Player",
        "go_to_overworld": false,
        "should_record": false,
        "units": [
            {
                "nid": "Player",
                "team": "player",
                "ai": "None",
                "roam_ai": null,
                "ai_group": "",
                "starting_position": [
                    7,
                    57
                ],
                "starting_traveler": null,
                "generic": false
            },
            {
                "nid": "villain",
                "variant": null,
                "level": 1,
                "klass": "Manakete",
                "faction": "Phantom",
                "starting_items": [],
                "starting_skills": [],
                "team": "other",
                "ai": "None",
                "roam_ai": null,
                "ai_group": "",
                "starting_position": null,
                "starting_traveler": null,
                "generic": true
            }
        ],
        "regions": [
            {
                "nid": "Story_Trigger",
                "region_type": "event",
                "position": [
                    6,
                    7
                ],
                "size": [
                    3,
                    2
                ],
                "sub_nid": "Plot",
                "condition": "not RECORDS.get('the_truth')",
                "time_left": null,
                "only_once": true,
                "interrupt_move": true
            },
            {
                "nid": "Continue",
                "region_type": "event",
                "position": [
                    7,
                    2
                ],
                "size": [
                    1,
                    1
                ],
                "sub_nid": "Enter",
                "condition": "RECORDS.get('the_truth')",
                "time_left": null,
                "only_once": false,
                "interrupt_move": false
            },
            {
                "nid": "Door_1",
                "region_type": "event",
                "position": [
                    6,
                    50
                ],
                "size": [
                    3,
                    1
                ],
                "sub_nid": "Door",
                "condition": "True",
                "time_left": null,
                "only_once": false,
                "interrupt_move": false
            },
            {
                "nid": "Door_2",
                "region_type": "event",
                "position": [
                    6,
                    43
                ],
                "size": [
                    3,
                    1
                ],
                "sub_nid": "Door",
                "condition": "True",
                "time_left": null,
                "only_once": false,
                "interrupt_move": false
            },
            {
                "nid": "Door_3",
                "region_type": "event",
                "position": [
                    6,
                    36
                ],
                "size": [
                    3,
                    1
                ],
                "sub_nid": "Door",
                "condition": "True",
                "time_left": null,
                "only_once": false,
                "interrupt_move": false
            },
            {
                "nid": "Door_4",
                "region_type": "event",
                "position": [
                    6,
                    29
                ],
                "size": [
                    3,
                    1
                ],
                "sub_nid": "Door",
                "condition": "True",
                "time_left": null,
                "only_once": false,
                "interrupt_move": false
            },
            {
                "nid": "Door_5",
                "region_type": "event",
                "position": [
                    6,
                    22
                ],
                "size": [
                    3,
                    1
                ],
                "sub_nid": "Door",
                "condition": "True",
                "time_left": null,
                "only_once": false,
                "interrupt_move": false
            },
            {
                "nid": "Door_6",
                "region_type": "event",
                "position": [
                    6,
                    15
                ],
                "size": [
                    3,
                    1
                ],
                "sub_nid": "Door",
                "condition": "True",
                "time_left": null,
                "only_once": false,
                "interrupt_move": false
            }
        ],
        "unit_groups": [],
        "ai_groups": []
    }
]