[
    {
        "nid": "Alphabet",
        "name": "Alphabet",
        "desc": "Submitted by Rasta.",
        "variant": "Armored",
        "level": 1,
        "klass": "Mage",
        "tags": [],
        "bases": {
            "HP": 16,
            "STR": 1,
            "MAG": 7,
            "SKL": 9,
            "SPD": 7,
            "LCK": 4,
            "DEF": 2,
            "RES": 5,
            "CON": 6,
            "MOV": 4
        },
        "growths": {
            "HP": 55,
            "STR": 5,
            "MAG": 55,
            "SKL": 70,
            "SPD": 40,
            "LCK": 25,
            "DEF": 10,
            "RES": 20,
            "CON": 0,
            "MOV": 0
        },
        "stat_cap_modifiers": {},
        "starting_items": [
            [
                "Iron_Tome",
                false
            ],
            [
                "Wind",
                false
            ]
        ],
        "learned_skills": [
            [
                1,
                "Recall"
            ],
            [
                1,
                "Suit_Up"
            ],
            [
                1,
                "Armored_Up_1"
            ]
        ],
        "unit_notes": [],
        "wexp_gain": {
            "Sword": [
                false,
                0,
                251
            ],
            "Lance": [
                false,
                1,
                251
            ],
            "Axe": [
                false,
                0,
                251
            ],
            "Bow": [
                false,
                0,
                251
            ],
            "Knife": [
                false,
                0,
                251
            ],
            "Anima": [
                false,
                1,
                251
            ],
            "Light": [
                false,
                0,
                251
            ],
            "Dark": [
                false,
                0,
                251
            ],
            "Staff": [
                false,
                0,
                251
            ],
            "Dragonstone": [
                false,
                0,
                251
            ],
            "Default": [
                false,
                0,
                251
            ],
            "Stone": [
                false,
                0,
                251
            ]
        },
        "alternate_classes": [],
        "portrait_nid": "Alphabet",
        "affinity": "Fire",
        "fields": []
    }
]