[
    {
        "nid": "Amant",
        "name": "Amant",
        "desc": "Submitted by Kinetic1000.",
        "variant": "",
        "level": 1,
        "klass": "Outlander",
        "tags": [],
        "bases": {
            "HP": 18,
            "STR": 7,
            "MAG": 2,
            "SKL": 7,
            "SPD": 6,
            "LCK": 2,
            "DEF": 6,
            "RES": 2,
            "CON": 8,
            "MOV": 4
        },
        "growths": {
            "HP": 70,
            "STR": 45,
            "MAG": 10,
            "SKL": 40,
            "SPD": 40,
            "LCK": 20,
            "DEF": 25,
            "RES": 15,
            "CON": 0,
            "MOV": 0
        },
        "stat_cap_modifiers": {},
        "starting_items": [
            [
                "Iron_Sword",
                false
            ],
            [
                "Ridill",
                false
            ],
            [
                "Alert_Charm",
                false
            ]
        ],
        "learned_skills": [
            [
                1,
                "Adrenaline_Rush"
            ],
            [
                1,
                "Stalwart"
            ],
            [
                1,
                "Triangle_Adept"
            ]
        ],
        "unit_notes": [],
        "wexp_gain": {
            "Sword": [
                false,
                1,
                251
            ],
            "Lance": [
                false,
                1,
                251
            ],
            "Axe": [
                false,
                0,
                251
            ],
            "Bow": [
                false,
                0,
                251
            ],
            "Knife": [
                false,
                0,
                251
            ],
            "Anima": [
                false,
                0,
                251
            ],
            "Light": [
                false,
                0,
                251
            ],
            "Dark": [
                false,
                0,
                251
            ],
            "Staff": [
                false,
                0,
                251
            ],
            "Dragonstone": [
                false,
                0,
                251
            ],
            "Default": [
                false,
                0,
                251
            ],
            "Stone": [
                false,
                0,
                251
            ]
        },
        "alternate_classes": [],
        "portrait_nid": "AmantAlt2",
        "affinity": "Thunder",
        "fields": []
    }
]