[
    {
        "nid": "Beau",
        "name": "Beau",
        "desc": "Submitted by Leche.",
        "variant": "Male",
        "level": 1,
        "klass": "Cleric",
        "tags": [],
        "bases": {
            "HP": 25,
            "STR": 2,
            "MAG": 3,
            "SKL": 7,
            "SPD": 7,
            "LCK": 12,
            "DEF": 4,
            "RES": 10,
            "CON": 9,
            "MOV": 4
        },
        "growths": {
            "HP": 85,
            "STR": 10,
            "MAG": 15,
            "SKL": 40,
            "SPD": 40,
            "LCK": 65,
            "DEF": 25,
            "RES": 60,
            "CON": 0,
            "MOV": 0
        },
        "stat_cap_modifiers": {},
        "starting_items": [
            [
                "Heal",
                false
            ],
            [
                "Toxify",
                false
            ],
            [
                "ProofOfCovenant",
                false
            ]
        ],
        "learned_skills": [
            [
                1,
                "ShadowSlip"
            ],
            [
                1,
                "SoulEater"
            ],
            [
                1,
                "Ascension"
            ],
            [
                1,
                "BeforeTheGatelessGate"
            ]
        ],
        "unit_notes": [],
        "wexp_gain": {
            "Sword": [
                false,
                0,
                251
            ],
            "Lance": [
                false,
                0,
                251
            ],
            "Axe": [
                false,
                0,
                251
            ],
            "Bow": [
                false,
                0,
                251
            ],
            "Knife": [
                false,
                0,
                251
            ],
            "Anima": [
                false,
                0,
                251
            ],
            "Light": [
                false,
                0,
                251
            ],
            "Dark": [
                false,
                1,
                251
            ],
            "Staff": [
                false,
                1,
                251
            ],
            "Dragonstone": [
                false,
                0,
                251
            ],
            "Default": [
                false,
                0,
                251
            ],
            "Stone": [
                false,
                0,
                251
            ]
        },
        "alternate_classes": [],
        "portrait_nid": "Beau_1",
        "affinity": "Dark",
        "fields": []
    }
]