[
    {
        "nid": "Belle",
        "name": "Belle",
        "desc": "Submitted by Rasta.",
        "variant": "Female",
        "level": 1,
        "klass": "Civilian_Eun",
        "tags": [
            "Female"
        ],
        "bases": {
            "HP": 19,
            "STR": 3,
            "MAG": 2,
            "SKL": 9,
            "SPD": 7,
            "LCK": 9,
            "DEF": 4,
            "RES": 7,
            "CON": 5,
            "MOV": 4
        },
        "growths": {
            "HP": 65,
            "STR": 20,
            "MAG": 20,
            "SKL": 65,
            "SPD": 45,
            "LCK": 65,
            "DEF": 25,
            "RES": 45,
            "CON": 0,
            "MOV": 0
        },
        "stat_cap_modifiers": {},
        "starting_items": [
            [
                "Revolver",
                false
            ],
            [
                "Potion_Belt",
                false
            ]
        ],
        "learned_skills": [
            [
                1,
                "Trap_Master"
            ],
            [
                1,
                "Bombmaker"
            ],
            [
                1,
                "Quickdraw"
            ]
        ],
        "unit_notes": [],
        "wexp_gain": {
            "Sword": [
                false,
                0,
                251
            ],
            "Lance": [
                false,
                0,
                251
            ],
            "Axe": [
                false,
                0,
                251
            ],
            "Bow": [
                false,
                0,
                251
            ],
            "Knife": [
                false,
                1,
                251
            ],
            "Anima": [
                false,
                0,
                251
            ],
            "Light": [
                false,
                0,
                251
            ],
            "Dark": [
                false,
                0,
                251
            ],
            "Staff": [
                false,
                1,
                251
            ],
            "Stone": [
                false,
                0,
                251
            ],
            "Default": [
                false,
                0,
                251
            ]
        },
        "alternate_classes": [],
        "portrait_nid": "Belle",
        "affinity": "Earth",
        "fields": []
    }
]