[
    {
        "nid": "BloodyTalon",
        "name": "Bloody Talon",
        "desc": "Submitted by RandomWizard.",
        "variant": "",
        "level": 1,
        "klass": "Gargoyle",
        "tags": [],
        "bases": {
            "HP": 21,
            "STR": 7,
            "MAG": 2,
            "SKL": 4,
            "SPD": 7,
            "LCK": 4,
            "DEF": 7,
            "RES": 1,
            "CON": 10,
            "MOV": 5
        },
        "growths": {
            "HP": 80,
            "STR": 45,
            "MAG": 5,
            "SKL": 35,
            "SPD": 35,
            "LCK": 30,
            "DEF": 25,
            "RES": 15,
            "CON": 0,
            "MOV": 0
        },
        "stat_cap_modifiers": {
            "HP": 0,
            "STR": 0,
            "MAG": 0,
            "SKL": 0,
            "SPD": 0,
            "LCK": 0,
            "DEF": 0,
            "RES": 0,
            "CON": 0,
            "MOV": 0
        },
        "starting_items": [
            [
                "Demon_Trident",
                false
            ]
        ],
        "learned_skills": [
            [
                1,
                "PoisonFangs"
            ],
            [
                1,
                "FellSwoop"
            ]
        ],
        "unit_notes": [],
        "wexp_gain": {
            "Sword": [
                false,
                0,
                251
            ],
            "Lance": [
                false,
                15,
                251
            ],
            "Axe": [
                false,
                0,
                251
            ],
            "Bow": [
                false,
                0,
                251
            ],
            "Knife": [
                false,
                0,
                251
            ],
            "Anima": [
                false,
                0,
                251
            ],
            "Light": [
                false,
                0,
                251
            ],
            "Dark": [
                false,
                0,
                251
            ],
            "Staff": [
                false,
                0,
                251
            ],
            "Stone": [
                false,
                0,
                251
            ],
            "Default": [
                false,
                0,
                251
            ]
        },
        "alternate_classes": [],
        "portrait_nid": "bloodytalon",
        "affinity": "Dark",
        "fields": []
    }
]