[
    {
        "nid": "Bootes_Final",
        "name": "Bo\u00f6tes",
        "desc": "A powerful Manakete, and leader of the Oculi.\nAlso known as \"The Herdsman\".",
        "variant": "",
        "level": 27,
        "klass": "Mage_Dragon",
        "tags": [
            "Boss"
        ],
        "bases": {
            "HP": 40,
            "STR": 12,
            "MAG": 21,
            "SKL": 16,
            "SPD": 12,
            "LCK": 13,
            "DEF": 16,
            "CON": 15,
            "MOV": 5,
            "RES": 30
        },
        "growths": {
            "HP": 75,
            "STR": 25,
            "MAG": 45,
            "SKL": 35,
            "SPD": 20,
            "LCK": 20,
            "DEF": 25,
            "CON": 0,
            "MOV": 0,
            "RES": 75
        },
        "stat_cap_modifiers": {},
        "starting_items": [
            [
                "Breath_of_Dust",
                false
            ],
            [
                "Magic_Expulsion",
                false
            ]
        ],
        "learned_skills": [
            [
                1,
                "Gift_of_Magic"
            ],
            [
                1,
                "Mana_Channeling"
            ],
            [
                1,
                "Legend"
            ],
            [
                1,
                "HP_Double"
            ]
        ],
        "unit_notes": [],
        "wexp_gain": {
            "Sword": [
                true,
                0,
                251
            ],
            "Lance": [
                false,
                0,
                251
            ],
            "Axe": [
                false,
                0,
                251
            ],
            "Bow": [
                false,
                0,
                251
            ],
            "Staff": [
                false,
                0,
                251
            ],
            "Light": [
                false,
                0,
                251
            ],
            "Anima": [
                false,
                0,
                251
            ],
            "Dark": [
                false,
                37,
                251
            ],
            "Default": [
                false,
                0,
                251
            ],
            "Dragonstone": [
                false,
                51,
                251
            ],
            "Stone": [
                false,
                51,
                251
            ]
        },
        "alternate_classes": [],
        "portrait_nid": "Boss_1",
        "affinity": "Light",
        "fields": []
    }
]