[
    {
        "nid": "Carrey",
        "name": "Carrey",
        "desc": "Submitted by RandomWizard.",
        "variant": "Female",
        "level": 1,
        "klass": "Troubadour",
        "tags": [
            "Female"
        ],
        "bases": {
            "HP": 19,
            "STR": 1,
            "MAG": 6,
            "SKL": 9,
            "SPD": 8,
            "LCK": 11,
            "DEF": 1,
            "RES": 7,
            "CON": 3,
            "MOV": 5
        },
        "growths": {
            "HP": 50,
            "STR": 10,
            "MAG": 25,
            "SKL": 45,
            "SPD": 40,
            "LCK": 55,
            "DEF": 10,
            "RES": 35,
            "CON": 0,
            "MOV": 0
        },
        "stat_cap_modifiers": {},
        "starting_items": [
            [
                "Heal",
                false
            ]
        ],
        "learned_skills": [
            [
                1,
                "Base_MOV_Plus"
            ],
            [
                1,
                "GotYou"
            ],
            [
                1,
                "TurnRelay"
            ],
            [
                1,
                "Catapult"
            ]
        ],
        "unit_notes": [],
        "wexp_gain": {
            "Sword": [
                false,
                0,
                51
            ],
            "Lance": [
                false,
                0,
                51
            ],
            "Axe": [
                false,
                0,
                51
            ],
            "Bow": [
                false,
                0,
                51
            ],
            "Knife": [
                false,
                0,
                51
            ],
            "Anima": [
                false,
                0,
                51
            ],
            "Light": [
                false,
                1,
                51
            ],
            "Dark": [
                false,
                0,
                51
            ],
            "Staff": [
                false,
                1,
                51
            ],
            "Stone": [
                false,
                0,
                51
            ],
            "Default": [
                false,
                0,
                51
            ]
        },
        "alternate_classes": [],
        "portrait_nid": "Tweed Carrey",
        "affinity": "Light",
        "fields": []
    }
]