[
    {
        "nid": "Celia",
        "name": "Celia",
        "desc": "Submitted by KD.\nA quick-witted merchant from a\nfar off land.",
        "variant": "Female",
        "level": 1,
        "klass": "Griffon_Rider",
        "tags": [
            "Female"
        ],
        "bases": {
            "HP": 17,
            "STR": 7,
            "MAG": 3,
            "SKL": 11,
            "SPD": 7,
            "LCK": 6,
            "DEF": 3,
            "RES": 3,
            "CON": 9,
            "MOV": 5
        },
        "growths": {
            "HP": 25,
            "STR": 25,
            "MAG": 25,
            "SKL": 60,
            "SPD": 70,
            "LCK": 40,
            "DEF": 15,
            "RES": 30,
            "CON": 0,
            "MOV": 0
        },
        "stat_cap_modifiers": {},
        "starting_items": [
            [
                "Iron_Bow",
                false
            ],
            [
                "Short_Bow",
                false
            ],
            [
                "Energy_Ring",
                false
            ]
        ],
        "learned_skills": [
            [
                1,
                "VantagePlus"
            ]
        ],
        "unit_notes": [],
        "wexp_gain": {
            "Sword": [
                false,
                0,
                51
            ],
            "Lance": [
                false,
                1,
                51
            ],
            "Axe": [
                false,
                0,
                51
            ],
            "Bow": [
                false,
                7,
                51
            ],
            "Knife": [
                false,
                0,
                51
            ],
            "Anima": [
                false,
                0,
                51
            ],
            "Light": [
                false,
                0,
                51
            ],
            "Dark": [
                false,
                0,
                51
            ],
            "Staff": [
                false,
                0,
                51
            ],
            "Stone": [
                false,
                0,
                51
            ],
            "Default": [
                false,
                0,
                51
            ]
        },
        "alternate_classes": [],
        "portrait_nid": "Celia",
        "affinity": "Light",
        "fields": []
    }
]