[
    {
        "nid": "Construct",
        "name": "Construct",
        "desc": "A mechanical marvel.",
        "variant": "",
        "level": 1,
        "klass": "Armor",
        "tags": [
            "Mech"
        ],
        "bases": {
            "HP": 24,
            "STR": 8,
            "MAG": 0,
            "SKL": 7,
            "SPD": 3,
            "LCK": 0,
            "DEF": 8,
            "RES": 0,
            "CON": 10,
            "MOV": 4
        },
        "growths": {
            "HP": 70,
            "STR": 40,
            "MAG": 0,
            "SKL": 45,
            "SPD": 20,
            "LCK": 35,
            "DEF": 35,
            "RES": 10,
            "CON": 0,
            "MOV": 0
        },
        "stat_cap_modifiers": {},
        "starting_items": [
            [
                "Iron_Lance",
                false
            ],
            [
                "Rusty_Nail",
                false
            ]
        ],
        "learned_skills": [],
        "unit_notes": [],
        "wexp_gain": {
            "Sword": [
                false,
                0,
                51
            ],
            "Lance": [
                false,
                1,
                51
            ],
            "Axe": [
                false,
                0,
                51
            ],
            "Bow": [
                false,
                0,
                51
            ],
            "Knife": [
                false,
                0,
                51
            ],
            "Anima": [
                false,
                0,
                51
            ],
            "Light": [
                false,
                0,
                51
            ],
            "Dark": [
                false,
                0,
                51
            ],
            "Staff": [
                false,
                0,
                51
            ],
            "Stone": [
                false,
                0,
                51
            ],
            "Default": [
                false,
                0,
                51
            ]
        },
        "alternate_classes": [],
        "portrait_nid": "Robed Figure",
        "affinity": "Earth",
        "fields": []
    }
]