[
    {
        "nid": "Dawn",
        "name": "Dawn",
        "desc": "Submitted by Maximus03.",
        "variant": "Female",
        "level": 1,
        "klass": "Brightwing",
        "tags": [
            "Female"
        ],
        "bases": {
            "HP": 15,
            "STR": 2,
            "MAG": 7,
            "SKL": 6,
            "SPD": 8,
            "LCK": 10,
            "DEF": 0,
            "RES": 9,
            "CON": 3,
            "MOV": 5
        },
        "growths": {
            "HP": 50,
            "STR": 35,
            "MAG": 40,
            "SKL": 30,
            "SPD": 45,
            "LCK": 50,
            "DEF": 5,
            "RES": 35,
            "CON": 0,
            "MOV": 0
        },
        "stat_cap_modifiers": {},
        "starting_items": [
            [
                "Flash",
                false
            ],
            [
                "Ray",
                false
            ]
        ],
        "learned_skills": [
            [
                1,
                "Radiant_Care"
            ],
            [
                1,
                "From_Heaven"
            ],
            [
                1,
                "Consecration"
            ],
            [
                1,
                "Overwhelmed"
            ]
        ],
        "unit_notes": [],
        "wexp_gain": {
            "Sword": [
                false,
                0,
                251
            ],
            "Lance": [
                false,
                0,
                251
            ],
            "Axe": [
                false,
                0,
                251
            ],
            "Bow": [
                false,
                0,
                251
            ],
            "Knife": [
                false,
                1,
                251
            ],
            "Anima": [
                false,
                0,
                251
            ],
            "Light": [
                false,
                1,
                251
            ],
            "Dark": [
                false,
                0,
                251
            ],
            "Staff": [
                false,
                0,
                251
            ],
            "Dragonstone": [
                false,
                0,
                251
            ],
            "Default": [
                false,
                0,
                251
            ],
            "Stone": [
                false,
                0,
                251
            ]
        },
        "alternate_classes": [],
        "portrait_nid": "Dawn",
        "affinity": "Light",
        "fields": []
    }
]