[
    {
        "nid": "Eun",
        "name": "Eun",
        "desc": "Submitted by RandomWizard.",
        "variant": "Female",
        "level": 1,
        "klass": "Civilian_Eun",
        "tags": [
            "Female"
        ],
        "bases": {
            "HP": 22,
            "STR": 2,
            "MAG": 1,
            "SKL": 7,
            "SPD": 8,
            "LCK": 7,
            "DEF": 4,
            "RES": 8,
            "CON": 5,
            "MOV": 4
        },
        "growths": {
            "HP": 65,
            "STR": 20,
            "MAG": 20,
            "SKL": 45,
            "SPD": 50,
            "LCK": 45,
            "DEF": 25,
            "RES": 55,
            "CON": 0,
            "MOV": 0
        },
        "stat_cap_modifiers": {},
        "starting_items": [
            [
                "Egg_Bomb",
                false
            ],
            [
                "Constricting_Net",
                false
            ],
            [
                "Life_Salve",
                false
            ],
            [
                "Bolas",
                false
            ]
        ],
        "learned_skills": [
            [
                1,
                "TrueArmsthrift"
            ]
        ],
        "unit_notes": [],
        "wexp_gain": {
            "Sword": [
                false,
                0,
                251
            ],
            "Lance": [
                false,
                0,
                251
            ],
            "Axe": [
                false,
                0,
                251
            ],
            "Bow": [
                false,
                0,
                251
            ],
            "Knife": [
                false,
                1,
                251
            ],
            "Anima": [
                false,
                0,
                251
            ],
            "Light": [
                false,
                0,
                251
            ],
            "Dark": [
                false,
                0,
                251
            ],
            "Staff": [
                false,
                1,
                251
            ],
            "Stone": [
                false,
                0,
                251
            ],
            "Default": [
                false,
                0,
                251
            ]
        },
        "alternate_classes": [],
        "portrait_nid": "Tweed Eun",
        "affinity": "Earth",
        "fields": []
    }
]