[
    {
        "nid": "Fabien",
        "name": "Fabien",
        "desc": "One of the mightiest generals of the Lux Coalition.",
        "variant": "Male",
        "level": 15,
        "klass": "Champion",
        "tags": [
            "Boss"
        ],
        "bases": {
            "HP": 50,
            "STR": 15,
            "MAG": 10,
            "SKL": 12,
            "SPD": 13,
            "LCK": 9,
            "DEF": 10,
            "RES": 8,
            "CON": 15,
            "MOV": 5
        },
        "growths": {
            "HP": 75,
            "STR": 50,
            "MAG": 35,
            "SKL": 35,
            "SPD": 30,
            "LCK": 25,
            "DEF": 15,
            "RES": 5,
            "CON": 0,
            "MOV": 0
        },
        "stat_cap_modifiers": {},
        "starting_items": [
            [
                "Silver_Sword",
                false
            ],
            [
                "Spear",
                false
            ],
            [
                "Bolt_Axe",
                false
            ],
            [
                "Pivot_Band",
                false
            ]
        ],
        "learned_skills": [
            [
                1,
                "Veteran_Plus"
            ],
            [
                1,
                "Affinity_Tamer"
            ],
            [
                1,
                "Legend"
            ]
        ],
        "unit_notes": [],
        "wexp_gain": {
            "Sword": [
                false,
                25,
                251
            ],
            "Lance": [
                false,
                25,
                251
            ],
            "Axe": [
                false,
                25,
                251
            ],
            "Bow": [
                false,
                0,
                251
            ],
            "Knife": [
                false,
                0,
                251
            ],
            "Anima": [
                false,
                0,
                251
            ],
            "Light": [
                false,
                0,
                251
            ],
            "Dark": [
                false,
                0,
                251
            ],
            "Staff": [
                false,
                0,
                251
            ],
            "Stone": [
                false,
                0,
                251
            ],
            "Default": [
                false,
                0,
                251
            ]
        },
        "alternate_classes": [],
        "portrait_nid": "Fabien",
        "affinity": "Thunder",
        "fields": []
    }
]