[
    {
        "nid": "G_Demon",
        "name": "Great Demon",
        "desc": "The Great Demon, bringer of calamity.",
        "variant": "",
        "level": 40,
        "klass": "Great_Demon",
        "tags": [
            "Boss"
        ],
        "bases": {
            "HP": 70,
            "STR": 25,
            "MAG": 24,
            "SKL": 21,
            "SPD": 19,
            "LCK": 13,
            "DEF": 28,
            "RES": 27,
            "CON": 20,
            "MOV": 5
        },
        "growths": {
            "HP": 0,
            "STR": 0,
            "MAG": 0,
            "SKL": 0,
            "SPD": 0,
            "LCK": 0,
            "DEF": 0,
            "RES": 0,
            "CON": 0,
            "MOV": 0
        },
        "stat_cap_modifiers": {},
        "starting_items": [
            [
                "Ravager",
                false
            ],
            [
                "Demon Light",
                false
            ],
            [
                "Nightmare",
                false
            ]
        ],
        "learned_skills": [
            [
                1,
                "Legend"
            ],
            [
                1,
                "Unworldly_Might"
            ],
            [
                1,
                "Distant_Counter"
            ],
            [
                1,
                "HP_x10"
            ]
        ],
        "unit_notes": [],
        "wexp_gain": {
            "Sword": [
                false,
                0,
                51
            ],
            "Lance": [
                false,
                0,
                51
            ],
            "Axe": [
                false,
                0,
                51
            ],
            "Bow": [
                false,
                0,
                51
            ],
            "Knife": [
                false,
                0,
                51
            ],
            "Anima": [
                false,
                0,
                51
            ],
            "Light": [
                false,
                0,
                51
            ],
            "Dark": [
                false,
                0,
                51
            ],
            "Staff": [
                false,
                0,
                51
            ],
            "Stone": [
                false,
                0,
                51
            ],
            "Default": [
                false,
                0,
                51
            ]
        },
        "alternate_classes": [],
        "portrait_nid": "Filler",
        "affinity": "Dark",
        "fields": []
    }
]