[
    {
        "nid": "Gemini_M_E",
        "name": "Gemini",
        "desc": "A member of the Oculi.\nHas never been separated from his sister.",
        "variant": "Male",
        "level": 1,
        "klass": "Trickster",
        "tags": [
            "Boss"
        ],
        "bases": {
            "HP": 17,
            "STR": 5,
            "MAG": 5,
            "SKL": 9,
            "SPD": 6,
            "LCK": 6,
            "DEF": 3,
            "RES": 6,
            "CON": 7,
            "MOV": 5
        },
        "growths": {
            "HP": 60,
            "STR": 35,
            "MAG": 40,
            "SKL": 55,
            "SPD": 40,
            "LCK": 35,
            "DEF": 10,
            "RES": 25,
            "CON": 0,
            "MOV": 0
        },
        "stat_cap_modifiers": {},
        "starting_items": [
            [
                "Killer_Bow",
                false
            ],
            [
                "Slumber_Stabber",
                false
            ]
        ],
        "learned_skills": [
            [
                1,
                "Dynamic_Duo_Boss"
            ],
            [
                1,
                "Legend"
            ]
        ],
        "unit_notes": [],
        "wexp_gain": {
            "Sword": [
                false,
                0,
                251
            ],
            "Lance": [
                false,
                0,
                251
            ],
            "Axe": [
                false,
                0,
                251
            ],
            "Bow": [
                false,
                15,
                251
            ],
            "Knife": [
                false,
                15,
                251
            ],
            "Anima": [
                false,
                0,
                251
            ],
            "Light": [
                false,
                0,
                251
            ],
            "Dark": [
                false,
                0,
                251
            ],
            "Staff": [
                false,
                0,
                251
            ],
            "Dragonstone": [
                false,
                0,
                251
            ],
            "Default": [
                false,
                0,
                251
            ],
            "Stone": [
                false,
                0,
                251
            ]
        },
        "alternate_classes": [],
        "portrait_nid": "Gemini_M",
        "affinity": "Dark",
        "fields": []
    }
]