[
    {
        "nid": "Gerhana",
        "name": "Gerhana",
        "desc": "Submitted by RandomWizard.",
        "variant": "Female",
        "level": 1,
        "klass": "Cavalier",
        "tags": [
            "Female"
        ],
        "bases": {
            "HP": 19,
            "STR": 7,
            "MAG": 5,
            "SKL": 4,
            "SPD": 10,
            "LCK": 4,
            "DEF": 9,
            "RES": 3,
            "CON": 8,
            "MOV": 5
        },
        "growths": {
            "HP": 50,
            "STR": 40,
            "MAG": 35,
            "SKL": 30,
            "SPD": 50,
            "LCK": 30,
            "DEF": 50,
            "RES": 20,
            "CON": 0,
            "MOV": 0
        },
        "stat_cap_modifiers": {},
        "starting_items": [
            [
                "Berangin",
                false
            ],
            [
                "Gunung",
                false
            ]
        ],
        "learned_skills": [
            [
                1,
                "Windwreathing"
            ],
            [
                1,
                "Stoneshawling"
            ]
        ],
        "unit_notes": [],
        "wexp_gain": {
            "Sword": [
                false,
                1,
                51
            ],
            "Lance": [
                false,
                1,
                51
            ],
            "Axe": [
                false,
                0,
                51
            ],
            "Bow": [
                false,
                0,
                51
            ],
            "Knife": [
                false,
                0,
                51
            ],
            "Anima": [
                false,
                0,
                51
            ],
            "Light": [
                false,
                0,
                51
            ],
            "Dark": [
                false,
                0,
                51
            ],
            "Staff": [
                false,
                0,
                51
            ],
            "Stone": [
                false,
                0,
                51
            ],
            "Default": [
                false,
                0,
                51
            ]
        },
        "alternate_classes": [],
        "portrait_nid": "zess gerhana",
        "affinity": "Earth",
        "fields": []
    }
]