[
    {
        "nid": "Gorbat",
        "name": "Gorbat",
        "desc": "Submitted by RandomWizard.",
        "variant": "",
        "level": 1,
        "klass": "Axe_Armor",
        "tags": [],
        "bases": {
            "HP": 22,
            "STR": 12,
            "MAG": 2,
            "SKL": 3,
            "SPD": 2,
            "LCK": 0,
            "DEF": 8,
            "RES": 1,
            "CON": 12,
            "MOV": 4
        },
        "growths": {
            "HP": 95,
            "STR": 90,
            "MAG": 3,
            "SKL": 20,
            "SPD": 15,
            "LCK": 2,
            "DEF": 40,
            "RES": 5,
            "CON": 0,
            "MOV": 0
        },
        "stat_cap_modifiers": {},
        "starting_items": [
            [
                "Iron_Axe",
                false
            ],
            [
                "Devil_Axe",
                false
            ],
            [
                "Killer_Helm",
                false
            ]
        ],
        "learned_skills": [
            [
                1,
                "Master_Pivot"
            ]
        ],
        "unit_notes": [],
        "wexp_gain": {
            "Sword": [
                false,
                1,
                251
            ],
            "Lance": [
                false,
                1,
                251
            ],
            "Axe": [
                false,
                1,
                251
            ],
            "Bow": [
                false,
                1,
                251
            ],
            "Knife": [
                false,
                0,
                251
            ],
            "Anima": [
                false,
                0,
                251
            ],
            "Light": [
                false,
                0,
                251
            ],
            "Dark": [
                false,
                0,
                251
            ],
            "Staff": [
                false,
                0,
                251
            ],
            "Dragonstone": [
                false,
                0,
                251
            ],
            "Default": [
                false,
                0,
                251
            ],
            "Stone": [
                false,
                0,
                251
            ]
        },
        "alternate_classes": [],
        "portrait_nid": "Gorbat",
        "affinity": "Dark",
        "fields": []
    }
]