[
    {
        "nid": "Grigol_S",
        "name": "Grigol",
        "desc": "A general in the Last Hope army.\nHe is well loved by his subordinates.",
        "variant": "",
        "level": 25,
        "klass": "Saboteur",
        "tags": [
            "Boss"
        ],
        "bases": {
            "HP": 60,
            "STR": 19,
            "MAG": 17,
            "SKL": 20,
            "SPD": 18,
            "LCK": 14,
            "DEF": 11,
            "RES": 16,
            "CON": 13,
            "MOV": 5
        },
        "growths": {
            "HP": 50,
            "STR": 30,
            "MAG": 35,
            "SKL": 55,
            "SPD": 40,
            "LCK": 30,
            "DEF": 15,
            "RES": 20,
            "CON": 0,
            "MOV": 0
        },
        "stat_cap_modifiers": {},
        "starting_items": [
            [
                "Grigol_Brand",
                false
            ],
            [
                "Fenrir",
                false
            ],
            [
                "Seers_Eye",
                false
            ]
        ],
        "learned_skills": [
            [
                1,
                "Legend"
            ]
        ],
        "unit_notes": [],
        "wexp_gain": {
            "Sword": [
                false,
                51,
                251
            ],
            "Lance": [
                false,
                0,
                251
            ],
            "Axe": [
                false,
                0,
                251
            ],
            "Bow": [
                false,
                0,
                251
            ],
            "Knife": [
                false,
                0,
                251
            ],
            "Anima": [
                false,
                0,
                251
            ],
            "Light": [
                false,
                0,
                251
            ],
            "Dark": [
                false,
                37,
                251
            ],
            "Staff": [
                false,
                0,
                251
            ],
            "Stone": [
                false,
                0,
                251
            ],
            "Default": [
                false,
                0,
                251
            ]
        },
        "alternate_classes": [],
        "portrait_nid": "Grigol",
        "affinity": "Water",
        "fields": []
    }
]