[
    {
        "nid": "Haryld",
        "name": "Haryld",
        "desc": "Submitted by RandomWizard.",
        "variant": "",
        "level": 1,
        "klass": "Brightwing",
        "tags": [],
        "bases": {
            "HP": 15,
            "STR": 2,
            "MAG": 10,
            "SKL": 10,
            "SPD": 6,
            "LCK": 5,
            "DEF": 1,
            "RES": 4,
            "CON": 6,
            "MOV": 5
        },
        "growths": {
            "HP": 50,
            "STR": 25,
            "MAG": 50,
            "SKL": 55,
            "SPD": 30,
            "LCK": 35,
            "DEF": 15,
            "RES": 40,
            "CON": 0,
            "MOV": 0
        },
        "stat_cap_modifiers": {
            "HP": 0,
            "STR": 0,
            "MAG": 0,
            "SKL": 0,
            "SPD": 0,
            "LCK": 0,
            "DEF": 0,
            "RES": 0,
            "CON": 0,
            "MOV": 0
        },
        "starting_items": [
            [
                "Lightning",
                false
            ],
            [
                "Luster",
                false
            ],
            [
                "Wishblade",
                false
            ]
        ],
        "learned_skills": [
            [
                1,
                "RiseInRange"
            ],
            [
                1,
                "Triangle_Adept"
            ],
            [
                1,
                "HaryldLanceRestrict"
            ]
        ],
        "unit_notes": [],
        "wexp_gain": {
            "Sword": [
                false,
                0,
                251
            ],
            "Lance": [
                false,
                1,
                251
            ],
            "Axe": [
                false,
                0,
                251
            ],
            "Bow": [
                false,
                0,
                251
            ],
            "Knife": [
                false,
                1,
                251
            ],
            "Anima": [
                false,
                0,
                251
            ],
            "Light": [
                false,
                7,
                251
            ],
            "Dark": [
                false,
                0,
                251
            ],
            "Staff": [
                false,
                0,
                251
            ],
            "Stone": [
                false,
                0,
                251
            ],
            "Default": [
                false,
                0,
                251
            ]
        },
        "alternate_classes": [],
        "portrait_nid": "haryld",
        "affinity": "Ice",
        "fields": []
    }
]