[
    {
        "nid": "Ilona",
        "name": "Ilona",
        "desc": "A general in the Last Hope army.\nAn exemplar of the army's core beliefs.",
        "variant": "Female",
        "level": 1,
        "klass": "Flagbearer",
        "tags": [
            "Female"
        ],
        "bases": {
            "HP": 18,
            "STR": 7,
            "MAG": 4,
            "SKL": 5,
            "SPD": 8,
            "LCK": 10,
            "DEF": 6,
            "RES": 5,
            "CON": 7,
            "MOV": 5
        },
        "growths": {
            "HP": 60,
            "STR": 40,
            "MAG": 25,
            "SKL": 25,
            "SPD": 40,
            "LCK": 55,
            "DEF": 25,
            "RES": 20,
            "CON": 0,
            "MOV": 0
        },
        "stat_cap_modifiers": {},
        "starting_items": [
            [
                "Flag_of_Hope",
                false
            ],
            [
                "Marking_Pin",
                false
            ]
        ],
        "learned_skills": [
            [
                1,
                "Leading_Charge"
            ],
            [
                1,
                "Allied_Fortress"
            ],
            [
                1,
                "Inspired_Heal"
            ]
        ],
        "unit_notes": [],
        "wexp_gain": {
            "Sword": [
                false,
                0,
                251
            ],
            "Lance": [
                false,
                0,
                251
            ],
            "Axe": [
                false,
                0,
                251
            ],
            "Bow": [
                false,
                0,
                251
            ],
            "Knife": [
                false,
                0,
                251
            ],
            "Anima": [
                false,
                0,
                251
            ],
            "Light": [
                false,
                0,
                251
            ],
            "Dark": [
                false,
                0,
                251
            ],
            "Staff": [
                false,
                0,
                251
            ],
            "Dragonstone": [
                false,
                0,
                251
            ],
            "Default": [
                false,
                0,
                251
            ],
            "Stone": [
                false,
                0,
                251
            ]
        },
        "alternate_classes": [],
        "portrait_nid": "Ilona",
        "affinity": "Wind",
        "fields": []
    }
]