[
    {
        "nid": "Jeckle",
        "name": "Jeckle",
        "desc": "Submitted by Rasta.",
        "variant": "",
        "level": 1,
        "klass": "Outlaw",
        "tags": [],
        "bases": {
            "HP": 18,
            "STR": 7,
            "MAG": 7,
            "SKL": 11,
            "SPD": 5,
            "LCK": 9,
            "DEF": 2,
            "RES": 8,
            "CON": 8,
            "MOV": 4
        },
        "growths": {
            "HP": 50,
            "STR": 40,
            "MAG": 40,
            "SKL": 55,
            "SPD": 20,
            "LCK": 45,
            "DEF": 10,
            "RES": 45,
            "CON": 0,
            "MOV": 0
        },
        "stat_cap_modifiers": {},
        "starting_items": [
            [
                "Longbow",
                false
            ],
            [
                "Iron_Bow",
                false
            ]
        ],
        "learned_skills": [
            [
                1,
                "SureStrike"
            ],
            [
                1,
                "SpurSpeed"
            ]
        ],
        "unit_notes": [],
        "wexp_gain": {
            "Sword": [
                false,
                0,
                251
            ],
            "Lance": [
                false,
                0,
                251
            ],
            "Axe": [
                false,
                0,
                251
            ],
            "Bow": [
                false,
                7,
                251
            ],
            "Knife": [
                false,
                1,
                251
            ],
            "Anima": [
                false,
                0,
                251
            ],
            "Light": [
                false,
                0,
                251
            ],
            "Dark": [
                false,
                0,
                251
            ],
            "Staff": [
                false,
                0,
                251
            ],
            "Dragonstone": [
                false,
                0,
                251
            ],
            "Default": [
                false,
                0,
                251
            ],
            "Stone": [
                false,
                0,
                251
            ]
        },
        "alternate_classes": [],
        "portrait_nid": "XVI_Darrin 2",
        "affinity": "Water",
        "fields": []
    }
]