[
    {
        "nid": "John",
        "name": "John",
        "desc": "Submitted by RandomWizard.",
        "variant": "",
        "level": 1,
        "klass": "Soldier",
        "tags": [],
        "bases": {
            "HP": 25,
            "STR": 11,
            "MAG": 3,
            "SKL": 11,
            "SPD": 11,
            "LCK": 5,
            "DEF": 8,
            "RES": 0,
            "CON": 7,
            "MOV": 4
        },
        "growths": {
            "HP": 65,
            "STR": 45,
            "MAG": 30,
            "SKL": 50,
            "SPD": 50,
            "LCK": 5,
            "DEF": 30,
            "RES": 5,
            "CON": 0,
            "MOV": 0
        },
        "stat_cap_modifiers": {},
        "starting_items": [
            [
                "Iron_Lance",
                false
            ]
        ],
        "learned_skills": [
            [
                1,
                "Refund"
            ]
        ],
        "unit_notes": [],
        "wexp_gain": {
            "Sword": [
                false,
                0,
                251
            ],
            "Lance": [
                false,
                37,
                251
            ],
            "Axe": [
                false,
                0,
                251
            ],
            "Bow": [
                false,
                0,
                251
            ],
            "Knife": [
                false,
                0,
                251
            ],
            "Anima": [
                false,
                0,
                251
            ],
            "Light": [
                false,
                0,
                251
            ],
            "Dark": [
                false,
                0,
                251
            ],
            "Staff": [
                false,
                0,
                251
            ],
            "Dragonstone": [
                false,
                0,
                251
            ],
            "Default": [
                false,
                0,
                251
            ],
            "Stone": [
                false,
                0,
                251
            ]
        },
        "alternate_classes": [],
        "portrait_nid": "Portrait Editor Sand and Sabres.gba_173@AD [_J][_o][_h][_n]_0116E6F8",
        "affinity": "Fire",
        "fields": []
    }
]