[
    {
        "nid": "Kaku_E",
        "name": "Kaku",
        "desc": "A ninja reporting to Nikume.\nCapable of cloning and disguise techniques.",
        "variant": "Female",
        "level": 1,
        "klass": "Ninja",
        "tags": [
            "Boss",
            "Female"
        ],
        "bases": {
            "HP": 16,
            "STR": 5,
            "MAG": 4,
            "SKL": 8,
            "SPD": 10,
            "LCK": 8,
            "DEF": 0,
            "RES": 2,
            "CON": 6,
            "MOV": 5
        },
        "growths": {
            "HP": 50,
            "STR": 25,
            "MAG": 20,
            "SKL": 40,
            "SPD": 45,
            "LCK": 40,
            "DEF": 10,
            "RES": 15,
            "CON": 0,
            "MOV": 0
        },
        "stat_cap_modifiers": {},
        "starting_items": [
            [
                "Steel_Knife",
                false
            ],
            [
                "Shuriken",
                false
            ]
        ],
        "learned_skills": [
            [
                1,
                "Bunshin"
            ],
            [
                1,
                "Gliding_Steps"
            ]
        ],
        "unit_notes": [],
        "wexp_gain": {
            "Sword": [
                false,
                0,
                251
            ],
            "Lance": [
                false,
                0,
                251
            ],
            "Axe": [
                false,
                0,
                251
            ],
            "Bow": [
                false,
                0,
                251
            ],
            "Knife": [
                false,
                15,
                251
            ],
            "Anima": [
                false,
                0,
                251
            ],
            "Light": [
                false,
                0,
                251
            ],
            "Dark": [
                false,
                0,
                251
            ],
            "Staff": [
                false,
                0,
                251
            ],
            "Dragonstone": [
                false,
                0,
                251
            ],
            "Default": [
                false,
                0,
                251
            ],
            "Stone": [
                false,
                0,
                251
            ]
        },
        "alternate_classes": [],
        "portrait_nid": "Kaku",
        "affinity": "Fire",
        "fields": []
    }
]