[
    {
        "nid": "Keres",
        "name": "Keres",
        "desc": "Submitted by Rasta.",
        "variant": "Female",
        "level": 1,
        "klass": "Lance_Knight",
        "tags": [
            "Female"
        ],
        "bases": {
            "HP": 15,
            "STR": 6,
            "MAG": 0,
            "SKL": 6,
            "SPD": 6,
            "LCK": 0,
            "DEF": 6,
            "RES": 6,
            "CON": 6,
            "MOV": 5
        },
        "growths": {
            "HP": 1,
            "STR": 45,
            "MAG": 1,
            "SKL": 40,
            "SPD": 35,
            "LCK": 1,
            "DEF": 35,
            "RES": 30,
            "CON": 0,
            "MOV": 0
        },
        "stat_cap_modifiers": {},
        "starting_items": [
            [
                "Iron_Lance",
                false
            ],
            [
                "ForgottenSpear",
                false
            ]
        ],
        "learned_skills": [
            [
                1,
                "ReturnOfTheDamned"
            ],
            [
                1,
                "LingeringRegrets"
            ],
            [
                1,
                "Quietus"
            ],
            [
                1,
                "MonstrousNature"
            ]
        ],
        "unit_notes": [],
        "wexp_gain": {
            "Sword": [
                false,
                1,
                251
            ],
            "Lance": [
                false,
                1,
                251
            ],
            "Axe": [
                false,
                0,
                251
            ],
            "Bow": [
                false,
                0,
                251
            ],
            "Knife": [
                false,
                0,
                251
            ],
            "Anima": [
                false,
                0,
                251
            ],
            "Light": [
                false,
                0,
                251
            ],
            "Dark": [
                false,
                0,
                251
            ],
            "Staff": [
                false,
                0,
                251
            ],
            "Stone": [
                false,
                0,
                251
            ],
            "Default": [
                false,
                0,
                251
            ]
        },
        "alternate_classes": [],
        "portrait_nid": "Dark Souls, Friede Alt2 {Nobody}",
        "affinity": "Dark",
        "fields": []
    }
]