[
    {
        "nid": "King_E",
        "name": "King",
        "desc": "The king of the chessboard.",
        "variant": "",
        "level": 1,
        "klass": "Saboteur",
        "tags": [
            "Boss",
            "Chess"
        ],
        "bases": {
            "HP": 28,
            "STR": 5,
            "MAG": 11,
            "SKL": 5,
            "SPD": 7,
            "LCK": 7,
            "DEF": 5,
            "RES": 0,
            "CON": 12,
            "MOV": 5
        },
        "growths": {
            "HP": 80,
            "STR": 40,
            "MAG": 80,
            "SKL": 50,
            "SPD": 40,
            "LCK": 60,
            "DEF": 25,
            "RES": 30,
            "CON": 0,
            "MOV": 0
        },
        "stat_cap_modifiers": {},
        "starting_items": [
            [
                "Rigalbured_E",
                false
            ]
        ],
        "learned_skills": [
            [
                1,
                "Legend"
            ],
            [
                1,
                "Commander"
            ],
            [
                1,
                "Capture_Piece"
            ],
            [
                1,
                "Chessmaster"
            ],
            [
                1,
                "Summon_Pawn"
            ]
        ],
        "unit_notes": [],
        "wexp_gain": {
            "Sword": [
                false,
                51,
                51
            ],
            "Lance": [
                false,
                0,
                51
            ],
            "Axe": [
                false,
                0,
                51
            ],
            "Bow": [
                false,
                0,
                51
            ],
            "Knife": [
                false,
                0,
                51
            ],
            "Anima": [
                false,
                0,
                51
            ],
            "Light": [
                false,
                0,
                51
            ],
            "Dark": [
                false,
                51,
                51
            ],
            "Staff": [
                false,
                0,
                51
            ],
            "Stone": [
                false,
                0,
                51
            ],
            "Default": [
                false,
                0,
                51
            ]
        },
        "alternate_classes": [],
        "portrait_nid": "King (ClipArtMax)",
        "affinity": "Light",
        "fields": []
    }
]