[
    {
        "nid": "Libra",
        "name": "Libra",
        "desc": "The Fell Dragon, and master of the Fog.",
        "variant": "Female",
        "level": 30,
        "klass": "Fell_Dragon",
        "tags": [
            "Boss",
            "Female"
        ],
        "bases": {
            "HP": 50,
            "STR": 15,
            "MAG": 23,
            "SKL": 21,
            "SPD": 18,
            "LCK": 14,
            "DEF": 16,
            "RES": 21,
            "CON": 20,
            "MOV": 5
        },
        "growths": {
            "HP": 50,
            "STR": 30,
            "MAG": 45,
            "SKL": 35,
            "SPD": 25,
            "LCK": 25,
            "DEF": 20,
            "RES": 25,
            "CON": 0,
            "MOV": 0
        },
        "stat_cap_modifiers": {},
        "starting_items": [
            [
                "Eternal_Fog",
                false
            ],
            [
                "Decaying_Mist",
                false
            ]
        ],
        "learned_skills": [
            [
                1,
                "HP_Double"
            ],
            [
                1,
                "Master_of_the_Fog"
            ]
        ],
        "unit_notes": [],
        "wexp_gain": {
            "Sword": [
                false,
                0,
                51
            ],
            "Lance": [
                false,
                0,
                51
            ],
            "Axe": [
                false,
                0,
                51
            ],
            "Bow": [
                false,
                0,
                51
            ],
            "Knife": [
                false,
                0,
                51
            ],
            "Anima": [
                false,
                0,
                51
            ],
            "Light": [
                false,
                0,
                51
            ],
            "Dark": [
                false,
                0,
                51
            ],
            "Staff": [
                false,
                0,
                51
            ],
            "Stone": [
                false,
                51,
                51
            ],
            "Default": [
                false,
                0,
                51
            ]
        },
        "alternate_classes": [],
        "portrait_nid": "Libra",
        "affinity": "Water",
        "fields": []
    }
]