[
    {
        "nid": "Nayrui",
        "name": "Nay'rui",
        "desc": "Submitted by Maximus03.",
        "variant": "Female",
        "level": 1,
        "klass": "Manakete_Flying",
        "tags": [
            "Female"
        ],
        "bases": {
            "HP": 19,
            "STR": 5,
            "MAG": 8,
            "SKL": 4,
            "SPD": 8,
            "LCK": 1,
            "DEF": 6,
            "RES": 4,
            "CON": 14,
            "MOV": 5
        },
        "growths": {
            "HP": 55,
            "STR": 50,
            "MAG": 50,
            "SKL": 20,
            "SPD": 40,
            "LCK": 5,
            "DEF": 35,
            "RES": 30,
            "CON": 0,
            "MOV": 0
        },
        "stat_cap_modifiers": {},
        "starting_items": [
            [
                "Wind_Rune",
                false
            ],
            [
                "Nature_Stone",
                false
            ]
        ],
        "learned_skills": [
            [
                1,
                "VerdantSoul"
            ],
            [
                1,
                "Deliverer"
            ]
        ],
        "unit_notes": [],
        "wexp_gain": {
            "Sword": [
                false,
                0,
                251
            ],
            "Lance": [
                false,
                0,
                251
            ],
            "Axe": [
                false,
                0,
                251
            ],
            "Bow": [
                false,
                0,
                251
            ],
            "Knife": [
                false,
                0,
                251
            ],
            "Anima": [
                false,
                0,
                251
            ],
            "Light": [
                false,
                1,
                251
            ],
            "Dark": [
                false,
                0,
                251
            ],
            "Staff": [
                false,
                0,
                251
            ],
            "Dragonstone": [
                false,
                15,
                251
            ],
            "Default": [
                false,
                0,
                251
            ],
            "Stone": [
                false,
                15,
                251
            ]
        },
        "alternate_classes": [],
        "portrait_nid": "Nayrui",
        "affinity": "Earth",
        "fields": []
    }
]