[
    {
        "nid": "Nikume_7",
        "name": "Nikume",
        "desc": "Leader of the village of Tawanai.\nA true master of the Blade.",
        "variant": "Female",
        "level": 1,
        "klass": "Swordmaster",
        "tags": [
            "Boss",
            "Female"
        ],
        "bases": {
            "HP": 22,
            "STR": 7,
            "MAG": 0,
            "SKL": 10,
            "SPD": 11,
            "LCK": 6,
            "DEF": 3,
            "RES": 4,
            "CON": 8,
            "MOV": 5
        },
        "growths": {
            "HP": 70,
            "STR": 40,
            "MAG": 5,
            "SKL": 40,
            "SPD": 45,
            "LCK": 35,
            "DEF": 20,
            "RES": 25,
            "CON": 0,
            "MOV": 0
        },
        "stat_cap_modifiers": {},
        "starting_items": [
            [
                "Lady_Blade",
                false
            ]
        ],
        "learned_skills": [
            [
                1,
                "Mastered_Style_Enemy"
            ],
            [
                1,
                "Gliding_Steps"
            ],
            [
                1,
                "Suspicious"
            ],
            [
                1,
                "Legend"
            ],
            [
                1,
                "Beast_Within"
            ]
        ],
        "unit_notes": [],
        "wexp_gain": {
            "Sword": [
                false,
                51,
                251
            ],
            "Lance": [
                false,
                0,
                251
            ],
            "Axe": [
                false,
                0,
                251
            ],
            "Bow": [
                false,
                0,
                251
            ],
            "Knife": [
                false,
                0,
                251
            ],
            "Anima": [
                false,
                0,
                251
            ],
            "Light": [
                false,
                0,
                251
            ],
            "Dark": [
                false,
                0,
                251
            ],
            "Staff": [
                false,
                0,
                251
            ],
            "Dragonstone": [
                false,
                0,
                251
            ],
            "Default": [
                false,
                0,
                251
            ],
            "Stone": [
                false,
                15,
                251
            ]
        },
        "alternate_classes": [],
        "portrait_nid": "Nikume",
        "affinity": "Water",
        "fields": []
    }
]