[
    {
        "nid": "Nikume",
        "name": "Nikume",
        "desc": "Leader of the village of Tawanai.\nA true master of the Blade.",
        "variant": "Female",
        "level": 1,
        "klass": "Myrmidon",
        "tags": [
            "Female"
        ],
        "bases": {
            "HP": 20,
            "STR": 6,
            "MAG": 0,
            "SKL": 9,
            "SPD": 10,
            "LCK": 6,
            "DEF": 1,
            "RES": 2,
            "CON": 8,
            "MOV": 4
        },
        "growths": {
            "HP": 70,
            "STR": 40,
            "MAG": 5,
            "SKL": 40,
            "SPD": 45,
            "LCK": 35,
            "DEF": 20,
            "RES": 25,
            "CON": 0,
            "MOV": 0
        },
        "stat_cap_modifiers": {},
        "starting_items": [
            [
                "Iron_Sword",
                false
            ],
            [
                "Shamshir",
                false
            ]
        ],
        "learned_skills": [
            [
                1,
                "Mastered_Style"
            ],
            [
                1,
                "Mastered_Style_Helper"
            ],
            [
                1,
                "Onset_of_Blades"
            ],
            [
                1,
                "Crimson_Scatter"
            ],
            [
                1,
                "Beast_Within"
            ]
        ],
        "unit_notes": [],
        "wexp_gain": {
            "Sword": [
                false,
                7,
                251
            ],
            "Lance": [
                false,
                0,
                251
            ],
            "Axe": [
                false,
                0,
                251
            ],
            "Bow": [
                false,
                0,
                251
            ],
            "Knife": [
                false,
                0,
                251
            ],
            "Anima": [
                false,
                0,
                251
            ],
            "Light": [
                false,
                0,
                251
            ],
            "Dark": [
                false,
                0,
                251
            ],
            "Staff": [
                false,
                0,
                251
            ],
            "Dragonstone": [
                false,
                0,
                251
            ],
            "Default": [
                false,
                0,
                251
            ],
            "Stone": [
                false,
                1,
                251
            ]
        },
        "alternate_classes": [],
        "portrait_nid": "Nikume",
        "affinity": "Water",
        "fields": [
            [
                "Promoted_Weapon",
                "Stone"
            ]
        ]
    }
]