[
    {
        "nid": "Rook",
        "name": "Rook",
        "desc": "Submitted by Viola_Buddy.",
        "variant": "",
        "level": 1,
        "klass": "Bow_Armor",
        "tags": [
            "Chess"
        ],
        "bases": {
            "HP": 20,
            "STR": 10,
            "MAG": 0,
            "SKL": 5,
            "SPD": 0,
            "LCK": 3,
            "DEF": 9,
            "RES": 1,
            "CON": 11,
            "MOV": 4
        },
        "growths": {
            "HP": 80,
            "STR": 55,
            "MAG": 5,
            "SKL": 40,
            "SPD": 15,
            "LCK": 30,
            "DEF": 35,
            "RES": 10,
            "CON": 0,
            "MOV": 0
        },
        "stat_cap_modifiers": {},
        "starting_items": [
            [
                "Rook_Bow",
                false
            ]
        ],
        "learned_skills": [
            [
                1,
                "No_Diagonal"
            ],
            [
                1,
                "Capture_Piece"
            ],
            [
                1,
                "Straight_Lines"
            ]
        ],
        "unit_notes": [],
        "wexp_gain": {
            "Sword": [
                false,
                0,
                251
            ],
            "Lance": [
                false,
                0,
                251
            ],
            "Axe": [
                false,
                0,
                251
            ],
            "Bow": [
                false,
                1,
                251
            ],
            "Knife": [
                false,
                0,
                251
            ],
            "Anima": [
                false,
                0,
                251
            ],
            "Light": [
                false,
                0,
                251
            ],
            "Dark": [
                false,
                0,
                251
            ],
            "Staff": [
                false,
                0,
                251
            ],
            "Dragonstone": [
                false,
                0,
                251
            ],
            "Default": [
                false,
                0,
                251
            ],
            "Stone": [
                false,
                0,
                251
            ]
        },
        "alternate_classes": [],
        "portrait_nid": "FE_Rook",
        "affinity": "Ice",
        "fields": []
    }
]