[
    {
        "nid": "Taag",
        "name": "Taag",
        "desc": "A Beastkin of little notoriety.",
        "variant": "Male",
        "level": 1,
        "klass": "Beastkin",
        "tags": [],
        "bases": {
            "HP": 17,
            "STR": 6,
            "MAG": 4,
            "SKL": 8,
            "SPD": 8,
            "LCK": 5,
            "DEF": 4,
            "RES": 2,
            "CON": 7,
            "MOV": 5
        },
        "growths": {
            "HP": 60,
            "STR": 40,
            "MAG": 25,
            "SKL": 45,
            "SPD": 45,
            "LCK": 30,
            "DEF": 20,
            "RES": 15,
            "CON": 0,
            "MOV": 0
        },
        "stat_cap_modifiers": {},
        "starting_items": [
            [
                "Fire_Stone",
                false
            ],
            [
                "Smoke_Bomb",
                false
            ],
            [
                "Wolfsbane",
                false
            ]
        ],
        "learned_skills": [
            [
                1,
                "Odd_Shaped"
            ],
            [
                1,
                "Evenhanded"
            ]
        ],
        "unit_notes": [],
        "wexp_gain": {
            "Sword": [
                false,
                0,
                251
            ],
            "Lance": [
                false,
                0,
                251
            ],
            "Axe": [
                false,
                0,
                251
            ],
            "Bow": [
                false,
                0,
                251
            ],
            "Knife": [
                false,
                0,
                251
            ],
            "Anima": [
                false,
                0,
                251
            ],
            "Light": [
                false,
                0,
                251
            ],
            "Dark": [
                false,
                0,
                251
            ],
            "Staff": [
                false,
                0,
                251
            ],
            "Stone": [
                false,
                1,
                251
            ],
            "Default": [
                false,
                0,
                251
            ]
        },
        "alternate_classes": [],
        "portrait_nid": "Taag",
        "affinity": "Earth",
        "fields": []
    }
]