[
    {
        "nid": "Termina",
        "name": "Termina",
        "desc": "Submitted by ZeroXA.",
        "variant": "Female",
        "level": 1,
        "klass": "Sword_Knight",
        "tags": [
            "Female"
        ],
        "bases": {
            "HP": 18,
            "STR": 7,
            "MAG": 3,
            "SKL": 5,
            "SPD": 2,
            "LCK": 5,
            "DEF": 8,
            "RES": 4,
            "CON": 7,
            "MOV": 5
        },
        "growths": {
            "HP": 65,
            "STR": 40,
            "MAG": 20,
            "SKL": 35,
            "SPD": 20,
            "LCK": 35,
            "DEF": 40,
            "RES": 15,
            "CON": 0,
            "MOV": 0
        },
        "stat_cap_modifiers": {},
        "starting_items": [
            [
                "Rex_Gladius",
                false
            ]
        ],
        "learned_skills": [
            [
                1,
                "Wary_Fighter"
            ],
            [
                1,
                "Luna"
            ]
        ],
        "unit_notes": [],
        "wexp_gain": {
            "Sword": [
                false,
                1,
                251
            ],
            "Lance": [
                false,
                0,
                251
            ],
            "Axe": [
                false,
                1,
                251
            ],
            "Bow": [
                false,
                0,
                251
            ],
            "Knife": [
                false,
                0,
                251
            ],
            "Anima": [
                false,
                0,
                251
            ],
            "Light": [
                false,
                0,
                251
            ],
            "Dark": [
                false,
                0,
                251
            ],
            "Staff": [
                false,
                0,
                251
            ],
            "Dragonstone": [
                false,
                0,
                251
            ],
            "Default": [
                false,
                0,
                251
            ],
            "Stone": [
                false,
                0,
                251
            ]
        },
        "alternate_classes": [],
        "portrait_nid": "Termina",
        "affinity": "Ice",
        "fields": []
    }
]