[
    {
        "nid": "Wheel",
        "name": "Wheel",
        "desc": "Submitted by RandomWizard.",
        "variant": "Female",
        "level": 1,
        "klass": "Soldier",
        "tags": [
            "Female"
        ],
        "bases": {
            "HP": 19,
            "STR": 7,
            "MAG": 2,
            "SKL": 3,
            "SPD": 11,
            "LCK": 3,
            "DEF": 4,
            "RES": 5,
            "CON": 8,
            "MOV": 4
        },
        "growths": {
            "HP": 70,
            "STR": 45,
            "MAG": 20,
            "SKL": 35,
            "SPD": 55,
            "LCK": 35,
            "DEF": 25,
            "RES": 30,
            "CON": 0,
            "MOV": 0
        },
        "stat_cap_modifiers": {},
        "starting_items": [
            [
                "Iron_Lance",
                false
            ],
            [
                "GoldenGlaive",
                false
            ]
        ],
        "learned_skills": [
            [
                1,
                "GlitterOfGold"
            ],
            [
                1,
                "Zeninage"
            ],
            [
                1,
                "Locktouch"
            ],
            [
                1,
                "Base_MOV_Plus"
            ]
        ],
        "unit_notes": [],
        "wexp_gain": {
            "Sword": [
                false,
                1,
                51
            ],
            "Lance": [
                false,
                1,
                51
            ],
            "Axe": [
                false,
                0,
                51
            ],
            "Bow": [
                false,
                0,
                51
            ],
            "Knife": [
                false,
                0,
                51
            ],
            "Anima": [
                false,
                0,
                51
            ],
            "Light": [
                false,
                0,
                51
            ],
            "Dark": [
                false,
                0,
                51
            ],
            "Staff": [
                false,
                0,
                51
            ],
            "Stone": [
                false,
                0,
                51
            ],
            "Default": [
                false,
                0,
                51
            ]
        },
        "alternate_classes": [],
        "portrait_nid": "Tweed Wheel",
        "affinity": "Thunder",
        "fields": []
    }
]