[
    {
        "nid": "Yusha",
        "name": "Yusha",
        "desc": "The boy fated to slay a dragon.\nOne day, he will become a great hero.",
        "variant": "",
        "level": 1,
        "klass": "Outlander",
        "tags": [],
        "bases": {
            "HP": 18,
            "STR": 7,
            "MAG": 5,
            "SKL": 7,
            "SPD": 7,
            "LCK": 6,
            "DEF": 5,
            "RES": 3,
            "CON": 9,
            "MOV": 4
        },
        "growths": {
            "HP": 75,
            "STR": 45,
            "MAG": 30,
            "SKL": 40,
            "SPD": 45,
            "LCK": 35,
            "DEF": 25,
            "RES": 15,
            "CON": 0,
            "MOV": 0
        },
        "stat_cap_modifiers": {},
        "starting_items": [
            [
                "Iron_Sword",
                false
            ]
        ],
        "learned_skills": [
            [
                1,
                "Mark_of_a_Hero"
            ]
        ],
        "unit_notes": [],
        "wexp_gain": {
            "Sword": [
                false,
                1,
                51
            ],
            "Lance": [
                false,
                0,
                51
            ],
            "Axe": [
                false,
                1,
                51
            ],
            "Bow": [
                false,
                0,
                51
            ],
            "Knife": [
                false,
                0,
                51
            ],
            "Anima": [
                false,
                0,
                51
            ],
            "Light": [
                false,
                0,
                51
            ],
            "Dark": [
                false,
                0,
                51
            ],
            "Staff": [
                false,
                0,
                51
            ],
            "Stone": [
                false,
                0,
                51
            ],
            "Default": [
                false,
                0,
                51
            ]
        },
        "alternate_classes": [],
        "portrait_nid": "Franz",
        "affinity": "None",
        "fields": []
    }
]