[
    {
        "nid": "40",
        "size": [
            20,
            20
        ],
        "autotile_fps": 29,
        "layers": [
            {
                "nid": "base",
                "visible": true,
                "foreground": false,
                "terrain_grid": {
                    "4,7": "5",
                    "12,5": "5",
                    "13,5": "5",
                    "12,6": "5",
                    "13,6": "5",
                    "16,5": "5",
                    "16,6": "5",
                    "17,6": "5",
                    "17,5": "5",
                    "4,10": "Fence",
                    "15,8": "Fence",
                    "15,12": "Fence",
                    "17,15": "25",
                    "15,15": "5",
                    "4,5": "Fence",
                    "5,5": "Fence",
                    "6,5": "Fence",
                    "6,6": "Fence",
                    "7,6": "Fence",
                    "7,7": "Fence",
                    "7,10": "Fence",
                    "7,11": "Fence",
                    "7,12": "Fence",
                    "7,15": "Fence",
                    "7,16": "Fence",
                    "6,16": "Fence",
                    "5,16": "Fence",
                    "4,16": "Fence",
                    "3,16": "Fence",
                    "2,16": "Fence",
                    "2,15": "Fence",
                    "2,14": "Fence",
                    "2,13": "Fence",
                    "2,12": "Fence",
                    "2,11": "Fence",
                    "2,10": "Fence",
                    "2,9": "Fence",
                    "2,8": "Fence",
                    "2,7": "Fence",
                    "2,6": "Fence",
                    "3,6": "Fence",
                    "3,5": "Fence",
                    "5,4": "Fence",
                    "4,4": "Fence",
                    "4,3": "Fence",
                    "5,3": "Fence",
                    "5,2": "Fence",
                    "4,2": "Fence",
                    "2,17": "Fence",
                    "2,18": "Fence",
                    "3,18": "Fence",
                    "4,18": "Fence",
                    "5,18": "Fence",
                    "6,18": "Fence",
                    "7,18": "Fence",
                    "7,17": "Fence",
                    "6,17": "Fence",
                    "5,17": "Fence",
                    "4,17": "Fence",
                    "3,17": "Fence",
                    "11,15": "Fence",
                    "11,16": "Fence",
                    "11,17": "Fence",
                    "11,18": "Fence",
                    "12,18": "Fence",
                    "13,18": "Fence",
                    "14,18": "Fence",
                    "15,18": "Fence",
                    "16,18": "Fence",
                    "17,18": "Fence",
                    "18,18": "Fence",
                    "18,17": "Fence",
                    "17,17": "Fence",
                    "16,17": "Fence",
                    "15,17": "Fence",
                    "14,17": "Fence",
                    "13,17": "Fence",
                    "12,17": "Fence",
                    "12,16": "Fence",
                    "13,16": "Fence",
                    "14,16": "Fence",
                    "15,16": "Fence",
                    "16,16": "Fence",
                    "17,16": "Fence",
                    "18,16": "Fence",
                    "18,5": "Fence",
                    "18,6": "Fence",
                    "18,7": "Fence",
                    "18,8": "Fence",
                    "18,9": "Fence",
                    "18,10": "Fence",
                    "18,11": "Fence",
                    "18,12": "Fence",
                    "18,13": "Fence",
                    "18,14": "Fence",
                    "18,15": "Fence",
                    "18,3": "Fence",
                    "18,4": "Fence",
                    "18,2": "Fence",
                    "17,2": "Fence",
                    "17,1": "Fence",
                    "16,1": "Fence",
                    "16,0": "Fence",
                    "15,0": "Fence",
                    "14,0": "Fence",
                    "13,0": "Fence",
                    "13,1": "Fence",
                    "12,1": "Fence",
                    "12,2": "Fence",
                    "11,2": "Fence",
                    "11,3": "Fence",
                    "11,4": "Fence",
                    "11,5": "Fence",
                    "11,6": "Fence",
                    "11,7": "Fence",
                    "11,10": "Fence",
                    "11,11": "Fence",
                    "11,12": "Fence",
                    "14,1": "38",
                    "15,1": "38",
                    "15,4": "Fence",
                    "14,4": "Fence",
                    "3,8": "25",
                    "8,8": "6",
                    "9,8": "6",
                    "10,8": "6",
                    "10,9": "6",
                    "9,9": "6",
                    "8,9": "6",
                    "7,9": "6",
                    "7,8": "6",
                    "11,8": "6",
                    "11,9": "6",
                    "10,13": "6",
                    "9,13": "6",
                    "8,13": "6",
                    "8,14": "6",
                    "9,14": "6",
                    "10,14": "6",
                    "11,14": "6",
                    "11,13": "6",
                    "4,12": "Fence",
                    "13,14": "Fence",
                    "15,10": "Fence",
                    "14,7": "Fence",
                    "5,9": "6",
                    "6,9": "6",
                    "3,15": "6",
                    "4,8": "6",
                    "5,6": "6",
                    "5,13": "6",
                    "3,11": "6",
                    "5,8": "6",
                    "3,14": "6",
                    "6,14": "6",
                    "6,7": "6",
                    "4,9": "6",
                    "5,12": "6",
                    "3,10": "6",
                    "6,10": "6",
                    "4,13": "6",
                    "6,15": "6",
                    "7,14": "6",
                    "5,11": "6",
                    "3,13": "6",
                    "6,11": "6",
                    "4,14": "6",
                    "5,15": "6",
                    "3,9": "6",
                    "6,12": "6",
                    "4,11": "6",
                    "5,10": "6",
                    "6,8": "6",
                    "4,6": "6",
                    "3,12": "6",
                    "4,15": "6",
                    "5,7": "6",
                    "7,13": "6",
                    "5,14": "6",
                    "6,13": "6",
                    "17,8": "6",
                    "15,13": "6",
                    "13,13": "6",
                    "17,7": "6",
                    "16,9": "6",
                    "12,12": "6",
                    "14,13": "6",
                    "13,8": "6",
                    "16,14": "6",
                    "14,9": "6",
                    "15,5": "6",
                    "12,9": "6",
                    "16,7": "6",
                    "13,12": "6",
                    "16,10": "6",
                    "14,5": "6",
                    "12,13": "6",
                    "17,11": "6",
                    "15,11": "6",
                    "13,7": "6",
                    "16,15": "6",
                    "14,14": "6",
                    "12,10": "6",
                    "17,14": "6",
                    "13,11": "6",
                    "16,11": "6",
                    "14,10": "6",
                    "12,14": "6",
                    "17,10": "6",
                    "12,7": "6",
                    "13,15": "6",
                    "14,6": "6",
                    "14,15": "6",
                    "15,7": "6",
                    "12,11": "6",
                    "17,13": "6",
                    "15,14": "6",
                    "13,10": "6",
                    "16,12": "6",
                    "14,11": "6",
                    "12,15": "6",
                    "17,9": "6",
                    "16,8": "6",
                    "14,12": "6",
                    "15,6": "6",
                    "17,12": "6",
                    "15,9": "6",
                    "13,9": "6",
                    "16,13": "6",
                    "14,8": "6",
                    "12,8": "6",
                    "13,2": "6",
                    "17,4": "6",
                    "15,2": "6",
                    "13,3": "6",
                    "16,4": "6",
                    "15,3": "6",
                    "13,4": "6",
                    "16,3": "6",
                    "16,2": "6",
                    "12,4": "6",
                    "17,3": "6",
                    "14,3": "6",
                    "14,2": "6",
                    "12,3": "6",
                    "3,7": "6",
                    "7,3": "11",
                    "19,19": "11",
                    "10,17": "11",
                    "19,4": "11",
                    "1,17": "11",
                    "0,7": "11",
                    "1,6": "11",
                    "0,10": "11",
                    "18,19": "11",
                    "2,5": "11",
                    "1,11": "11",
                    "8,5": "11",
                    "4,0": "11",
                    "9,0": "11",
                    "4,19": "11",
                    "10,7": "11",
                    "19,14": "11",
                    "10,18": "11",
                    "0,17": "11",
                    "7,19": "11",
                    "19,3": "11",
                    "0,4": "11",
                    "1,1": "11",
                    "8,15": "11",
                    "3,2": "11",
                    "8,2": "11",
                    "9,3": "11",
                    "6,0": "11",
                    "11,0": "11",
                    "9,16": "11",
                    "7,5": "11",
                    "19,13": "11",
                    "16,19": "11",
                    "0,1": "11",
                    "1,12": "11",
                    "3,1": "11",
                    "8,18": "11",
                    "9,19": "11",
                    "19,8": "11",
                    "18,0": "11",
                    "0,14": "11",
                    "2,1": "11",
                    "1,15": "11",
                    "9,4": "11",
                    "5,1": "11",
                    "10,3": "11",
                    "7,2": "11",
                    "19,18": "11",
                    "19,7": "11",
                    "1,16": "11",
                    "1,5": "11",
                    "0,11": "11",
                    "2,2": "11",
                    "1,10": "11",
                    "8,6": "11",
                    "4,1": "11",
                    "9,7": "11",
                    "6,4": "11",
                    "10,4": "11",
                    "7,1": "11",
                    "14,19": "11",
                    "19,17": "11",
                    "10,19": "11",
                    "0,18": "11",
                    "19,2": "11",
                    "1,19": "11",
                    "0,5": "11",
                    "13,19": "11",
                    "1,0": "11",
                    "0,8": "11",
                    "8,3": "11",
                    "9,2": "11",
                    "6,1": "11",
                    "7,4": "11",
                    "19,12": "11",
                    "19,1": "11",
                    "0,2": "11",
                    "1,3": "11",
                    "3,0": "11",
                    "8,0": "11",
                    "10,15": "11",
                    "8,19": "11",
                    "6,2": "11",
                    "9,18": "11",
                    "15,19": "11",
                    "11,19": "11",
                    "19,11": "11",
                    "18,1": "11",
                    "2,19": "11",
                    "0,15": "11",
                    "1,14": "11",
                    "5,0": "11",
                    "10,0": "11",
                    "8,16": "11",
                    "19,6": "11",
                    "1,4": "11",
                    "0,12": "11",
                    "2,3": "11",
                    "1,9": "11",
                    "8,7": "11",
                    "9,6": "11",
                    "10,5": "11",
                    "7,0": "11",
                    "12,0": "11",
                    "19,16": "11",
                    "10,16": "11",
                    "0,19": "11",
                    "17,0": "11",
                    "12,19": "11",
                    "19,5": "11",
                    "1,18": "11",
                    "0,6": "11",
                    "1,7": "11",
                    "0,9": "11",
                    "3,4": "11",
                    "2,4": "11",
                    "8,4": "11",
                    "9,1": "11",
                    "10,6": "11",
                    "5,19": "11",
                    "19,15": "11",
                    "0,16": "11",
                    "19,0": "11",
                    "0,3": "11",
                    "1,2": "11",
                    "3,3": "11",
                    "9,15": "11",
                    "8,1": "11",
                    "6,3": "11",
                    "11,1": "11",
                    "9,17": "11",
                    "19,10": "11",
                    "0,0": "11",
                    "17,19": "11",
                    "1,13": "11",
                    "3,19": "11",
                    "10,1": "11",
                    "8,17": "11",
                    "6,19": "11",
                    "19,9": "11",
                    "0,13": "11",
                    "2,0": "11",
                    "1,8": "11",
                    "9,5": "11",
                    "10,2": "11",
                    "10,11": "11",
                    "8,12": "11",
                    "10,10": "11",
                    "8,11": "11",
                    "8,10": "11",
                    "10,12": "11",
                    "9,10": "11",
                    "9,11": "11",
                    "9,12": "11"
                },
                "sprite_grid": {
                    "7,3": [
                        "boat_map",
                        [
                            7,
                            3
                        ]
                    ],
                    "16,9": [
                        "boat_map",
                        [
                            16,
                            9
                        ]
                    ],
                    "19,4": [
                        "boat_map",
                        [
                            19,
                            4
                        ]
                    ],
                    "18,19": [
                        "boat_map",
                        [
                            18,
                            19
                        ]
                    ],
                    "8,5": [
                        "boat_map",
                        [
                            8,
                            5
                        ]
                    ],
                    "9,0": [
                        "boat_map",
                        [
                            9,
                            0
                        ]
                    ],
                    "10,7": [
                        "boat_map",
                        [
                            10,
                            7
                        ]
                    ],
                    "0,17": [
                        "boat_map",
                        [
                            0,
                            17
                        ]
                    ],
                    "14,1": [
                        "boat_map",
                        [
                            14,
                            1
                        ]
                    ],
                    "12,17": [
                        "boat_map",
                        [
                            12,
                            17
                        ]
                    ],
                    "15,4": [
                        "boat_map",
                        [
                            15,
                            4
                        ]
                    ],
                    "3,2": [
                        "boat_map",
                        [
                            3,
                            2
                        ]
                    ],
                    "4,5": [
                        "boat_map",
                        [
                            4,
                            5
                        ]
                    ],
                    "16,0": [
                        "boat_map",
                        [
                            16,
                            0
                        ]
                    ],
                    "19,13": [
                        "boat_map",
                        [
                            19,
                            13
                        ]
                    ],
                    "17,13": [
                        "boat_map",
                        [
                            17,
                            13
                        ]
                    ],
                    "18,10": [
                        "boat_map",
                        [
                            18,
                            10
                        ]
                    ],
                    "8,12": [
                        "boat_map",
                        [
                            8,
                            12
                        ]
                    ],
                    "9,9": [
                        "boat_map",
                        [
                            9,
                            9
                        ]
                    ],
                    "10,14": [
                        "boat_map",
                        [
                            10,
                            14
                        ]
                    ],
                    "8,18": [
                        "boat_map",
                        [
                            8,
                            18
                        ]
                    ],
                    "11,15": [
                        "boat_map",
                        [
                            11,
                            15
                        ]
                    ],
                    "9,19": [
                        "boat_map",
                        [
                            9,
                            19
                        ]
                    ],
                    "14,8": [
                        "boat_map",
                        [
                            14,
                            8
                        ]
                    ],
                    "12,8": [
                        "boat_map",
                        [
                            12,
                            8
                        ]
                    ],
                    "15,13": [
                        "boat_map",
                        [
                            15,
                            13
                        ]
                    ],
                    "13,13": [
                        "boat_map",
                        [
                            13,
                            13
                        ]
                    ],
                    "2,18": [
                        "boat_map",
                        [
                            2,
                            18
                        ]
                    ],
                    "0,14": [
                        "boat_map",
                        [
                            0,
                            14
                        ]
                    ],
                    "3,11": [
                        "boat_map",
                        [
                            3,
                            11
                        ]
                    ],
                    "1,15": [
                        "boat_map",
                        [
                            1,
                            15
                        ]
                    ],
                    "4,12": [
                        "boat_map",
                        [
                            4,
                            12
                        ]
                    ],
                    "2,12": [
                        "boat_map",
                        [
                            2,
                            12
                        ]
                    ],
                    "5,1": [
                        "boat_map",
                        [
                            5,
                            1
                        ]
                    ],
                    "3,17": [
                        "boat_map",
                        [
                            3,
                            17
                        ]
                    ],
                    "16,7": [
                        "boat_map",
                        [
                            16,
                            7
                        ]
                    ],
                    "6,14": [
                        "boat_map",
                        [
                            6,
                            14
                        ]
                    ],
                    "19,18": [
                        "boat_map",
                        [
                            19,
                            18
                        ]
                    ],
                    "17,6": [
                        "boat_map",
                        [
                            17,
                            6
                        ]
                    ],
                    "7,15": [
                        "boat_map",
                        [
                            7,
                            15
                        ]
                    ],
                    "18,5": [
                        "boat_map",
                        [
                            18,
                            5
                        ]
                    ],
                    "10,9": [
                        "boat_map",
                        [
                            10,
                            9
                        ]
                    ],
                    "11,4": [
                        "boat_map",
                        [
                            11,
                            4
                        ]
                    ],
                    "14,19": [
                        "boat_map",
                        [
                            14,
                            19
                        ]
                    ],
                    "12,7": [
                        "boat_map",
                        [
                            12,
                            7
                        ]
                    ],
                    "10,19": [
                        "boat_map",
                        [
                            10,
                            19
                        ]
                    ],
                    "15,10": [
                        "boat_map",
                        [
                            15,
                            10
                        ]
                    ],
                    "13,6": [
                        "boat_map",
                        [
                            13,
                            6
                        ]
                    ],
                    "0,5": [
                        "boat_map",
                        [
                            0,
                            5
                        ]
                    ],
                    "1,0": [
                        "boat_map",
                        [
                            1,
                            0
                        ]
                    ],
                    "4,11": [
                        "boat_map",
                        [
                            4,
                            11
                        ]
                    ],
                    "2,7": [
                        "boat_map",
                        [
                            2,
                            7
                        ]
                    ],
                    "5,10": [
                        "boat_map",
                        [
                            5,
                            10
                        ]
                    ],
                    "6,1": [
                        "boat_map",
                        [
                            6,
                            1
                        ]
                    ],
                    "4,17": [
                        "boat_map",
                        [
                            4,
                            17
                        ]
                    ],
                    "7,4": [
                        "boat_map",
                        [
                            7,
                            4
                        ]
                    ],
                    "19,1": [
                        "boat_map",
                        [
                            19,
                            1
                        ]
                    ],
                    "17,17": [
                        "boat_map",
                        [
                            17,
                            17
                        ]
                    ],
                    "8,0": [
                        "boat_map",
                        [
                            8,
                            0
                        ]
                    ],
                    "15,19": [
                        "boat_map",
                        [
                            15,
                            19
                        ]
                    ],
                    "11,19": [
                        "boat_map",
                        [
                            11,
                            19
                        ]
                    ],
                    "16,11": [
                        "boat_map",
                        [
                            16,
                            11
                        ]
                    ],
                    "6,18": [
                        "boat_map",
                        [
                            6,
                            18
                        ]
                    ],
                    "19,6": [
                        "boat_map",
                        [
                            19,
                            6
                        ]
                    ],
                    "17,10": [
                        "boat_map",
                        [
                            17,
                            10
                        ]
                    ],
                    "18,17": [
                        "boat_map",
                        [
                            18,
                            17
                        ]
                    ],
                    "8,7": [
                        "boat_map",
                        [
                            8,
                            7
                        ]
                    ],
                    "9,6": [
                        "boat_map",
                        [
                            9,
                            6
                        ]
                    ],
                    "10,5": [
                        "boat_map",
                        [
                            10,
                            5
                        ]
                    ],
                    "11,8": [
                        "boat_map",
                        [
                            11,
                            8
                        ]
                    ],
                    "0,19": [
                        "boat_map",
                        [
                            0,
                            19
                        ]
                    ],
                    "14,7": [
                        "boat_map",
                        [
                            14,
                            7
                        ]
                    ],
                    "12,19": [
                        "boat_map",
                        [
                            12,
                            19
                        ]
                    ],
                    "1,18": [
                        "boat_map",
                        [
                            1,
                            18
                        ]
                    ],
                    "15,6": [
                        "boat_map",
                        [
                            15,
                            6
                        ]
                    ],
                    "13,18": [
                        "boat_map",
                        [
                            13,
                            18
                        ]
                    ],
                    "0,9": [
                        "boat_map",
                        [
                            0,
                            9
                        ]
                    ],
                    "3,4": [
                        "boat_map",
                        [
                            3,
                            4
                        ]
                    ],
                    "4,7": [
                        "boat_map",
                        [
                            4,
                            7
                        ]
                    ],
                    "5,6": [
                        "boat_map",
                        [
                            5,
                            6
                        ]
                    ],
                    "16,2": [
                        "boat_map",
                        [
                            16,
                            2
                        ]
                    ],
                    "19,15": [
                        "boat_map",
                        [
                            19,
                            15
                        ]
                    ],
                    "17,3": [
                        "boat_map",
                        [
                            17,
                            3
                        ]
                    ],
                    "7,16": [
                        "boat_map",
                        [
                            7,
                            16
                        ]
                    ],
                    "18,8": [
                        "boat_map",
                        [
                            18,
                            8
                        ]
                    ],
                    "8,14": [
                        "boat_map",
                        [
                            8,
                            14
                        ]
                    ],
                    "9,15": [
                        "boat_map",
                        [
                            9,
                            15
                        ]
                    ],
                    "10,12": [
                        "boat_map",
                        [
                            10,
                            12
                        ]
                    ],
                    "11,1": [
                        "boat_map",
                        [
                            11,
                            1
                        ]
                    ],
                    "9,17": [
                        "boat_map",
                        [
                            9,
                            17
                        ]
                    ],
                    "14,14": [
                        "boat_map",
                        [
                            14,
                            14
                        ]
                    ],
                    "12,10": [
                        "boat_map",
                        [
                            12,
                            10
                        ]
                    ],
                    "15,15": [
                        "boat_map",
                        [
                            15,
                            15
                        ]
                    ],
                    "13,11": [
                        "boat_map",
                        [
                            13,
                            11
                        ]
                    ],
                    "2,16": [
                        "boat_map",
                        [
                            2,
                            16
                        ]
                    ],
                    "0,0": [
                        "boat_map",
                        [
                            0,
                            0
                        ]
                    ],
                    "3,13": [
                        "boat_map",
                        [
                            3,
                            13
                        ]
                    ],
                    "1,13": [
                        "boat_map",
                        [
                            1,
                            13
                        ]
                    ],
                    "4,14": [
                        "boat_map",
                        [
                            4,
                            14
                        ]
                    ],
                    "2,10": [
                        "boat_map",
                        [
                            2,
                            10
                        ]
                    ],
                    "5,15": [
                        "boat_map",
                        [
                            5,
                            15
                        ]
                    ],
                    "3,19": [
                        "boat_map",
                        [
                            3,
                            19
                        ]
                    ],
                    "6,12": [
                        "boat_map",
                        [
                            6,
                            12
                        ]
                    ],
                    "17,4": [
                        "boat_map",
                        [
                            17,
                            4
                        ]
                    ],
                    "7,9": [
                        "boat_map",
                        [
                            7,
                            9
                        ]
                    ],
                    "18,3": [
                        "boat_map",
                        [
                            18,
                            3
                        ]
                    ],
                    "11,6": [
                        "boat_map",
                        [
                            11,
                            6
                        ]
                    ],
                    "14,17": [
                        "boat_map",
                        [
                            14,
                            17
                        ]
                    ],
                    "12,1": [
                        "boat_map",
                        [
                            12,
                            1
                        ]
                    ],
                    "10,17": [
                        "boat_map",
                        [
                            10,
                            17
                        ]
                    ],
                    "13,4": [
                        "boat_map",
                        [
                            13,
                            4
                        ]
                    ],
                    "0,7": [
                        "boat_map",
                        [
                            0,
                            7
                        ]
                    ],
                    "1,6": [
                        "boat_map",
                        [
                            1,
                            6
                        ]
                    ],
                    "2,5": [
                        "boat_map",
                        [
                            2,
                            5
                        ]
                    ],
                    "5,8": [
                        "boat_map",
                        [
                            5,
                            8
                        ]
                    ],
                    "6,7": [
                        "boat_map",
                        [
                            6,
                            7
                        ]
                    ],
                    "4,19": [
                        "boat_map",
                        [
                            4,
                            19
                        ]
                    ],
                    "7,6": [
                        "boat_map",
                        [
                            7,
                            6
                        ]
                    ],
                    "5,18": [
                        "boat_map",
                        [
                            5,
                            18
                        ]
                    ],
                    "19,3": [
                        "boat_map",
                        [
                            19,
                            3
                        ]
                    ],
                    "8,2": [
                        "boat_map",
                        [
                            8,
                            2
                        ]
                    ],
                    "9,3": [
                        "boat_map",
                        [
                            9,
                            3
                        ]
                    ],
                    "14,2": [
                        "boat_map",
                        [
                            14,
                            2
                        ]
                    ],
                    "3,1": [
                        "boat_map",
                        [
                            3,
                            1
                        ]
                    ],
                    "16,13": [
                        "boat_map",
                        [
                            16,
                            13
                        ]
                    ],
                    "6,16": [
                        "boat_map",
                        [
                            6,
                            16
                        ]
                    ],
                    "19,8": [
                        "boat_map",
                        [
                            19,
                            8
                        ]
                    ],
                    "17,8": [
                        "boat_map",
                        [
                            17,
                            8
                        ]
                    ],
                    "18,15": [
                        "boat_map",
                        [
                            18,
                            15
                        ]
                    ],
                    "8,9": [
                        "boat_map",
                        [
                            8,
                            9
                        ]
                    ],
                    "9,4": [
                        "boat_map",
                        [
                            9,
                            4
                        ]
                    ],
                    "10,3": [
                        "boat_map",
                        [
                            10,
                            3
                        ]
                    ],
                    "11,10": [
                        "boat_map",
                        [
                            11,
                            10
                        ]
                    ],
                    "14,5": [
                        "boat_map",
                        [
                            14,
                            5
                        ]
                    ],
                    "12,13": [
                        "boat_map",
                        [
                            12,
                            13
                        ]
                    ],
                    "1,16": [
                        "boat_map",
                        [
                            1,
                            16
                        ]
                    ],
                    "15,0": [
                        "boat_map",
                        [
                            15,
                            0
                        ]
                    ],
                    "13,16": [
                        "boat_map",
                        [
                            13,
                            16
                        ]
                    ],
                    "0,11": [
                        "boat_map",
                        [
                            0,
                            11
                        ]
                    ],
                    "3,6": [
                        "boat_map",
                        [
                            3,
                            6
                        ]
                    ],
                    "1,10": [
                        "boat_map",
                        [
                            1,
                            10
                        ]
                    ],
                    "4,1": [
                        "boat_map",
                        [
                            4,
                            1
                        ]
                    ],
                    "5,4": [
                        "boat_map",
                        [
                            5,
                            4
                        ]
                    ],
                    "16,4": [
                        "boat_map",
                        [
                            16,
                            4
                        ]
                    ],
                    "6,11": [
                        "boat_map",
                        [
                            6,
                            11
                        ]
                    ],
                    "19,17": [
                        "boat_map",
                        [
                            19,
                            17
                        ]
                    ],
                    "17,1": [
                        "boat_map",
                        [
                            17,
                            1
                        ]
                    ],
                    "7,18": [
                        "boat_map",
                        [
                            7,
                            18
                        ]
                    ],
                    "18,6": [
                        "boat_map",
                        [
                            18,
                            6
                        ]
                    ],
                    "9,13": [
                        "boat_map",
                        [
                            9,
                            13
                        ]
                    ],
                    "10,10": [
                        "boat_map",
                        [
                            10,
                            10
                        ]
                    ],
                    "11,3": [
                        "boat_map",
                        [
                            11,
                            3
                        ]
                    ],
                    "14,12": [
                        "boat_map",
                        [
                            14,
                            12
                        ]
                    ],
                    "12,4": [
                        "boat_map",
                        [
                            12,
                            4
                        ]
                    ],
                    "15,9": [
                        "boat_map",
                        [
                            15,
                            9
                        ]
                    ],
                    "13,9": [
                        "boat_map",
                        [
                            13,
                            9
                        ]
                    ],
                    "0,2": [
                        "boat_map",
                        [
                            0,
                            2
                        ]
                    ],
                    "3,15": [
                        "boat_map",
                        [
                            3,
                            15
                        ]
                    ],
                    "1,3": [
                        "boat_map",
                        [
                            1,
                            3
                        ]
                    ],
                    "4,8": [
                        "boat_map",
                        [
                            4,
                            8
                        ]
                    ],
                    "2,8": [
                        "boat_map",
                        [
                            2,
                            8
                        ]
                    ],
                    "5,13": [
                        "boat_map",
                        [
                            5,
                            13
                        ]
                    ],
                    "6,2": [
                        "boat_map",
                        [
                            6,
                            2
                        ]
                    ],
                    "7,11": [
                        "boat_map",
                        [
                            7,
                            11
                        ]
                    ],
                    "18,1": [
                        "boat_map",
                        [
                            18,
                            1
                        ]
                    ],
                    "16,17": [
                        "boat_map",
                        [
                            16,
                            17
                        ]
                    ],
                    "12,3": [
                        "boat_map",
                        [
                            12,
                            3
                        ]
                    ],
                    "13,2": [
                        "boat_map",
                        [
                            13,
                            2
                        ]
                    ],
                    "1,4": [
                        "boat_map",
                        [
                            1,
                            4
                        ]
                    ],
                    "2,3": [
                        "boat_map",
                        [
                            2,
                            3
                        ]
                    ],
                    "6,5": [
                        "boat_map",
                        [
                            6,
                            5
                        ]
                    ],
                    "7,0": [
                        "boat_map",
                        [
                            7,
                            0
                        ]
                    ],
                    "5,16": [
                        "boat_map",
                        [
                            5,
                            16
                        ]
                    ],
                    "16,8": [
                        "boat_map",
                        [
                            16,
                            8
                        ]
                    ],
                    "19,5": [
                        "boat_map",
                        [
                            19,
                            5
                        ]
                    ],
                    "18,18": [
                        "boat_map",
                        [
                            18,
                            18
                        ]
                    ],
                    "8,4": [
                        "boat_map",
                        [
                            8,
                            4
                        ]
                    ],
                    "9,1": [
                        "boat_map",
                        [
                            9,
                            1
                        ]
                    ],
                    "10,6": [
                        "boat_map",
                        [
                            10,
                            6
                        ]
                    ],
                    "0,16": [
                        "boat_map",
                        [
                            0,
                            16
                        ]
                    ],
                    "14,0": [
                        "boat_map",
                        [
                            14,
                            0
                        ]
                    ],
                    "12,16": [
                        "boat_map",
                        [
                            12,
                            16
                        ]
                    ],
                    "15,5": [
                        "boat_map",
                        [
                            15,
                            5
                        ]
                    ],
                    "3,3": [
                        "boat_map",
                        [
                            3,
                            3
                        ]
                    ],
                    "4,4": [
                        "boat_map",
                        [
                            4,
                            4
                        ]
                    ],
                    "16,15": [
                        "boat_map",
                        [
                            16,
                            15
                        ]
                    ],
                    "19,10": [
                        "boat_map",
                        [
                            19,
                            10
                        ]
                    ],
                    "17,14": [
                        "boat_map",
                        [
                            17,
                            14
                        ]
                    ],
                    "18,13": [
                        "boat_map",
                        [
                            18,
                            13
                        ]
                    ],
                    "8,11": [
                        "boat_map",
                        [
                            8,
                            11
                        ]
                    ],
                    "9,10": [
                        "boat_map",
                        [
                            9,
                            10
                        ]
                    ],
                    "10,1": [
                        "boat_map",
                        [
                            10,
                            1
                        ]
                    ],
                    "8,17": [
                        "boat_map",
                        [
                            8,
                            17
                        ]
                    ],
                    "11,12": [
                        "boat_map",
                        [
                            11,
                            12
                        ]
                    ],
                    "14,11": [
                        "boat_map",
                        [
                            14,
                            11
                        ]
                    ],
                    "12,15": [
                        "boat_map",
                        [
                            12,
                            15
                        ]
                    ],
                    "15,2": [
                        "boat_map",
                        [
                            15,
                            2
                        ]
                    ],
                    "13,14": [
                        "boat_map",
                        [
                            13,
                            14
                        ]
                    ],
                    "0,13": [
                        "boat_map",
                        [
                            0,
                            13
                        ]
                    ],
                    "3,8": [
                        "boat_map",
                        [
                            3,
                            8
                        ]
                    ],
                    "1,8": [
                        "boat_map",
                        [
                            1,
                            8
                        ]
                    ],
                    "4,3": [
                        "boat_map",
                        [
                            4,
                            3
                        ]
                    ],
                    "2,15": [
                        "boat_map",
                        [
                            2,
                            15
                        ]
                    ],
                    "5,2": [
                        "boat_map",
                        [
                            5,
                            2
                        ]
                    ],
                    "16,6": [
                        "boat_map",
                        [
                            16,
                            6
                        ]
                    ],
                    "6,9": [
                        "boat_map",
                        [
                            6,
                            9
                        ]
                    ],
                    "19,19": [
                        "boat_map",
                        [
                            19,
                            19
                        ]
                    ],
                    "17,7": [
                        "boat_map",
                        [
                            17,
                            7
                        ]
                    ],
                    "7,12": [
                        "boat_map",
                        [
                            7,
                            12
                        ]
                    ],
                    "18,4": [
                        "boat_map",
                        [
                            18,
                            4
                        ]
                    ],
                    "10,8": [
                        "boat_map",
                        [
                            10,
                            8
                        ]
                    ],
                    "11,5": [
                        "boat_map",
                        [
                            11,
                            5
                        ]
                    ],
                    "14,18": [
                        "boat_map",
                        [
                            14,
                            18
                        ]
                    ],
                    "12,6": [
                        "boat_map",
                        [
                            12,
                            6
                        ]
                    ],
                    "10,18": [
                        "boat_map",
                        [
                            10,
                            18
                        ]
                    ],
                    "15,11": [
                        "boat_map",
                        [
                            15,
                            11
                        ]
                    ],
                    "13,7": [
                        "boat_map",
                        [
                            13,
                            7
                        ]
                    ],
                    "0,4": [
                        "boat_map",
                        [
                            0,
                            4
                        ]
                    ],
                    "1,1": [
                        "boat_map",
                        [
                            1,
                            1
                        ]
                    ],
                    "4,10": [
                        "boat_map",
                        [
                            4,
                            10
                        ]
                    ],
                    "2,6": [
                        "boat_map",
                        [
                            2,
                            6
                        ]
                    ],
                    "5,11": [
                        "boat_map",
                        [
                            5,
                            11
                        ]
                    ],
                    "6,0": [
                        "boat_map",
                        [
                            6,
                            0
                        ]
                    ],
                    "4,16": [
                        "boat_map",
                        [
                            4,
                            16
                        ]
                    ],
                    "7,5": [
                        "boat_map",
                        [
                            7,
                            5
                        ]
                    ],
                    "16,19": [
                        "boat_map",
                        [
                            16,
                            19
                        ]
                    ],
                    "17,18": [
                        "boat_map",
                        [
                            17,
                            18
                        ]
                    ],
                    "15,16": [
                        "boat_map",
                        [
                            15,
                            16
                        ]
                    ],
                    "13,0": [
                        "boat_map",
                        [
                            13,
                            0
                        ]
                    ],
                    "11,16": [
                        "boat_map",
                        [
                            11,
                            16
                        ]
                    ],
                    "2,1": [
                        "boat_map",
                        [
                            2,
                            1
                        ]
                    ],
                    "7,2": [
                        "boat_map",
                        [
                            7,
                            2
                        ]
                    ],
                    "16,10": [
                        "boat_map",
                        [
                            16,
                            10
                        ]
                    ],
                    "19,7": [
                        "boat_map",
                        [
                            19,
                            7
                        ]
                    ],
                    "17,11": [
                        "boat_map",
                        [
                            17,
                            11
                        ]
                    ],
                    "18,16": [
                        "boat_map",
                        [
                            18,
                            16
                        ]
                    ],
                    "8,6": [
                        "boat_map",
                        [
                            8,
                            6
                        ]
                    ],
                    "9,7": [
                        "boat_map",
                        [
                            9,
                            7
                        ]
                    ],
                    "10,4": [
                        "boat_map",
                        [
                            10,
                            4
                        ]
                    ],
                    "11,9": [
                        "boat_map",
                        [
                            11,
                            9
                        ]
                    ],
                    "0,18": [
                        "boat_map",
                        [
                            0,
                            18
                        ]
                    ],
                    "14,6": [
                        "boat_map",
                        [
                            14,
                            6
                        ]
                    ],
                    "12,18": [
                        "boat_map",
                        [
                            12,
                            18
                        ]
                    ],
                    "1,19": [
                        "boat_map",
                        [
                            1,
                            19
                        ]
                    ],
                    "15,7": [
                        "boat_map",
                        [
                            15,
                            7
                        ]
                    ],
                    "13,19": [
                        "boat_map",
                        [
                            13,
                            19
                        ]
                    ],
                    "0,8": [
                        "boat_map",
                        [
                            0,
                            8
                        ]
                    ],
                    "3,5": [
                        "boat_map",
                        [
                            3,
                            5
                        ]
                    ],
                    "4,6": [
                        "boat_map",
                        [
                            4,
                            6
                        ]
                    ],
                    "5,7": [
                        "boat_map",
                        [
                            5,
                            7
                        ]
                    ],
                    "16,1": [
                        "boat_map",
                        [
                            16,
                            1
                        ]
                    ],
                    "19,12": [
                        "boat_map",
                        [
                            19,
                            12
                        ]
                    ],
                    "17,12": [
                        "boat_map",
                        [
                            17,
                            12
                        ]
                    ],
                    "7,17": [
                        "boat_map",
                        [
                            7,
                            17
                        ]
                    ],
                    "18,11": [
                        "boat_map",
                        [
                            18,
                            11
                        ]
                    ],
                    "8,13": [
                        "boat_map",
                        [
                            8,
                            13
                        ]
                    ],
                    "9,8": [
                        "boat_map",
                        [
                            9,
                            8
                        ]
                    ],
                    "10,15": [
                        "boat_map",
                        [
                            10,
                            15
                        ]
                    ],
                    "8,19": [
                        "boat_map",
                        [
                            8,
                            19
                        ]
                    ],
                    "11,14": [
                        "boat_map",
                        [
                            11,
                            14
                        ]
                    ],
                    "9,18": [
                        "boat_map",
                        [
                            9,
                            18
                        ]
                    ],
                    "14,9": [
                        "boat_map",
                        [
                            14,
                            9
                        ]
                    ],
                    "12,9": [
                        "boat_map",
                        [
                            12,
                            9
                        ]
                    ],
                    "15,12": [
                        "boat_map",
                        [
                            15,
                            12
                        ]
                    ],
                    "13,12": [
                        "boat_map",
                        [
                            13,
                            12
                        ]
                    ],
                    "2,19": [
                        "boat_map",
                        [
                            2,
                            19
                        ]
                    ],
                    "0,15": [
                        "boat_map",
                        [
                            0,
                            15
                        ]
                    ],
                    "3,10": [
                        "boat_map",
                        [
                            3,
                            10
                        ]
                    ],
                    "1,14": [
                        "boat_map",
                        [
                            1,
                            14
                        ]
                    ],
                    "4,13": [
                        "boat_map",
                        [
                            4,
                            13
                        ]
                    ],
                    "2,13": [
                        "boat_map",
                        [
                            2,
                            13
                        ]
                    ],
                    "5,0": [
                        "boat_map",
                        [
                            5,
                            0
                        ]
                    ],
                    "3,16": [
                        "boat_map",
                        [
                            3,
                            16
                        ]
                    ],
                    "6,15": [
                        "boat_map",
                        [
                            6,
                            15
                        ]
                    ],
                    "17,5": [
                        "boat_map",
                        [
                            17,
                            5
                        ]
                    ],
                    "7,14": [
                        "boat_map",
                        [
                            7,
                            14
                        ]
                    ],
                    "18,2": [
                        "boat_map",
                        [
                            18,
                            2
                        ]
                    ],
                    "11,7": [
                        "boat_map",
                        [
                            11,
                            7
                        ]
                    ],
                    "14,16": [
                        "boat_map",
                        [
                            14,
                            16
                        ]
                    ],
                    "12,0": [
                        "boat_map",
                        [
                            12,
                            0
                        ]
                    ],
                    "10,16": [
                        "boat_map",
                        [
                            10,
                            16
                        ]
                    ],
                    "13,5": [
                        "boat_map",
                        [
                            13,
                            5
                        ]
                    ],
                    "0,6": [
                        "boat_map",
                        [
                            0,
                            6
                        ]
                    ],
                    "1,7": [
                        "boat_map",
                        [
                            1,
                            7
                        ]
                    ],
                    "2,4": [
                        "boat_map",
                        [
                            2,
                            4
                        ]
                    ],
                    "5,9": [
                        "boat_map",
                        [
                            5,
                            9
                        ]
                    ],
                    "6,6": [
                        "boat_map",
                        [
                            6,
                            6
                        ]
                    ],
                    "4,18": [
                        "boat_map",
                        [
                            4,
                            18
                        ]
                    ],
                    "7,7": [
                        "boat_map",
                        [
                            7,
                            7
                        ]
                    ],
                    "5,19": [
                        "boat_map",
                        [
                            5,
                            19
                        ]
                    ],
                    "19,0": [
                        "boat_map",
                        [
                            19,
                            0
                        ]
                    ],
                    "17,16": [
                        "boat_map",
                        [
                            17,
                            16
                        ]
                    ],
                    "8,1": [
                        "boat_map",
                        [
                            8,
                            1
                        ]
                    ],
                    "15,18": [
                        "boat_map",
                        [
                            15,
                            18
                        ]
                    ],
                    "11,18": [
                        "boat_map",
                        [
                            11,
                            18
                        ]
                    ],
                    "16,12": [
                        "boat_map",
                        [
                            16,
                            12
                        ]
                    ],
                    "6,19": [
                        "boat_map",
                        [
                            6,
                            19
                        ]
                    ],
                    "19,9": [
                        "boat_map",
                        [
                            19,
                            9
                        ]
                    ],
                    "17,9": [
                        "boat_map",
                        [
                            17,
                            9
                        ]
                    ],
                    "18,14": [
                        "boat_map",
                        [
                            18,
                            14
                        ]
                    ],
                    "8,8": [
                        "boat_map",
                        [
                            8,
                            8
                        ]
                    ],
                    "9,5": [
                        "boat_map",
                        [
                            9,
                            5
                        ]
                    ],
                    "10,2": [
                        "boat_map",
                        [
                            10,
                            2
                        ]
                    ],
                    "11,11": [
                        "boat_map",
                        [
                            11,
                            11
                        ]
                    ],
                    "14,4": [
                        "boat_map",
                        [
                            14,
                            4
                        ]
                    ],
                    "12,12": [
                        "boat_map",
                        [
                            12,
                            12
                        ]
                    ],
                    "1,17": [
                        "boat_map",
                        [
                            1,
                            17
                        ]
                    ],
                    "15,1": [
                        "boat_map",
                        [
                            15,
                            1
                        ]
                    ],
                    "13,17": [
                        "boat_map",
                        [
                            13,
                            17
                        ]
                    ],
                    "0,10": [
                        "boat_map",
                        [
                            0,
                            10
                        ]
                    ],
                    "3,7": [
                        "boat_map",
                        [
                            3,
                            7
                        ]
                    ],
                    "1,11": [
                        "boat_map",
                        [
                            1,
                            11
                        ]
                    ],
                    "4,0": [
                        "boat_map",
                        [
                            4,
                            0
                        ]
                    ],
                    "5,5": [
                        "boat_map",
                        [
                            5,
                            5
                        ]
                    ],
                    "16,3": [
                        "boat_map",
                        [
                            16,
                            3
                        ]
                    ],
                    "6,10": [
                        "boat_map",
                        [
                            6,
                            10
                        ]
                    ],
                    "19,14": [
                        "boat_map",
                        [
                            19,
                            14
                        ]
                    ],
                    "17,2": [
                        "boat_map",
                        [
                            17,
                            2
                        ]
                    ],
                    "7,19": [
                        "boat_map",
                        [
                            7,
                            19
                        ]
                    ],
                    "18,9": [
                        "boat_map",
                        [
                            18,
                            9
                        ]
                    ],
                    "8,15": [
                        "boat_map",
                        [
                            8,
                            15
                        ]
                    ],
                    "9,14": [
                        "boat_map",
                        [
                            9,
                            14
                        ]
                    ],
                    "10,13": [
                        "boat_map",
                        [
                            10,
                            13
                        ]
                    ],
                    "11,0": [
                        "boat_map",
                        [
                            11,
                            0
                        ]
                    ],
                    "9,16": [
                        "boat_map",
                        [
                            9,
                            16
                        ]
                    ],
                    "14,15": [
                        "boat_map",
                        [
                            14,
                            15
                        ]
                    ],
                    "12,11": [
                        "boat_map",
                        [
                            12,
                            11
                        ]
                    ],
                    "15,14": [
                        "boat_map",
                        [
                            15,
                            14
                        ]
                    ],
                    "13,10": [
                        "boat_map",
                        [
                            13,
                            10
                        ]
                    ],
                    "2,17": [
                        "boat_map",
                        [
                            2,
                            17
                        ]
                    ],
                    "0,1": [
                        "boat_map",
                        [
                            0,
                            1
                        ]
                    ],
                    "3,12": [
                        "boat_map",
                        [
                            3,
                            12
                        ]
                    ],
                    "1,12": [
                        "boat_map",
                        [
                            1,
                            12
                        ]
                    ],
                    "4,15": [
                        "boat_map",
                        [
                            4,
                            15
                        ]
                    ],
                    "2,11": [
                        "boat_map",
                        [
                            2,
                            11
                        ]
                    ],
                    "5,14": [
                        "boat_map",
                        [
                            5,
                            14
                        ]
                    ],
                    "3,18": [
                        "boat_map",
                        [
                            3,
                            18
                        ]
                    ],
                    "6,13": [
                        "boat_map",
                        [
                            6,
                            13
                        ]
                    ],
                    "7,8": [
                        "boat_map",
                        [
                            7,
                            8
                        ]
                    ],
                    "18,0": [
                        "boat_map",
                        [
                            18,
                            0
                        ]
                    ],
                    "16,16": [
                        "boat_map",
                        [
                            16,
                            16
                        ]
                    ],
                    "12,2": [
                        "boat_map",
                        [
                            12,
                            2
                        ]
                    ],
                    "13,3": [
                        "boat_map",
                        [
                            13,
                            3
                        ]
                    ],
                    "1,5": [
                        "boat_map",
                        [
                            1,
                            5
                        ]
                    ],
                    "2,2": [
                        "boat_map",
                        [
                            2,
                            2
                        ]
                    ],
                    "6,4": [
                        "boat_map",
                        [
                            6,
                            4
                        ]
                    ],
                    "7,1": [
                        "boat_map",
                        [
                            7,
                            1
                        ]
                    ],
                    "5,17": [
                        "boat_map",
                        [
                            5,
                            17
                        ]
                    ],
                    "19,2": [
                        "boat_map",
                        [
                            19,
                            2
                        ]
                    ],
                    "8,3": [
                        "boat_map",
                        [
                            8,
                            3
                        ]
                    ],
                    "9,2": [
                        "boat_map",
                        [
                            9,
                            2
                        ]
                    ],
                    "14,3": [
                        "boat_map",
                        [
                            14,
                            3
                        ]
                    ],
                    "3,0": [
                        "boat_map",
                        [
                            3,
                            0
                        ]
                    ],
                    "16,14": [
                        "boat_map",
                        [
                            16,
                            14
                        ]
                    ],
                    "6,17": [
                        "boat_map",
                        [
                            6,
                            17
                        ]
                    ],
                    "19,11": [
                        "boat_map",
                        [
                            19,
                            11
                        ]
                    ],
                    "17,15": [
                        "boat_map",
                        [
                            17,
                            15
                        ]
                    ],
                    "18,12": [
                        "boat_map",
                        [
                            18,
                            12
                        ]
                    ],
                    "8,10": [
                        "boat_map",
                        [
                            8,
                            10
                        ]
                    ],
                    "9,11": [
                        "boat_map",
                        [
                            9,
                            11
                        ]
                    ],
                    "10,0": [
                        "boat_map",
                        [
                            10,
                            0
                        ]
                    ],
                    "8,16": [
                        "boat_map",
                        [
                            8,
                            16
                        ]
                    ],
                    "11,13": [
                        "boat_map",
                        [
                            11,
                            13
                        ]
                    ],
                    "14,10": [
                        "boat_map",
                        [
                            14,
                            10
                        ]
                    ],
                    "12,14": [
                        "boat_map",
                        [
                            12,
                            14
                        ]
                    ],
                    "15,3": [
                        "boat_map",
                        [
                            15,
                            3
                        ]
                    ],
                    "13,15": [
                        "boat_map",
                        [
                            13,
                            15
                        ]
                    ],
                    "0,12": [
                        "boat_map",
                        [
                            0,
                            12
                        ]
                    ],
                    "3,9": [
                        "boat_map",
                        [
                            3,
                            9
                        ]
                    ],
                    "1,9": [
                        "boat_map",
                        [
                            1,
                            9
                        ]
                    ],
                    "4,2": [
                        "boat_map",
                        [
                            4,
                            2
                        ]
                    ],
                    "2,14": [
                        "boat_map",
                        [
                            2,
                            14
                        ]
                    ],
                    "5,3": [
                        "boat_map",
                        [
                            5,
                            3
                        ]
                    ],
                    "16,5": [
                        "boat_map",
                        [
                            16,
                            5
                        ]
                    ],
                    "6,8": [
                        "boat_map",
                        [
                            6,
                            8
                        ]
                    ],
                    "19,16": [
                        "boat_map",
                        [
                            19,
                            16
                        ]
                    ],
                    "17,0": [
                        "boat_map",
                        [
                            17,
                            0
                        ]
                    ],
                    "7,13": [
                        "boat_map",
                        [
                            7,
                            13
                        ]
                    ],
                    "18,7": [
                        "boat_map",
                        [
                            18,
                            7
                        ]
                    ],
                    "9,12": [
                        "boat_map",
                        [
                            9,
                            12
                        ]
                    ],
                    "10,11": [
                        "boat_map",
                        [
                            10,
                            11
                        ]
                    ],
                    "11,2": [
                        "boat_map",
                        [
                            11,
                            2
                        ]
                    ],
                    "14,13": [
                        "boat_map",
                        [
                            14,
                            13
                        ]
                    ],
                    "12,5": [
                        "boat_map",
                        [
                            12,
                            5
                        ]
                    ],
                    "15,8": [
                        "boat_map",
                        [
                            15,
                            8
                        ]
                    ],
                    "13,8": [
                        "boat_map",
                        [
                            13,
                            8
                        ]
                    ],
                    "0,3": [
                        "boat_map",
                        [
                            0,
                            3
                        ]
                    ],
                    "3,14": [
                        "boat_map",
                        [
                            3,
                            14
                        ]
                    ],
                    "1,2": [
                        "boat_map",
                        [
                            1,
                            2
                        ]
                    ],
                    "4,9": [
                        "boat_map",
                        [
                            4,
                            9
                        ]
                    ],
                    "2,9": [
                        "boat_map",
                        [
                            2,
                            9
                        ]
                    ],
                    "5,12": [
                        "boat_map",
                        [
                            5,
                            12
                        ]
                    ],
                    "6,3": [
                        "boat_map",
                        [
                            6,
                            3
                        ]
                    ],
                    "7,10": [
                        "boat_map",
                        [
                            7,
                            10
                        ]
                    ],
                    "16,18": [
                        "boat_map",
                        [
                            16,
                            18
                        ]
                    ],
                    "17,19": [
                        "boat_map",
                        [
                            17,
                            19
                        ]
                    ],
                    "15,17": [
                        "boat_map",
                        [
                            15,
                            17
                        ]
                    ],
                    "13,1": [
                        "boat_map",
                        [
                            13,
                            1
                        ]
                    ],
                    "11,17": [
                        "boat_map",
                        [
                            11,
                            17
                        ]
                    ],
                    "2,0": [
                        "boat_map",
                        [
                            2,
                            0
                        ]
                    ]
                }
            }
        ],
        "tilesets": [
            "boat_map"
        ]
    }
]