[
    {
        "nid": "Canes_Boss",
        "size": [
            17,
            12
        ],
        "autotile_fps": 29,
        "layers": [
            {
                "nid": "base",
                "visible": true,
                "foreground": false,
                "terrain_grid": {
                    "2,0": "3",
                    "1,0": "3",
                    "0,0": "3",
                    "0,1": "3",
                    "8,7": "3",
                    "7,6": "3",
                    "0,10": "10",
                    "1,9": "10",
                    "2,9": "10",
                    "3,9": "10",
                    "4,10": "10",
                    "4,11": "10",
                    "3,11": "10",
                    "2,11": "10",
                    "1,11": "10",
                    "0,11": "10",
                    "1,10": "10",
                    "2,10": "10",
                    "3,10": "10",
                    "0,3": "2",
                    "0,2": "2",
                    "1,2": "2",
                    "1,1": "2",
                    "4,3": "2",
                    "3,6": "2",
                    "5,8": "2",
                    "5,9": "2",
                    "4,9": "2",
                    "8,11": "2",
                    "6,6": "2",
                    "6,5": "2",
                    "7,5": "2",
                    "7,7": "2",
                    "8,6": "2",
                    "9,7": "2",
                    "8,8": "2",
                    "8,3": "2",
                    "8,1": "2",
                    "7,1": "2",
                    "10,4": "2",
                    "11,8": "2",
                    "13,6": "2",
                    "12,6": "2",
                    "16,8": "2",
                    "15,6": "2",
                    "16,5": "2",
                    "13,2": "2",
                    "13,1": "21",
                    "14,1": "21",
                    "15,1": "21",
                    "15,2": "21",
                    "16,2": "21",
                    "16,1": "21",
                    "16,0": "21",
                    "15,0": "21",
                    "14,2": "20",
                    "15,3": "20",
                    "16,3": "20",
                    "11,2": "22",
                    "12,2": "22",
                    "13,3": "22",
                    "14,3": "22",
                    "14,4": "22",
                    "14,5": "22",
                    "14,6": "22",
                    "14,7": "22",
                    "15,8": "22",
                    "15,9": "22",
                    "14,9": "22",
                    "13,8": "22",
                    "12,8": "22",
                    "11,9": "22",
                    "10,10": "22",
                    "9,10": "22",
                    "8,10": "22",
                    "7,11": "22",
                    "9,2": "22",
                    "8,2": "22",
                    "7,2": "22",
                    "6,3": "22",
                    "4,4": "22",
                    "3,4": "22",
                    "2,3": "22",
                    "1,3": "22",
                    "0,4": "22",
                    "14,0": "1",
                    "13,0": "1",
                    "12,0": "1",
                    "11,0": "1",
                    "10,0": "1",
                    "9,0": "1",
                    "9,1": "1",
                    "10,1": "1",
                    "11,1": "1",
                    "12,1": "1",
                    "16,4": "1",
                    "15,4": "1",
                    "15,5": "1",
                    "16,6": "1",
                    "16,7": "1",
                    "15,7": "1",
                    "14,8": "1",
                    "14,11": "1",
                    "16,11": "1",
                    "14,10": "1",
                    "11,10": "1",
                    "16,10": "1",
                    "11,11": "1",
                    "10,11": "1",
                    "16,9": "1",
                    "13,11": "1",
                    "15,10": "1",
                    "15,11": "1",
                    "9,11": "1",
                    "13,9": "1",
                    "12,11": "1",
                    "12,10": "1",
                    "12,9": "1",
                    "13,10": "1",
                    "7,3": "1",
                    "6,9": "1",
                    "13,4": "1",
                    "0,7": "1",
                    "1,6": "1",
                    "3,7": "1",
                    "2,5": "1",
                    "8,5": "1",
                    "4,0": "1",
                    "10,8": "1",
                    "6,7": "1",
                    "5,5": "1",
                    "11,5": "1",
                    "10,7": "1",
                    "6,10": "1",
                    "13,7": "1",
                    "3,2": "1",
                    "2,6": "1",
                    "5,11": "1",
                    "4,5": "1",
                    "9,3": "1",
                    "6,0": "1",
                    "3,1": "1",
                    "9,9": "1",
                    "7,8": "1",
                    "2,1": "1",
                    "8,9": "1",
                    "9,4": "1",
                    "5,1": "1",
                    "10,3": "1",
                    "1,5": "1",
                    "2,2": "1",
                    "4,1": "1",
                    "10,9": "1",
                    "6,4": "1",
                    "5,4": "1",
                    "11,4": "1",
                    "6,11": "1",
                    "12,7": "1",
                    "0,5": "1",
                    "0,8": "1",
                    "3,5": "1",
                    "2,7": "1",
                    "5,10": "1",
                    "4,6": "1",
                    "6,1": "1",
                    "5,7": "1",
                    "11,3": "1",
                    "7,4": "1",
                    "12,4": "1",
                    "4,8": "1",
                    "3,0": "1",
                    "2,8": "1",
                    "9,8": "1",
                    "8,0": "1",
                    "6,2": "1",
                    "5,0": "1",
                    "12,3": "1",
                    "1,4": "1",
                    "4,2": "1",
                    "9,6": "1",
                    "5,3": "1",
                    "11,7": "1",
                    "10,5": "1",
                    "7,0": "1",
                    "6,8": "1",
                    "13,5": "1",
                    "0,6": "1",
                    "1,7": "1",
                    "0,9": "1",
                    "2,4": "1",
                    "8,4": "1",
                    "4,7": "1",
                    "5,6": "1",
                    "10,6": "1",
                    "12,5": "1",
                    "3,3": "1",
                    "7,10": "1",
                    "7,9": "1",
                    "3,8": "1",
                    "1,8": "1",
                    "9,5": "1",
                    "5,2": "1",
                    "11,6": "1",
                    "10,2": "1"
                },
                "sprite_grid": {
                    "14,5": [
                        "SacredStonesBase",
                        [
                            4,
                            21
                        ]
                    ],
                    "14,7": [
                        "SacredStonesBase",
                        [
                            4,
                            21
                        ]
                    ],
                    "14,4": [
                        "SacredStonesBase",
                        [
                            0,
                            20
                        ]
                    ],
                    "14,6": [
                        "SacredStonesBase",
                        [
                            2,
                            20
                        ]
                    ],
                    "15,9": [
                        "SacredStonesBase",
                        [
                            2,
                            20
                        ]
                    ],
                    "0,4": [
                        "SacredStonesBase",
                        [
                            5,
                            21
                        ]
                    ],
                    "1,3": [
                        "SacredStonesBase",
                        [
                            1,
                            25
                        ]
                    ],
                    "2,3": [
                        "SacredStonesBase",
                        [
                            0,
                            21
                        ]
                    ],
                    "3,4": [
                        "SacredStonesBase",
                        [
                            3,
                            24
                        ]
                    ],
                    "4,4": [
                        "SacredStonesBase",
                        [
                            4,
                            21
                        ]
                    ],
                    "6,3": [
                        "SacredStonesBase",
                        [
                            5,
                            21
                        ]
                    ],
                    "7,2": [
                        "SacredStonesBase",
                        [
                            4,
                            24
                        ]
                    ],
                    "8,2": [
                        "SacredStonesBase",
                        [
                            5,
                            24
                        ]
                    ],
                    "9,2": [
                        "SacredStonesBase",
                        [
                            5,
                            21
                        ]
                    ],
                    "11,2": [
                        "SacredStonesBase",
                        [
                            2,
                            23
                        ]
                    ],
                    "12,2": [
                        "SacredStonesBase",
                        [
                            0,
                            25
                        ]
                    ],
                    "13,3": [
                        "SacredStonesBase",
                        [
                            3,
                            24
                        ]
                    ],
                    "14,3": [
                        "SacredStonesBase",
                        [
                            0,
                            21
                        ]
                    ],
                    "15,8": [
                        "SacredStonesBase",
                        [
                            0,
                            21
                        ]
                    ],
                    "14,9": [
                        "SacredStonesBase",
                        [
                            3,
                            20
                        ]
                    ],
                    "13,8": [
                        "SacredStonesBase",
                        [
                            5,
                            20
                        ]
                    ],
                    "12,8": [
                        "SacredStonesBase",
                        [
                            2,
                            20
                        ]
                    ],
                    "11,9": [
                        "SacredStonesBase",
                        [
                            4,
                            20
                        ]
                    ],
                    "10,10": [
                        "SacredStonesBase",
                        [
                            0,
                            20
                        ]
                    ],
                    "9,10": [
                        "SacredStonesBase",
                        [
                            1,
                            20
                        ]
                    ],
                    "8,10": [
                        "SacredStonesBase",
                        [
                            4,
                            20
                        ]
                    ],
                    "7,11": [
                        "SacredStonesBase",
                        [
                            4,
                            20
                        ]
                    ],
                    "15,2": [
                        "mountains",
                        [
                            2,
                            6
                        ]
                    ],
                    "14,0": [
                        "mountains",
                        [
                            1,
                            4
                        ]
                    ],
                    "14,1": [
                        "mountains",
                        [
                            1,
                            5
                        ]
                    ],
                    "14,2": [
                        "SacredStonesBase",
                        [
                            12,
                            21
                        ]
                    ],
                    "16,2": [
                        "mountains",
                        [
                            3,
                            6
                        ]
                    ],
                    "15,1": [
                        "mountains",
                        [
                            2,
                            5
                        ]
                    ],
                    "16,0": [
                        "mountains",
                        [
                            3,
                            4
                        ]
                    ],
                    "15,0": [
                        "mountains",
                        [
                            2,
                            4
                        ]
                    ],
                    "16,1": [
                        "mountains",
                        [
                            3,
                            5
                        ]
                    ],
                    "3,9": [
                        "SacredStonesBase",
                        [
                            23,
                            16
                        ]
                    ],
                    "4,10": [
                        "SacredStonesBase",
                        [
                            23,
                            16
                        ]
                    ],
                    "4,11": [
                        "SacredStonesBase",
                        [
                            29,
                            18
                        ]
                    ],
                    "2,9": [
                        "SacredStonesBase",
                        [
                            19,
                            16
                        ]
                    ],
                    "1,9": [
                        "SacredStonesBase",
                        [
                            23,
                            19
                        ]
                    ],
                    "0,10": [
                        "SacredStonesBase",
                        [
                            27,
                            18
                        ]
                    ],
                    "1,10": [
                        "SacredStonesBase",
                        [
                            30,
                            18
                        ]
                    ],
                    "2,10": [
                        "SacredStonesBase",
                        [
                            30,
                            18
                        ]
                    ],
                    "3,10": [
                        "SacredStonesBase",
                        [
                            30,
                            18
                        ]
                    ],
                    "3,11": [
                        "SacredStonesBase",
                        [
                            30,
                            18
                        ]
                    ],
                    "2,11": [
                        "SacredStonesBase",
                        [
                            30,
                            18
                        ]
                    ],
                    "1,11": [
                        "SacredStonesBase",
                        [
                            30,
                            18
                        ]
                    ],
                    "0,11": [
                        "SacredStonesBase",
                        [
                            30,
                            18
                        ]
                    ],
                    "7,6": [
                        "SacredStonesBase",
                        [
                            17,
                            22
                        ]
                    ],
                    "8,7": [
                        "SacredStonesBase",
                        [
                            17,
                            23
                        ]
                    ],
                    "10,4": [
                        "SacredStonesBase",
                        [
                            14,
                            24
                        ]
                    ],
                    "7,5": [
                        "SacredStonesBase",
                        [
                            17,
                            24
                        ]
                    ],
                    "6,5": [
                        "SacredStonesBase",
                        [
                            16,
                            24
                        ]
                    ],
                    "8,6": [
                        "SacredStonesBase",
                        [
                            17,
                            25
                        ]
                    ],
                    "7,7": [
                        "SacredStonesBase",
                        [
                            16,
                            26
                        ]
                    ],
                    "8,8": [
                        "SacredStonesBase",
                        [
                            16,
                            22
                        ]
                    ],
                    "6,6": [
                        "SacredStonesBase",
                        [
                            14,
                            24
                        ]
                    ],
                    "9,7": [
                        "SacredStonesBase",
                        [
                            14,
                            24
                        ]
                    ],
                    "0,7": [
                        "SacredStonesBase",
                        [
                            6,
                            0
                        ]
                    ],
                    "0,6": [
                        "SacredStonesBase",
                        [
                            6,
                            0
                        ]
                    ],
                    "1,6": [
                        "SacredStonesBase",
                        [
                            6,
                            1
                        ]
                    ],
                    "2,7": [
                        "SacredStonesBase",
                        [
                            6,
                            0
                        ]
                    ],
                    "3,7": [
                        "SacredStonesBase",
                        [
                            7,
                            2
                        ]
                    ],
                    "3,8": [
                        "SacredStonesBase",
                        [
                            15,
                            4
                        ]
                    ],
                    "5,0": [
                        "SacredStonesBase",
                        [
                            6,
                            1
                        ]
                    ],
                    "5,1": [
                        "SacredStonesBase",
                        [
                            7,
                            5
                        ]
                    ],
                    "4,1": [
                        "SacredStonesBase",
                        [
                            6,
                            1
                        ]
                    ],
                    "3,1": [
                        "SacredStonesBase",
                        [
                            6,
                            0
                        ]
                    ],
                    "6,0": [
                        "SacredStonesBase",
                        [
                            6,
                            0
                        ]
                    ],
                    "11,0": [
                        "SacredStonesBase",
                        [
                            6,
                            0
                        ]
                    ],
                    "10,0": [
                        "SacredStonesBase",
                        [
                            6,
                            1
                        ]
                    ],
                    "9,0": [
                        "SacredStonesBase",
                        [
                            6,
                            0
                        ]
                    ],
                    "12,10": [
                        "SacredStonesBase",
                        [
                            6,
                            2
                        ]
                    ],
                    "12,11": [
                        "SacredStonesBase",
                        [
                            6,
                            0
                        ]
                    ],
                    "11,11": [
                        "SacredStonesBase",
                        [
                            18,
                            2
                        ]
                    ],
                    "13,10": [
                        "SacredStonesBase",
                        [
                            18,
                            2
                        ]
                    ],
                    "14,10": [
                        "SacredStonesBase",
                        [
                            7,
                            2
                        ]
                    ],
                    "15,11": [
                        "SacredStonesBase",
                        [
                            7,
                            2
                        ]
                    ],
                    "3,2": [
                        "SacredStonesBase",
                        [
                            6,
                            3
                        ]
                    ],
                    "4,2": [
                        "SacredStonesBase",
                        [
                            7,
                            3
                        ]
                    ],
                    "3,0": [
                        "SacredStonesBase",
                        [
                            6,
                            2
                        ]
                    ],
                    "4,0": [
                        "SacredStonesBase",
                        [
                            6,
                            0
                        ]
                    ],
                    "2,1": [
                        "SacredStonesBase",
                        [
                            12,
                            2
                        ]
                    ],
                    "7,0": [
                        "SacredStonesBase",
                        [
                            7,
                            3
                        ]
                    ],
                    "6,1": [
                        "SacredStonesBase",
                        [
                            13,
                            5
                        ]
                    ],
                    "8,0": [
                        "SacredStonesBase",
                        [
                            6,
                            3
                        ]
                    ],
                    "9,1": [
                        "SacredStonesBase",
                        [
                            6,
                            3
                        ]
                    ],
                    "10,1": [
                        "SacredStonesBase",
                        [
                            18,
                            3
                        ]
                    ],
                    "11,1": [
                        "SacredStonesBase",
                        [
                            18,
                            3
                        ]
                    ],
                    "12,0": [
                        "SacredStonesBase",
                        [
                            6,
                            0
                        ]
                    ],
                    "12,1": [
                        "SacredStonesBase",
                        [
                            7,
                            3
                        ]
                    ],
                    "13,0": [
                        "SacredStonesBase",
                        [
                            7,
                            3
                        ]
                    ],
                    "2,8": [
                        "SacredStonesBase",
                        [
                            6,
                            3
                        ]
                    ],
                    "1,8": [
                        "SacredStonesBase",
                        [
                            7,
                            3
                        ]
                    ],
                    "0,9": [
                        "SacredStonesBase",
                        [
                            7,
                            3
                        ]
                    ],
                    "0,8": [
                        "SacredStonesBase",
                        [
                            6,
                            0
                        ]
                    ],
                    "0,5": [
                        "SacredStonesBase",
                        [
                            6,
                            2
                        ]
                    ],
                    "1,5": [
                        "SacredStonesBase",
                        [
                            7,
                            2
                        ]
                    ],
                    "2,6": [
                        "SacredStonesBase",
                        [
                            7,
                            2
                        ]
                    ],
                    "1,7": [
                        "SacredStonesBase",
                        [
                            6,
                            0
                        ]
                    ],
                    "10,11": [
                        "SacredStonesBase",
                        [
                            6,
                            2
                        ]
                    ],
                    "14,11": [
                        "SacredStonesBase",
                        [
                            6,
                            1
                        ]
                    ],
                    "13,11": [
                        "SacredStonesBase",
                        [
                            6,
                            0
                        ]
                    ],
                    "12,6": [
                        "SacredStonesBase",
                        [
                            16,
                            22
                        ]
                    ],
                    "5,8": [
                        "SacredStonesBase",
                        [
                            14,
                            24
                        ]
                    ],
                    "1,4": [
                        "SacredStonesBase",
                        [
                            5,
                            7
                        ]
                    ],
                    "2,4": [
                        "SacredStonesBase",
                        [
                            4,
                            7
                        ]
                    ],
                    "3,6": [
                        "SacredStonesBase",
                        [
                            16,
                            22
                        ]
                    ],
                    "0,0": [
                        "SacredStonesBase",
                        [
                            17,
                            22
                        ]
                    ],
                    "0,1": [
                        "SacredStonesBase",
                        [
                            17,
                            23
                        ]
                    ],
                    "1,0": [
                        "SacredStonesBase",
                        [
                            17,
                            23
                        ]
                    ],
                    "14,8": [
                        "SacredStonesBase",
                        [
                            4,
                            7
                        ]
                    ],
                    "7,3": [
                        "SacredStonesBase",
                        [
                            5,
                            7
                        ]
                    ],
                    "4,9": [
                        "SacredStonesBase",
                        [
                            16,
                            24
                        ]
                    ],
                    "5,9": [
                        "SacredStonesBase",
                        [
                            17,
                            24
                        ]
                    ],
                    "7,1": [
                        "SacredStonesBase",
                        [
                            16,
                            24
                        ]
                    ],
                    "8,1": [
                        "SacredStonesBase",
                        [
                            17,
                            24
                        ]
                    ],
                    "13,2": [
                        "SacredStonesBase",
                        [
                            16,
                            22
                        ]
                    ],
                    "13,1": [
                        "mountains",
                        [
                            0,
                            5
                        ]
                    ],
                    "16,3": [
                        "SacredStonesBase",
                        [
                            13,
                            20
                        ]
                    ],
                    "16,4": [
                        "SacredStonesBase",
                        [
                            3,
                            3
                        ]
                    ],
                    "15,4": [
                        "SacredStonesBase",
                        [
                            2,
                            3
                        ]
                    ],
                    "15,3": [
                        "SacredStonesBase",
                        [
                            12,
                            20
                        ]
                    ],
                    "15,6": [
                        "SacredStonesBase",
                        [
                            14,
                            24
                        ]
                    ],
                    "16,5": [
                        "SacredStonesBase",
                        [
                            16,
                            22
                        ]
                    ],
                    "15,5": [
                        "SacredStonesBase",
                        [
                            2,
                            4
                        ]
                    ],
                    "16,6": [
                        "SacredStonesBase",
                        [
                            3,
                            5
                        ]
                    ],
                    "16,7": [
                        "SacredStonesBase",
                        [
                            5,
                            4
                        ]
                    ],
                    "15,7": [
                        "SacredStonesBase",
                        [
                            4,
                            4
                        ]
                    ],
                    "16,11": [
                        "SacredStonesBase",
                        [
                            4,
                            5
                        ]
                    ],
                    "16,10": [
                        "SacredStonesBase",
                        [
                            4,
                            4
                        ]
                    ],
                    "16,9": [
                        "SacredStonesBase",
                        [
                            2,
                            4
                        ]
                    ],
                    "15,10": [
                        "SacredStonesBase",
                        [
                            1,
                            4
                        ]
                    ],
                    "16,8": [
                        "SacredStonesBase",
                        [
                            16,
                            22
                        ]
                    ],
                    "8,11": [
                        "SacredStonesBase",
                        [
                            14,
                            24
                        ]
                    ],
                    "9,11": [
                        "SacredStonesBase",
                        [
                            2,
                            5
                        ]
                    ],
                    "12,9": [
                        "SacredStonesBase",
                        [
                            2,
                            3
                        ]
                    ],
                    "13,9": [
                        "SacredStonesBase",
                        [
                            3,
                            2
                        ]
                    ],
                    "11,10": [
                        "SacredStonesBase",
                        [
                            5,
                            4
                        ]
                    ],
                    "12,3": [
                        "SacredStonesBase",
                        [
                            4,
                            7
                        ]
                    ],
                    "11,5": [
                        "SacredStonesBase",
                        [
                            7,
                            2
                        ]
                    ],
                    "10,2": [
                        "SacredStonesBase",
                        [
                            2,
                            2
                        ]
                    ],
                    "9,4": [
                        "SacredStonesBase",
                        [
                            2,
                            2
                        ]
                    ],
                    "6,7": [
                        "SacredStonesBase",
                        [
                            2,
                            2
                        ]
                    ],
                    "4,6": [
                        "SacredStonesBase",
                        [
                            2,
                            2
                        ]
                    ],
                    "5,3": [
                        "SacredStonesBase",
                        [
                            2,
                            2
                        ]
                    ],
                    "1,2": [
                        "SacredStonesBase",
                        [
                            16,
                            22
                        ]
                    ],
                    "5,11": [
                        "SacredStonesBase",
                        [
                            14,
                            4
                        ]
                    ],
                    "11,7": [
                        "SacredStonesBase",
                        [
                            2,
                            3
                        ]
                    ],
                    "9,9": [
                        "SacredStonesBase",
                        [
                            2,
                            3
                        ]
                    ],
                    "6,9": [
                        "SacredStonesBase",
                        [
                            6,
                            2
                        ]
                    ],
                    "5,7": [
                        "SacredStonesBase",
                        [
                            2,
                            3
                        ]
                    ],
                    "5,4": [
                        "SacredStonesBase",
                        [
                            2,
                            3
                        ]
                    ],
                    "5,2": [
                        "SacredStonesBase",
                        [
                            2,
                            3
                        ]
                    ],
                    "0,2": [
                        "SacredStonesBase",
                        [
                            17,
                            25
                        ]
                    ],
                    "2,0": [
                        "SacredStonesBase",
                        [
                            17,
                            23
                        ]
                    ],
                    "13,4": [
                        "SacredStonesBase",
                        [
                            2,
                            4
                        ]
                    ],
                    "13,7": [
                        "SacredStonesBase",
                        [
                            2,
                            4
                        ]
                    ],
                    "10,6": [
                        "SacredStonesBase",
                        [
                            6,
                            3
                        ]
                    ],
                    "7,4": [
                        "SacredStonesBase",
                        [
                            2,
                            4
                        ]
                    ],
                    "6,2": [
                        "SacredStonesBase",
                        [
                            2,
                            4
                        ]
                    ],
                    "0,3": [
                        "SacredStonesBase",
                        [
                            16,
                            22
                        ]
                    ],
                    "7,10": [
                        "SacredStonesBase",
                        [
                            7,
                            3
                        ]
                    ],
                    "5,5": [
                        "SacredStonesBase",
                        [
                            2,
                            4
                        ]
                    ],
                    "2,5": [
                        "SacredStonesBase",
                        [
                            2,
                            4
                        ]
                    ],
                    "10,7": [
                        "SacredStonesBase",
                        [
                            2,
                            5
                        ]
                    ],
                    "9,5": [
                        "SacredStonesBase",
                        [
                            2,
                            5
                        ]
                    ],
                    "11,3": [
                        "SacredStonesBase",
                        [
                            2,
                            5
                        ]
                    ],
                    "6,4": [
                        "SacredStonesBase",
                        [
                            2,
                            5
                        ]
                    ],
                    "1,1": [
                        "SacredStonesBase",
                        [
                            17,
                            25
                        ]
                    ],
                    "6,11": [
                        "SacredStonesBase",
                        [
                            15,
                            4
                        ]
                    ],
                    "4,7": [
                        "SacredStonesBase",
                        [
                            2,
                            5
                        ]
                    ],
                    "10,9": [
                        "SacredStonesBase",
                        [
                            2,
                            5
                        ]
                    ],
                    "12,5": [
                        "SacredStonesBase",
                        [
                            3,
                            2
                        ]
                    ],
                    "10,8": [
                        "SacredStonesBase",
                        [
                            3,
                            2
                        ]
                    ],
                    "8,4": [
                        "SacredStonesBase",
                        [
                            3,
                            2
                        ]
                    ],
                    "10,3": [
                        "SacredStonesBase",
                        [
                            3,
                            2
                        ]
                    ],
                    "4,5": [
                        "SacredStonesBase",
                        [
                            3,
                            2
                        ]
                    ],
                    "2,2": [
                        "SacredStonesBase",
                        [
                            3,
                            2
                        ]
                    ],
                    "6,10": [
                        "SacredStonesBase",
                        [
                            6,
                            1
                        ]
                    ],
                    "8,9": [
                        "SacredStonesBase",
                        [
                            3,
                            3
                        ]
                    ],
                    "5,6": [
                        "SacredStonesBase",
                        [
                            3,
                            3
                        ]
                    ],
                    "9,3": [
                        "SacredStonesBase",
                        [
                            3,
                            3
                        ]
                    ],
                    "3,3": [
                        "SacredStonesBase",
                        [
                            3,
                            3
                        ]
                    ],
                    "7,8": [
                        "SacredStonesBase",
                        [
                            3,
                            3
                        ]
                    ],
                    "13,5": [
                        "SacredStonesBase",
                        [
                            3,
                            3
                        ]
                    ],
                    "9,6": [
                        "SacredStonesBase",
                        [
                            3,
                            3
                        ]
                    ],
                    "12,4": [
                        "SacredStonesBase",
                        [
                            3,
                            4
                        ]
                    ],
                    "9,8": [
                        "SacredStonesBase",
                        [
                            3,
                            4
                        ]
                    ],
                    "8,3": [
                        "SacredStonesBase",
                        [
                            16,
                            22
                        ]
                    ],
                    "3,5": [
                        "SacredStonesBase",
                        [
                            3,
                            4
                        ]
                    ],
                    "5,10": [
                        "SacredStonesBase",
                        [
                            6,
                            2
                        ]
                    ],
                    "7,9": [
                        "SacredStonesBase",
                        [
                            7,
                            2
                        ]
                    ],
                    "11,6": [
                        "SacredStonesBase",
                        [
                            7,
                            3
                        ]
                    ],
                    "8,5": [
                        "SacredStonesBase",
                        [
                            3,
                            5
                        ]
                    ],
                    "4,3": [
                        "SacredStonesBase",
                        [
                            16,
                            22
                        ]
                    ],
                    "6,8": [
                        "SacredStonesBase",
                        [
                            3,
                            5
                        ]
                    ],
                    "11,8": [
                        "SacredStonesBase",
                        [
                            14,
                            24
                        ]
                    ],
                    "12,7": [
                        "SacredStonesBase",
                        [
                            4,
                            4
                        ]
                    ],
                    "10,5": [
                        "SacredStonesBase",
                        [
                            6,
                            2
                        ]
                    ],
                    "11,4": [
                        "SacredStonesBase",
                        [
                            4,
                            5
                        ]
                    ],
                    "4,8": [
                        "SacredStonesBase",
                        [
                            4,
                            5
                        ]
                    ],
                    "13,6": [
                        "SacredStonesBase",
                        [
                            14,
                            24
                        ]
                    ]
                }
            },
            {
                "nid": "trap",
                "visible": false,
                "foreground": false,
                "terrain_grid": {
                    "10,10": "1"
                },
                "sprite_grid": {
                    "10,10": [
                        "SacredStonesBase",
                        [
                            2,
                            2
                        ]
                    ]
                }
            }
        ],
        "tilesets": [
            "SacredStonesBase",
            "mountains"
        ]
    }
]