[
    {
        "nid": "Event_Selection_3",
        "size": [
            15,
            10
        ],
        "autotile_fps": 29,
        "layers": [
            {
                "nid": "base",
                "visible": true,
                "foreground": false,
                "terrain_grid": {
                    "0,4": "Impassable",
                    "0,3": "Impassable",
                    "1,3": "Impassable",
                    "1,2": "Impassable",
                    "2,2": "Impassable",
                    "2,1": "Impassable",
                    "2,0": "Impassable",
                    "1,0": "Impassable",
                    "0,0": "Impassable",
                    "3,0": "Impassable",
                    "4,0": "Impassable",
                    "10,0": "Impassable",
                    "11,1": "Impassable",
                    "12,1": "Impassable",
                    "13,1": "Impassable",
                    "14,2": "Impassable",
                    "0,8": "Village Ruins",
                    "0,7": "Village Ruins",
                    "1,7": "Village Ruins",
                    "1,6": "Village Ruins",
                    "2,6": "Village Ruins",
                    "0,6": "Village Ruins",
                    "2,7": "Village Ruins",
                    "2,8": "Village Ruins",
                    "4,2": "2",
                    "2,3": "2",
                    "5,0": "2",
                    "6,0": "2",
                    "7,0": "2",
                    "8,0": "2",
                    "9,0": "2",
                    "8,1": "2",
                    "7,1": "2",
                    "6,1": "2",
                    "13,0": "2",
                    "14,0": "2",
                    "11,2": "2",
                    "13,3": "2",
                    "10,6": "2",
                    "10,9": "2",
                    "8,8": "2",
                    "4,8": "2",
                    "3,5": "2",
                    "12,5": "Grave",
                    "12,7": "Grave",
                    "12,9": "Grave",
                    "14,9": "Grave",
                    "14,7": "Grave",
                    "14,5": "Grave",
                    "7,3": "1",
                    "6,9": "1",
                    "14,4": "1",
                    "13,4": "1",
                    "3,7": "1",
                    "2,5": "1",
                    "8,5": "1",
                    "5,8": "1",
                    "10,8": "1",
                    "6,7": "1",
                    "5,5": "1",
                    "11,5": "1",
                    "10,7": "1",
                    "7,6": "1",
                    "12,6": "1",
                    "13,7": "1",
                    "3,2": "1",
                    "8,2": "1",
                    "4,5": "1",
                    "9,3": "1",
                    "7,5": "1",
                    "3,1": "1",
                    "9,9": "1",
                    "7,8": "1",
                    "14,8": "1",
                    "12,8": "1",
                    "8,9": "1",
                    "9,4": "1",
                    "5,1": "1",
                    "10,3": "1",
                    "7,2": "1",
                    "12,2": "1",
                    "1,5": "1",
                    "3,6": "1",
                    "8,6": "1",
                    "4,1": "1",
                    "9,7": "1",
                    "6,4": "1",
                    "5,4": "1",
                    "11,4": "1",
                    "10,4": "1",
                    "11,9": "1",
                    "14,6": "1",
                    "13,6": "1",
                    "0,5": "1",
                    "8,3": "1",
                    "4,6": "1",
                    "9,2": "1",
                    "5,7": "1",
                    "11,3": "1",
                    "7,4": "1",
                    "12,4": "1",
                    "14,3": "1",
                    "13,9": "1",
                    "9,8": "1",
                    "6,2": "1",
                    "12,3": "1",
                    "13,2": "1",
                    "1,4": "1",
                    "3,9": "1",
                    "1,9": "1",
                    "8,7": "1",
                    "9,6": "1",
                    "6,5": "1",
                    "5,3": "1",
                    "11,7": "1",
                    "10,5": "1",
                    "6,8": "1",
                    "11,8": "1",
                    "13,5": "1",
                    "0,9": "1",
                    "3,4": "1",
                    "2,4": "1",
                    "8,4": "1",
                    "5,9": "1",
                    "4,7": "1",
                    "9,1": "1",
                    "6,6": "1",
                    "5,6": "1",
                    "7,7": "1",
                    "13,8": "1",
                    "4,9": "1",
                    "3,3": "1",
                    "2,9": "1",
                    "4,4": "1",
                    "6,3": "1",
                    "10,1": "1",
                    "7,9": "1",
                    "3,8": "1",
                    "1,8": "1",
                    "4,3": "1",
                    "9,5": "1",
                    "5,2": "1",
                    "11,6": "1",
                    "10,2": "1",
                    "11,0": "1",
                    "12,0": "1",
                    "14,1": "1",
                    "0,1": "1",
                    "1,1": "1",
                    "0,2": "1"
                },
                "sprite_grid": {
                    "7,3": [
                        "act_3",
                        [
                            7,
                            3
                        ]
                    ],
                    "6,9": [
                        "act_3",
                        [
                            6,
                            9
                        ]
                    ],
                    "12,1": [
                        "act_3",
                        [
                            12,
                            1
                        ]
                    ],
                    "14,4": [
                        "act_3",
                        [
                            14,
                            4
                        ]
                    ],
                    "13,4": [
                        "act_3",
                        [
                            13,
                            4
                        ]
                    ],
                    "0,7": [
                        "act_3",
                        [
                            0,
                            7
                        ]
                    ],
                    "1,6": [
                        "act_3",
                        [
                            1,
                            6
                        ]
                    ],
                    "3,7": [
                        "act_3",
                        [
                            3,
                            7
                        ]
                    ],
                    "2,5": [
                        "act_3",
                        [
                            2,
                            5
                        ]
                    ],
                    "8,5": [
                        "act_3",
                        [
                            8,
                            5
                        ]
                    ],
                    "5,8": [
                        "act_3",
                        [
                            5,
                            8
                        ]
                    ],
                    "4,0": [
                        "act_3",
                        [
                            4,
                            0
                        ]
                    ],
                    "10,8": [
                        "act_3",
                        [
                            10,
                            8
                        ]
                    ],
                    "9,0": [
                        "act_3",
                        [
                            9,
                            0
                        ]
                    ],
                    "6,7": [
                        "act_3",
                        [
                            6,
                            7
                        ]
                    ],
                    "5,5": [
                        "act_3",
                        [
                            5,
                            5
                        ]
                    ],
                    "11,5": [
                        "act_3",
                        [
                            11,
                            5
                        ]
                    ],
                    "10,7": [
                        "act_3",
                        [
                            10,
                            7
                        ]
                    ],
                    "7,6": [
                        "act_3",
                        [
                            7,
                            6
                        ]
                    ],
                    "12,6": [
                        "act_3",
                        [
                            12,
                            6
                        ]
                    ],
                    "14,1": [
                        "act_3",
                        [
                            14,
                            1
                        ]
                    ],
                    "13,7": [
                        "act_3",
                        [
                            13,
                            7
                        ]
                    ],
                    "0,4": [
                        "act_3",
                        [
                            0,
                            4
                        ]
                    ],
                    "1,1": [
                        "act_3",
                        [
                            1,
                            1
                        ]
                    ],
                    "3,2": [
                        "act_3",
                        [
                            3,
                            2
                        ]
                    ],
                    "2,6": [
                        "act_3",
                        [
                            2,
                            6
                        ]
                    ],
                    "8,2": [
                        "act_3",
                        [
                            8,
                            2
                        ]
                    ],
                    "4,5": [
                        "act_3",
                        [
                            4,
                            5
                        ]
                    ],
                    "9,3": [
                        "act_3",
                        [
                            9,
                            3
                        ]
                    ],
                    "6,0": [
                        "act_3",
                        [
                            6,
                            0
                        ]
                    ],
                    "11,0": [
                        "act_3",
                        [
                            11,
                            0
                        ]
                    ],
                    "7,5": [
                        "act_3",
                        [
                            7,
                            5
                        ]
                    ],
                    "14,2": [
                        "act_3",
                        [
                            14,
                            2
                        ]
                    ],
                    "0,1": [
                        "act_3",
                        [
                            0,
                            1
                        ]
                    ],
                    "3,1": [
                        "act_3",
                        [
                            3,
                            1
                        ]
                    ],
                    "9,9": [
                        "act_3",
                        [
                            9,
                            9
                        ]
                    ],
                    "7,8": [
                        "act_3",
                        [
                            7,
                            8
                        ]
                    ],
                    "14,8": [
                        "act_3",
                        [
                            14,
                            8
                        ]
                    ],
                    "13,0": [
                        "act_3",
                        [
                            13,
                            0
                        ]
                    ],
                    "12,8": [
                        "act_3",
                        [
                            12,
                            8
                        ]
                    ],
                    "2,1": [
                        "act_3",
                        [
                            2,
                            1
                        ]
                    ],
                    "8,9": [
                        "act_3",
                        [
                            8,
                            9
                        ]
                    ],
                    "9,4": [
                        "act_3",
                        [
                            9,
                            4
                        ]
                    ],
                    "5,1": [
                        "act_3",
                        [
                            5,
                            1
                        ]
                    ],
                    "10,3": [
                        "act_3",
                        [
                            10,
                            3
                        ]
                    ],
                    "7,2": [
                        "act_3",
                        [
                            7,
                            2
                        ]
                    ],
                    "12,2": [
                        "act_3",
                        [
                            12,
                            2
                        ]
                    ],
                    "14,5": [
                        "act_3",
                        [
                            14,
                            5
                        ]
                    ],
                    "13,3": [
                        "act_3",
                        [
                            13,
                            3
                        ]
                    ],
                    "1,5": [
                        "act_3",
                        [
                            1,
                            5
                        ]
                    ],
                    "3,6": [
                        "act_3",
                        [
                            3,
                            6
                        ]
                    ],
                    "2,2": [
                        "act_3",
                        [
                            2,
                            2
                        ]
                    ],
                    "8,6": [
                        "act_3",
                        [
                            8,
                            6
                        ]
                    ],
                    "4,1": [
                        "act_3",
                        [
                            4,
                            1
                        ]
                    ],
                    "10,9": [
                        "act_3",
                        [
                            10,
                            9
                        ]
                    ],
                    "9,7": [
                        "act_3",
                        [
                            9,
                            7
                        ]
                    ],
                    "6,4": [
                        "act_3",
                        [
                            6,
                            4
                        ]
                    ],
                    "5,4": [
                        "act_3",
                        [
                            5,
                            4
                        ]
                    ],
                    "11,4": [
                        "act_3",
                        [
                            11,
                            4
                        ]
                    ],
                    "10,4": [
                        "act_3",
                        [
                            10,
                            4
                        ]
                    ],
                    "7,1": [
                        "act_3",
                        [
                            7,
                            1
                        ]
                    ],
                    "12,7": [
                        "act_3",
                        [
                            12,
                            7
                        ]
                    ],
                    "11,9": [
                        "act_3",
                        [
                            11,
                            9
                        ]
                    ],
                    "14,6": [
                        "act_3",
                        [
                            14,
                            6
                        ]
                    ],
                    "13,6": [
                        "act_3",
                        [
                            13,
                            6
                        ]
                    ],
                    "0,5": [
                        "act_3",
                        [
                            0,
                            5
                        ]
                    ],
                    "1,0": [
                        "act_3",
                        [
                            1,
                            0
                        ]
                    ],
                    "0,8": [
                        "act_3",
                        [
                            0,
                            8
                        ]
                    ],
                    "3,5": [
                        "act_3",
                        [
                            3,
                            5
                        ]
                    ],
                    "2,7": [
                        "act_3",
                        [
                            2,
                            7
                        ]
                    ],
                    "8,3": [
                        "act_3",
                        [
                            8,
                            3
                        ]
                    ],
                    "4,6": [
                        "act_3",
                        [
                            4,
                            6
                        ]
                    ],
                    "9,2": [
                        "act_3",
                        [
                            9,
                            2
                        ]
                    ],
                    "6,1": [
                        "act_3",
                        [
                            6,
                            1
                        ]
                    ],
                    "5,7": [
                        "act_3",
                        [
                            5,
                            7
                        ]
                    ],
                    "11,3": [
                        "act_3",
                        [
                            11,
                            3
                        ]
                    ],
                    "7,4": [
                        "act_3",
                        [
                            7,
                            4
                        ]
                    ],
                    "12,4": [
                        "act_3",
                        [
                            12,
                            4
                        ]
                    ],
                    "14,3": [
                        "act_3",
                        [
                            14,
                            3
                        ]
                    ],
                    "13,9": [
                        "act_3",
                        [
                            13,
                            9
                        ]
                    ],
                    "0,2": [
                        "act_3",
                        [
                            0,
                            2
                        ]
                    ],
                    "1,3": [
                        "act_3",
                        [
                            1,
                            3
                        ]
                    ],
                    "4,8": [
                        "act_3",
                        [
                            4,
                            8
                        ]
                    ],
                    "3,0": [
                        "act_3",
                        [
                            3,
                            0
                        ]
                    ],
                    "2,8": [
                        "act_3",
                        [
                            2,
                            8
                        ]
                    ],
                    "9,8": [
                        "act_3",
                        [
                            9,
                            8
                        ]
                    ],
                    "8,0": [
                        "act_3",
                        [
                            8,
                            0
                        ]
                    ],
                    "6,2": [
                        "act_3",
                        [
                            6,
                            2
                        ]
                    ],
                    "14,9": [
                        "act_3",
                        [
                            14,
                            9
                        ]
                    ],
                    "12,9": [
                        "act_3",
                        [
                            12,
                            9
                        ]
                    ],
                    "5,0": [
                        "act_3",
                        [
                            5,
                            0
                        ]
                    ],
                    "10,0": [
                        "act_3",
                        [
                            10,
                            0
                        ]
                    ],
                    "12,3": [
                        "act_3",
                        [
                            12,
                            3
                        ]
                    ],
                    "13,2": [
                        "act_3",
                        [
                            13,
                            2
                        ]
                    ],
                    "1,4": [
                        "act_3",
                        [
                            1,
                            4
                        ]
                    ],
                    "3,9": [
                        "act_3",
                        [
                            3,
                            9
                        ]
                    ],
                    "2,3": [
                        "act_3",
                        [
                            2,
                            3
                        ]
                    ],
                    "1,9": [
                        "act_3",
                        [
                            1,
                            9
                        ]
                    ],
                    "8,7": [
                        "act_3",
                        [
                            8,
                            7
                        ]
                    ],
                    "4,2": [
                        "act_3",
                        [
                            4,
                            2
                        ]
                    ],
                    "9,6": [
                        "act_3",
                        [
                            9,
                            6
                        ]
                    ],
                    "6,5": [
                        "act_3",
                        [
                            6,
                            5
                        ]
                    ],
                    "5,3": [
                        "act_3",
                        [
                            5,
                            3
                        ]
                    ],
                    "11,7": [
                        "act_3",
                        [
                            11,
                            7
                        ]
                    ],
                    "10,5": [
                        "act_3",
                        [
                            10,
                            5
                        ]
                    ],
                    "7,0": [
                        "act_3",
                        [
                            7,
                            0
                        ]
                    ],
                    "6,8": [
                        "act_3",
                        [
                            6,
                            8
                        ]
                    ],
                    "12,0": [
                        "act_3",
                        [
                            12,
                            0
                        ]
                    ],
                    "11,8": [
                        "act_3",
                        [
                            11,
                            8
                        ]
                    ],
                    "14,7": [
                        "act_3",
                        [
                            14,
                            7
                        ]
                    ],
                    "13,5": [
                        "act_3",
                        [
                            13,
                            5
                        ]
                    ],
                    "0,6": [
                        "act_3",
                        [
                            0,
                            6
                        ]
                    ],
                    "1,7": [
                        "act_3",
                        [
                            1,
                            7
                        ]
                    ],
                    "0,9": [
                        "act_3",
                        [
                            0,
                            9
                        ]
                    ],
                    "3,4": [
                        "act_3",
                        [
                            3,
                            4
                        ]
                    ],
                    "2,4": [
                        "act_3",
                        [
                            2,
                            4
                        ]
                    ],
                    "8,4": [
                        "act_3",
                        [
                            8,
                            4
                        ]
                    ],
                    "5,9": [
                        "act_3",
                        [
                            5,
                            9
                        ]
                    ],
                    "4,7": [
                        "act_3",
                        [
                            4,
                            7
                        ]
                    ],
                    "9,1": [
                        "act_3",
                        [
                            9,
                            1
                        ]
                    ],
                    "6,6": [
                        "act_3",
                        [
                            6,
                            6
                        ]
                    ],
                    "5,6": [
                        "act_3",
                        [
                            5,
                            6
                        ]
                    ],
                    "11,2": [
                        "act_3",
                        [
                            11,
                            2
                        ]
                    ],
                    "10,6": [
                        "act_3",
                        [
                            10,
                            6
                        ]
                    ],
                    "7,7": [
                        "act_3",
                        [
                            7,
                            7
                        ]
                    ],
                    "12,5": [
                        "act_3",
                        [
                            12,
                            5
                        ]
                    ],
                    "14,0": [
                        "act_3",
                        [
                            14,
                            0
                        ]
                    ],
                    "13,8": [
                        "act_3",
                        [
                            13,
                            8
                        ]
                    ],
                    "0,3": [
                        "act_3",
                        [
                            0,
                            3
                        ]
                    ],
                    "1,2": [
                        "act_3",
                        [
                            1,
                            2
                        ]
                    ],
                    "4,9": [
                        "act_3",
                        [
                            4,
                            9
                        ]
                    ],
                    "3,3": [
                        "act_3",
                        [
                            3,
                            3
                        ]
                    ],
                    "2,9": [
                        "act_3",
                        [
                            2,
                            9
                        ]
                    ],
                    "8,1": [
                        "act_3",
                        [
                            8,
                            1
                        ]
                    ],
                    "4,4": [
                        "act_3",
                        [
                            4,
                            4
                        ]
                    ],
                    "6,3": [
                        "act_3",
                        [
                            6,
                            3
                        ]
                    ],
                    "11,1": [
                        "act_3",
                        [
                            11,
                            1
                        ]
                    ],
                    "0,0": [
                        "act_3",
                        [
                            0,
                            0
                        ]
                    ],
                    "10,1": [
                        "act_3",
                        [
                            10,
                            1
                        ]
                    ],
                    "7,9": [
                        "act_3",
                        [
                            7,
                            9
                        ]
                    ],
                    "13,1": [
                        "act_3",
                        [
                            13,
                            1
                        ]
                    ],
                    "3,8": [
                        "act_3",
                        [
                            3,
                            8
                        ]
                    ],
                    "2,0": [
                        "act_3",
                        [
                            2,
                            0
                        ]
                    ],
                    "1,8": [
                        "act_3",
                        [
                            1,
                            8
                        ]
                    ],
                    "8,8": [
                        "act_3",
                        [
                            8,
                            8
                        ]
                    ],
                    "4,3": [
                        "act_3",
                        [
                            4,
                            3
                        ]
                    ],
                    "9,5": [
                        "act_3",
                        [
                            9,
                            5
                        ]
                    ],
                    "5,2": [
                        "act_3",
                        [
                            5,
                            2
                        ]
                    ],
                    "11,6": [
                        "act_3",
                        [
                            11,
                            6
                        ]
                    ],
                    "10,2": [
                        "act_3",
                        [
                            10,
                            2
                        ]
                    ]
                }
            },
            {
                "nid": "bridge",
                "visible": false,
                "foreground": false,
                "terrain_grid": {
                    "2,1": "1"
                },
                "sprite_grid": {
                    "2,1": [
                        "FE6 Snow Fields Update 2",
                        [
                            2,
                            0
                        ]
                    ]
                }
            },
            {
                "nid": "path",
                "visible": false,
                "foreground": false,
                "terrain_grid": {
                    "7,0": "1",
                    "7,1": "1"
                },
                "sprite_grid": {
                    "7,1": [
                        "FE6 Snow Fields Update 2",
                        [
                            9,
                            11
                        ]
                    ],
                    "7,0": [
                        "FE6 Snow Fields Update 2",
                        [
                            12,
                            12
                        ]
                    ]
                }
            }
        ],
        "tilesets": [
            "act_3",
            "Overworld Snow",
            "FE6 Snow Fields Update 2"
        ]
    }
]